<?xml version="1.0" encoding="UTF-8" standalone="no"?>
<svg width="48" height="48" id="svg2" version="1.0">

<rect id="rect2234"
style="fill:#77cc33;stroke:none;fill-rule:none;clip-rule:nonzero;stroke-miterlimit:4;fill-opacity:1;"
width="41.2" height="29.4" x="3.6" y="8.5"
/>

<path id="rect3726"
style="fill:#555555;stroke:none;fill-rule:none;clip-rule:nonzero;stroke-miterlimit:4;fill-opacity:1;"
d="M 4,13.1 L 44.6,13.1 C 44.5,11.8 44.5,10.4 44.5,9 L 4,9 C 3.7,10.3 4,12.4 4,13.1 z M 36.3,38 L 44.7,37.8 L 44.9,29.4 L 36.3,38 z M 11.8,38.3 L 3.3,38.2 L 3.2,29.8 L 11.8,38.34767 z"
/>

<rect id="rect3651"
style="fill:none;stroke:#000000;fill-rule:none;clip-rule:nonzero;stroke-miterlimit:4;fill-opacity:1;"
width="41.2" height="29.4" x="3.6" y="8.5"
/>

</svg>

