/* XPM */
static char * menuiconufcs_xpm[] = {
"20 20 110 2",
"  	c None",
". 	c #7C7C7C",
"+ 	c #7C7C7D",
"@ 	c #7D7D7C",
"# 	c #7C7D7C",
"$ 	c #7D7C7C",
"% 	c #757575",
"& 	c #767676",
"* 	c #747575",
"= 	c #757676",
"- 	c #757475",
"; 	c #757574",
"> 	c #6E6E6E",
", 	c #6D6D6D",
"' 	c #666667",
") 	c #676666",
"! 	c #666766",
"~ 	c #676767",
"{ 	c #666666",
"] 	c #666767",
"^ 	c #676766",
"/ 	c #676667",
"( 	c #5E5E5E",
"_ 	c #5F5F5E",
": 	c #5E5F5E",
"< 	c #5F5E5E",
"[ 	c #5E5E5F",
"} 	c #575757",
"| 	c #565757",
"1 	c #CDCDCD",
"2 	c #575756",
"3 	c #575656",
"4 	c #4F4F4F",
"5 	c #4F5050",
"6 	c #4F4F50",
"7 	c #50504F",
"8 	c #4F4E4E",
"9 	c #CBCBCB",
"0 	c #505050",
"a 	c #504F50",
"b 	c #474847",
"c 	c #474748",
"d 	c #484747",
"e 	c #484748",
"f 	c #474747",
"g 	c #474848",
"h 	c #484847",
"i 	c #3F3F3F",
"j 	c #3F3E3F",
"k 	c #3E3F3F",
"l 	c #373737",
"m 	c #373637",
"n 	c #363737",
"o 	c #C5C5C5",
"p 	c #363736",
"q 	c #1A1919",
"r 	c #191A1A",
"s 	c #19191A",
"t 	c #191919",
"u 	c #BDBDBD",
"v 	c #191A19",
"w 	c #1A1A1A",
"x 	c #1A1A19",
"y 	c #181919",
"z 	c #181818",
"A 	c #181819",
"B 	c #191818",
"C 	c #181918",
"D 	c #171717",
"E 	c #171716",
"F 	c #161717",
"G 	c #171617",
"H 	c #171616",
"I 	c #151615",
"J 	c #161615",
"K 	c #161515",
"L 	c #161616",
"M 	c #141415",
"N 	c #141515",
"O 	c #151415",
"P 	c #151414",
"Q 	c #141514",
"R 	c #151514",
"S 	c #141414",
"T 	c #131313",
"U 	c #131314",
"V 	c #141313",
"W 	c #141413",
"X 	c #121212",
"Y 	c #111212",
"Z 	c #121211",
"` 	c #121112",
" .	c #121111",
"..	c #111112",
"+.	c #101011",
"@.	c #111111",
"#.	c #111110",
"$.	c #101111",
"%.	c #101110",
"&.	c #111010",
"*.	c #111011",
"=.	c #101010",
"-.	c #10100F",
";.	c #0F100F",
">.	c #100F0F",
",.	c #100F10",
"'.	c #0F0F0F",
").	c #0F0F10",
"!.	c #0F1010",
"~.	c #0E0E0E",
". + + @ . . + # . . + $ . . # . . . . . ",
"% % & % * & * & = % & % % & & % & - % ; ",
"> , > > > > , > > > , > > > > > > > , > ",
"' ) ! ~ ) { ! ' ] ! { { ^ ] { ) / { ^ { ",
"( ( ( ( ( ( ( ( _ : ( : ( ( ( ( ( : < [ ",
"} } } | } 1 1 1 1 1 1 1 1 1 1 2 | } | 3 ",
"4 5 6 7 8 9 9 9 9 9 9 9 9 9 9 4 0 a 7 6 ",
"b c d e c f f d g e d f f f c f b b d h ",
"i i i i i i i i i i i i j i i i i i k i ",
"l m m m n o o o o o o o o o o l n l l p ",
"q r s t r u u u u u u u u u u v w w x r ",
"y z z z z A A z z A B C t z A z z z z C ",
"D E D D F D D D D D E D D D D G D D D H ",
"I J K L L u u u u u u u u u u L J K J L ",
"M N M O P u u u u u u u u u u Q R S Q S ",
"T T T T T T T T T T U T T T T T T V T W ",
"X Y X Z ` ` Z Z X  . .` ` X X Y ..X X ..",
"+.@.#.#.#.$.%.+.+.$.#.&.*.=.$.&.+.@.*.@.",
"-.;.;.>.,.'.>.>.>.'.).).;.'.'.).;.).!.=.",
"~.~.~.~.~.~.~.~.~.~.~.~.~.~.~.~.~.~.~.~."};
