/* XPM */
static char * minufcs_xpm[] = {
"20 20 115 2",
"  	c None",
". 	c #7C7C7C",
"+ 	c #7C7C7D",
"@ 	c #7D7D7C",
"# 	c #7C7D7C",
"$ 	c #7D7C7C",
"% 	c #757575",
"& 	c #767676",
"* 	c #747575",
"= 	c #757676",
"- 	c #757475",
"; 	c #757574",
"> 	c #6E6E6E",
", 	c #6D6D6D",
"' 	c #666667",
") 	c #676666",
"! 	c #666766",
"~ 	c #676767",
"{ 	c #666666",
"] 	c #666767",
"^ 	c #676766",
"/ 	c #676667",
"( 	c #5E5E5E",
"_ 	c #5F5F5E",
": 	c #5E5F5E",
"< 	c #5F5E5E",
"[ 	c #5E5E5F",
"} 	c #575757",
"| 	c #565757",
"1 	c #565657",
"2 	c #575756",
"3 	c #575656",
"4 	c #4F4F4F",
"5 	c #4F5050",
"6 	c #4F4F50",
"7 	c #50504F",
"8 	c #4F4E4E",
"9 	c #504F4F",
"0 	c #505050",
"a 	c #4F4F4E",
"b 	c #4E4F4E",
"c 	c #504F50",
"d 	c #4E4F4F",
"e 	c #474847",
"f 	c #474748",
"g 	c #484747",
"h 	c #484748",
"i 	c #474747",
"j 	c #474848",
"k 	c #484847",
"l 	c #3F3F3F",
"m 	c #3F3E3F",
"n 	c #3E3F3F",
"o 	c #373737",
"p 	c #373637",
"q 	c #363737",
"r 	c #363637",
"s 	c #373736",
"t 	c #363736",
"u 	c #1A1919",
"v 	c #191A1A",
"w 	c #19191A",
"x 	c #191919",
"y 	c #191A19",
"z 	c #1A191A",
"A 	c #1A1A1A",
"B 	c #1A1A19",
"C 	c #181919",
"D 	c #181818",
"E 	c #181819",
"F 	c #191818",
"G 	c #181918",
"H 	c #171717",
"I 	c #171716",
"J 	c #161717",
"K 	c #171617",
"L 	c #171616",
"M 	c #151615",
"N 	c #161615",
"O 	c #161515",
"P 	c #161616",
"Q 	c #BDBDBD",
"R 	c #141415",
"S 	c #141515",
"T 	c #151415",
"U 	c #151414",
"V 	c #141514",
"W 	c #151514",
"X 	c #141414",
"Y 	c #131313",
"Z 	c #131314",
"` 	c #141313",
" .	c #141413",
"..	c #121212",
"+.	c #111212",
"@.	c #121211",
"#.	c #121112",
"$.	c #121111",
"%.	c #111112",
"&.	c #101011",
"*.	c #111111",
"=.	c #111110",
"-.	c #101111",
";.	c #101110",
">.	c #111010",
",.	c #111011",
"'.	c #101010",
").	c #10100F",
"!.	c #0F100F",
"~.	c #100F0F",
"{.	c #100F10",
"].	c #0F0F0F",
"^.	c #0F0F10",
"/.	c #0F1010",
"(.	c #0E0E0E",
". + + @ . . + # . . + $ . . # . . . . . ",
"% % & % * & * & = % & % % & & % & - % ; ",
"> , > > > > , > > > , > > > > > > > , > ",
"' ) ! ~ ) { ! ' ] ! { { ^ ] { ) / { ^ { ",
"( ( ( ( ( ( ( ( _ : ( : ( ( ( ( ( : < [ ",
"} } } | } } } 1 } } } } 2 } | 2 | } | 3 ",
"4 5 6 7 8 9 0 0 a b 8 c d 9 0 4 0 c 7 6 ",
"e f g h f i i g j h g i i i f i e e g k ",
"l l l l l l l l l l l l m l l l l l n l ",
"o p p p q o p p r r o o q s q o q o o t ",
"u v w x v y z A u z x v x z A y A A B v ",
"C D D D D E E D D E F G x D E D D D D G ",
"H I H H J H H H H H I H H H H K H H H L ",
"M N O P P Q Q Q Q Q Q Q Q Q Q P N O N P ",
"R S R T U Q Q Q Q Q Q Q Q Q Q V W X V X ",
"Y Y Y Y Y Y Y Y Y Y Z Y Y Y Y Y Y ` Y  .",
"..+...@.#.#.@.@...$.$.#.#.....+.%.....%.",
"&.*.=.=.=.-.;.&.&.-.=.>.,.'.-.>.&.*.,.*.",
").!.!.~.{.].~.~.~.].^.^.!.].].^.!.^./.'.",
"(.(.(.(.(.(.(.(.(.(.(.(.(.(.(.(.(.(.(.(."};
