/* XPM */
static char * stuckfcs_xpm[] = {
"20 20 109 2",
"  	c None",
". 	c #7C7C7C",
"+ 	c #7C7C7D",
"@ 	c #7D7D7C",
"# 	c #7C7D7C",
"$ 	c #7D7C7C",
"% 	c #757575",
"& 	c #767676",
"* 	c #747575",
"= 	c #757676",
"- 	c #757475",
"; 	c #757574",
"> 	c #6E6E6E",
", 	c #6D6D6D",
"' 	c #666667",
") 	c #676666",
"! 	c #666766",
"~ 	c #676767",
"{ 	c #666666",
"] 	c #666767",
"^ 	c #676766",
"/ 	c #676667",
"( 	c #5E5E5E",
"_ 	c #5F5F5E",
": 	c #5E5F5E",
"< 	c #5F5E5E",
"[ 	c #5E5E5F",
"} 	c #575757",
"| 	c #565757",
"1 	c #8EC53F",
"2 	c #575756",
"3 	c #575656",
"4 	c #4F4F4F",
"5 	c #4F5050",
"6 	c #4F4F50",
"7 	c #50504F",
"8 	c #4F4E4E",
"9 	c #89C238",
"0 	c #89C237",
"a 	c #505050",
"b 	c #504F50",
"c 	c #474847",
"d 	c #474748",
"e 	c #484747",
"f 	c #484748",
"g 	c #85C030",
"h 	c #474747",
"i 	c #484847",
"j 	c #3F3F3F",
"k 	c #80BE28",
"l 	c #3E3F3F",
"m 	c #373737",
"n 	c #373637",
"o 	c #363737",
"p 	c #7BBB20",
"q 	c #363736",
"r 	c #1A1919",
"s 	c #191A1A",
"t 	c #19191A",
"u 	c #191919",
"v 	c #69B200",
"w 	c #191A19",
"x 	c #1A1A1A",
"y 	c #1A1A19",
"z 	c #181919",
"A 	c #181818",
"B 	c #181918",
"C 	c #171717",
"D 	c #171716",
"E 	c #161717",
"F 	c #171617",
"G 	c #171616",
"H 	c #151615",
"I 	c #161615",
"J 	c #161515",
"K 	c #161616",
"L 	c #141415",
"M 	c #141515",
"N 	c #151415",
"O 	c #151414",
"P 	c #141514",
"Q 	c #151514",
"R 	c #141414",
"S 	c #131313",
"T 	c #131314",
"U 	c #141313",
"V 	c #141413",
"W 	c #121212",
"X 	c #111212",
"Y 	c #121211",
"Z 	c #121112",
"` 	c #121111",
" .	c #111112",
"..	c #101011",
"+.	c #111111",
"@.	c #111110",
"#.	c #101111",
"$.	c #101110",
"%.	c #111010",
"&.	c #111011",
"*.	c #101010",
"=.	c #10100F",
"-.	c #0F100F",
";.	c #100F0F",
">.	c #100F10",
",.	c #0F0F0F",
"'.	c #0F0F10",
").	c #0F1010",
"!.	c #0E0E0E",
". + + @ . . + # . . + $ . . # . . . . . ",
"% % & % * & * & = % & % % & & % & - % ; ",
"> , > > > > , > > > , > > > > > > > , > ",
"' ) ! ~ ) { ! ' ] ! { { ^ ] { ) / { ^ { ",
"( ( ( ( ( ( ( ( _ : ( : ( ( ( ( ( : < [ ",
"} } } | } 1 1 1 1 1 1 1 1 1 1 2 | } | 3 ",
"4 5 6 7 8 9 9 9 0 0 0 9 0 9 9 4 a b 7 6 ",
"c d e f d g g g g g g g g g g h c c e i ",
"j j j j j k k k k k k k k k k j j j l j ",
"m n n n o p p p p p p p p p p m o m m q ",
"r s t u s v v v v v v v v v v w x x y s ",
"z A A A A v v v v v v v v v v A A A A B ",
"C D C C E v v v v v v v v v v F C C C G ",
"H I J K K v v v v v v v v v v K I J I K ",
"L M L N O v v v v v v v v v v P Q R P R ",
"S S S S S S S S S S T S S S S S S U S V ",
"W X W Y Z Z Y Y W ` ` Z Z W W X  .W W  .",
"..+.@.@.@.#.$.....#.@.%.&.*.#.%...+.&.+.",
"=.-.-.;.>.,.;.;.;.,.'.'.-.,.,.'.-.'.).*.",
"!.!.!.!.!.!.!.!.!.!.!.!.!.!.!.!.!.!.!.!."};
