/* XPM */
static char * unselected_xpm[] = {
"16 16 33 1",
" 	c None",
".	c #000000",
"+	c #757575",
"@	c #696969",
"#	c #696869",
"$	c #5C5C5C",
"%	c #515051",
"&	c #515151",
"*	c #505050",
"=	c #434343",
"-	c #434243",
";	c #434344",
">	c #444344",
",	c #444444",
"'	c #373737",
")	c #141414",
"!	c #141314",
"~	c #141413",
"{	c #131313",
"]	c #131213",
"^	c #131212",
"/	c #121112",
"(	c #121212",
"_	c #121211",
":	c #111112",
"<	c #111011",
"[	c #111111",
"}	c #101010",
"|	c #100F10",
"1	c #100F0F",
"2	c #0F0F10",
"3	c #0F0E0F",
"4	c #0E0E0F",
"                ",
" .............. ",
" .++++++++++++. ",
" .@@#@@@@@@@@@. ",
" .$$$$$$$$$$$$. ",
" .%&**&*&&*%&*. ",
" .=-=;>===-=,=. ",
" .''''''''''''. ",
" .)!!!!)!~)!)). ",
" .{{]{]]^]{{{]. ",
" ./(//_(//(://. ",
" .<<<<<<<[[<<<. ",
" .}}}}||||1}|2. ",
" .334333333433. ",
" .............. ",
"                "};
