<svg xmlns="http://www.w3.org/2000/svg" width="48" height="48">
<defs>
  <path
     d="m 27.305089,2.0018049 a 0.36132709,0.36132709 0 0 0 -0.13083,0.05233 C 10.52049,3.8463429 3.3661815,14.998192 3.8202765,25.604369 4.2763005,36.25571 12.367182,46.39071 25.578075,45.98841 c 6.172636,-0.20783 10.848266,-2.60489 13.960053,-6.0969 3.111773,-3.492 4.66102,-8.050159 4.710039,-12.599381 0.04904,-4.549213 -1.401676,-9.093747 -4.356782,-12.547038 C 36.989653,11.354195 32.627713,9.0423699 26.938758,8.8444539 l 0.798087,-6.423983 a 0.36132709,0.36132709 0 0 0 -0.392507,-0.418668 0.36132709,0.36132709 0 0 0 -0.03922,0 z m -1.269094,8.1379121 -0.73267,5.992227 a 0.36269757,0.36269757 0 0 0 0.02617,0.170083 c -5.241948,0.839427 -8.639362,5.85065 -7.431421,10.283601 0.494931,1.816316 1.607782,3.426829 3.074612,4.448377 1.466835,1.021553 3.287872,1.44042 5.181051,0.876592 2.889121,-0.86044 4.854729,-3.717972 3.807288,-6.685646 -0.521064,-1.402853 -1.837772,-2.159739 -3.048449,-2.184943 -0.605337,-0.01261 -1.196831,0.154134 -1.635428,0.536423 -0.03657,0.03185 -0.07046,0.06996 -0.104669,0.104671 l 0.745757,-6.829567 a 0.34042149,0.34042149 0 0 0 0.09158,0.0131 c 3.575067,-0.147663 6.182405,1.089359 7.902412,3.035364 1.720007,1.946005 2.549766,4.623551 2.472773,7.339821 -0.153971,5.432538 -3.885968,10.98525 -11.277938,11.2387 -4.158487,0.13787 -7.451873,-1.44718 -9.760263,-3.93814 -2.308389,-2.490949 -3.61371,-5.903047 -3.741871,-9.380839 -0.128157,-3.477794 0.920175,-7.01753 3.323201,-9.799512 2.342993,-2.712483 5.975275,-4.709809 11.107859,-5.220302 z"
     id="path-main" />
</defs>
<acyl-settings>
<linearGradient
     id="linearGradient4321">
    <stop
       style="stop-color:#89F6FB;stop-opacity:1.0;"
       offset="0.5"
       id="stop1" />
    <stop
       style="stop-color:#10A1AA;stop-opacity:1.0;"
       offset="1.0"
       id="stop2" />
  </linearGradient>
<radialGradient
       inkscape:collect="always"
       xlink:href="#linearGradient4321"
       id="acyl_gradient"
       cx="50.0%"
       cy="50.0%"
       fx="50.0%"
       fy="50.0%"
       r="50.0%"
/>
<filter id="filter1111" x="-50%" y="-50%" width="200%" height="200%">
	<feImage
	id="feImage2"
	xlink:href="#1"
	result="result1" />
	<feComposite
	id="feComposite3633"
	in="result1"
	in2="SourceGraphic"
	operator="xor" />
</filter>
	<rect
	style="fill:#1A4B4F;fill-opacity:1.0;filter:url(#filter1111)"
	id="rect2835"
	width="48"
	height="48"
	x="0"
	y="0"
	rx="3.5"
	ry="3.5" />
	<rect
	style="fill:url(#acyl_gradient);filter:url(#filter1111)"
	id="rect2835"
	width="44"
	height="44"
	x="2"
	y="2"
	rx="3.5"
	ry="3.5" />
<defs>
<use id="1" transform="translate(22.5,22.5) scale(0.85) translate(-22.5,-22.5)" style="fill:#000000" xlink:href="#path-main" />
</defs>
	<use id="2" transform="translate(22.5,22.5) scale(0.85) translate(-22.5,-22.5)" style="fill:#1A4B4F;fill-opacity:1.0" xlink:href="#path-main" />
</acyl-settings>
</svg>
