<svg xmlns="http://www.w3.org/2000/svg" width="48" height="48">
<defs>
    <path
       d="M 4.78125,6 C 4.3452053,6 4,6.3388679 4,6.75 L 4,34.0625 C 4,34.473647 4.3452051,34.8125 4.78125,34.8125 L 21.15625,34.8125 L 21.15625,39.125 L 17.21875,39.125 C 17.017195,39.125 16.84375,39.296838 16.84375,39.5 L 16.84375,41.625 C 16.84375,41.828109 17.017195,42 17.21875,42 L 30.78125,42 C 30.982806,42 31.15625,41.828108 31.15625,41.625 L 31.15625,39.5 C 31.15625,39.296837 30.982806,39.124999 30.78125,39.125 L 26.84375,39.125 L 26.84375,34.8125 L 43.21875,34.8125 C 43.654789,34.8125 44,34.473645 44,34.0625 L 44,6.75 C 44,6.3388678 43.654791,6 43.21875,6 L 4.78125,6 z M 6.71875,7.5 L 41.28125,7.5 C 41.957157,7.5 42.5,7.9812409 42.5,8.65625 L 42.5,32.15625 C 42.5,32.83126 41.957156,33.499998 41.28125,33.5 L 6.71875,33.40625 C 6.0428436,33.40625 5.5,32.831257 5.5,32.15625 L 5.5,8.65625 C 5.5,7.9812404 6.0428436,7.4999999 6.71875,7.5 z M 8.1875,9 C 7.5312212,9.0000002 7.000003,9.5322548 7,10.1875 L 7,17.78125 C 7,18.436496 7.531221,18.999999 8.1875,19 C 8.2083132,19.001303 8.229187,19.001303 8.25,19 C 8.3695652,18.987185 8.480509,18.931714 8.5625,18.84375 L 16.84375,10.5625 C 16.946551,10.465241 17.003327,10.328978 17,10.1875 C 17,9.5322534 16.46878,8.999999 15.8125,9 L 8.1875,9 z M 32.1875,9 C 31.53122,8.999999 31.000001,9.5322533 31,10.1875 C 30.996673,10.328978 31.05345,10.465241 31.15625,10.5625 L 39.4375,18.84375 C 39.519491,18.931714 39.630436,18.987185 39.75,19 C 39.770813,19.001303 39.791688,19.001303 39.8125,19 C 40.468779,18.999999 41.000001,18.436496 41,17.78125 L 41,10.1875 C 40.999997,9.5322547 40.46878,9.0000002 39.8125,9 L 32.1875,9 z M 39.75,22 C 39.630436,22.012815 39.519491,22.068286 39.4375,22.15625 L 31.15625,30.4375 C 31.05345,30.534759 30.996673,30.671022 31,30.8125 C 31.000001,31.467746 31.53122,32.000001 32.1875,32 L 39.8125,32 C 40.46878,32 40.999997,31.467745 41,30.8125 L 41,23.21875 C 41.000001,22.563504 40.468779,22.000001 39.8125,22 C 39.791688,21.998697 39.770813,21.998697 39.75,22 z M 8.1875,22.0625 C 7.531221,22.062501 7,22.626004 7,23.28125 L 7,30.875 C 7.000003,31.530245 7.531221,32.0625 8.1875,32.0625 L 15.8125,32.0625 C 16.46878,32.062501 17,31.530246 17,30.875 C 17.003327,30.733522 16.946551,30.597259 16.84375,30.5 L 8.5625,22.21875 C 8.480509,22.130786 8.369565,22.075315 8.25,22.0625 C 8.229187,22.061197 8.208313,22.061197 8.1875,22.0625 z"
       id="path-main"
        />
</defs>
<acyl-settings>
<linearGradient
     id="linearGradient4321">
    <stop
       style="stop-color:#89F6FB;stop-opacity:1.0;"
       offset="0.5"
       id="stop1" />
    <stop
       style="stop-color:#10A1AA;stop-opacity:1.0;"
       offset="1.0"
       id="stop2" />
  </linearGradient>
<radialGradient
       inkscape:collect="always"
       xlink:href="#linearGradient4321"
       id="acyl_gradient"
       cx="50.0%"
       cy="50.0%"
       fx="50.0%"
       fy="50.0%"
       r="50.0%"
/>
<filter id="filter1111" x="-50%" y="-50%" width="200%" height="200%">
	<feImage
	id="feImage2"
	xlink:href="#1"
	result="result1" />
	<feComposite
	id="feComposite3633"
	in="result1"
	in2="SourceGraphic"
	operator="xor" />
</filter>
	<rect
	style="fill:#1A4B4F;fill-opacity:1.0;filter:url(#filter1111)"
	id="rect2835"
	width="48"
	height="48"
	x="0"
	y="0"
	rx="3.5"
	ry="3.5" />
	<rect
	style="fill:url(#acyl_gradient);filter:url(#filter1111)"
	id="rect2835"
	width="44"
	height="44"
	x="2"
	y="2"
	rx="3.5"
	ry="3.5" />
<defs>
<use id="1" transform="translate(22.5,22.5) scale(0.85) translate(-22.5,-22.5)" style="fill:#000000" xlink:href="#path-main" />
</defs>
	<use id="2" transform="translate(22.5,22.5) scale(0.85) translate(-22.5,-22.5)" style="fill:#1A4B4F;fill-opacity:1.0" xlink:href="#path-main" />
</acyl-settings>
</svg>
