<svg xmlns="http://www.w3.org/2000/svg" width="48" height="48">
<defs>
  <path
     d="M 7.463576,3.654523 C 4.4686793,3.654523 2,6.123203 2,9.1181 L 2,38.53642 C 2,41.53132 4.4686793,44 7.463576,44 l 33.072848,0 C 43.531322,44 46,41.53132 46,38.53642 L 46,9.1181 C 46,6.123203 43.531322,3.654523 40.536424,3.654523 z m 0,3.88521 33.072848,0 c 0.909694,0 1.578366,0.668673 1.578366,1.578367 l 0,29.41832 c 0,0.90969 -0.668672,1.57837 -1.578366,1.57837 l -33.072848,0 c -0.909694,0 -1.578366,-0.66868 -1.578366,-1.57837 l 0,-29.41832 c 0,-0.909694 0.668672,-1.578367 1.578366,-1.578367 z m 1.809051,3.205298 0,11.412804 13.027594,0 0,-11.412804 z m 16.427152,0 0,11.412804 13.027594,0 0,-11.412804 z m -14.902299,1.626932 9.838473,0 0,7.818984 -9.838473,0 z m 0.631347,1.541942 0,5.742826 8.563639,0 0,-5.742826 z m -2.1562,11.594923 0,11.412802 13.027594,0 0,-11.412802 z m 16.427152,0 0,11.412802 13.027594,0 0,-11.412802 z"
     id="path-main"
      />
</defs>
<acyl-settings>
<linearGradient
     id="linearGradient4321">
    <stop
       style="stop-color:#89F6FB;stop-opacity:1.0;"
       offset="0.5"
       id="stop1" />
    <stop
       style="stop-color:#10A1AA;stop-opacity:1.0;"
       offset="1.0"
       id="stop2" />
  </linearGradient>
<radialGradient
       inkscape:collect="always"
       xlink:href="#linearGradient4321"
       id="acyl_gradient"
       cx="50.0%"
       cy="50.0%"
       fx="50.0%"
       fy="50.0%"
       r="50.0%"
/>
<filter id="filter1111" x="-50%" y="-50%" width="200%" height="200%">
	<feImage
	id="feImage2"
	xlink:href="#1"
	result="result1" />
	<feComposite
	id="feComposite3633"
	in="result1"
	in2="SourceGraphic"
	operator="xor" />
</filter>
	<rect
	style="fill:#1A4B4F;fill-opacity:1.0;filter:url(#filter1111)"
	id="rect2835"
	width="48"
	height="48"
	x="0"
	y="0"
	rx="3.5"
	ry="3.5" />
	<rect
	style="fill:url(#acyl_gradient);filter:url(#filter1111)"
	id="rect2835"
	width="44"
	height="44"
	x="2"
	y="2"
	rx="3.5"
	ry="3.5" />
<defs>
<use id="1" transform="translate(22.5,22.5) scale(0.85) translate(-22.5,-22.5)" style="fill:#000000" xlink:href="#path-main" />
</defs>
	<use id="2" transform="translate(22.5,22.5) scale(0.85) translate(-22.5,-22.5)" style="fill:#1A4B4F;fill-opacity:1.0" xlink:href="#path-main" />
</acyl-settings>
</svg>
