<svg xmlns="http://www.w3.org/2000/svg" width="48" height="48">
<defs>
  <path
     d="m 19.359166,2.0003426 c -0.1569,-0.0016 -0.311633,0.0025 -0.466733,0.0068 -0.165441,0.0046 -0.330962,0.01543 -0.493791,0.02706 -2.605256,0.18609 -4.837366,1.305063 -6.791308,2.421602 -1.9539426,1.116538 -2.8826436,2.04222 -4.4644056,3.530938 -1.581763,1.488718 -2.609055,3.0702424 -3.26037,4.9311404 -0.651314,1.860897 -0.372033,6.608673 -0.372033,6.608673 0,0 3.072041,-5.116792 4.653805,-6.04724 1.581763,-0.930449 5.5832336,-2.700737 7.2580416,-2.421602 1.674808,0.279134 3.167178,2.232837 3.632403,4.931139 0.465224,2.698301 0.459969,4.18858 0.459969,4.653804 0,0.465225 0.651022,0.561142 0.744068,1.305501 0.09304,0.744359 0.0016,1.856568 0.0947,2.414838 0.09305,0.558269 0.654186,2.41966 1.3055,3.07097 0.651314,0.65131 1.207346,1.21367 1.393436,2.5163 0.18609,1.30263 0.557832,1.29859 1.116101,1.67077 0.55827,0.37218 1.021402,0.74212 1.021402,1.39343 0,0.65132 0.0032,1.30536 0.561433,1.67754 0.558269,0.37218 0.468243,0.003 0.933467,0.1894 0.465224,0.18609 0.835166,0.65117 1.393435,0.37203 0.55827,-0.27913 1.116102,-1.02291 1.116102,-1.48813 0,-0.46523 -0.559632,-1.3984 -0.838767,-1.67754 -0.279135,-0.27913 -0.372034,-1.11926 -0.372034,-1.67753 0,-0.55827 -0.373688,-0.55783 -0.466733,-1.11611 -0.09304,-0.55826 -0.459824,-1.58268 -0.832003,-1.95486 -0.37218,-0.37218 -0.656133,-1.484537 -0.656133,-2.042804 0,-0.558269 -0.466733,-0.557686 -0.466733,-1.488135 0,-0.930449 -0.18098,-4.188289 -0.08793,-5.397872 0.09304,-1.209584 1.115956,-1.396454 1.488135,-2.326903 0.37218,-0.930449 1.765178,-2.515229 2.509537,-0.933466 0.744359,1.581762 1.028021,2.795144 1.4002,3.260369 0.372179,0.465224 0.831711,0.833511 1.57607,1.298735 0.744358,0.465225 2.047478,1.305501 3.070971,1.305501 1.023493,0 2.139012,0.466879 2.604236,0.0947 0.465226,-0.37218 1.024716,-1.208855 1.2108,-1.86017 0.186092,-0.651314 1.026221,-1.305354 1.677532,-1.677534 0.651319,-0.372179 0.373694,-0.929866 0.466736,-1.488135 0.09304,-0.558269 0.08959,-1.393144 0.182631,-2.137503 0.09305,-0.744359 0.561432,-0.652532 0.561432,-1.210801 0,-0.55827 -0.09319,-1.213964 0.372037,-1.772234 0.465223,-0.558269 1.02442,-1.2967904 1.954869,-1.9481044 0.93045,-0.651314 0.555106,-1.954869 -0.561432,-1.954869 -1.116541,0 -3.62535,0.372034 -4.369703,0.372034 -0.744361,0 -1.303557,0.09154 -1.954871,-0.466733 -0.651314,-0.55827 -1.210509,-0.650877 -1.954868,-1.116102 -0.744358,-0.465224 -0.652533,-0.650877 -1.210802,-1.116101 -0.55827,-0.465224 -0.836968,-0.09334 -1.1161,0.744067 -0.279136,0.837405 -0.373398,1.298883 -1.210802,0.926703 -0.837403,-0.372177 -3.907208,-2.138864 -6.04724,-2.976268 -1.880888,-0.736 -4.410753,-1.403481 -6.764251,-1.427257 z M 35.194277,15.704715 c 0,0 0.854731,0.09492 1.170216,0.473498 0.315485,0.37858 0.250278,1.224329 0.250278,1.224329 l -1.420494,-1.697827 z m 2.340432,4.396764 c 0.350483,-0.0089 0.81171,0.08117 0.81171,0.08117 0,0 0.0651,0.378907 -0.439677,0.568198 -0.504773,0.18929 -0.599907,0.186963 -0.852296,-0.128521 -0.252385,-0.315484 -0.09454,-0.347304 0.189399,-0.473498 0.07099,-0.03155 0.174036,-0.04439 0.290864,-0.04735 z M 8.9083974,23.70006 c -0.805056,0.0418 -1.438158,0.748692 -1.67077,2.435131 -0.37218,2.698304 0.555741,4.929534 2.137503,9.023514 1.5817646,4.09397 6.8860606,7.90517 11.0730796,9.30084 4.18702,1.39567 8.748321,2.14305 11.911846,0.93347 3.163527,-1.20959 5.485518,-3.25604 6.229877,-5.67521 0.744356,-2.41916 -0.182636,-5.30317 -0.182636,-5.30317 0,0 -1.864842,2.04689 -2.888335,4.55911 -1.023493,2.5122 -3.627199,3.44329 -8.279444,2.69893 -4.652244,-0.74436 -7.068059,-3.9111 -8.556777,-4.74851 -1.488718,-0.8374 -0.46946,-1.39645 -2.144268,-2.3269 -1.674807,-0.93045 -3.256768,-5.30424 -3.815037,-6.886 -0.55827,-1.581767 -0.46435,-1.768198 -2.232203,-3.443008 -0.55827,-0.38381 -1.0998016,-0.593275 -1.5828356,-0.568197 z"
     id="path-main"
      />
</defs>
<acyl-settings>
<linearGradient
     id="linearGradient4321">
    <stop
       style="stop-color:#89F6FB;stop-opacity:1.0;"
       offset="0.5"
       id="stop1" />
    <stop
       style="stop-color:#10A1AA;stop-opacity:1.0;"
       offset="1.0"
       id="stop2" />
  </linearGradient>
<radialGradient
       inkscape:collect="always"
       xlink:href="#linearGradient4321"
       id="acyl_gradient"
       cx="50.0%"
       cy="50.0%"
       fx="50.0%"
       fy="50.0%"
       r="50.0%"
/>
<filter id="filter1111" x="-50%" y="-50%" width="200%" height="200%">
	<feImage
	id="feImage2"
	xlink:href="#1"
	result="result1" />
	<feComposite
	id="feComposite3633"
	in="result1"
	in2="SourceGraphic"
	operator="xor" />
</filter>
	<rect
	style="fill:#1A4B4F;fill-opacity:1.0;filter:url(#filter1111)"
	id="rect2835"
	width="48"
	height="48"
	x="0"
	y="0"
	rx="3.5"
	ry="3.5" />
	<rect
	style="fill:url(#acyl_gradient);filter:url(#filter1111)"
	id="rect2835"
	width="44"
	height="44"
	x="2"
	y="2"
	rx="3.5"
	ry="3.5" />
<defs>
<use id="1" transform="translate(22.5,22.5) scale(0.85) translate(-22.5,-22.5)" style="fill:#000000" xlink:href="#path-main" />
</defs>
	<use id="2" transform="translate(22.5,22.5) scale(0.85) translate(-22.5,-22.5)" style="fill:#1A4B4F;fill-opacity:1.0" xlink:href="#path-main" />
</acyl-settings>
</svg>
