<svg xmlns="http://www.w3.org/2000/svg" width="48" height="48">
<defs>
<defs
     id="defs1308">
  </defs>
  <path
     id="path-main"
     d="M 24,3.3571469 C 12.07744,3.3571468 1.9999998,11.153318 2,21.271433 c 10e-8,9.818944 9.620269,18.088053 22.971429,17.971428 1.54786,3.119341 5.067467,6.05544 10.342857,6.171429 L 39.142857,45.5 36.771429,42.442857 C 35.460923,40.763341 34.342618,39.710082 34.057143,37.01429 40.964585,34.080986 46,28.288488 46,21.271433 46.000002,11.153317 35.922561,3.357147 24,3.3571469 z m 0,3.6571428 c 10.343825,2e-7 18.342858,6.6193453 18.342857,14.2571433 0,5.65081 -4.327205,10.674212 -10.857143,12.971428 l -1.228571,0.428572 0.02857,1.314285 c 0.01884,1.9055 0.449886,3.369212 1,4.628572 -1.87304,-1.025439 -3.080565,-2.515698 -3.457143,-3.714286 l -0.4,-1.342857 L 26,35.61429 C 13.541639,36.200759 5.6571429,28.908363 5.6571429,21.271433 5.6571427,13.633636 13.656176,7.0142896 24,7.0142897 z m -8.228571,2.6571433 0,20.857142 5,0 0,-9.085714 11.342857,11.485714 0,-20.942857 -5.171429,0 0,9.2 L 15.771429,9.671433 z" />
</defs>
<acyl-settings>
<linearGradient
     id="linearGradient4321">
    <stop
       style="stop-color:#89F6FB;stop-opacity:1.0;"
       offset="0.5"
       id="stop1" />
    <stop
       style="stop-color:#10A1AA;stop-opacity:1.0;"
       offset="1.0"
       id="stop2" />
  </linearGradient>
<radialGradient
       inkscape:collect="always"
       xlink:href="#linearGradient4321"
       id="acyl_gradient"
       cx="50.0%"
       cy="50.0%"
       fx="50.0%"
       fy="50.0%"
       r="50.0%"
/>
<filter id="filter1111" x="-50%" y="-50%" width="200%" height="200%">
	<feImage
	id="feImage2"
	xlink:href="#1"
	result="result1" />
	<feComposite
	id="feComposite3633"
	in="result1"
	in2="SourceGraphic"
	operator="xor" />
</filter>
	<rect
	style="fill:#1A4B4F;fill-opacity:1.0;filter:url(#filter1111)"
	id="rect2835"
	width="48"
	height="48"
	x="0"
	y="0"
	rx="3.5"
	ry="3.5" />
	<rect
	style="fill:url(#acyl_gradient);filter:url(#filter1111)"
	id="rect2835"
	width="44"
	height="44"
	x="2"
	y="2"
	rx="3.5"
	ry="3.5" />
<defs>
<use id="1" transform="translate(22.5,22.5) scale(0.85) translate(-22.5,-22.5)" style="fill:#000000" xlink:href="#path-main" />
</defs>
	<use id="2" transform="translate(22.5,22.5) scale(0.85) translate(-22.5,-22.5)" style="fill:#1A4B4F;fill-opacity:1.0" xlink:href="#path-main" />
</acyl-settings>
</svg>
