<svg xmlns="http://www.w3.org/2000/svg" width="48" height="48">
<defs>
<defs
     id="defs2162">
  </defs>
  <path
     id="path-main"
   d="m 2.125,2.1875 0,43.625 43.75,0 0,-43.625 -43.75,0 z m 2.2331057,1.7562904 8.3977353,0.031362 0,8.7500896 -8.3977353,0 0,-8.781452 z m 10.2848673,0.062725 8.554996,0.031362 0,6.2097416 0.912114,-1.8503778 0.975018,0.6586089 0,-5.0179727 8.554996,0.031362 0,8.4678296 -3.01941,0 2.01294,1.63084 1.00647,0 0,0.689972 1.887132,1.254493 0,-1.944465 1.635514,0 0.943565,-1.63084 -2.579079,0 0,-8.4364674 8.146118,0.031362 0,10.2868434 -2.13875,-3.543942 -4.812185,9.408698 -12.612329,-8.530554 -7.674335,15.61844 -3.554098,-8.342379 -3.5540979,11.886323 -4.9694464,-8.87554 0,-7.558321 8.3977353,0 0,1.599479 0.125809,-0.40771 1.761323,4.139827 0,-5.331596 5.850108,0 1.132278,-1.75629 -6.982386,0 0,-8.7187277 z m 10.442128,12.1058596 12.989755,8.436466 3.742811,-8.060118 1.258088,1.944464 0.03145,6.147017 -2.170201,0 -1.00647,1.944464 3.176671,0 0.0629,7.589684 -7.642882,0 0,-7.40151 -0.377427,-0.250899 -0.157261,-0.09409 -1.352444,-0.878145 0,0.06272 -1.383896,-0.846783 -7.1711,0 0,-4.767074 -1.887132,4.108466 0,0.658608 -0.440331,0 -0.817757,1.756291 1.258088,0 0,7.652409 -4.088785,0 -1.069375,1.944464 5.15816,0 0,7.27606 -8.554996,0 0,-7.27606 1.100826,0 -1.069374,-1.850377 -0.03145,0 0,-0.12545 -1.320992,-2.540348 -0.56614,1.850377 0,0.815421 -0.125809,0 -0.377426,1.850377 0.503235,0 0,7.27606 -8.3348309,0 0,-7.526959 3.3024802,0 -1.0693746,-1.975826 -2.2331056,0 0,-6.209742 5.9759169,9.69096 2.925054,-9.596873 3.396836,6.554727 8.366288,-18.158788 z m -17.6132282,8.718727 0.6919482,1.379943 0.5346873,-1.379943 -1.2266355,0 z m 17.6132282,1.630841 8.554996,0 0,7.652409 -8.554996,0 0,-7.652409 z m 0,9.596873 8.554996,0 0,7.307422 -8.554996,0 0,-7.307422 z m 10.442128,0 7.642882,0 0.03145,7.307422 -7.674335,0 0,-7.307422 z"
 />
</defs>
<acyl-settings>
<linearGradient
     id="linearGradient4321">
    <stop
       style="stop-color:#89F6FB;stop-opacity:1.0;"
       offset="0.5"
       id="stop1" />
    <stop
       style="stop-color:#10A1AA;stop-opacity:1.0;"
       offset="1.0"
       id="stop2" />
  </linearGradient>
<radialGradient
       inkscape:collect="always"
       xlink:href="#linearGradient4321"
       id="acyl_gradient"
       cx="50.0%"
       cy="50.0%"
       fx="50.0%"
       fy="50.0%"
       r="50.0%"
/>
<filter id="filter1111" x="-50%" y="-50%" width="200%" height="200%">
	<feImage
	id="feImage2"
	xlink:href="#1"
	result="result1" />
	<feComposite
	id="feComposite3633"
	in="result1"
	in2="SourceGraphic"
	operator="xor" />
</filter>
	<rect
	style="fill:#1A4B4F;fill-opacity:1.0;filter:url(#filter1111)"
	id="rect2835"
	width="48"
	height="48"
	x="0"
	y="0"
	rx="3.5"
	ry="3.5" />
	<rect
	style="fill:url(#acyl_gradient);filter:url(#filter1111)"
	id="rect2835"
	width="44"
	height="44"
	x="2"
	y="2"
	rx="3.5"
	ry="3.5" />
<defs>
<use id="1" transform="translate(22.5,22.5) scale(0.85) translate(-22.5,-22.5)" style="fill:#000000" xlink:href="#path-main" />
</defs>
	<use id="2" transform="translate(22.5,22.5) scale(0.85) translate(-22.5,-22.5)" style="fill:#1A4B4F;fill-opacity:1.0" xlink:href="#path-main" />
</acyl-settings>
</svg>
