<svg xmlns="http://www.w3.org/2000/svg" width="48" height="48">
<defs>
<defs
     id="defs5">
  </defs>
  <path
     d="m 22.476923,2.6194817 c -0.30838,0.045034 -0.573235,0.2101941 -0.817949,0.4512821 -0.489428,0.4821759 -1.014212,1.2955604 -1.861538,2.651282 C 19.105754,6.8287363 18.434622,8.142666 17.794872,9.586148 8.9624465,10.789068 2,18.481028 2,27.609225 c 0,9.94456 8.247748,18.192308 18.192308,18.192308 9.944559,0 18.192307,-8.247748 18.192307,-18.192308 0,-0.553818 -0.03457,-1.093715 -0.08461,-1.635897 0.573927,-0.09065 1.160616,-0.182057 1.692308,-0.253846 1.579121,-0.213213 2.953874,-0.335206 3.920513,-0.394872 0.483319,-0.02983 0.848497,-0.03287 1.1,-0.0282 0.01397,2.59e-4 0.01503,-3.77e-4 0.0282,0 l 0.338461,0.05641 c 0.151471,0.02456 0.29222,-0.02697 0.394872,-0.141026 0.102651,-0.114057 0.153141,-0.27502 0.11282,-0.423077 -0.0758,-0.265291 -0.238351,-0.311501 -0.310256,-0.338461 -0.01166,-0.0044 -0.01754,0.0035 -0.0282,0 l -0.141026,-0.0282 c -0.01673,-0.0025 -0.0392,0.002 -0.05641,0 L 37.848723,23.18103 c -0.163031,-0.636852 -0.39123,-1.252265 -0.620513,-1.861538 l 8.320513,-1.382052 c 0.246747,-0.0035 0.451282,-0.20451 0.451282,-0.451282 2e-6,-0.246771 -0.204535,-0.447792 -0.451282,-0.451282 L 35.112821,17.286148 c -0.215658,-0.30867 -0.443162,-0.607917 -0.676924,-0.902564 L 45.548718,14.522046 C 45.795465,14.518546 46,14.317536 46,14.070764 c 2e-6,-0.246772 -0.204535,-0.447793 -0.451282,-0.451282 L 32.010256,11.363071 45.464103,9.106661 c 0.01805,-3.7e-4 0.02776,0.0104 0.08461,0 0.01421,-0.0026 0.02895,-0.01935 0.05641,-0.0282 0.02746,-0.0089 0.112544,-0.05621 0.112821,-0.05641 2.77e-4,-2.02e-4 0.197425,-0.338232 0.197436,-0.338462 1e-5,-2.29e-4 -0.14077,-0.338204 -0.141026,-0.338461 -0.08778,-0.09278 -0.210769,-0.144029 -0.338462,-0.141026 -0.0032,6.6e-5 -0.006,-0.0092 -0.05641,0 -0.05399,-0.0029 -0.145135,-0.01935 -0.253846,-0.0282 C 44.88432,8.156252 44.542883,8.140332 44.082046,8.091292 43.160373,7.993192 41.829574,7.831944 40.274354,7.6118044 37.163919,7.1715098 33.099138,6.4913712 29.330769,5.5246099 27.469619,5.0471387 26.206278,4.4719818 25.297436,3.9733279 24.388594,3.4746739 23.847109,3.0454933 23.323077,2.7887125 23.061061,2.6603221 22.785303,2.5744482 22.476923,2.6194817 z M 16.158974,13.901533 c -0.291144,0.913713 -0.56306,1.831461 -0.789743,2.764103 -0.998827,4.109461 -1.312919,8.232585 -0.112821,11.11282 0.589588,1.41501 1.367482,2.355411 2.312821,2.848718 0.945338,0.493307 2.017054,0.515315 3.187179,0.310256 2.340251,-0.410117 5.141633,-1.770603 8.602564,-2.905128 1.617991,-0.530392 3.354976,-0.955675 5.076923,-1.325641 0.0184,0.302186 0.05641,0.595126 0.05641,0.902564 0,7.991195 -6.308806,14.3 -14.3,14.3 -7.991195,0 -14.3000003,-6.308805 -14.3000003,-14.3 1e-7,-6.583601 4.2904173,-11.995733 10.2666663,-13.707692 z M 33.364103,21.9682 c 0.0657,0.156176 0.108934,0.320404 0.16923,0.479487 L 32.010256,22.193841 33.364103,21.9682 z"
     id="path-main"
      />
</defs>
<acyl-settings>
<linearGradient
     id="linearGradient4321">
    <stop
       style="stop-color:#89F6FB;stop-opacity:1.0;"
       offset="0.5"
       id="stop1" />
    <stop
       style="stop-color:#10A1AA;stop-opacity:1.0;"
       offset="1.0"
       id="stop2" />
  </linearGradient>
<radialGradient
       inkscape:collect="always"
       xlink:href="#linearGradient4321"
       id="acyl_gradient"
       cx="50.0%"
       cy="50.0%"
       fx="50.0%"
       fy="50.0%"
       r="50.0%"
/>
<filter id="filter1111" x="-50%" y="-50%" width="200%" height="200%">
	<feImage
	id="feImage2"
	xlink:href="#1"
	result="result1" />
	<feComposite
	id="feComposite3633"
	in="result1"
	in2="SourceGraphic"
	operator="xor" />
</filter>
	<rect
	style="fill:#1A4B4F;fill-opacity:1.0;filter:url(#filter1111)"
	id="rect2835"
	width="48"
	height="48"
	x="0"
	y="0"
	rx="3.5"
	ry="3.5" />
	<rect
	style="fill:url(#acyl_gradient);filter:url(#filter1111)"
	id="rect2835"
	width="44"
	height="44"
	x="2"
	y="2"
	rx="3.5"
	ry="3.5" />
<defs>
<use id="1" transform="translate(22.5,22.5) scale(0.85) translate(-22.5,-22.5)" style="fill:#000000" xlink:href="#path-main" />
</defs>
	<use id="2" transform="translate(22.5,22.5) scale(0.85) translate(-22.5,-22.5)" style="fill:#1A4B4F;fill-opacity:1.0" xlink:href="#path-main" />
</acyl-settings>
</svg>
