<svg xmlns="http://www.w3.org/2000/svg" width="48" height="48">
<defs>
<defs
     id="defs4">
  </defs>
  <path
     d="m 36.818602,4.6038387 c -0.308825,-6.72e-4 -0.597372,-0.00132 -0.910539,0.028454 L 8.5349829,7.2500928 C 7.2266341,7.3744797 6.1105094,8.1132394 5.5472765,9.1849884 3.3980664,10.999756 2.2280478,13.837386 2.5026616,16.696935 l 1.2235368,12.690639 c -1.1609308,0.706902 -1.8515201,1.959346 -1.7072607,3.300704 0.5085109,4.712435 5.0906214,8.244448 10.1012923,7.768036 l 13.145908,-1.251991 c 1.573934,3.178021 4.802371,5.383962 8.536304,5.377871 5.203727,-0.0085 9.444678,-4.280715 9.532206,-9.532206 1.599212,-1.785896 2.426563,-4.205243 2.190984,-6.658317 L 44.302095,15.672579 c 1.138685,-0.707572 1.823101,-1.935201 1.678807,-3.27225 -0.476727,-4.4179065 -4.529919,-7.7864158 -9.1623,-7.7964903 z m -28.5397082,6.1176843 31.3566892,0 c 1.495585,0 2.703162,1.219579 2.703162,2.731617 l 0,17.15797 c -1.561589,-3.206243 -4.81044,-5.436446 -8.564758,-5.43478 -0.446577,1.98e-4 -0.878439,0.05289 -1.3089,0.113818 l 0,-1.906441 c 1.469387,5e-6 2.488436,-0.06591 3.044615,-0.199181 0.947546,-0.231755 1.698579,-0.660995 2.247894,-1.251991 0.556163,-0.590982 0.825162,-1.327153 0.825176,-2.219439 -1.4e-5,-0.805358 -0.200295,-1.475095 -0.625996,-2.048713 -0.418852,-0.57939 -1.001026,-0.997042 -1.735715,-1.251991 -0.727838,-0.260718 -1.930467,-0.398348 -3.585247,-0.398361 l -3.044615,0 0,10.158201 c -0.918632,0.458219 -1.751035,1.073412 -2.475529,1.792624 l -2.390165,-11.950825 -2.788526,0 -3.556793,8.90621 -3.499884,-8.90621 -2.81698,0 -2.6178001,12.776001 2.8169801,0 1.650352,-8.081034 3.186887,8.081034 2.532436,0 3.243796,-8.081034 1.621898,8.081034 1.877986,0 c -1.324413,1.651653 -2.116414,3.723439 -2.134076,6.003867 -1.95e-4,0.02515 -0.02845,0.06018 -0.02845,0.08536 l -15.9344332,0 c -1.4955836,0 -2.7031629,-1.219579 -2.7031629,-2.731617 l 0,-18.694505 c -10e-8,-1.512038 1.2075794,-2.731617 2.7031629,-2.731617 z m 24.1861932,7.682673 0.825176,0 c 0.892617,1.1e-5 1.491491,0.05961 1.821079,0.227635 0.45317,0.225976 0.682891,0.588783 0.682904,1.081265 -1.2e-5,0.283915 -0.0913,0.537031 -0.256089,0.739813 -0.157934,0.197004 -0.37294,0.339913 -0.65445,0.426815 -0.281525,0.08692 -0.787121,0.113826 -1.50808,0.113818 l -0.91054,0 0,-2.589346 z m 1.3089,9.532206 c 3.788193,-0.0016 6.853616,3.089432 6.857498,6.94286 0.0039,3.853426 -3.040851,6.936681 -6.829043,6.942861 -3.788192,0.0062 -6.849173,-3.089443 -6.857498,-6.942861 5.63e-4,-3.853427 3.040849,-6.94118 6.829043,-6.94286 z m -3.329158,1.564989 -0.02845,11.040286 9.702931,-5.377871 -9.674477,-5.662415 z m 12.719093,3.670611 c 0.04331,0.237749 0.08828,0.468208 0.113817,0.711358 -0.02431,-0.239227 -0.07253,-0.477507 -0.113817,-0.711358 z"
     id="path-main"
      />
    <g
       id="g2006" />
</defs>
<acyl-settings>
<linearGradient
     id="linearGradient4321">
    <stop
       style="stop-color:#89F6FB;stop-opacity:1.0;"
       offset="0.5"
       id="stop1" />
    <stop
       style="stop-color:#10A1AA;stop-opacity:1.0;"
       offset="1.0"
       id="stop2" />
  </linearGradient>
<radialGradient
       inkscape:collect="always"
       xlink:href="#linearGradient4321"
       id="acyl_gradient"
       cx="50.0%"
       cy="50.0%"
       fx="50.0%"
       fy="50.0%"
       r="50.0%"
/>
<filter id="filter1111" x="-50%" y="-50%" width="200%" height="200%">
	<feImage
	id="feImage2"
	xlink:href="#1"
	result="result1" />
	<feComposite
	id="feComposite3633"
	in="result1"
	in2="SourceGraphic"
	operator="xor" />
</filter>
	<rect
	style="fill:#1A4B4F;fill-opacity:1.0;filter:url(#filter1111)"
	id="rect2835"
	width="48"
	height="48"
	x="0"
	y="0"
	rx="3.5"
	ry="3.5" />
	<rect
	style="fill:url(#acyl_gradient);filter:url(#filter1111)"
	id="rect2835"
	width="44"
	height="44"
	x="2"
	y="2"
	rx="3.5"
	ry="3.5" />
<defs>
<use id="1" transform="translate(22.5,22.5) scale(0.85) translate(-22.5,-22.5)" style="fill:#000000" xlink:href="#path-main" />
</defs>
	<use id="2" transform="translate(22.5,22.5) scale(0.85) translate(-22.5,-22.5)" style="fill:#1A4B4F;fill-opacity:1.0" xlink:href="#path-main" />
</acyl-settings>
</svg>
