<svg xmlns="http://www.w3.org/2000/svg" width="48" height="48">
<defs>
<defs
     id="defs4291">
  </defs>
  <path
     id="path-main"
       d="M 16.25 8.875 C 11.681578 8.875 8.40625 11.624501 8.40625 16.09375 L 8.40625 20 L 7.125 20 C 5.8197372 20 5.15625 20.659291 5.15625 21.96875 L 5.15625 33.09375 C 5.15625 33.735598 5.8197372 35.0625 7.125 35.0625 L 7.6875 35.0625 C 8.1955596 37.856895 10.792095 39.823108 13.65625 39.5 C 16.095393 39.224838 17.980557 37.35682 18.40625 35.0625 L 26.28125 35.0625 C 27.335891 35.0563 28 33.735597 28 33.09375 L 28 21.96875 C 28 20.659291 27.336513 20 26.03125 20 L 24.71875 20 L 24.71875 16.09375 C 24.71875 11.510631 21.474674 8.875 16.90625 8.875 L 16.25 8.875 z M 16.25 12.15625 L 16.90625 12.15625 C 21.474674 12.15625 21.46875 16.06554 21.46875 17.375 L 21.46875 20 L 11.6875 20 L 11.6875 17.375 C 11.6875 16.06554 11.681578 12.15625 16.25 12.15625 z M 40.21875 17.1875 C 39.431559 17.276304 38.879946 17.994059 38.96875 18.78125 C 39.057554 19.568441 39.775309 20.120054 40.5625 20.03125 C 41.349691 19.942446 41.901304 19.224691 41.8125 18.4375 C 41.723696 17.650309 41.005941 17.098696 40.21875 17.1875 z M 39.625 26.90625 C 38.296235 27.056149 37.350101 28.233735 37.5 29.5625 C 37.649899 30.891265 38.858735 31.868649 40.1875 31.71875 C 41.516265 31.568851 42.462399 30.360015 42.3125 29.03125 C 42.162601 27.702485 40.953765 26.756351 39.625 26.90625 z M 33.84375 36.5625 C 32.164683 36.5625 30.8125 37.945933 30.8125 39.625 C 30.8125 41.304067 32.164683 42.65625 33.84375 42.65625 C 35.522817 42.65625 36.90625 41.304067 36.90625 39.625 C 36.90625 37.945933 35.522817 36.5625 33.84375 36.5625 z M 22.6875 38.1875 C 22.414782 38.163024 22.12644 38.18686 21.84375 38.21875 C 19.582233 38.473874 17.963626 40.488483 18.21875 42.75 C 18.473874 45.011517 20.488483 46.661374 22.75 46.40625 C 25.011517 46.151126 26.661374 44.105267 26.40625 41.84375 C 26.183017 39.864922 24.596523 38.358829 22.6875 38.1875 z "
 />

</defs>
<acyl-settings>
<linearGradient
     id="linearGradient4321">
    <stop
       style="stop-color:#89F6FB;stop-opacity:1.0;"
       offset="0.5"
       id="stop1" />
    <stop
       style="stop-color:#10A1AA;stop-opacity:1.0;"
       offset="1.0"
       id="stop2" />
  </linearGradient>
<radialGradient
       inkscape:collect="always"
       xlink:href="#linearGradient4321"
       id="acyl_gradient"
       cx="50.0%"
       cy="50.0%"
       fx="50.0%"
       fy="50.0%"
       r="50.0%"
/>
<filter id="filter1111" x="-50%" y="-50%" width="200%" height="200%">
	<feImage
	id="feImage2"
	xlink:href="#1"
	result="result1" />
	<feComposite
	id="feComposite3633"
	in="result1"
	in2="SourceGraphic"
	operator="xor" />
</filter>
	<rect
	style="fill:#1A4B4F;fill-opacity:1.0;filter:url(#filter1111)"
	id="rect2835"
	width="48"
	height="48"
	x="0"
	y="0"
	rx="3.5"
	ry="3.5" />
	<rect
	style="fill:url(#acyl_gradient);filter:url(#filter1111)"
	id="rect2835"
	width="44"
	height="44"
	x="2"
	y="2"
	rx="3.5"
	ry="3.5" />
<defs>
<use id="1" transform="translate(22.5,22.5) scale(0.85) translate(-22.5,-22.5)" style="fill:#000000" xlink:href="#path-main" />
</defs>
	<use id="2" transform="translate(22.5,22.5) scale(0.85) translate(-22.5,-22.5)" style="fill:#1A4B4F;fill-opacity:1.0" xlink:href="#path-main" />
</acyl-settings>
</svg>
