<svg xmlns="http://www.w3.org/2000/svg" width="48" height="48">
<defs>
  <path
     d="M 24 2 C 11.861011 2 2 11.861013 2 24 C 2 36.138988 11.861012 46 24 46 C 36.138986 46 46 36.138988 46 24 C 46 18.420831 43.929757 13.318046 40.5 9.4375 C 40.52259 9.4134813 40.538631 9.3996218 40.5625 9.375 C 40.801186 9.1287833 41.114134 8.8448313 41.40625 8.5625 C 41.698367 8.2801677 41.953616 7.9843408 42.15625 7.71875 C 42.257567 7.5859541 42.353247 7.4418323 42.40625 7.3125 C 42.459249 7.1831677 42.480633 7.0730563 42.4375 6.9375 C 42.394376 6.8019447 42.304739 6.6975749 42.1875 6.625 C 42.07026 6.5524301 41.90828 6.4837469 41.75 6.4375 C 41.433441 6.3450122 41.05476 6.3020786 40.65625 6.25 C 40.25774 6.1979224 39.834552 6.1488524 39.5 6.09375 C 39.165449 6.0386515 38.890964 5.9645218 38.8125 5.90625 L 38.8125 5.875 C 38.731036 5.8054906 38.586302 5.577398 38.4375 5.28125 C 38.282509 4.9727838 38.109531 4.5903937 37.9375 4.21875 C 37.765468 3.8471053 37.590381 3.4981031 37.40625 3.21875 C 37.314188 3.0790745 37.228778 2.9665676 37.125 2.875 C 37.021222 2.7834334 36.920516 2.7186519 36.78125 2.71875 C 36.641985 2.718849 36.509905 2.7832848 36.40625 2.875 C 36.302596 2.9667152 36.216876 3.0789427 36.125 3.21875 C 35.941247 3.4983635 35.76528 3.8781126 35.59375 4.25 C 35.457802 4.5447457 35.315717 4.800335 35.1875 5.0625 C 31.908005 3.1188831 28.083922 2 24 2 z M 24 2.90625 C 27.907797 2.90625 31.550154 4.020061 34.6875 5.875 C 34.684042 5.8780397 34.690728 5.903846 34.6875 5.90625 C 34.609116 5.9646367 34.334476 6.0381751 34 6.09375 C 33.665524 6.1493239 33.273438 6.1973569 32.875 6.25 C 32.476561 6.3026422 32.097683 6.3445586 31.78125 6.4375 C 31.623033 6.4839717 31.460892 6.5522597 31.34375 6.625 C 31.226609 6.6977383 31.136694 6.8018833 31.09375 6.9375 C 31.075283 6.9958152 31.056679 7.0640498 31.0625 7.125 C 28.974795 6.2516205 26.804455 5.7644373 24.65625 5.6875 C 24.21003 5.671519 23.756224 5.670917 23.3125 5.6875 C 16.656628 5.9362381 10.380702 9.804248 7.375 16.25 C 3.1002224 25.417293 7.0827075 36.350222 16.25 40.625 C 16.26815 40.6261 16.29435 40.6261 16.3125 40.625 C 16.40123 40.65262 16.505021 40.65262 16.59375 40.625 C 16.786679 40.56728 16.936108 40.388874 16.9375 40.1875 C 16.937702 40.11144 16.91097 40.035767 16.875 39.96875 C 16.84508 39.92653 16.792224 39.90492 16.75 39.875 C 16.71626 39.85207 16.663593 39.82573 16.625 39.8125 C 7.9072137 35.747332 4.1223292 25.342785 8.1875 16.625 C 12.252669 7.9072133 22.657215 4.1223299 31.375 8.1875 C 31.679573 8.3295247 31.961606 8.4968959 32.25 8.65625 C 32.509672 8.902795 32.75731 9.1574917 32.96875 9.375 C 33.207769 9.620879 33.407481 9.8431443 33.4375 9.9375 C 33.46752 10.03186 33.426731 10.313437 33.375 10.65625 C 33.323269 10.999063 33.261716 11.40832 33.1875 11.8125 C 33.113286 12.21668 33.042686 12.631956 33.03125 12.96875 C 33.025505 13.137146 33.031162 13.269726 33.0625 13.40625 C 33.093877 13.542775 33.137277 13.697534 33.25 13.78125 C 33.362726 13.864962 33.519729 13.855576 33.65625 13.84375 C 33.79277 13.831924 33.939144 13.807818 34.09375 13.75 C 34.40296 13.634354 34.741446 13.447652 35.09375 13.25 C 35.446053 13.052347 35.822704 12.844224 36.125 12.6875 C 36.427296 12.530776 36.684312 12.406319 36.78125 12.40625 C 36.84071 12.406208 36.970436 12.466755 37.125 12.53125 C 41.525825 17.57324 42.817959 24.929773 39.8125 31.375 C 37.999317 35.263385 35.263383 37.999317 31.375 39.8125 C 31.35685 39.8114 31.33065 39.8114 31.3125 39.8125 C 31.27028 39.84242 31.217413 39.895277 31.1875 39.9375 C 31.16456 39.97124 31.13823 39.9614 31.125 40 C 31.07908 40.083 31.05203 40.218221 31.0625 40.3125 C 31.09887 40.527017 31.313806 40.679927 31.53125 40.6875 C 31.60731 40.687701 31.682984 40.66097 31.75 40.625 C 35.81054 38.731539 38.731537 35.810541 40.625 31.75 C 43.4921 25.601471 42.605815 18.687612 38.96875 13.5 C 39.132744 13.578289 39.319718 13.66325 39.46875 13.71875 C 39.623433 13.776354 39.738464 13.832113 39.875 13.84375 C 40.011536 13.855388 40.168638 13.833881 40.28125 13.75 C 40.393861 13.666119 40.468804 13.542819 40.5 13.40625 C 40.531199 13.269681 40.505943 13.137139 40.5 12.96875 C 40.488105 12.631972 40.44976 12.216575 40.375 11.8125 C 40.300241 11.408426 40.208441 10.99899 40.15625 10.65625 C 40.145767 10.587403 40.131508 10.532344 40.125 10.46875 C 43.208359 14.134044 45.09375 18.835906 45.09375 24 C 45.093752 35.643012 35.643011 45.09375 24 45.09375 C 12.356987 45.093749 2.90625 35.643012 2.90625 24 C 2.90625 12.356987 12.356988 2.90625 24 2.90625 z M 36.75 3.03125 C 36.778763 3.0312292 36.837699 3.0645135 36.90625 3.125 C 36.974799 3.1854766 37.042821 3.3128228 37.125 3.4375 C 37.289358 3.6868545 37.486327 4.0079123 37.65625 4.375 C 37.826173 4.7420867 37.963526 5.1473793 38.125 5.46875 C 38.286475 5.7901197 38.462693 6.0125018 38.65625 6.15625 C 38.849807 6.2999992 39.120202 6.3800938 39.46875 6.4375 C 39.817297 6.4949062 40.231378 6.5423102 40.625 6.59375 C 41.018623 6.6451937 41.373686 6.6986885 41.65625 6.78125 C 41.797532 6.8225318 41.922563 6.8583134 42 6.90625 C 42.077433 6.9541875 42.11609 7.0032471 42.125 7.03125 C 42.133914 7.0592499 42.128723 7.1333281 42.09375 7.21875 C 42.058738 7.3041759 41.996685 7.4127145 41.90625 7.53125 C 41.725376 7.76832 41.444785 8.0336303 41.15625 8.3125 C 40.867716 8.5913707 40.592422 8.8684826 40.34375 9.125 C 40.095077 9.3815174 39.886238 9.5796355 39.8125 9.8125 C 39.738761 10.045364 39.758125 10.361672 39.8125 10.71875 C 39.866875 11.075828 39.957404 11.475881 40.03125 11.875 C 40.105098 12.27412 40.176886 12.668138 40.1875 12.96875 C 40.192848 13.119056 40.17685 13.253546 40.15625 13.34375 C 40.135649 13.43395 40.117006 13.482674 40.09375 13.5 C 40.070484 13.517323 40.027679 13.507686 39.9375 13.5 C 39.84732 13.492275 39.700572 13.457664 39.5625 13.40625 C 39.286356 13.303414 38.941997 13.132236 38.59375 12.9375 C 38.245504 12.742764 37.908913 12.537833 37.59375 12.375 C 37.278587 12.212166 37.020379 12.09358 36.78125 12.09375 L 36.75 12.09375 C 36.514367 12.098306 36.246847 12.214621 35.9375 12.375 C 35.622557 12.538281 35.285484 12.74227 34.9375 12.9375 C 34.589516 13.13273 34.244754 13.303022 33.96875 13.40625 C 33.830747 13.457862 33.715171 13.492195 33.625 13.5 C 33.53483 13.507825 33.492035 13.486043 33.46875 13.46875 C 33.445465 13.451457 33.39573 13.433929 33.375 13.34375 C 33.35427 13.25358 33.338649 13.119064 33.34375 12.96875 C 33.353952 12.668123 33.426692 12.274224 33.5 11.875 C 33.573303 11.475777 33.664859 11.075905 33.71875 10.71875 C 33.77264 10.361595 33.792835 10.04526 33.71875 9.8125 C 33.644694 9.5797414 33.467769 9.3811648 33.21875 9.125 C 32.969731 8.8688352 32.663912 8.5909617 32.375 8.3125 C 32.086089 8.0340393 31.806194 7.7680644 31.625 7.53125 C 31.534404 7.4128433 31.472624 7.3041244 31.4375 7.21875 C 31.405697 7.1414557 31.40006 7.0923619 31.40625 7.0625 L 31.40625 7.03125 C 31.415164 7.0032303 31.453877 6.9542965 31.53125 6.90625 C 31.608624 6.8582035 31.702523 6.8227259 31.84375 6.78125 C 32.126203 6.6982903 32.512698 6.6457484 32.90625 6.59375 C 33.299802 6.5417516 33.714031 6.4953965 34.0625 6.4375 C 34.410969 6.3795986 34.681638 6.3315226 34.875 6.1875 C 35.068363 6.0434774 35.21396 5.7590995 35.375 5.4375 C 35.53604 5.1159005 35.705573 4.7423284 35.875 4.375 C 36.044426 4.0076716 36.24223 3.6558372 36.40625 3.40625 C 36.488259 3.2814569 36.525286 3.1855786 36.59375 3.125 C 36.66221 3.0644244 36.721232 3.0312698 36.75 3.03125 z M 24.21875 10.25 C 23.333976 10.23585 22.491756 10.315913 21.625 10.46875 C 18.157974 11.080079 14.925283 12.987122 12.75 16.09375 C 8.3994293 22.307007 9.8804912 30.89943 16.09375 35.25 C 16.306364 35.395473 16.604527 35.368863 16.75 35.15625 C 16.895474 34.943636 16.837613 34.645473 16.625 34.5 C 10.81802 30.433908 9.4339092 22.431979 13.5 16.625 C 17.56609 10.818021 25.568021 9.433909 31.375 13.5 C 37.18198 17.56609 38.56609 25.568021 34.5 31.375 C 33.591035 32.673135 32.673133 33.591037 31.375 34.5 C 31.162386 34.645472 31.104527 34.943637 31.25 35.15625 C 31.395473 35.368864 31.693636 35.395474 31.90625 35.25 C 33.27928 34.288593 34.288594 33.27928 35.25 31.90625 C 39.600568 25.692993 38.119509 17.100569 31.90625 12.75 C 29.576279 11.118535 26.873073 10.292442 24.21875 10.25 z M 24 16.65625 C 21.975999 16.65625 20.34375 18.320062 20.34375 20.34375 C 20.34375 22.36744 21.976 24.000001 24 24 C 26.024001 24 27.65625 22.36744 27.65625 20.34375 C 27.65625 18.320061 26.024001 16.656249 24 16.65625 z M 23.96875 25.84375 C 22.959656 25.83125 21.928196 26.056554 21.09375 26.5625 C 20.259304 27.068446 19.621722 27.875957 19.40625 28.9375 C 19.015487 30.862627 18.730297 34.200502 19 37.125 C 19.134851 38.587249 19.403006 39.95782 19.90625 41 C 20.409493 42.04218 21.236476 42.781251 22.34375 42.78125 L 25.65625 42.78125 C 26.767432 42.78125 27.613549 42.024021 28.125 40.96875 C 28.636451 39.91348 28.889251 38.536752 29.03125 37.0625 C 29.315248 34.113997 29.048684 30.76239 28.59375 28.90625 C 28.34455 27.889509 27.685299 27.101035 26.84375 26.59375 C 26.002202 26.086465 24.977844 25.856245 23.96875 25.84375 z "
     id="path-main" />
</defs>
<acyl-settings>
<linearGradient
     id="linearGradient4321">
    <stop
       style="stop-color:#89F6FB;stop-opacity:1.0;"
       offset="0.5"
       id="stop1" />
    <stop
       style="stop-color:#10A1AA;stop-opacity:1.0;"
       offset="1.0"
       id="stop2" />
  </linearGradient>
<radialGradient
       inkscape:collect="always"
       xlink:href="#linearGradient4321"
       id="acyl_gradient"
       cx="50.0%"
       cy="50.0%"
       fx="50.0%"
       fy="50.0%"
       r="50.0%"
/>
<filter id="filter1111" x="-50%" y="-50%" width="200%" height="200%">
	<feImage
	id="feImage2"
	xlink:href="#1"
	result="result1" />
	<feComposite
	id="feComposite3633"
	in="result1"
	in2="SourceGraphic"
	operator="xor" />
</filter>
	<rect
	style="fill:#1A4B4F;fill-opacity:1.0;filter:url(#filter1111)"
	id="rect2835"
	width="48"
	height="48"
	x="0"
	y="0"
	rx="3.5"
	ry="3.5" />
	<rect
	style="fill:url(#acyl_gradient);filter:url(#filter1111)"
	id="rect2835"
	width="44"
	height="44"
	x="2"
	y="2"
	rx="3.5"
	ry="3.5" />
<defs>
<use id="1" transform="translate(22.5,22.5) scale(0.85) translate(-22.5,-22.5)" style="fill:#000000" xlink:href="#path-main" />
</defs>
	<use id="2" transform="translate(22.5,22.5) scale(0.85) translate(-22.5,-22.5)" style="fill:#1A4B4F;fill-opacity:1.0" xlink:href="#path-main" />
</acyl-settings>
</svg>
