<svg xmlns="http://www.w3.org/2000/svg" width="48" height="48">
<defs>
  <path
     d="m 33.862465,2.00002 c 0,0 -0.742736,1.090182 -2.094687,3.229996 L 16.965349,5.137066 C 16.837884,4.301597 16.708114,3.482157 16.569688,2.546101 l -2.094683,0.302085 c 0.185069,1.251489 0.357552,2.398238 0.523669,3.473988 l -8.937318,11.1888 C 3.451449,17.532014 2.36075,17.336694 2.36075,17.336694 L 2,19.428057 c 0,0 1.171566,0.196073 3.816977,0.185898 l 0.558585,2.463165 -0.884424,0.883018 -0.523669,0.522844 0.535306,0.534458 1.66411,1.661473 1.605924,7.238442 c -2.792843,2.360208 -4.50357,3.27647 -4.50357,3.27647 l 1.012432,1.858995 c 0,0 1.693804,-0.916888 4.42211,-3.171903 l 13.068498,6.425136 c -0.272865,2.943585 -0.44221,4.438337 -0.44221,4.438337 L 24.436388,46 c 0,0 0.171008,-1.467479 0.44221,-4.380243 l 13.533981,-6.471611 c 1.563516,1.631318 2.595082,2.46316 2.595082,2.46316 l 1.326633,-1.649854 c 0,0 -1.117176,-0.902776 -2.781275,-2.695533 L 42.47394,20.636402 c 0.003,-0.0078 0.0086,-0.01537 0.01165,-0.02326 0.05012,-0.130925 0.09811,-0.27229 0.139644,-0.406653 0.06193,-0.200311 0.111397,-0.412418 0.151283,-0.639031 0.627258,-0.263312 3.223485,-1.359388 3.223485,-1.359388 l -0.814597,-1.951939 c 0,0 -1.193798,0.503327 -2.571807,1.08054 -0.162589,-0.434113 -0.414114,-0.854971 -0.791323,-1.231582 -0.39421,-0.393586 -0.833518,-0.66051 -1.291722,-0.82493 L 33.548271,6.380245 C 34.887425,4.26528 35.608047,3.196723 35.608047,3.196723 l -1.74557,-1.196726 z m -16.524729,5.576974 12.928851,0.05809 c -1.162963,1.894427 -2.583987,4.276355 -4.247549,7.157111 l -5.213433,0.917879 c -0.700476,-0.421883 -1.459612,-0.709955 -2.234333,-0.883023 -0.28304,-1.527099 -0.670268,-3.677984 -1.233536,-7.25006 z m 14.848982,0.964348 5.318167,6.808557 c -1.063669,0.36547 -2.001462,0.999076 -2.827823,1.824134 -0.877871,0.876479 -1.544611,1.893091 -1.896852,3.032478 -0.123936,0.400893 -0.197712,0.855726 -0.209468,1.336146 -0.35693,0.150845 -0.677626,0.292812 -1.2219,0.522844 l -3.398041,-6.413517 c 1.661311,-2.872429 3.090088,-5.25077 4.235917,-7.110642 z M 15.510707,9.563789 c 0.382006,2.357123 0.645706,3.872629 0.872787,5.100604 -1.738137,0.125918 -3.428872,0.832473 -4.724676,2.126219 l 0,0.01163 -0.465484,0.464751 c -0.695338,0.05666 -1.345046,0.104893 -1.943404,0.139424 L 15.510707,9.5638 z m 1.396456,6.552941 c 1.537765,-0.0085 3.07966,0.565146 4.259191,1.742803 l 3.1653,3.148666 2.932558,2.927911 c 0.702421,0.701322 1.666109,0.975104 2.595077,0.964348 0.928974,-0.01074 1.856073,-0.296222 2.513623,-0.95273 l 1.454642,-1.452337 0.244378,-0.243991 -0.0233,-0.336941 c -0.03618,-0.430245 0.0304,-0.887162 0.151283,-1.278057 0.269243,-0.870912 0.782938,-1.66472 1.524465,-2.405072 0.744191,-0.743017 1.538228,-1.25374 2.408883,-1.522049 0.838029,-0.258251 1.896022,-0.279675 2.629993,0.453133 0.733971,0.732803 0.703013,1.770574 0.44221,2.614202 -0.269243,0.870917 -0.782938,1.66472 -1.524465,2.405072 -0.744196,0.743012 -1.538233,1.265359 -2.408883,1.533667 -0.342233,0.105465 -0.737964,0.165544 -1.14044,0.151043 l -0.325839,-0.01163 -0.232742,0.220755 -1.524465,1.533667 c -2.262985,2.25937 -6.10105,2.34379 -8.460193,-0.01163 l -3.130388,-3.137047 -0.0233,-0.01163 -2.932558,-2.927911 C 18.799768,18.81965 17.824448,18.534249 16.895475,18.545 c -0.928969,0.01074 -1.856073,0.296227 -2.513618,0.952735 l -5.64401,5.646686 -1.66411,-1.661473 5.632374,-5.635067 0.01165,0 c 1.130817,-1.125453 2.653821,-1.72265 4.189364,-1.731185 z m 9.321343,0.790069 3.44459,6.506466 c -0.547418,-0.02749 -1.0579,-0.21967 -1.361546,-0.522839 l -2.932557,-2.927911 -2.467069,-2.46316 3.316582,-0.592556 z M 8.935728,19.521006 8.388784,20.067083 8.272414,19.555862 c 0.208224,-0.0088 0.440779,-0.02247 0.663314,-0.03484 z m 7.622322,0.546077 -0.814602,5.902296 c -1.798246,2.055901 -3.456019,3.742065 -4.922506,5.112223 L 9.75033,26.22499 15.429248,20.555071 c 0.227915,-0.227554 0.653092,-0.416424 1.128802,-0.487988 z m 2.048134,0.662268 2.769638,2.76525 3.1653,3.14866 c 0.374065,0.373472 0.784768,0.699716 1.210263,0.975972 l -1.175352,1.219964 -6.656437,-3.264852 0.686588,-4.844994 z m 20.504626,3.776073 -1.512828,6.506466 c -0.918689,-1.123664 -1.915585,-2.444441 -2.932557,-3.950352 0.148918,-0.126421 0.290547,-0.26685 0.430572,-0.406658 l 1.361545,-1.347764 c 0.436845,-0.02025 0.876034,-0.05694 1.256811,-0.17428 0.494177,-0.152289 0.955086,-0.365943 1.396457,-0.627412 z m -21.947631,3.055716 6.481882,3.171903 c -0.243383,3.296495 -0.45097,5.820158 -0.64004,7.993659 L 11.670455,33.161351 c 1.620271,-1.471257 3.48837,-3.325709 5.492724,-5.600211 z m 15.675217,0.627407 c 1.358352,2.015443 2.694006,3.718147 3.875162,5.088991 l -11.590581,5.542113 c 0.19369,-2.228234 0.403937,-4.820796 0.651683,-8.191176 l 2.001584,-2.091363 c 1.672688,0.468939 3.472987,0.343218 5.062152,-0.348565 z"
     id="path-main"/>
</defs>
<acyl-settings>
<linearGradient
     id="linearGradient4321">
    <stop
       style="stop-color:#89F6FB;stop-opacity:1.0;"
       offset="0.5"
       id="stop1" />
    <stop
       style="stop-color:#10A1AA;stop-opacity:1.0;"
       offset="1.0"
       id="stop2" />
  </linearGradient>
<radialGradient
       inkscape:collect="always"
       xlink:href="#linearGradient4321"
       id="acyl_gradient"
       cx="50.0%"
       cy="50.0%"
       fx="50.0%"
       fy="50.0%"
       r="50.0%"
/>
<filter id="filter1111" x="-50%" y="-50%" width="200%" height="200%">
	<feImage
	id="feImage2"
	xlink:href="#1"
	result="result1" />
	<feComposite
	id="feComposite3633"
	in="result1"
	in2="SourceGraphic"
	operator="xor" />
</filter>
	<rect
	style="fill:#1A4B4F;fill-opacity:1.0;filter:url(#filter1111)"
	id="rect2835"
	width="48"
	height="48"
	x="0"
	y="0"
	rx="3.5"
	ry="3.5" />
	<rect
	style="fill:url(#acyl_gradient);filter:url(#filter1111)"
	id="rect2835"
	width="44"
	height="44"
	x="2"
	y="2"
	rx="3.5"
	ry="3.5" />
<defs>
<use id="1" transform="translate(22.5,22.5) scale(0.85) translate(-22.5,-22.5)" style="fill:#000000" xlink:href="#path-main" />
</defs>
	<use id="2" transform="translate(22.5,22.5) scale(0.85) translate(-22.5,-22.5)" style="fill:#1A4B4F;fill-opacity:1.0" xlink:href="#path-main" />
</acyl-settings>
</svg>
