<svg xmlns="http://www.w3.org/2000/svg" width="48" height="48">
<defs>
  <path
     d="M 19.03125,2.57222 12.875,11.97847 2,14.75972 l 7.03125,8.75 -0.71875,11.1875 10.5,-3.96875 2.84375,1.125 c 0.464555,-2.505558 1.631736,-4.912989 3.5625,-6.84375 1.431065,-1.431066 3.112466,-2.468452 4.90625,-3.09375 l 5.75,-6.90625 -10.84375,-2.9375 -6,-9.5 z m 15.40625,20.125 c -2.957358,0 -5.900232,1.11898 -8.15625,3.375 -4.512046,4.51204 -4.512046,11.8317 0,16.34375 4.51204,4.51204 11.831713,4.51204 16.34375,0 4.512049,-4.51205 4.512049,-11.83171 0,-16.34375 -2.256018,-2.25602 -5.23014,-3.375 -8.1875,-3.375 z m -6.96875,9.4375 13.9375,0 0,4.21875 -13.9375,0 0,-4.21875 z"
     id="path-main"
      />
</defs>
<acyl-settings>
<linearGradient
     id="linearGradient4321">
    <stop
       style="stop-color:#89F6FB;stop-opacity:1.0;"
       offset="0.5"
       id="stop1" />
    <stop
       style="stop-color:#10A1AA;stop-opacity:1.0;"
       offset="1.0"
       id="stop2" />
  </linearGradient>
<radialGradient
       inkscape:collect="always"
       xlink:href="#linearGradient4321"
       id="acyl_gradient"
       cx="50.0%"
       cy="50.0%"
       fx="50.0%"
       fy="50.0%"
       r="50.0%"
/>
<filter id="filter1111" x="-50%" y="-50%" width="200%" height="200%">
	<feImage
	id="feImage2"
	xlink:href="#1"
	result="result1" />
	<feComposite
	id="feComposite3633"
	in="result1"
	in2="SourceGraphic"
	operator="xor" />
</filter>
	<rect
	style="fill:#1A4B4F;fill-opacity:1.0;filter:url(#filter1111)"
	id="rect2835"
	width="48"
	height="48"
	x="0"
	y="0"
	rx="3.5"
	ry="3.5" />
	<rect
	style="fill:url(#acyl_gradient);filter:url(#filter1111)"
	id="rect2835"
	width="44"
	height="44"
	x="2"
	y="2"
	rx="3.5"
	ry="3.5" />
<defs>
<use id="1" transform="translate(22.5,22.5) scale(0.85) translate(-22.5,-22.5)" style="fill:#000000" xlink:href="#path-main" />
</defs>
	<use id="2" transform="translate(22.5,22.5) scale(0.85) translate(-22.5,-22.5)" style="fill:#1A4B4F;fill-opacity:1.0" xlink:href="#path-main" />
</acyl-settings>
</svg>
