<svg xmlns="http://www.w3.org/2000/svg" width="48" height="48">
<defs>
<defs
     id="defs4">
  </defs>
  <path
     id="path-main"
     d="M 9.5481658,5.1543854 22.461336,21.284235 45.314859,15.059902 9.5481658,5.1543854 z M 8.4449724,5.3982493 2,29.424642 32.575878,37.321184 c -0.0012,-0.04682 -0.01161,-0.09225 -0.01161,-0.13935 1e-6,-3.135317 2.543226,-5.678544 5.678544,-5.678544 1.460804,0 2.790589,0.556034 3.797308,1.463183 L 46,15.814718 22.438111,22.236465 22.136184,22.317753 21.927158,22.097115 8.4449724,5.3982493 z M 38.289259,31.81683 c -2.950709,0 -5.341779,2.402683 -5.341779,5.353391 0,2.95071 2.39107,5.341779 5.341779,5.341779 2.950709,0 5.353391,-2.391069 5.353391,-5.341779 0,-2.950708 -2.402685,-5.35339 -5.353391,-5.353391 z m 0.02322,1.04513 c 2.458058,-1e-6 4.459224,2.001166 4.459224,4.459224 0,2.458059 -2.001166,4.447612 -4.459224,4.447612 -2.458057,0 -4.459224,-1.989553 -4.459224,-4.447612 0,-2.458058 2.001166,-4.459224 4.459224,-4.459224 z m 0,0.499341 c -2.187692,0 -3.959884,1.772192 -3.959884,3.959883 0,2.187692 1.772192,3.959884 3.959884,3.959884 2.187695,0 3.959884,-1.772192 3.959884,-3.959884 0,-2.187691 -1.772189,-3.959885 -3.959884,-3.959883 z m -0.03482,0.441277 c 1.924255,-2e-6 3.483769,1.559513 3.483769,3.483769 -4e-6,1.924255 -1.559514,3.483769 -3.483769,3.483769 -1.924254,0 -3.483768,-1.559514 -3.483769,-3.483769 1e-6,-1.924256 1.559515,-3.483769 3.483769,-3.483769 z m 0,0.162576 c -1.830565,0 -3.321191,1.490625 -3.321193,3.321193 0,1.830567 1.490627,3.321196 3.321193,3.321193 1.830567,0 3.321189,-1.490626 3.321193,-3.321193 0,-1.830568 -1.490626,-3.321195 -3.321193,-3.321193 z" />
</defs>
<acyl-settings>
<linearGradient
     id="linearGradient4321">
    <stop
       style="stop-color:#89F6FB;stop-opacity:1.0;"
       offset="0.5"
       id="stop1" />
    <stop
       style="stop-color:#10A1AA;stop-opacity:1.0;"
       offset="1.0"
       id="stop2" />
  </linearGradient>
<radialGradient
       inkscape:collect="always"
       xlink:href="#linearGradient4321"
       id="acyl_gradient"
       cx="50.0%"
       cy="50.0%"
       fx="50.0%"
       fy="50.0%"
       r="50.0%"
/>
<filter id="filter1111" x="-50%" y="-50%" width="200%" height="200%">
	<feImage
	id="feImage2"
	xlink:href="#1"
	result="result1" />
	<feComposite
	id="feComposite3633"
	in="result1"
	in2="SourceGraphic"
	operator="xor" />
</filter>
	<rect
	style="fill:#1A4B4F;fill-opacity:1.0;filter:url(#filter1111)"
	id="rect2835"
	width="48"
	height="48"
	x="0"
	y="0"
	rx="3.5"
	ry="3.5" />
	<rect
	style="fill:url(#acyl_gradient);filter:url(#filter1111)"
	id="rect2835"
	width="44"
	height="44"
	x="2"
	y="2"
	rx="3.5"
	ry="3.5" />
<defs>
<use id="1" transform="translate(22.5,22.5) scale(0.85) translate(-22.5,-22.5)" style="fill:#000000" xlink:href="#path-main" />
</defs>
	<use id="2" transform="translate(22.5,22.5) scale(0.85) translate(-22.5,-22.5)" style="fill:#1A4B4F;fill-opacity:1.0" xlink:href="#path-main" />
</acyl-settings>
</svg>
