<svg xmlns="http://www.w3.org/2000/svg" width="48" height="48">
<defs>
  <path
     id="path-main"
     d="m 28.232252,9.852603 c 4.809786,3.93565 3.653859,14.515202 -0.485059,16.732138 6.942552,-0.701418 8.024155,-14.839352 0.485059,-16.732138 z m -7.703409,0 c -4.809787,3.93565 -3.653859,14.515202 0.485058,16.732138 C 14.071349,25.883323 12.989746,11.745389 20.528843,9.852603 z M 32.098716,2 c 9.627987,7.711164 7.31411,28.439798 -0.970965,32.783467 C 45.025,33.40917 47.190098,5.7085564 32.098716,2 z m -7.718171,13.373306 c -2.143005,0 -3.882256,1.43005 -3.882256,3.192078 0,0.978825 0.535864,1.862287 1.380358,2.447981 l 0,19.982834 -6.254748,0 0,5.003801 17.513293,0 0,-5.003801 -6.254747,0 0,-19.982834 c 0.844494,-0.585694 1.380357,-1.469156 1.380357,-2.447981 0,-1.762027 -1.73925,-3.192079 -3.882257,-3.192078 z M 16.68032,2 C 7.0523331,9.711164 9.36621,30.439798 17.651285,34.783467 3.7540366,33.40917 1.5889381,5.7085564 16.68032,2 z" />
</defs>
<acyl-settings>
<linearGradient
     id="linearGradient4321">
    <stop
       style="stop-color:#89F6FB;stop-opacity:1.0;"
       offset="0.5"
       id="stop1" />
    <stop
       style="stop-color:#10A1AA;stop-opacity:1.0;"
       offset="1.0"
       id="stop2" />
  </linearGradient>
<radialGradient
       inkscape:collect="always"
       xlink:href="#linearGradient4321"
       id="acyl_gradient"
       cx="50.0%"
       cy="50.0%"
       fx="50.0%"
       fy="50.0%"
       r="50.0%"
/>
<filter id="filter1111" x="-50%" y="-50%" width="200%" height="200%">
	<feImage
	id="feImage2"
	xlink:href="#1"
	result="result1" />
	<feComposite
	id="feComposite3633"
	in="result1"
	in2="SourceGraphic"
	operator="xor" />
</filter>
	<rect
	style="fill:#1A4B4F;fill-opacity:1.0;filter:url(#filter1111)"
	id="rect2835"
	width="48"
	height="48"
	x="0"
	y="0"
	rx="3.5"
	ry="3.5" />
	<rect
	style="fill:url(#acyl_gradient);filter:url(#filter1111)"
	id="rect2835"
	width="44"
	height="44"
	x="2"
	y="2"
	rx="3.5"
	ry="3.5" />
<defs>
<use id="1" transform="translate(22.5,22.5) scale(0.85) translate(-22.5,-22.5)" style="fill:#000000" xlink:href="#path-main" />
</defs>
	<use id="2" transform="translate(22.5,22.5) scale(0.85) translate(-22.5,-22.5)" style="fill:#1A4B4F;fill-opacity:1.0" xlink:href="#path-main" />
</acyl-settings>
</svg>
