<svg xmlns="http://www.w3.org/2000/svg" width="48" height="48">
<defs>
  <path
     id="path-main"
     d="m 11.420213,9.5895106 c -2.3374492,0 -4.2420215,1.3048124 -4.2420215,2.9255324 l 31.5372345,0 c 0,-1.620719 -1.904574,-2.9255324 -4.242022,-2.9255324 l -23.053191,0 z M 7.8803191,13.275681 C 4.6150646,13.275681 2,15.534536 2,18.336851 L 2,36.09483 c 0,2.802315 2.6150646,5.061169 5.8803191,5.06117 l 32.2393619,0 C 43.384935,41.156 46,38.897145 46,36.09483 l 0,-17.757979 c 0,-2.802315 -2.615065,-5.06117 -5.880319,-5.06117 l -32.2393619,0 z m 14.4521279,4.62234 c 1.25725,0.05362 0.567108,1.753232 1.755319,2.457447 0.586875,0.0087 1.181559,0.09584 1.726064,0.234043 1.502469,-0.420718 1.029984,-2.702074 2.984042,-1.550532 1.866705,1.100019 -0.105066,1.805951 0.02926,3.18883 0.547444,0.495299 1.04235,1.056584 1.404255,1.696808 1.249637,0.375359 2.398899,-1.157187 2.925532,0.87766 0.516008,1.993794 -1.152369,1.317295 -2.077128,2.164893 0.0011,0.04859 -4.12e-4,0.06817 0,0.117021 0.0071,0.768036 -0.14226,1.532413 -0.380319,2.223405 0.638871,1.106061 2.489052,0.871773 1.433511,2.662234 -1.09971,1.865384 -1.804319,-0.105423 -3.18883,0.02925 -0.480564,0.453904 -0.980423,0.861778 -1.579787,1.170213 -0.645845,1.329831 1.157359,2.57544 -0.994681,3.130319 -2.208856,0.569529 -1.091594,-1.501672 -2.457447,-2.31117 -0.601751,-0.007 -1.198036,-0.120274 -1.755319,-0.263298 -1.477708,0.435809 -1.00965,2.726052 -2.954787,1.579787 -1.866611,-1.100019 0.105057,-1.805953 -0.02926,-3.18883 -0.5654,-0.506341 -1.064023,-1.066514 -1.43351,-1.726063 -1.238694,-0.344189 -2.373632,1.141802 -2.896277,-0.87766 -0.516008,-1.993795 1.152369,-1.288039 2.077128,-2.135638 -0.0022,-0.05594 4.21e-4,-0.08999 0,-0.146277 -0.0071,-0.768037 0.08375,-1.503156 0.321808,-2.194149 -0.63887,-1.106062 -2.430541,-0.901025 -1.375,-2.691489 1.099354,-1.864775 1.775971,0.133259 3.159575,0 0.489626,-0.464587 1.024881,-0.886655 1.638298,-1.199468 0.615138,-1.321643 -1.174717,-2.578509 0.965425,-3.130319 0.159168,-0.04104 0.282714,-0.07305 0.409575,-0.08777 0.102101,-0.01184 0.208737,-0.03283 0.292553,-0.02926 z M 24,24.451213 c -1.542397,0.01322 -2.793017,1.239269 -2.779255,2.720744 0.01376,1.481477 1.266104,2.704709 2.80851,2.69149 1.542396,-0.01322 2.763762,-1.239269 2.75,-2.720745 C 26.765484,25.661227 25.542396,24.437994 24,24.451213 z" />
</defs>
<acyl-settings>
<linearGradient
     id="linearGradient4321">
    <stop
       style="stop-color:#89F6FB;stop-opacity:1.0;"
       offset="0.5"
       id="stop1" />
    <stop
       style="stop-color:#10A1AA;stop-opacity:1.0;"
       offset="1.0"
       id="stop2" />
  </linearGradient>
<radialGradient
       inkscape:collect="always"
       xlink:href="#linearGradient4321"
       id="acyl_gradient"
       cx="50.0%"
       cy="50.0%"
       fx="50.0%"
       fy="50.0%"
       r="50.0%"
/>
<filter id="filter1111" x="-50%" y="-50%" width="200%" height="200%">
	<feImage
	id="feImage2"
	xlink:href="#1"
	result="result1" />
	<feComposite
	id="feComposite3633"
	in="result1"
	in2="SourceGraphic"
	operator="xor" />
</filter>
	<rect
	style="fill:#1A4B4F;fill-opacity:1.0;filter:url(#filter1111)"
	id="rect2835"
	width="48"
	height="48"
	x="0"
	y="0"
	rx="3.5"
	ry="3.5" />
	<rect
	style="fill:url(#acyl_gradient);filter:url(#filter1111)"
	id="rect2835"
	width="44"
	height="44"
	x="2"
	y="2"
	rx="3.5"
	ry="3.5" />
<defs>
<use id="1" transform="translate(22.5,22.5) scale(0.85) translate(-22.5,-22.5)" style="fill:#000000" xlink:href="#path-main" />
</defs>
	<use id="2" transform="translate(22.5,22.5) scale(0.85) translate(-22.5,-22.5)" style="fill:#1A4B4F;fill-opacity:1.0" xlink:href="#path-main" />
</acyl-settings>
</svg>
