<?xml version="1.0" encoding="UTF-8" standalone="no"?>
<!-- Created with Inkscape (http://www.inkscape.org/) -->

<svg
   xmlns:dc="http://purl.org/dc/elements/1.1/"
   xmlns:cc="http://creativecommons.org/ns#"
   xmlns:rdf="http://www.w3.org/1999/02/22-rdf-syntax-ns#"
   xmlns:svg="http://www.w3.org/2000/svg"
   xmlns="http://www.w3.org/2000/svg"
   xmlns:xlink="http://www.w3.org/1999/xlink"
   xmlns:sodipodi="http://sodipodi.sourceforge.net/DTD/sodipodi-0.dtd"
   xmlns:inkscape="http://www.inkscape.org/namespaces/inkscape"
   version="1.1"
   width="16"
   height="16"
   id="svg4099"
   inkscape:version="0.91 r"
   sodipodi:docname="emblem-web.svg">
  <sodipodi:namedview
     pagecolor="#ffffff"
     bordercolor="#666666"
     borderopacity="1"
     objecttolerance="10"
     gridtolerance="10"
     guidetolerance="10"
     inkscape:pageopacity="0"
     inkscape:pageshadow="2"
     inkscape:window-width="1406"
     inkscape:window-height="805"
     id="namedview63"
     showgrid="true"
     inkscape:zoom="19.90625"
     inkscape:cx="2.4874597"
     inkscape:cy="8"
     inkscape:window-x="65"
     inkscape:window-y="24"
     inkscape:window-maximized="0"
     inkscape:current-layer="svg4099">
    <inkscape:grid
       type="xygrid"
       id="grid3272" />
  </sodipodi:namedview>
  <defs
     id="defs4101">
    <linearGradient
       id="linearGradient7916">
      <stop
         offset="0"
         style="stop-color:#ffffff;stop-opacity:1"
         id="stop7918" />
      <stop
         offset="1"
         style="stop-color:#ffffff;stop-opacity:0"
         id="stop7920" />
    </linearGradient>
    <linearGradient
       inkscape:collect="always"
       xlink:href="#linearGradient7916"
       id="linearGradient3275"
       gradientUnits="userSpaceOnUse"
       gradientTransform="matrix(0.38677519,-0.37090819,0.38677519,0.37090819,13.389911,7.8135059)"
       x1="28.449389"
       y1="20.584223"
       x2="16.331276"
       y2="32.702335" />
    <linearGradient
       inkscape:collect="always"
       xlink:href="#linearGradient7916"
       id="linearGradient3278"
       gradientUnits="userSpaceOnUse"
       gradientTransform="matrix(0.38677519,-0.37090819,0.38677519,0.37090819,13.779805,7.6263552)"
       x1="36.010902"
       y1="13.022708"
       x2="16.331276"
       y2="32.702335" />
    <linearGradient
       id="linearGradient4011">
      <stop
         offset="0"
         style="stop-color:#ffffff;stop-opacity:1"
         id="stop4013" />
      <stop
         offset="0.507761"
         style="stop-color:#ffffff;stop-opacity:0.23529412"
         id="stop4015" />
      <stop
         offset="0.83456558"
         style="stop-color:#ffffff;stop-opacity:0.15686275"
         id="stop4017" />
      <stop
         offset="1"
         style="stop-color:#ffffff;stop-opacity:0.39215687"
         id="stop4019" />
    </linearGradient>
    <linearGradient
       inkscape:collect="always"
       xlink:href="#linearGradient4011"
       id="linearGradient4198"
       gradientUnits="userSpaceOnUse"
       gradientTransform="translate(-100.74024,-18.616038)"
       x1="71.204407"
       y1="6.2375584"
       x2="71.204407"
       y2="44.340794" />
    <linearGradient
       inkscape:collect="always"
       xlink:href="#linearGradient3242-3"
       id="linearGradient3281-8"
       gradientUnits="userSpaceOnUse"
       gradientTransform="matrix(0.72766006,0,0,0.69855753,35.063736,7.0022665)"
       x1="-2.9734659"
       y1="-23.989908"
       x2="-2.9734659"
       y2="36.678432" />
    <linearGradient
       id="linearGradient3242-3">
      <stop
         offset="0"
         style="stop-color:#f8b17e;stop-opacity:1"
         id="stop3244-0" />
      <stop
         offset="0.31209752"
         style="stop-color:#e35d4f;stop-opacity:1"
         id="stop3246-4" />
      <stop
         offset="0.57054454"
         style="stop-color:#c6262e;stop-opacity:1"
         id="stop3248-2" />
      <stop
         offset="1"
         style="stop-color:#690b54;stop-opacity:1"
         id="stop3250-5" />
    </linearGradient>
    <linearGradient
       gradientTransform="matrix(0.3685738,0,0,0.3685738,-0.84577,-0.84576985)"
       gradientUnits="userSpaceOnUse"
       xlink:href="#linearGradient2490"
       id="linearGradient3031"
       y2="3.0816143"
       x2="18.379412"
       y1="44.980297"
       x1="18.379412" />
    <radialGradient
       gradientTransform="matrix(0,0.8796593,-1.1611346,0,12.632931,-21.08413)"
       gradientUnits="userSpaceOnUse"
       xlink:href="#linearGradient3242"
       id="radialGradient3029"
       fy="3.9900031"
       fx="23.895569"
       r="20.397499"
       cy="3.9900031"
       cx="23.895569" />
    <linearGradient
       id="linearGradient2490">
      <stop
         offset="0"
         style="stop-color:#791235;stop-opacity:1"
         id="stop2492" />
      <stop
         offset="1"
         style="stop-color:#dd3b27;stop-opacity:1"
         id="stop2494" />
    </linearGradient>
    <linearGradient
       id="linearGradient3242">
      <stop
         offset="0"
         style="stop-color:#f8b17e;stop-opacity:1"
         id="stop3244" />
      <stop
         offset="0.26238"
         style="stop-color:#e35d4f;stop-opacity:1"
         id="stop3246" />
      <stop
         offset="0.66093999"
         style="stop-color:#c6262e;stop-opacity:1"
         id="stop3248" />
      <stop
         offset="1"
         style="stop-color:#690b54;stop-opacity:1"
         id="stop3250" />
    </linearGradient>
    <linearGradient
       id="linearGradient4011-5">
      <stop
         offset="0"
         style="stop-color:#ffffff;stop-opacity:1"
         id="stop4013-3" />
      <stop
         offset="0.507761"
         style="stop-color:#ffffff;stop-opacity:0.23529412"
         id="stop4015-7" />
      <stop
         offset="0.83456558"
         style="stop-color:#ffffff;stop-opacity:0.15686275"
         id="stop4017-6" />
      <stop
         offset="1"
         style="stop-color:#ffffff;stop-opacity:0.39215687"
         id="stop4019-3" />
    </linearGradient>
    <linearGradient
       gradientTransform="matrix(0.35135136,0,0,0.35135136,-17.203671,-0.90930025)"
       gradientUnits="userSpaceOnUse"
       xlink:href="#linearGradient4011-5"
       id="linearGradient3280"
       y2="44.340794"
       x2="71.204407"
       y1="6.2375584"
       x1="71.204407" />
    <linearGradient
       inkscape:collect="always"
       xlink:href="#linearGradient4011-5"
       id="linearGradient3058"
       gradientUnits="userSpaceOnUse"
       gradientTransform="matrix(0.35135136,0,0,0.35135136,-53.140513,6.3780256)"
       x1="71.204407"
       y1="6.2375584"
       x2="71.204407"
       y2="44.340794" />
    <radialGradient
       inkscape:collect="always"
       xlink:href="#linearGradient3242"
       id="radialGradient3061"
       gradientUnits="userSpaceOnUse"
       gradientTransform="matrix(0,0.93853188,-1.2388454,0,12.942997,-23.030631)"
       cx="23.895569"
       cy="3.9900031"
       fx="23.895569"
       fy="3.9900031"
       r="20.397499" />
  </defs>
  <metadata
     id="metadata4104">
    <rdf:RDF>
      <cc:Work
         rdf:about="">
        <dc:format>image/svg+xml</dc:format>
        <dc:type
           rdf:resource="http://purl.org/dc/dcmitype/StillImage" />
        <dc:title></dc:title>
      </cc:Work>
    </rdf:RDF>
  </metadata>
  <g
     style="display:inline"
     id="g3532-1"
     transform="matrix(1.1234418,0,-0.7136519,1.2607334,135.97254,-6.4062028)" />
  <g
     style="fill:#fce94f;stroke:none;display:inline"
     id="g3557-05"
     transform="matrix(1.1234418,0,-0.7136519,1.2607334,135.97254,-6.4062028)" />
  <g
     id="layer9"
     label="status"
     inkscape:label="status"
     style="display:inline"
     transform="matrix(1.1428571,0,0,1.1428571,-564.57186,503.99998)">
    <path
       class="error"
       inkscape:connector-curvature="0"
       d="m 501.0004,-441 c -3.87055,0 -7,3.12944 -7,7 0,3.87055 3.12945,7 7,7 3.87055,0 7,-3.12945 7,-7 0,-3.87056 -3.12945,-7 -7,-7 z"
       id="path7714"
       sodipodi:nodetypes="sssss"
       style="font-size:medium;font-style:normal;font-variant:normal;font-weight:normal;font-stretch:normal;text-indent:0;text-align:start;text-decoration:none;line-height:normal;letter-spacing:normal;word-spacing:normal;text-transform:none;direction:ltr;block-progression:tb;writing-mode:lr-tb;text-anchor:start;color:#bebebe;fill:#367bd3;fill-opacity:1;fill-rule:nonzero;stroke:none;stroke-width:1.78124988000000006;marker:none;visibility:visible;display:inline;overflow:visible;enable-background:new;font-family:Andale Mono;-inkscape-font-specification:Andale Mono" />
  </g>
  <g
     id="layer10"
     inkscape:label="devices"
     style="display:inline"
     transform="matrix(1.1428571,0,0,1.1428571,-564.57186,503.99998)" />
  <g
     id="layer13"
     inkscape:label="places"
     style="display:inline"
     transform="matrix(1.1428571,0,0,1.1428571,-564.57186,503.99998)" />
  <g
     id="layer14"
     inkscape:label="mimes"
     transform="matrix(1.1428571,0,0,1.1428571,-564.57186,503.99998)" />
  <g
     id="layer15"
     inkscape:label="emblems"
     style="display:inline"
     transform="matrix(1.1428571,0,0,1.1428571,-564.57186,503.99998)" />
  <g
     id="g71291"
     inkscape:label="emotes"
     style="display:inline"
     transform="matrix(1.1428571,0,0,1.1428571,-564.57186,503.99998)" />
  <g
     id="g4953"
     inkscape:label="categories"
     style="display:inline"
     transform="matrix(1.1428571,0,0,1.1428571,-564.57186,503.99998)" />
  <g
     id="layer12"
     inkscape:label="actions"
     style="display:inline"
     transform="matrix(1.1428571,0,0,1.1428571,-564.57186,503.99998)" />
  <g
     style="opacity:0.3;fill:#ffffff;fill-opacity:1"
     id="g5"
     transform="matrix(0.03337271,0,0,0.03337271,2.2744297,0.90162391)" />
  <g
     id="g3768"
     style="fill:#dfdbd2;fill-opacity:1"
     transform="matrix(0.03337271,0,0,0.03337271,2.3074495,0.90962391)" />
  <g
     transform="matrix(1.1798471,0,0,1.1798471,-69.570194,-929.4493)"
     id="layer12-9"
     style="opacity:0.3;color:#000000;fill:#ffffff;fill-opacity:1;fill-rule:nonzero;stroke:none;stroke-width:1.70000005;marker:none;visibility:visible;display:inline;overflow:visible;enable-background:accumulate" />
  <path
     inkscape:connector-curvature="0"
     d="m 8.0000002,3.0000003 c -2.4796834,0 -4.5277252,1.7988251 -4.9218752,4.1666668 l 1.7187501,0 C 5.1674334,5.7297421 6.4473418,4.666667 8.0000002,4.666667 c 0.9233917,0 1.7472,0.3825667 2.3437498,0.9895834 l -1.5104165,1.5104167 2.3697915,0 1.71875,0 0.07808,0 0,-4.1666668 -1.458334,1.4583334 C 10.639467,3.5545003 9.3813002,3.0000003 7.9999585,3.0000003 Z M 3,8.8333338 3,13 4.4583334,11.541667 C 5.3604917,12.4455 6.6186585,13 8.0000002,13 10.479684,13 12.527725,11.201175 12.921875,8.8333338 l -1.71875,0 c -0.370558,1.4369242 -1.6504664,2.4999992 -3.2031248,2.4999992 -0.9233917,0 -1.7472001,-0.382566 -2.3437501,-0.989583 l 1.5104167,-1.5104162 -2.3697917,0 -1.7187501,0 -0.078083,0 z"
     id="path3809"
     style="color:#000000;display:block;overflow:visible;visibility:visible;fill:#ffffff;fill-opacity:1;fill-rule:nonzero;stroke:none;stroke-width:1;marker:none;enable-background:new" />
</svg>
