<?xml version="1.0" encoding="UTF-8" standalone="no"?>
<!-- Created with Inkscape (http://www.inkscape.org/) -->

<svg
   xmlns:dc="http://purl.org/dc/elements/1.1/"
   xmlns:cc="http://creativecommons.org/ns#"
   xmlns:rdf="http://www.w3.org/1999/02/22-rdf-syntax-ns#"
   xmlns:svg="http://www.w3.org/2000/svg"
   xmlns="http://www.w3.org/2000/svg"
   xmlns:xlink="http://www.w3.org/1999/xlink"
   xmlns:sodipodi="http://sodipodi.sourceforge.net/DTD/sodipodi-0.dtd"
   xmlns:inkscape="http://www.inkscape.org/namespaces/inkscape"
   width="24"
   height="24"
   id="svg3767"
   version="1.1"
   inkscape:version="0.47 r22583"
   sodipodi:docname="mr.svg"
   inkscape:export-filename="/home/nix2bj/Desktop/ru.png"
   inkscape:export-xdpi="90"
   inkscape:export-ydpi="90">
  <defs
     id="defs3769">
    <linearGradient
       inkscape:collect="always"
       id="linearGradient3671">
      <stop
         style="stop-color:#949494;stop-opacity:1;"
         offset="0"
         id="stop3673" />
      <stop
         style="stop-color:#949494;stop-opacity:0;"
         offset="1"
         id="stop3675" />
    </linearGradient>
    <inkscape:perspective
       sodipodi:type="inkscape:persp3d"
       inkscape:vp_x="0 : 16 : 1"
       inkscape:vp_y="0 : 1000 : 0"
       inkscape:vp_z="32 : 16 : 1"
       inkscape:persp3d-origin="16 : 10.666667 : 1"
       id="perspective3775" />
    <inkscape:perspective
       id="perspective3748"
       inkscape:persp3d-origin="0.5 : 0.33333333 : 1"
       inkscape:vp_z="1 : 0.5 : 1"
       inkscape:vp_y="0 : 1000 : 0"
       inkscape:vp_x="0 : 0.5 : 1"
       sodipodi:type="inkscape:persp3d" />
    <linearGradient
       inkscape:collect="always"
       xlink:href="#linearGradient3671"
       id="linearGradient4059"
       gradientUnits="userSpaceOnUse"
       x1="12.000001"
       y1="20"
       x2="12.000001"
       y2="31.9375" />
    <linearGradient
       inkscape:collect="always"
       xlink:href="#linearGradient3671"
       id="linearGradient4092"
       gradientUnits="userSpaceOnUse"
       x1="12.000001"
       y1="20"
       x2="12.000001"
       y2="31.9375" />
    <linearGradient
       inkscape:collect="always"
       xlink:href="#linearGradient3671"
       id="linearGradient4240"
       gradientUnits="userSpaceOnUse"
       x1="12.000001"
       y1="20"
       x2="12.000001"
       y2="31.9375" />
    <linearGradient
       inkscape:collect="always"
       xlink:href="#linearGradient3671"
       id="linearGradient4395"
       gradientUnits="userSpaceOnUse"
       x1="12.000001"
       y1="20"
       x2="12.000001"
       y2="31.9375" />
    <linearGradient
       inkscape:collect="always"
       xlink:href="#linearGradient3671"
       id="linearGradient4481"
       gradientUnits="userSpaceOnUse"
       x1="12.000001"
       y1="20"
       x2="12.000001"
       y2="31.9375" />
    <linearGradient
       inkscape:collect="always"
       xlink:href="#linearGradient3671"
       id="linearGradient4543"
       gradientUnits="userSpaceOnUse"
       x1="12.000001"
       y1="20"
       x2="12.000001"
       y2="31.9375" />
    <linearGradient
       inkscape:collect="always"
       xlink:href="#linearGradient3671"
       id="linearGradient4549"
       gradientUnits="userSpaceOnUse"
       x1="12.000001"
       y1="20"
       x2="12.000001"
       y2="31.9375" />
  </defs>
  <sodipodi:namedview
     id="base"
     pagecolor="#ffffff"
     bordercolor="#666666"
     borderopacity="1.0"
     inkscape:pageopacity="0.0"
     inkscape:pageshadow="2"
     inkscape:zoom="16"
     inkscape:cx="6.5750909"
     inkscape:cy="8.984427"
     inkscape:current-layer="layer1"
     showgrid="true"
     inkscape:grid-bbox="true"
     inkscape:document-units="px"
     inkscape:window-width="1440"
     inkscape:window-height="827"
     inkscape:window-x="0"
     inkscape:window-y="25"
     inkscape:window-maximized="1"
     showguides="true"
     inkscape:guide-bbox="true">
    <sodipodi:guide
       orientation="0,1"
       position="10.625,15.4375"
       id="guide4950" />
    <sodipodi:guide
       orientation="0,1"
       position="8.9375,8.8125"
       id="guide4952" />
  </sodipodi:namedview>
  <metadata
     id="metadata3772">
    <rdf:RDF>
      <cc:Work
         rdf:about="">
        <dc:format>image/svg+xml</dc:format>
        <dc:type
           rdf:resource="http://purl.org/dc/dcmitype/StillImage" />
        <dc:title></dc:title>
      </cc:Work>
    </rdf:RDF>
  </metadata>
  <g
     id="layer1"
     inkscape:label="Layer 1"
     inkscape:groupmode="layer"
     transform="translate(0,-8)">
    <path
       sodipodi:nodetypes="ccccccccc"
       d="m 4.305036,14.02212 c -0.609406,0 -1.305035,0.7602 -1.305035,1.3142 l 0,9.29866 C 3.000001,25.36596 3.788897,26 4.453508,26 l 15.048741,0 c 0.797345,0 1.497752,-0.67784 1.497752,-1.37608 l 0,-9.15935 C 21.000001,14.68903 20.31074,14 19.590738,14 L 4.305036,14.0221 z"
       id="path2387"
       style="opacity:0.9;fill:url(#linearGradient4549);fill-opacity:1;fill-rule:nonzero;stroke:none;stroke-width:1;marker:none;visibility:visible;display:inline;overflow:visible;enable-background:accumulate" />
    <rect
       width="19"
       height="13"
       rx="2"
       ry="2"
       x="2.5000002"
       y="13.499999"
       id="rect3179"
       style="opacity:0.6;fill:none;stroke:#ececec;stroke-width:1;stroke-linecap:round;stroke-linejoin:miter;stroke-miterlimit:4;stroke-opacity:0;stroke-dasharray:none;stroke-dashoffset:0;marker:none;visibility:visible;display:inline;overflow:visible;enable-background:accumulate" />
    <text
       xml:space="preserve"
       style="font-size:39.52241516px;font-style:normal;font-weight:normal;fill:#f1f1f1;fill-opacity:1;stroke:none;font-family:Bitstream Vera Sans"
       x="4.2661033"
       y="22.91065"
       id="text3686"
       transform="scale(0.98806038,1.0120839)"><tspan
         sodipodi:role="line"
         id="tspan3688"
         x="4.2661033"
         y="22.91065"
         style="font-size:8.89254379px;font-style:normal;font-weight:bold;fill:#f1f1f1;fill-opacity:1;-inkscape-font-specification:Andale Mono Bold">MS</tspan></text>
  </g>
</svg>
