<?xml version="1.0" encoding="UTF-8" standalone="no"?>
<svg
   xmlns:dc="http://purl.org/dc/elements/1.1/"
   xmlns:cc="http://creativecommons.org/ns#"
   xmlns:rdf="http://www.w3.org/1999/02/22-rdf-syntax-ns#"
   xmlns:svg="http://www.w3.org/2000/svg"
   xmlns="http://www.w3.org/2000/svg"
   xmlns:sodipodi="http://sodipodi.sourceforge.net/DTD/sodipodi-0.dtd"
   xmlns:inkscape="http://www.inkscape.org/namespaces/inkscape"
   width="22"
   version="1.1"
   height="22"
   id="svg2"
   inkscape:version="0.91 r"
   sodipodi:docname="shutter-panel.svg">
  <metadata
     id="metadata15">
    <rdf:RDF>
      <cc:Work
         rdf:about="">
        <dc:format>image/svg+xml</dc:format>
        <dc:type
           rdf:resource="http://purl.org/dc/dcmitype/StillImage" />
        <dc:title />
      </cc:Work>
    </rdf:RDF>
  </metadata>
  <sodipodi:namedview
     pagecolor="#ffffff"
     bordercolor="#666666"
     borderopacity="1"
     objecttolerance="10"
     gridtolerance="10"
     guidetolerance="10"
     inkscape:pageopacity="0"
     inkscape:pageshadow="2"
     inkscape:window-width="721"
     inkscape:window-height="480"
     id="namedview13"
     showgrid="false"
     inkscape:zoom="10.727273"
     inkscape:cx="9.9271347"
     inkscape:cy="-11.707405"
     inkscape:window-x="468"
     inkscape:window-y="85"
     inkscape:window-maximized="0"
     inkscape:current-layer="svg2" />
  <defs
     id="defs4">
    <mask
       id="m">
      <rect
         y="0"
         x="0"
         style="fill:#fff"
         height="22"
         width="22"
         id="rect7" />
      <text
         y="15.5"
         x="6.5"
         style="font-size:12;font-family:Ubuntu;font-weight:500;fill:black"
         id="text9">It</text>
    </mask>
  </defs>
  <path
     inkscape:connector-curvature="0"
     d="M 17.213505,1.3010451 C 14.808666,1.3369897 10.220256,2.3461922 8.9889045,4.0425826 8.1214334,5.5126431 8.4206141,11.023486 8.6462125,10.667966 10.505621,7.7378577 15.173606,3.9201637 18.013121,2.3291217 19.32935,1.5916237 18.656419,1.2795027 17.213505,1.3010451 Z M 6.7804438,4.5756593 C 6.1454186,4.6838588 3.6037081,6.4419767 4.1912148,9.601812 4.7489652,11.215029 8.3119883,13.355367 8.1892894,12.952579 7.1744092,9.621002 6.8184728,7.4551017 6.9327525,4.6137357 6.93519,4.5610986 6.8712202,4.5602453 6.7804438,4.5757196 Z M 14.928904,6.6318128 C 13.22642,6.7546458 10.205416,9.6545596 10.626213,9.6398877 14.106832,9.5185246 16.287352,9.7485758 19.00312,10.59181 19.405238,10.716668 18.591135,6.9144469 14.928904,6.6318128 Z M 2.5919837,10.020657 c -0.340937,0.17971 -0.9427596,3.572492 2.0180773,5.330768 1.5807946,0.643957 5.524151,-0.626387 5.1403822,-0.799614 C 6.57612,13.118923 4.7295052,11.979528 2.668137,10.020657 c -0.01914,-0.01817 -0.05349,-0.0122 -0.076158,0 z m 9.7857673,0.190386 c -0.08992,0.005 -0.10625,0.03301 -0.07616,0.07616 1.990442,2.857902 2.966309,4.800472 3.731525,7.539229 0.11332,0.405529 2.853894,-2.329589 1.104231,-5.559229 -0.898548,-1.193019 -4.130429,-2.088526 -4.759594,-2.056152 z m 0.761538,2.589227 c -0.01988,-0.005 -0.03144,0.01267 -0.03802,0.03801 -0.879195,3.369936 -1.727997,5.406509 -3.3126916,7.767692 -0.2346386,0.349613 3.6317806,0.610754 4.9499986,-2.817692 0.346127,-1.562358 -1.302219,-4.911651 -1.599232,-4.988074 z m -1.25654,1.599233 c -3.1418134,1.502801 -5.2078235,2.200163 -8.0342262,2.513078 -0.4184934,0.04629 1.8609676,3.147076 5.3307666,1.94192 1.5113916,-0.793267 3.0833036,-4.636683 2.7034596,-4.454998 z"
     id="path3526"
     style="fill:#ffffff;fill-opacity:1;stroke-width:25" />
</svg>
