<?xml version="1.0" encoding="UTF-8" standalone="no"?>
<svg
   id="svg2"
   width="288"
   height="144"
   version="1.0"
   inkscape:export-ydpi="90">
  <metadata
     id="metadata7">
    <rdf:RDF>
      <cc:Work
         rdf:about="">
        <dc:format>image/svg+xml</dc:format>
        <dc:type
           rdf:resource="http://purl.org/dc/dcmitype/StillImage" />
      </cc:Work>
    </rdf:RDF>
  </metadata>
  <defs
     id="defs5">
  </defs>
  <sodipodi:namedview
     guidetolerance="10.0"
     gridtolerance="10.0"
     objecttolerance="10.0"
     borderopacity="1.0"
     bordercolor="#666666"
     pagecolor="#ffffff"
     id="base"
     showgrid="false"
     showguides="true"
     inkscape:current-layer="svg2">
  </sodipodi:namedview>
  <path
     style="fill:#2c2c2c;fill-opacity:1;fill-rule:nonzero;stroke:none;stroke-width:10;stroke-linecap:round;stroke-linejoin:miter;marker:none;marker-start:none;marker-mid:none;marker-end:none;stroke-miterlimit:4;stroke-dasharray:none;stroke-dashoffset:0;stroke-opacity:1;visibility:visible;display:inline;overflow:visible;enable-background:accumulate"
     d="M 26.9,3.3
C 26.8,3.3 26.7,3.3 26.6,3.3
C 25.7,3.5 24.9,4.3 24.9,5.3
C 24.9,6.4 25.5,7.2 26.5,7.5
C 29.7,8.3 32.1,9.7 34.4,12.0
C 35.3,12.9 36.6,12.9 37.5,12.0
C 38.3,11.2 38.3,9.8 37.5,9.0
C 34.7,6.2 31.5,4.4 27.6,3.3
C 27.4,3.3 27.2,3.2 26.9,3.3 z M 22.3,10.0
C 18.4,10.0 14.5,11.4 11.5,14.4
C 11.5,14.4 11.4,14.5 11.4,14.5
C 10.6,15.4 10.7,16.7 11.5,17.4
C 12.4,18.2 13.7,18.1 14.4,17.3
C 18.8,12.9 25.8,12.9 30.1,17.3
C 34.4,21.6 34.4,28.6 30.1,32.9
C 25.8,37.3 18.8,37.3 14.4,32.9
C 13.9,32.4 13.1,32.2 12.4,32.4
C 11.7,32.6 11.2,33.1 11.0,33.9
C 10.8,34.6 11.0,35.3 11.5,35.8
C 17.4,41.8 27.1,41.8 33.0,35.8
C 38.9,29.9 38.9,20.3 33.0,14.4
C 30.0,11.4 26.1,10.0 22.3,10.0 z M 22.3,17.1
C 20.2,17.1 18.1,17.9 16.5,19.4
C 13.4,22.6 13.4,27.7 16.5,30.8
C 19.7,34.0 24.8,34.0 28.0,30.8
C 31.1,27.7 31.1,22.6 28.0,19.4
C 26.4,17.9 24.3,17.1 22.3,17.1 z M 2.8,17.8
C 2.2,17.8 1.6,18.0 1.2,18.5
C 1.0,18.8 0.8,19.1 0.7,19.4
C -0.2,23.2 -0.2,26.9 0.7,30.7
C 1.0,31.9 2.2,32.6 3.3,32.3
C 4.5,32.0 5.2,30.8 4.9,29.6
C 4.0,26.4 4.0,23.7 4.9,20.5
C 5.2,19.5 4.7,18.5 3.8,18.0
C 3.5,17.9 3.1,17.8 2.8,17.8 z M 9.4,19.6
C 8.9,19.7 8.5,19.9 8.2,20.2
C 7.9,20.5 7.7,20.8 7.6,21.2
C 6.9,23.8 6.9,26.4 7.6,29.0
C 7.9,30.1 9.0,30.8 10.1,30.5
C 11.2,30.2 11.9,29.1 11.6,28.0
C 11.0,25.9 11.0,24.3 11.5,22.3
C 11.8,21.4 11.4,20.4 10.6,19.9
C 10.3,19.7 9.8,19.6 9.4,19.6 z M 22.3,21.0
C 23.3,21.0 24.3,21.4 25.2,22.2
C 26.8,23.8 26.8,26.4 25.2,28.0
C 23.5,29.6 21.0,29.6 19.4,28.0
C 17.8,26.4 17.8,23.8 19.4,22.2
C 20.2,21.4 21.2,21.0 22.3,21.0 z M 36.4,37.6
C 35.8,37.6 35.3,37.8 34.8,38.2
C 32.5,40.5 30.1,41.9 27.0,42.8
C 26.0,43.0 25.3,43.9 25.3,44.9
C 25.3,45.9 26.1,46.8 27.1,46.9
C 27.4,47.0 27.7,47.0 28.1,46.9
C 31.9,45.9 35.1,44.0 37.9,41.2
C 38.7,40.4 38.7,39.0 37.9,38.2
C 37.5,37.8 36.9,37.6 36.4,37.6 z"
     id="path3627" />
  <path
     style="fill:#2c2c2c;fill-opacity:1;fill-rule:nonzero;stroke:none;stroke-width:10;stroke-linecap:round;stroke-linejoin:miter;marker:none;marker-start:none;marker-mid:none;marker-end:none;stroke-miterlimit:4;stroke-dasharray:none;stroke-dashoffset:0;stroke-opacity:1;visibility:visible;display:inline;overflow:visible;enable-background:accumulate"
     d="M 26.9,51.2
C 26.8,51.2 26.7,51.2 26.6,51.2
C 25.7,51.4 24.9,52.3 24.9,53.3
C 24.9,54.3 25.5,55.2 26.5,55.4
C 29.7,56.3 32.1,57.6 34.4,60.0
C 35.3,60.8 36.6,60.8 37.5,60.0
C 38.3,59.1 38.3,57.8 37.5,56.9
C 34.7,54.1 31.5,52.3 27.6,51.3
C 27.4,51.2 27.2,51.2 26.9,51.2 z M 22.3,57.9
C 18.4,57.9 14.5,59.4 11.5,62.3
C 11.5,62.4 11.4,62.4 11.4,62.4
C 10.6,63.3 10.7,64.6 11.5,65.3
C 12.4,66.1 13.7,66.1 14.4,65.2
C 18.8,60.9 25.8,60.9 30.1,65.2
C 34.4,69.6 34.4,76.5 30.1,80.9
C 25.8,85.2 18.8,85.2 14.4,80.9
C 13.9,80.3 13.1,80.1 12.4,80.3
C 11.7,80.5 11.2,81.1 11.0,81.8
C 10.8,82.5 11.0,83.3 11.5,83.8
C 17.4,89.7 27.1,89.7 33.0,83.8
C 38.9,77.9 38.9,68.2 33.0,62.3
C 30.0,59.4 26.1,57.9 22.3,57.9 z M 22.3,65.0
C 20.2,65.0 18.1,65.8 16.5,67.4
C 13.4,70.5 13.4,75.6 16.5,78.8
C 19.7,81.9 24.8,81.9 28.0,78.8
C 31.1,75.6 31.1,70.5 28.0,67.4
C 26.4,65.8 24.3,65.0 22.3,65.0 z M 2.8,65.7
C 2.2,65.7 1.6,66.0 1.2,66.4
C 1.0,66.7 0.8,67.0 0.7,67.3
C -0.2,71.2 -0.2,74.8 0.7,78.7
C 1.0,79.8 2.2,80.5 3.3,80.2
C 4.5,79.9 5.2,78.7 4.9,77.6
C 4.0,74.4 4.0,71.6 4.9,68.4
C 5.2,67.5 4.7,66.4 3.8,66.0
C 3.5,65.8 3.1,65.7 2.8,65.7 z M 9.4,67.6
C 8.9,67.6 8.5,67.8 8.2,68.1
C 7.9,68.4 7.7,68.7 7.6,69.1
C 6.9,71.7 6.9,74.3 7.6,77.0
C 7.9,78.1 9.0,78.7 10.1,78.4
C 11.2,78.1 11.9,77.0 11.6,75.9
C 11.0,73.9 11.0,72.2 11.5,70.2
C 11.8,69.3 11.4,68.3 10.6,67.9
C 10.3,67.6 9.8,67.5 9.4,67.6 z M 22.3,68.9
C 23.3,68.9 24.3,69.3 25.2,70.1
C 26.8,71.8 26.8,74.3 25.2,76.0
C 23.5,77.6 21.0,77.6 19.4,76.0
C 17.8,74.3 17.8,71.8 19.4,70.1
C 20.2,69.3 21.2,68.9 22.3,68.9 z M 36.4,85.5
C 35.8,85.5 35.3,85.7 34.8,86.1
C 32.5,88.5 30.1,89.8 27.0,90.7
C 26.0,90.9 25.3,91.8 25.3,92.8
C 25.3,93.8 26.1,94.7 27.1,94.9
C 27.4,94.9 27.7,94.9 28.1,94.8
C 31.9,93.8 35.1,92.0 37.9,89.2
C 38.7,88.3 38.7,87.0 37.9,86.1
C 37.5,85.7 36.9,85.5 36.4,85.5 z"
     id="path9911" />
  <path
     style="fill:#2c2c2c;fill-opacity:1;fill-rule:nonzero;stroke:none;stroke-width:10;stroke-linecap:round;stroke-linejoin:miter;marker:none;marker-start:none;marker-mid:none;marker-end:none;stroke-miterlimit:4;stroke-dasharray:none;stroke-dashoffset:0;stroke-opacity:1;visibility:visible;display:inline;overflow:visible;enable-background:accumulate"
     d="M 26.9,99.2
C 26.8,99.2 26.7,99.2 26.6,99.2
C 25.7,99.4 24.9,100.3 24.9,101.3
C 24.9,102.3 25.5,103.2 26.5,103.4
C 29.7,104.3 32.1,105.7 34.4,108.0
C 35.3,108.8 36.6,108.8 37.5,108.0
C 38.3,107.2 38.3,105.8 37.5,105.0
C 34.7,102.2 31.5,100.3 27.6,99.3
C 27.4,99.2 27.2,99.2 26.9,99.2 z M 22.3,105.9
C 18.4,105.9 14.5,107.4 11.5,110.3
C 11.5,110.4 11.4,110.4 11.4,110.5
C 10.6,111.3 10.7,112.6 11.5,113.4
C 12.4,114.1 13.7,114.1 14.4,113.2
C 18.8,108.9 25.8,108.9 30.1,113.2
C 34.4,117.6 34.4,124.6 30.1,128.9
C 25.8,133.2 18.8,133.2 14.4,128.9
C 13.9,128.4 13.1,128.2 12.4,128.4
C 11.7,128.6 11.2,129.1 11.0,129.8
C 10.8,130.5 11.0,131.3 11.5,131.8
C 17.4,137.7 27.1,137.7 33.0,131.8
C 38.9,125.9 38.9,116.3 33.0,110.3
C 30.0,107.4 26.1,105.9 22.3,105.9 z M 22.3,113.0
C 20.2,113.0 18.1,113.8 16.5,115.4
C 13.4,118.5 13.4,123.7 16.5,126.8
C 19.7,129.9 24.8,129.9 28.0,126.8
C 31.1,123.7 31.1,118.5 28.0,115.4
C 26.4,113.8 24.3,113.0 22.3,113.0 z M 2.8,113.7
C 2.2,113.7 1.6,114.0 1.2,114.5
C 1.0,114.7 0.8,115.0 0.7,115.4
C -0.2,119.2 -0.2,122.9 0.7,126.7
C 1.0,127.8 2.2,128.5 3.3,128.2
C 4.5,127.9 5.2,126.7 4.9,125.6
C 4.0,122.4 4.0,119.7 4.9,116.5
C 5.2,115.5 4.7,114.5 3.8,114.0
C 3.5,113.8 3.1,113.7 2.8,113.7 z M 9.4,115.6
C 8.9,115.6 8.5,115.8 8.2,116.1
C 7.9,116.4 7.7,116.8 7.6,117.1
C 6.9,119.8 6.9,122.4 7.6,125.0
C 7.9,126.1 9.0,126.7 10.1,126.4
C 11.2,126.2 11.9,125.0 11.6,123.9
C 11.0,121.9 11.0,120.2 11.5,118.2
C 11.8,117.3 11.4,116.4 10.6,115.9
C 10.3,115.7 9.8,115.6 9.4,115.6 z M 22.3,117.0
C 23.3,117.0 24.3,117.4 25.2,118.2
C 26.8,119.8 26.8,122.4 25.2,124.0
C 23.5,125.6 21.0,125.6 19.4,124.0
C 17.8,122.4 17.8,119.8 19.4,118.2
C 20.2,117.4 21.2,117.0 22.3,117.0 z M 36.4,133.5
C 35.8,133.5 35.3,133.7 34.8,134.1
C 32.5,136.5 30.1,137.9 27.0,138.7
C 26.0,139.0 25.3,139.8 25.3,140.9
C 25.3,141.9 26.1,142.7 27.1,142.9
C 27.4,143.0 27.7,143.0 28.1,142.9
C 31.9,141.8 35.1,140.0 37.9,137.2
C 38.7,136.3 38.7,135.0 37.9,134.1
C 37.5,133.7 36.9,133.5 36.4,133.5 z"
     id="path9913" />
  <g
     id="g5839"
     transform="translate(5.4e-2,-6.7e-2)">
    <path
       sodipodi:nodetypes="csscsssccccsscsscsscssccssssccscssscsccssssccscsscssc"
       id="path9965"
       d="M 170.8,3.3
C 170.7,3.3 170.6,3.3 170.6,3.4
C 169.6,3.5 168.8,4.4 168.8,5.4
C 168.8,6.4 169.5,7.3 170.4,7.5
C 173.6,8.4 176.0,9.8 178.4,12.1
C 179.2,13.0 180.5,13.0 181.4,12.1
C 182.2,11.3 182.2,9.9 181.4,9.1
C 178.6,6.3 175.4,4.4 171.6,3.4
C 171.3,3.3 171.1,3.3 170.8,3.3 z M 166.2,10.0
C 162.3,10.0 158.4,11.5 155.4,14.5
C 155.4,14.5 155.4,14.5 155.3,14.6
C 154.5,15.4 154.6,16.7 155.4,17.5
C 156.3,18.3 157.6,18.2 158.3,17.4
C 162.7,13.0 169.7,13.0 174.0,17.4
C 178.3,21.7 178.3,28.7 174.0,33.0
C 169.7,37.4 162.7,37.4 158.3,33.0
C 157.8,32.5 157.1,32.3 156.3,32.5
C 155.6,32.7 155.1,33.2 154.9,33.9
C 154.7,34.6 154.9,35.4 155.4,35.9
C 161.4,41.8 171.0,41.8 176.9,35.9
C 182.8,30.0 182.8,20.4 176.9,14.5
C 174.0,11.5 170.1,10.0 166.2,10.0 z M 166.2,17.1
C 164.1,17.1 162.0,17.9 160.5,19.5
C 157.3,22.6 157.3,27.8 160.5,30.9
C 163.6,34.0 168.7,34.0 171.9,30.9
C 175.0,27.8 175.0,22.6 171.9,19.5
C 170.3,17.9 168.2,17.1 166.2,17.1 z M 153.3,19.7
C 152.9,19.8 152.4,19.9 152.1,20.3
C 151.8,20.5 151.6,20.9 151.5,21.3
C 150.8,23.9 150.8,26.5 151.5,29.1
C 151.8,30.2 152.9,30.8 154.0,30.6
C 155.1,30.3 155.8,29.1 155.5,28.0
C 154.9,26.0 154.9,24.4 155.5,22.3
C 155.7,21.4 155.3,20.5 154.6,20.0
C 154.2,19.8 153.7,19.7 153.3,19.7 z M 166.2,21.1
C 167.2,21.1 168.3,21.5 169.1,22.3
C 170.7,23.9 170.7,26.5 169.1,28.1
C 167.5,29.7 164.9,29.7 163.3,28.1
C 161.7,26.5 161.7,23.9 163.3,22.3
C 164.1,21.5 165.1,21.1 166.2,21.1 z M 180.3,37.6
C 179.7,37.6 179.2,37.8 178.8,38.3
C 176.4,40.6 174.1,42.0 170.9,42.8
C 169.9,43.1 169.2,44.0 169.2,45.0
C 169.2,46.0 170.0,46.8 171.0,47.0
C 171.3,47.1 171.6,47.1 172.0,47.0
C 175.8,46.0 179.0,44.1 181.8,41.3
C 182.6,40.5 182.6,39.1 181.8,38.3
C 181.4,37.8 180.8,37.6 180.3,37.6 z"
       style="fill:#2c2c2c;fill-opacity:1;fill-rule:nonzero;stroke:none;stroke-width:10;stroke-linecap:round;stroke-linejoin:miter;marker:none;marker-start:none;marker-mid:none;marker-end:none;stroke-miterlimit:4;stroke-dasharray:none;stroke-dashoffset:0;stroke-opacity:1;visibility:visible;display:inline;overflow:visible;enable-background:accumulate" />
    <path
       sodipodi:nodetypes="cscssscsc"
       id="path10044"
       d="M 146.8,17.9
C 146.2,17.9 145.6,18.1 145.2,18.6
C 144.9,18.9 144.8,19.2 144.7,19.5
C 143.7,23.3 143.7,27.0 144.7,30.8
C 145.0,32.0 146.2,32.7 147.3,32.4
C 148.5,32.1 149.1,30.9 148.8,29.7
C 148.0,26.5 148.0,23.8 148.8,20.6
C 149.1,19.6 148.7,18.6 147.8,18.1
C 147.5,17.9 147.1,17.8 146.8,17.9 z"
       style="fill:#009bf9;fill-opacity:1;fill-rule:nonzero;stroke:none;stroke-width:10;stroke-linecap:round;stroke-linejoin:miter;marker:none;marker-start:none;marker-mid:none;marker-end:none;stroke-miterlimit:4;stroke-dasharray:none;stroke-dashoffset:0;stroke-opacity:1;visibility:visible;display:inline;overflow:visible;enable-background:accumulate" />
  </g>
  <g
     id="g5835"
     transform="translate(-0.3,-6.7e-2)">
    <path
       id="path9957"
       d="M 123.3,3.3
C 123.2,3.3 123.1,3.3 123.0,3.4
C 122.0,3.5 121.3,4.4 121.3,5.4
C 121.2,6.4 121.9,7.3 122.9,7.5
C 126.1,8.4 128.5,9.8 130.8,12.1
C 131.6,13.0 133.0,13.0 133.8,12.1
C 134.7,11.3 134.7,9.9 133.8,9.1
C 131.0,6.3 127.8,4.4 124.0,3.4
C 123.8,3.3 123.5,3.3 123.3,3.3 z M 118.6,10.0
C 114.7,10.0 110.8,11.5 107.9,14.5
C 107.8,14.5 107.8,14.5 107.8,14.6
C 107.0,15.4 107.0,16.7 107.9,17.5
C 108.7,18.3 110.0,18.2 110.8,17.4
C 115.1,13.0 122.1,13.0 126.4,17.4
C 130.8,21.7 130.8,28.7 126.4,33.0
C 122.1,37.4 115.1,37.4 110.8,33.0
C 110.3,32.5 109.5,32.3 108.8,32.5
C 108.1,32.7 107.5,33.2 107.3,33.9
C 107.1,34.6 107.4,35.4 107.9,35.9
C 113.8,41.8 123.4,41.8 129.4,35.9
C 135.3,30.0 135.3,20.4 129.4,14.5
C 126.4,11.5 122.5,10.0 118.6,10.0 z M 118.6,17.1
C 116.5,17.1 114.5,17.9 112.9,19.5
C 109.8,22.6 109.8,27.8 112.9,30.9
C 116.0,34.0 121.2,34.0 124.3,30.9
C 127.4,27.8 127.4,22.6 124.3,19.5
C 122.7,17.9 120.7,17.1 118.6,17.1 z M 99.1,17.8
C 98.6,17.8 98.0,18.1 97.6,18.6
C 97.3,18.8 97.2,19.1 97.1,19.5
C 96.1,23.3 96.1,27.0 97.1,30.8
C 97.4,32.0 98.6,32.6 99.7,32.3
C 100.9,32.0 101.5,30.9 101.2,29.7
C 100.4,26.5 100.4,23.8 101.2,20.6
C 101.5,19.6 101.1,18.6 100.2,18.1
C 99.9,17.9 99.5,17.8 99.1,17.8 z M 105.7,19.7
C 105.3,19.8 104.9,19.9 104.5,20.3
C 104.2,20.5 104.0,20.9 103.9,21.3
C 103.2,23.9 103.2,26.5 104.0,29.1
C 104.2,30.2 105.4,30.8 106.5,30.6
C 107.6,30.3 108.2,29.1 107.9,28.0
C 107.4,26.0 107.4,24.4 107.9,22.3
C 108.2,21.4 107.8,20.5 107.0,20.0
C 106.6,19.8 106.2,19.7 105.7,19.7 z M 118.6,21.1
C 119.7,21.1 120.7,21.5 121.5,22.3
C 123.1,23.9 123.1,26.5 121.5,28.1
C 119.9,29.7 117.3,29.7 115.7,28.1
C 114.1,26.5 114.1,23.9 115.7,22.3
C 116.5,21.5 117.6,21.1 118.6,21.1 z M 132.7,37.6
C 132.2,37.6 131.6,37.8 131.2,38.3
C 128.9,40.6 126.5,42.0 123.3,42.8
C 122.3,43.1 121.6,44.0 121.7,45.0
C 121.7,46.0 122.4,46.8 123.4,47.0
C 123.7,47.1 124.1,47.1 124.4,47.0
C 128.2,46.0 131.4,44.1 134.2,41.3
C 135.1,40.5 135.1,39.1 134.2,38.3
C 133.8,37.8 133.3,37.6 132.7,37.6 z"
       style="fill:#2c2c2c;fill-opacity:1;fill-rule:nonzero;stroke:none;stroke-width:10;stroke-linecap:round;stroke-linejoin:miter;marker:none;marker-start:none;marker-mid:none;marker-end:none;stroke-miterlimit:4;stroke-dasharray:none;stroke-dashoffset:0;stroke-opacity:1;visibility:visible;display:inline;overflow:visible;enable-background:accumulate" />
    <path
       sodipodi:nodetypes="cscssscsc"
       id="path10046"
       d="M 99.2,17.9
C 98.6,17.9 98.0,18.1 97.6,18.6
C 97.3,18.9 97.2,19.2 97.1,19.5
C 96.1,23.3 96.1,27.0 97.1,30.8
C 97.4,32.0 98.6,32.7 99.7,32.4
C 100.9,32.1 101.5,30.9 101.2,29.7
C 100.4,26.5 100.4,23.8 101.2,20.6
C 101.5,19.6 101.1,18.6 100.2,18.1
C 99.9,17.9 99.5,17.9 99.2,17.9 z"
       style="opacity:0.6;fill:#009bf9;fill-opacity:1;fill-rule:nonzero;stroke:none;stroke-width:10;stroke-linecap:round;stroke-linejoin:miter;marker:none;marker-start:none;marker-mid:none;marker-end:none;stroke-miterlimit:4;stroke-dasharray:none;stroke-dashoffset:0;stroke-opacity:1;visibility:visible;display:inline;overflow:visible;enable-background:accumulate" />
  </g>
  <g
     id="g5822"
     transform="translate(-0.1,-6.7e-2)">
    <path
       id="path9915"
       d="M 75.1,3.3
C 75.0,3.3 74.9,3.3 74.8,3.4
C 73.8,3.5 73.1,4.4 73.1,5.4
C 73.0,6.4 73.7,7.3 74.7,7.5
C 77.9,8.4 80.3,9.8 82.6,12.1
C 83.4,13.0 84.8,13.0 85.6,12.1
C 86.5,11.3 86.5,9.9 85.6,9.1
C 82.8,6.3 79.6,4.4 75.8,3.4
C 75.6,3.3 75.3,3.3 75.1,3.3 z M 70.4,10.0
C 66.5,10.0 62.6,11.5 59.7,14.5
C 59.6,14.5 59.6,14.5 59.5,14.6
C 58.8,15.4 58.8,16.7 59.7,17.5
C 60.5,18.3 61.8,18.2 62.6,17.4
C 66.9,13.0 73.9,13.0 78.2,17.4
C 82.6,21.7 82.6,28.7 78.2,33.0
C 73.9,37.4 66.9,37.4 62.6,33.0
C 62.1,32.5 61.3,32.3 60.6,32.5
C 59.9,32.7 59.3,33.2 59.1,33.9
C 58.9,34.6 59.2,35.4 59.7,35.9
C 65.6,41.8 75.2,41.8 81.1,35.9
C 87.1,30.0 87.1,20.4 81.1,14.5
C 78.2,11.5 74.3,10.0 70.4,10.0 z M 70.4,17.1
C 68.3,17.1 66.3,17.9 64.7,19.5
C 61.6,22.6 61.6,27.8 64.7,30.9
C 67.8,34.0 73.0,34.0 76.1,30.9
C 79.2,27.8 79.2,22.6 76.1,19.5
C 74.5,17.9 72.5,17.1 70.4,17.1 z M 50.9,17.8
C 50.3,17.8 49.8,18.1 49.4,18.6
C 49.1,18.8 49.0,19.1 48.9,19.5
C 47.9,23.3 47.9,27.0 48.9,30.8
C 49.2,32.0 50.4,32.6 51.5,32.3
C 52.7,32.0 53.3,30.9 53.0,29.7
C 52.2,26.5 52.2,23.8 53.0,20.6
C 53.3,19.6 52.9,18.6 52.0,18.1
C 51.7,17.9 51.3,17.8 50.9,17.8 z M 57.5,19.7
C 57.1,19.8 56.7,19.9 56.3,20.3
C 56.0,20.5 55.8,20.9 55.7,21.3
C 55.0,23.9 55.0,26.5 55.7,29.1
C 56.0,30.2 57.2,30.8 58.3,30.6
C 59.4,30.3 60.0,29.1 59.7,28.0
C 59.2,26.0 59.2,24.4 59.7,22.3
C 60.0,21.4 59.6,20.5 58.8,20.0
C 58.4,19.8 58.0,19.7 57.5,19.7 z M 70.4,21.1
C 71.5,21.1 72.5,21.5 73.3,22.3
C 74.9,23.9 74.9,26.5 73.3,28.1
C 71.7,29.7 69.1,29.7 67.5,28.1
C 65.9,26.5 65.9,23.9 67.5,22.3
C 68.3,21.5 69.4,21.1 70.4,21.1 z M 84.5,37.6
C 84.0,37.6 83.4,37.8 83.0,38.3
C 80.7,40.6 78.3,42.0 75.1,42.8
C 74.1,43.1 73.4,44.0 73.5,45.0
C 73.5,46.0 74.2,46.8 75.2,47.0
C 75.5,47.1 75.9,47.1 76.2,47.0
C 80.0,46.0 83.2,44.1 86.0,41.3
C 86.9,40.5 86.9,39.1 86.0,38.3
C 85.6,37.8 85.1,37.6 84.5,37.6 z"
       style="fill:#2c2c2c;fill-opacity:1;fill-rule:nonzero;stroke:none;stroke-width:10;stroke-linecap:round;stroke-linejoin:miter;marker:none;marker-start:none;marker-mid:none;marker-end:none;stroke-miterlimit:4;stroke-dasharray:none;stroke-dashoffset:0;stroke-opacity:1;visibility:visible;display:inline;overflow:visible;enable-background:accumulate" />
    <path
       sodipodi:nodetypes="cscssscsc"
       id="path10048"
       d="M 51.0,17.9
C 50.4,17.9 49.8,18.1 49.4,18.6
C 49.1,18.9 49.0,19.2 48.9,19.5
C 47.9,23.3 47.9,27.0 48.9,30.8
C 49.2,32.0 50.4,32.7 51.5,32.4
C 52.7,32.1 53.3,30.9 53.0,29.7
C 52.2,26.5 52.2,23.8 53.0,20.6
C 53.3,19.6 52.9,18.6 52.0,18.1
C 51.7,17.9 51.3,17.9 51.0,17.9 z"
       style="opacity:0.3;fill:#009bf9;fill-opacity:1;fill-rule:nonzero;stroke:none;stroke-width:10;stroke-linecap:round;stroke-linejoin:miter;marker:none;marker-start:none;marker-mid:none;marker-end:none;stroke-miterlimit:4;stroke-dasharray:none;stroke-dashoffset:0;stroke-opacity:1;visibility:visible;display:inline;overflow:visible;enable-background:accumulate" />
  </g>
  <g
     id="g5843"
     transform="translate(-0.2,-6.7e-2)">
    <path
       id="path9973"
       d="M 219.2,3.3
C 219.1,3.3 219.0,3.3 218.9,3.4
C 217.9,3.5 217.2,4.4 217.2,5.4
C 217.2,6.4 217.8,7.3 218.8,7.5
C 222.0,8.4 224.4,9.8 226.7,12.1
C 227.6,13.0 228.9,13.0 229.8,12.1
C 230.6,11.3 230.6,9.9 229.8,9.1
C 227.0,6.3 223.8,4.4 219.9,3.4
C 219.7,3.3 219.4,3.3 219.2,3.3 z M 214.5,10.0
C 210.6,10.0 206.8,11.5 203.8,14.5
C 203.8,14.5 203.7,14.5 203.7,14.6
C 202.9,15.4 203.0,16.7 203.8,17.5
C 204.7,18.3 206.0,18.2 206.7,17.4
C 211.1,13.0 218.0,13.0 222.4,17.4
C 226.7,21.7 226.7,28.7 222.4,33.0
C 218.0,37.4 211.1,37.4 206.7,33.0
C 206.2,32.5 205.4,32.3 204.7,32.5
C 204.0,32.7 203.4,33.2 203.3,33.9
C 203.1,34.6 203.3,35.4 203.8,35.9
C 209.7,41.8 219.4,41.8 225.3,35.9
C 231.2,30.0 231.2,20.4 225.3,14.5
C 222.3,11.5 218.4,10.0 214.5,10.0 z M 214.5,17.1
C 212.5,17.1 210.4,17.9 208.8,19.5
C 205.7,22.6 205.7,27.8 208.8,30.9
C 212.0,34.0 217.1,34.0 220.2,30.9
C 223.4,27.8 223.4,22.6 220.2,19.5
C 218.7,17.9 216.6,17.1 214.5,17.1 z M 195.1,17.8
C 194.5,17.8 193.9,18.1 193.5,18.6
C 193.3,18.8 193.1,19.1 193.0,19.5
C 192.0,23.3 192.0,27.0 193.0,30.8
C 193.3,32.0 194.5,32.6 195.6,32.3
C 196.8,32.0 197.5,30.9 197.2,29.7
C 196.3,26.5 196.3,23.8 197.2,20.6
C 197.4,19.6 197.0,18.6 196.1,18.1
C 195.8,17.9 195.4,17.8 195.1,17.8 z M 201.7,19.7
C 201.2,19.8 200.8,19.9 200.5,20.3
C 200.2,20.5 200.0,20.9 199.9,21.3
C 199.2,23.9 199.2,26.5 199.9,29.1
C 200.2,30.2 201.3,30.8 202.4,30.6
C 203.5,30.3 204.1,29.1 203.8,28.0
C 203.3,26.0 203.3,24.4 203.8,22.3
C 204.1,21.4 203.7,20.5 202.9,20.0
C 202.5,19.8 202.1,19.7 201.7,19.7 z M 214.5,21.1
C 215.6,21.1 216.6,21.5 217.4,22.3
C 219.1,23.9 219.1,26.5 217.4,28.1
C 215.8,29.7 213.3,29.7 211.7,28.1
C 210.0,26.5 210.0,23.9 211.7,22.3
C 212.5,21.5 213.5,21.1 214.5,21.1 z M 228.7,37.6
C 228.1,37.6 227.5,37.8 227.1,38.3
C 224.8,40.6 222.4,42.0 219.2,42.8
C 218.3,43.1 217.6,44.0 217.6,45.0
C 217.6,46.0 218.3,46.8 219.3,47.0
C 219.7,47.1 220.0,47.1 220.3,47.0
C 224.2,46.0 227.4,44.1 230.2,41.3
C 231.0,40.5 231.0,39.1 230.2,38.3
C 229.7,37.8 229.2,37.6 228.7,37.6 z"
       style="fill:#2c2c2c;fill-opacity:1;fill-rule:nonzero;stroke:none;stroke-width:10;stroke-linecap:round;stroke-linejoin:miter;marker:none;marker-start:none;marker-mid:none;marker-end:none;stroke-miterlimit:4;stroke-dasharray:none;stroke-dashoffset:0;stroke-opacity:1;visibility:visible;display:inline;overflow:visible;enable-background:accumulate" />
    <path
       sodipodi:nodetypes="cscssscsc"
       id="path10050"
       d="M 195.1,17.9
C 194.5,17.9 193.9,18.1 193.5,18.6
C 193.3,18.9 193.1,19.2 193.0,19.5
C 192.0,23.3 192.0,27.0 193.0,30.8
C 193.3,32.0 194.5,32.7 195.6,32.4
C 196.8,32.1 197.5,30.9 197.2,29.7
C 196.3,26.5 196.3,23.8 197.2,20.6
C 197.5,19.6 197.0,18.6 196.1,18.1
C 195.8,17.9 195.4,17.9 195.1,17.9 z"
       style="opacity:0.6;fill:#009bf9;fill-opacity:1;fill-rule:nonzero;stroke:none;stroke-width:10;stroke-linecap:round;stroke-linejoin:miter;marker:none;marker-start:none;marker-mid:none;marker-end:none;stroke-miterlimit:4;stroke-dasharray:none;stroke-dashoffset:0;stroke-opacity:1;visibility:visible;display:inline;overflow:visible;enable-background:accumulate" />
  </g>
  <g
     id="g5847"
     transform="translate(-4.7e-2,-6.7e-2)">
    <path
       id="path9981"
       d="M 267.0,3.3
C 266.9,3.3 266.8,3.3 266.7,3.4
C 265.7,3.5 265.0,4.4 265.0,5.4
C 264.9,6.4 265.6,7.3 266.6,7.5
C 269.8,8.4 272.1,9.8 274.5,12.1
C 275.3,13.0 276.7,13.0 277.5,12.1
C 278.4,11.3 278.4,9.9 277.5,9.1
C 274.7,6.3 271.5,4.4 267.7,3.4
C 267.5,3.3 267.2,3.3 267.0,3.3 z M 262.3,10.0
C 258.4,10.0 254.5,11.5 251.6,14.5
C 251.5,14.5 251.5,14.5 251.4,14.6
C 250.7,15.4 250.7,16.7 251.6,17.5
C 252.4,18.3 253.7,18.2 254.5,17.4
C 258.8,13.0 265.8,13.0 270.1,17.4
C 274.5,21.7 274.5,28.7 270.1,33.0
C 265.8,37.4 258.8,37.4 254.5,33.0
C 254.0,32.5 253.2,32.3 252.5,32.5
C 251.8,32.7 251.2,33.2 251.0,33.9
C 250.8,34.6 251.1,35.4 251.6,35.9
C 257.5,41.8 267.1,41.8 273.0,35.9
C 279.0,30.0 279.0,20.4 273.0,14.5
C 270.1,11.5 266.2,10.0 262.3,10.0 z M 262.3,17.1
C 260.2,17.1 258.2,17.9 256.6,19.5
C 253.5,22.6 253.5,27.8 256.6,30.9
C 259.7,34.0 264.9,34.0 268.0,30.9
C 271.1,27.8 271.1,22.6 268.0,19.5
C 266.4,17.9 264.4,17.1 262.3,17.1 z M 242.8,17.8
C 242.2,17.8 241.7,18.1 241.2,18.6
C 241.0,18.8 240.9,19.1 240.8,19.5
C 239.7,23.3 239.7,27.0 240.8,30.8
C 241.1,32.0 242.3,32.6 243.4,32.3
C 244.6,32.0 245.2,30.9 244.9,29.7
C 244.1,26.5 244.1,23.8 244.9,20.6
C 245.2,19.6 244.8,18.6 243.9,18.1
C 243.6,17.9 243.2,17.8 242.8,17.8 z M 249.4,19.7
C 249.0,19.8 248.6,19.9 248.2,20.3
C 247.9,20.5 247.7,20.9 247.6,21.3
C 246.9,23.9 246.9,26.5 247.6,29.1
C 247.9,30.2 249.1,30.8 250.2,30.6
C 251.3,30.3 251.9,29.1 251.6,28.0
C 251.1,26.0 251.1,24.4 251.6,22.3
C 251.9,21.4 251.5,20.5 250.7,20.0
C 250.3,19.8 249.9,19.7 249.4,19.7 z M 262.3,21.1
C 263.4,21.1 264.4,21.5 265.2,22.3
C 266.8,23.9 266.8,26.5 265.2,28.1
C 263.6,29.7 261.0,29.7 259.4,28.1
C 257.8,26.5 257.8,23.9 259.4,22.3
C 260.2,21.5 261.3,21.1 262.3,21.1 z M 276.4,37.6
C 275.9,37.6 275.3,37.8 274.9,38.3
C 272.6,40.6 270.2,42.0 267.0,42.8
C 266.0,43.1 265.3,44.0 265.4,45.0
C 265.4,46.0 266.1,46.8 267.1,47.0
C 267.4,47.1 267.8,47.1 268.1,47.0
C 271.9,46.0 275.1,44.1 277.9,41.3
C 278.8,40.5 278.8,39.1 277.9,38.3
C 277.5,37.8 277.0,37.6 276.4,37.6 z"
       style="fill:#2c2c2c;fill-opacity:1;fill-rule:nonzero;stroke:none;stroke-width:10;stroke-linecap:round;stroke-linejoin:miter;marker:none;marker-start:none;marker-mid:none;marker-end:none;stroke-miterlimit:4;stroke-dasharray:none;stroke-dashoffset:0;stroke-opacity:1;visibility:visible;display:inline;overflow:visible;enable-background:accumulate" />
    <path
       sodipodi:nodetypes="cscssscsc"
       id="path10052"
       d="M 242.9,17.9
C 242.3,17.9 241.7,18.1 241.3,18.6
C 241.0,18.9 240.9,19.2 240.8,19.5
C 239.8,23.3 239.8,27.0 240.8,30.8
C 241.1,32.0 242.3,32.7 243.4,32.4
C 244.6,32.1 245.3,30.9 244.9,29.7
C 244.1,26.5 244.1,23.8 244.9,20.6
C 245.2,19.6 244.8,18.6 243.9,18.1
C 243.6,17.9 243.2,17.9 242.9,17.9 z"
       style="opacity:0.3;fill:#009bf9;fill-opacity:1;fill-rule:nonzero;stroke:none;stroke-width:10;stroke-linecap:round;stroke-linejoin:miter;marker:none;marker-start:none;marker-mid:none;marker-end:none;stroke-miterlimit:4;stroke-dasharray:none;stroke-dashoffset:0;stroke-opacity:1;visibility:visible;display:inline;overflow:visible;enable-background:accumulate" />
  </g>
  <g
     id="g5859"
     transform="translate(7.8e-2,-3.3e-2)">
    <path
       sodipodi:nodetypes="ccsscsscsscssccssssccscssscsccscssscsccssssccscsscssc"
       id="path9967"
       d="M 166.2,57.9
C 162.3,57.9 158.4,59.4 155.4,62.3
C 155.4,62.4 155.4,62.4 155.3,62.5
C 154.5,63.3 154.6,64.6 155.4,65.4
C 156.3,66.1 157.6,66.1 158.3,65.2
C 162.7,60.9 169.7,60.9 174.0,65.2
C 178.3,69.6 178.3,76.6 174.0,80.9
C 169.7,85.2 162.7,85.2 158.3,80.9
C 157.8,80.4 157.1,80.2 156.3,80.4
C 155.6,80.6 155.1,81.1 154.9,81.8
C 154.7,82.5 154.9,83.3 155.4,83.8
C 161.4,89.7 171.0,89.7 176.9,83.8
C 182.8,77.9 182.8,68.3 176.9,62.3
C 174.0,59.4 170.1,57.9 166.2,57.9 z M 166.2,65.0
C 164.1,65.0 162.0,65.8 160.5,67.4
C 157.3,70.5 157.3,75.7 160.5,78.8
C 163.6,81.9 168.7,81.9 171.9,78.8
C 175.0,75.7 175.0,70.5 171.9,67.4
C 170.3,65.8 168.2,65.0 166.2,65.0 z M 146.7,65.7
C 146.1,65.7 145.5,66.0 145.1,66.5
C 144.9,66.7 144.7,67.0 144.6,67.4
C 143.6,71.2 143.6,74.9 144.6,78.7
C 144.9,79.8 146.1,80.5 147.3,80.2
C 148.4,79.9 149.1,78.7 148.8,77.6
C 147.9,74.4 147.9,71.7 148.8,68.5
C 149.1,67.5 148.6,66.5 147.8,66.0
C 147.4,65.8 147.1,65.7 146.7,65.7 z M 153.3,67.6
C 152.9,67.6 152.4,67.8 152.1,68.1
C 151.8,68.4 151.6,68.8 151.5,69.1
C 150.8,71.8 150.8,74.4 151.5,77.0
C 151.8,78.1 152.9,78.7 154.0,78.4
C 155.1,78.2 155.8,77.0 155.5,75.9
C 154.9,73.9 154.9,72.2 155.5,70.2
C 155.7,69.3 155.3,68.4 154.6,67.9
C 154.2,67.7 153.7,67.6 153.3,67.6 z M 166.2,69.0
C 167.2,69.0 168.3,69.4 169.1,70.2
C 170.7,71.8 170.7,74.4 169.1,76.0
C 167.5,77.6 164.9,77.6 163.3,76.0
C 161.7,74.4 161.7,71.8 163.3,70.2
C 164.1,69.4 165.1,69.0 166.2,69.0 z M 180.3,85.5
C 179.7,85.5 179.2,85.7 178.8,86.1
C 176.4,88.5 174.1,89.9 170.9,90.7
C 169.9,91.0 169.2,91.8 169.2,92.9
C 169.2,93.9 170.0,94.7 171.0,94.9
C 171.3,95.0 171.6,95.0 172.0,94.9
C 175.8,93.8 179.0,92.0 181.8,89.2
C 182.6,88.3 182.6,87.0 181.8,86.1
C 181.4,85.7 180.8,85.5 180.3,85.5 z"
       style="fill:#2c2c2c;fill-opacity:1;fill-rule:nonzero;stroke:none;stroke-width:10;stroke-linecap:round;stroke-linejoin:miter;marker:none;marker-start:none;marker-mid:none;marker-end:none;stroke-miterlimit:4;stroke-dasharray:none;stroke-dashoffset:0;stroke-opacity:1;visibility:visible;display:inline;overflow:visible;enable-background:accumulate" />
    <path
       sodipodi:nodetypes="csscssscc"
       id="path10054"
       d="M 170.8,51.2
C 170.7,51.2 170.7,51.2 170.6,51.2
C 169.6,51.4 168.9,52.3 168.8,53.3
C 168.8,54.3 169.5,55.2 170.5,55.4
C 173.7,56.3 176.0,57.7 178.4,60.0
C 179.2,60.8 180.6,60.8 181.4,60.0
C 182.2,59.1 182.2,57.8 181.4,57.0
C 178.6,54.2 175.4,52.3 171.6,51.3
C 171.3,51.2 171.1,51.2 170.8,51.2 z"
       style="fill:#009bf9;fill-opacity:1;fill-rule:nonzero;stroke:none;stroke-width:10;stroke-linecap:round;stroke-linejoin:miter;marker:none;marker-start:none;marker-mid:none;marker-end:none;stroke-miterlimit:4;stroke-dasharray:none;stroke-dashoffset:0;stroke-opacity:1;visibility:visible;display:inline;overflow:visible;enable-background:accumulate" />
  </g>
  <g
     id="g5855"
     transform="translate(-0.2,-3.3e-2)">
    <path
       id="path9975"
       d="M 219.2,51.2
C 219.1,51.2 219.0,51.2 218.9,51.2
C 217.9,51.4 217.2,52.3 217.2,53.3
C 217.2,54.3 217.8,55.2 218.8,55.4
C 222.0,56.3 224.4,57.7 226.7,60.0
C 227.6,60.8 228.9,60.8 229.8,60.0
C 230.6,59.2 230.6,57.8 229.8,57.0
C 227.0,54.2 223.8,52.3 219.9,51.3
C 219.7,51.2 219.4,51.2 219.2,51.2 z M 214.5,57.9
C 210.6,57.9 206.8,59.4 203.8,62.3
C 203.8,62.4 203.7,62.4 203.7,62.5
C 202.9,63.3 203.0,64.6 203.8,65.4
C 204.7,66.1 206.0,66.1 206.7,65.2
C 211.1,60.9 218.0,60.9 222.4,65.2
C 226.7,69.6 226.7,76.6 222.4,80.9
C 218.0,85.2 211.1,85.2 206.7,80.9
C 206.2,80.4 205.4,80.2 204.7,80.4
C 204.0,80.6 203.4,81.1 203.3,81.8
C 203.1,82.5 203.3,83.3 203.8,83.8
C 209.7,89.7 219.4,89.7 225.3,83.8
C 231.2,77.9 231.2,68.3 225.3,62.3
C 222.3,59.4 218.4,57.9 214.5,57.9 z M 214.5,65.0
C 212.5,65.0 210.4,65.8 208.8,67.4
C 205.7,70.5 205.7,75.7 208.8,78.8
C 212.0,81.9 217.1,81.9 220.2,78.8
C 223.4,75.7 223.4,70.5 220.2,67.4
C 218.7,65.8 216.6,65.0 214.5,65.0 z M 195.1,65.7
C 194.5,65.7 193.9,66.0 193.5,66.5
C 193.3,66.7 193.1,67.0 193.0,67.4
C 192.0,71.2 192.0,74.9 193.0,78.7
C 193.3,79.8 194.5,80.5 195.6,80.2
C 196.8,79.9 197.5,78.7 197.2,77.6
C 196.3,74.4 196.3,71.7 197.2,68.5
C 197.4,67.5 197.0,66.5 196.1,66.0
C 195.8,65.8 195.4,65.7 195.1,65.7 z M 201.7,67.6
C 201.2,67.6 200.8,67.8 200.5,68.1
C 200.2,68.4 200.0,68.8 199.9,69.1
C 199.2,71.8 199.2,74.4 199.9,77.0
C 200.2,78.1 201.3,78.7 202.4,78.4
C 203.5,78.2 204.1,77.0 203.8,75.9
C 203.3,73.9 203.3,72.2 203.8,70.2
C 204.1,69.3 203.7,68.4 202.9,67.9
C 202.5,67.7 202.1,67.6 201.7,67.6 z M 214.5,69.0
C 215.6,69.0 216.6,69.4 217.4,70.2
C 219.1,71.8 219.1,74.4 217.4,76.0
C 215.8,77.6 213.3,77.6 211.7,76.0
C 210.0,74.4 210.0,71.8 211.7,70.2
C 212.5,69.4 213.5,69.0 214.5,69.0 z M 228.7,85.5
C 228.1,85.5 227.5,85.7 227.1,86.1
C 224.8,88.5 222.4,89.9 219.2,90.7
C 218.3,91.0 217.6,91.8 217.6,92.9
C 217.6,93.9 218.3,94.7 219.3,94.9
C 219.7,95.0 220.0,95.0 220.3,94.9
C 224.2,93.8 227.4,92.0 230.2,89.2
C 231.0,88.3 231.0,87.0 230.2,86.1
C 229.7,85.7 229.2,85.5 228.7,85.5 z"
       style="fill:#2c2c2c;fill-opacity:1;fill-rule:nonzero;stroke:none;stroke-width:10;stroke-linecap:round;stroke-linejoin:miter;marker:none;marker-start:none;marker-mid:none;marker-end:none;stroke-miterlimit:4;stroke-dasharray:none;stroke-dashoffset:0;stroke-opacity:1;visibility:visible;display:inline;overflow:visible;enable-background:accumulate" />
    <path
       sodipodi:nodetypes="csscssscc"
       id="path10058"
       d="M 219.2,51.2
C 219.1,51.2 219.0,51.2 218.9,51.2
C 217.9,51.4 217.2,52.3 217.2,53.3
C 217.2,54.3 217.8,55.2 218.8,55.4
C 222.0,56.3 224.4,57.7 226.7,60.0
C 227.6,60.8 228.9,60.8 229.8,60.0
C 230.6,59.2 230.6,57.8 229.8,57.0
C 227.0,54.2 223.8,52.3 219.9,51.3
C 219.7,51.2 219.4,51.2 219.2,51.2 z"
       style="opacity:0.6;fill:#009bf9;fill-opacity:1;fill-rule:nonzero;stroke:none;stroke-width:10;stroke-linecap:round;stroke-linejoin:miter;marker:none;marker-start:none;marker-mid:none;marker-end:none;stroke-miterlimit:4;stroke-dasharray:none;stroke-dashoffset:0;stroke-opacity:1;visibility:visible;display:inline;overflow:visible;enable-background:accumulate" />
  </g>
  <g
     id="g5851"
     transform="translate(-4.7e-2,-3.3e-2)">
    <path
       id="path9983"
       d="M 267.0,51.2
C 266.9,51.2 266.8,51.2 266.7,51.2
C 265.7,51.4 265.0,52.3 265.0,53.3
C 264.9,54.3 265.6,55.2 266.6,55.4
C 269.8,56.3 272.1,57.7 274.5,60.0
C 275.3,60.8 276.7,60.8 277.5,60.0
C 278.4,59.2 278.4,57.8 277.5,57.0
C 274.7,54.2 271.5,52.3 267.7,51.3
C 267.5,51.2 267.2,51.2 267.0,51.2 z M 262.3,57.9
C 258.4,57.9 254.5,59.4 251.6,62.3
C 251.5,62.4 251.5,62.4 251.4,62.5
C 250.7,63.3 250.7,64.6 251.6,65.4
C 252.4,66.1 253.7,66.1 254.5,65.2
C 258.8,60.9 265.8,60.9 270.1,65.2
C 274.5,69.6 274.5,76.6 270.1,80.9
C 265.8,85.2 258.8,85.2 254.5,80.9
C 254.0,80.4 253.2,80.2 252.5,80.4
C 251.8,80.6 251.2,81.1 251.0,81.8
C 250.8,82.5 251.1,83.3 251.6,83.8
C 257.5,89.7 267.1,89.7 273.0,83.8
C 279.0,77.9 279.0,68.3 273.0,62.3
C 270.1,59.4 266.2,57.9 262.3,57.9 z M 262.3,65.0
C 260.2,65.0 258.2,65.8 256.6,67.4
C 253.5,70.5 253.5,75.7 256.6,78.8
C 259.7,81.9 264.9,81.9 268.0,78.8
C 271.1,75.7 271.1,70.5 268.0,67.4
C 266.4,65.8 264.4,65.0 262.3,65.0 z M 242.8,65.7
C 242.2,65.7 241.7,66.0 241.2,66.5
C 241.0,66.7 240.9,67.0 240.8,67.4
C 239.7,71.2 239.7,74.9 240.8,78.7
C 241.1,79.8 242.3,80.5 243.4,80.2
C 244.6,79.9 245.2,78.7 244.9,77.6
C 244.1,74.4 244.1,71.7 244.9,68.5
C 245.2,67.5 244.8,66.5 243.9,66.0
C 243.6,65.8 243.2,65.7 242.8,65.7 z M 249.4,67.6
C 249.0,67.6 248.6,67.8 248.2,68.1
C 247.9,68.4 247.7,68.8 247.6,69.1
C 246.9,71.8 246.9,74.4 247.6,77.0
C 247.9,78.1 249.1,78.7 250.2,78.4
C 251.3,78.2 251.9,77.0 251.6,75.9
C 251.1,73.9 251.1,72.2 251.6,70.2
C 251.9,69.3 251.5,68.4 250.7,67.9
C 250.3,67.7 249.9,67.6 249.4,67.6 z M 262.3,69.0
C 263.4,69.0 264.4,69.4 265.2,70.2
C 266.8,71.8 266.8,74.4 265.2,76.0
C 263.6,77.6 261.0,77.6 259.4,76.0
C 257.8,74.4 257.8,71.8 259.4,70.2
C 260.2,69.4 261.3,69.0 262.3,69.0 z M 276.4,85.5
C 275.9,85.5 275.3,85.7 274.9,86.1
C 272.6,88.5 270.2,89.9 267.0,90.7
C 266.0,91.0 265.3,91.8 265.4,92.9
C 265.4,93.9 266.1,94.7 267.1,94.9
C 267.4,95.0 267.8,95.0 268.1,94.9
C 271.9,93.8 275.1,92.0 277.9,89.2
C 278.8,88.3 278.8,87.0 277.9,86.1
C 277.5,85.7 277.0,85.5 276.4,85.5 z"
       style="fill:#2c2c2c;fill-opacity:1;fill-rule:nonzero;stroke:none;stroke-width:10;stroke-linecap:round;stroke-linejoin:miter;marker:none;marker-start:none;marker-mid:none;marker-end:none;stroke-miterlimit:4;stroke-dasharray:none;stroke-dashoffset:0;stroke-opacity:1;visibility:visible;display:inline;overflow:visible;enable-background:accumulate" />
    <path
       sodipodi:nodetypes="csscssscc"
       id="path10060"
       d="M 266.9,51.2
C 266.9,51.2 266.8,51.2 266.7,51.2
C 265.7,51.4 265.0,52.3 264.9,53.3
C 264.9,54.3 265.6,55.2 266.6,55.4
C 269.8,56.3 272.1,57.6 274.5,60.0
C 275.3,60.8 276.7,60.8 277.5,60.0
C 278.4,59.1 278.4,57.8 277.5,57.0
C 274.7,54.2 271.5,52.3 267.7,51.3
C 267.4,51.2 267.2,51.2 266.9,51.2 z"
       style="opacity:0.3;fill:#009bf9;fill-opacity:1;fill-rule:nonzero;stroke:none;stroke-width:10;stroke-linecap:round;stroke-linejoin:miter;marker:none;marker-start:none;marker-mid:none;marker-end:none;stroke-miterlimit:4;stroke-dasharray:none;stroke-dashoffset:0;stroke-opacity:1;visibility:visible;display:inline;overflow:visible;enable-background:accumulate" />
  </g>
  <g
     id="g5863"
     transform="translate(-0.3,-3.3e-2)">
    <path
       id="path9959"
       d="M 123.3,51.2
C 123.2,51.2 123.1,51.2 123.0,51.2
C 122.0,51.4 121.3,52.3 121.3,53.3
C 121.2,54.3 121.9,55.2 122.9,55.4
C 126.1,56.3 128.5,57.7 130.8,60.0
C 131.6,60.8 133.0,60.8 133.8,60.0
C 134.7,59.2 134.7,57.8 133.8,57.0
C 131.0,54.2 127.8,52.3 124.0,51.3
C 123.8,51.2 123.5,51.2 123.3,51.2 z M 118.6,57.9
C 114.7,57.9 110.8,59.4 107.9,62.3
C 107.8,62.4 107.8,62.4 107.8,62.5
C 107.0,63.3 107.0,64.6 107.9,65.4
C 108.7,66.1 110.0,66.1 110.8,65.2
C 115.1,60.9 122.1,60.9 126.4,65.2
C 130.8,69.6 130.8,76.6 126.4,80.9
C 122.1,85.2 115.1,85.2 110.8,80.9
C 110.3,80.4 109.5,80.2 108.8,80.4
C 108.1,80.6 107.5,81.1 107.3,81.8
C 107.1,82.5 107.4,83.3 107.9,83.8
C 113.8,89.7 123.4,89.7 129.4,83.8
C 135.3,77.9 135.3,68.3 129.4,62.3
C 126.4,59.4 122.5,57.9 118.6,57.9 z M 118.6,65.0
C 116.5,65.0 114.5,65.8 112.9,67.4
C 109.8,70.5 109.8,75.7 112.9,78.8
C 116.0,81.9 121.2,81.9 124.3,78.8
C 127.4,75.7 127.4,70.5 124.3,67.4
C 122.7,65.8 120.7,65.0 118.6,65.0 z M 99.1,65.7
C 98.6,65.7 98.0,66.0 97.6,66.5
C 97.3,66.7 97.2,67.0 97.1,67.4
C 96.1,71.2 96.1,74.9 97.1,78.7
C 97.4,79.8 98.6,80.5 99.7,80.2
C 100.9,79.9 101.5,78.7 101.2,77.6
C 100.4,74.4 100.4,71.7 101.2,68.5
C 101.5,67.5 101.1,66.5 100.2,66.0
C 99.9,65.8 99.5,65.7 99.1,65.7 z M 105.7,67.6
C 105.3,67.6 104.9,67.8 104.5,68.1
C 104.2,68.4 104.0,68.8 103.9,69.1
C 103.2,71.8 103.2,74.4 104.0,77.0
C 104.2,78.1 105.4,78.7 106.5,78.4
C 107.6,78.2 108.2,77.0 107.9,75.9
C 107.4,73.9 107.4,72.2 107.9,70.2
C 108.2,69.3 107.8,68.4 107.0,67.9
C 106.6,67.7 106.2,67.6 105.7,67.6 z M 118.6,69.0
C 119.7,69.0 120.7,69.4 121.5,70.2
C 123.1,71.8 123.1,74.4 121.5,76.0
C 119.9,77.6 117.3,77.6 115.7,76.0
C 114.1,74.4 114.1,71.8 115.7,70.2
C 116.5,69.4 117.6,69.0 118.6,69.0 z M 132.7,85.5
C 132.2,85.5 131.6,85.7 131.2,86.1
C 128.9,88.5 126.5,89.9 123.3,90.7
C 122.3,91.0 121.6,91.8 121.7,92.9
C 121.7,93.9 122.4,94.7 123.4,94.9
C 123.7,95.0 124.1,95.0 124.4,94.9
C 128.2,93.8 131.4,92.0 134.2,89.2
C 135.1,88.3 135.1,87.0 134.2,86.1
C 133.8,85.7 133.3,85.5 132.7,85.5 z"
       style="fill:#2c2c2c;fill-opacity:1;fill-rule:nonzero;stroke:none;stroke-width:10;stroke-linecap:round;stroke-linejoin:miter;marker:none;marker-start:none;marker-mid:none;marker-end:none;stroke-miterlimit:4;stroke-dasharray:none;stroke-dashoffset:0;stroke-opacity:1;visibility:visible;display:inline;overflow:visible;enable-background:accumulate" />
    <path
       sodipodi:nodetypes="csscssscc"
       id="path10062"
       d="M 123.3,51.2
C 123.2,51.2 123.1,51.2 123.0,51.2
C 122.0,51.4 121.3,52.3 121.3,53.3
C 121.2,54.3 121.9,55.2 122.9,55.4
C 126.1,56.3 128.5,57.6 130.8,60.0
C 131.6,60.8 133.0,60.8 133.8,60.0
C 134.7,59.1 134.7,57.8 133.8,57.0
C 131.0,54.2 127.8,52.3 124.0,51.3
C 123.8,51.2 123.5,51.2 123.3,51.2 z"
       style="opacity:0.6;fill:#009bf9;fill-opacity:1;fill-rule:nonzero;stroke:none;stroke-width:10;stroke-linecap:round;stroke-linejoin:miter;marker:none;marker-start:none;marker-mid:none;marker-end:none;stroke-miterlimit:4;stroke-dasharray:none;stroke-dashoffset:0;stroke-opacity:1;visibility:visible;display:inline;overflow:visible;enable-background:accumulate" />
  </g>
  <g
     id="g5867"
     transform="translate(-0.1,-3.3e-2)">
    <path
       id="path9917"
       d="M 75.1,51.2
C 75.0,51.2 74.9,51.2 74.8,51.2
C 73.8,51.4 73.1,52.3 73.1,53.3
C 73.0,54.3 73.7,55.2 74.7,55.4
C 77.9,56.3 80.3,57.7 82.6,60.0
C 83.4,60.8 84.8,60.8 85.6,60.0
C 86.5,59.2 86.5,57.8 85.6,57.0
C 82.8,54.2 79.6,52.3 75.8,51.3
C 75.6,51.2 75.3,51.2 75.1,51.2 z M 70.4,57.9
C 66.5,57.9 62.6,59.4 59.7,62.3
C 59.6,62.4 59.6,62.4 59.5,62.5
C 58.8,63.3 58.8,64.6 59.7,65.4
C 60.5,66.1 61.8,66.1 62.6,65.2
C 66.9,60.9 73.9,60.9 78.2,65.2
C 82.6,69.6 82.6,76.6 78.2,80.9
C 73.9,85.2 66.9,85.2 62.6,80.9
C 62.1,80.4 61.3,80.2 60.6,80.4
C 59.9,80.6 59.3,81.1 59.1,81.8
C 58.9,82.5 59.2,83.3 59.7,83.8
C 65.6,89.7 75.2,89.7 81.1,83.8
C 87.1,77.9 87.1,68.3 81.1,62.3
C 78.2,59.4 74.3,57.9 70.4,57.9 z M 70.4,65.0
C 68.3,65.0 66.3,65.8 64.7,67.4
C 61.6,70.5 61.6,75.7 64.7,78.8
C 67.8,81.9 73.0,81.9 76.1,78.8
C 79.2,75.7 79.2,70.5 76.1,67.4
C 74.5,65.8 72.5,65.0 70.4,65.0 z M 50.9,65.7
C 50.3,65.7 49.8,66.0 49.4,66.5
C 49.1,66.7 49.0,67.0 48.9,67.4
C 47.9,71.2 47.9,74.9 48.9,78.7
C 49.2,79.8 50.4,80.5 51.5,80.2
C 52.7,79.9 53.3,78.7 53.0,77.6
C 52.2,74.4 52.2,71.7 53.0,68.5
C 53.3,67.5 52.9,66.5 52.0,66.0
C 51.7,65.8 51.3,65.7 50.9,65.7 z M 57.5,67.6
C 57.1,67.6 56.7,67.8 56.3,68.1
C 56.0,68.4 55.8,68.8 55.7,69.1
C 55.0,71.8 55.0,74.4 55.7,77.0
C 56.0,78.1 57.2,78.7 58.3,78.4
C 59.4,78.2 60.0,77.0 59.7,75.9
C 59.2,73.9 59.2,72.2 59.7,70.2
C 60.0,69.3 59.6,68.4 58.8,67.9
C 58.4,67.7 58.0,67.6 57.5,67.6 z M 70.4,69.0
C 71.5,69.0 72.5,69.4 73.3,70.2
C 74.9,71.8 74.9,74.4 73.3,76.0
C 71.7,77.6 69.1,77.6 67.5,76.0
C 65.9,74.4 65.9,71.8 67.5,70.2
C 68.3,69.4 69.4,69.0 70.4,69.0 z M 84.5,85.5
C 84.0,85.5 83.4,85.7 83.0,86.1
C 80.7,88.5 78.3,89.9 75.1,90.7
C 74.1,91.0 73.4,91.8 73.5,92.9
C 73.5,93.9 74.2,94.7 75.2,94.9
C 75.5,95.0 75.9,95.0 76.2,94.9
C 80.0,93.8 83.2,92.0 86.0,89.2
C 86.9,88.3 86.9,87.0 86.0,86.1
C 85.6,85.7 85.1,85.5 84.5,85.5 z"
       style="fill:#2c2c2c;fill-opacity:1;fill-rule:nonzero;stroke:none;stroke-width:10;stroke-linecap:round;stroke-linejoin:miter;marker:none;marker-start:none;marker-mid:none;marker-end:none;stroke-miterlimit:4;stroke-dasharray:none;stroke-dashoffset:0;stroke-opacity:1;visibility:visible;display:inline;overflow:visible;enable-background:accumulate" />
    <path
       sodipodi:nodetypes="csscssscc"
       id="path10064"
       d="M 75.0,51.2
C 75.0,51.2 74.9,51.2 74.8,51.2
C 73.8,51.4 73.1,52.3 73.0,53.3
C 73.0,54.3 73.7,55.2 74.7,55.4
C 77.9,56.3 80.2,57.6 82.6,60.0
C 83.4,60.8 84.8,60.8 85.6,60.0
C 86.4,59.1 86.4,57.8 85.6,57.0
C 82.8,54.2 79.6,52.3 75.8,51.3
C 75.5,51.2 75.3,51.2 75.0,51.2 z"
       style="opacity:0.3;fill:#009bf9;fill-opacity:1;fill-rule:nonzero;stroke:none;stroke-width:10;stroke-linecap:round;stroke-linejoin:miter;marker:none;marker-start:none;marker-mid:none;marker-end:none;stroke-miterlimit:4;stroke-dasharray:none;stroke-dashoffset:0;stroke-opacity:1;visibility:visible;display:inline;overflow:visible;enable-background:accumulate" />
  </g>
  <g
     id="g5889"
     transform="translate(8.8e-2,-2.1e-2)">
    <path
       sodipodi:nodetypes="csscsssccccsscsscsscssccssssccscssscsccscssscsccssssc"
       id="path9969"
       d="M 170.8,99.2
C 170.7,99.2 170.6,99.2 170.6,99.2
C 169.6,99.4 168.8,100.3 168.8,101.3
C 168.8,102.3 169.5,103.2 170.4,103.4
C 173.6,104.3 176.0,105.7 178.4,108.0
C 179.2,108.8 180.5,108.8 181.4,108.0
C 182.2,107.2 182.2,105.8 181.4,105.0
C 178.6,102.2 175.4,100.3 171.6,99.3
C 171.3,99.2 171.1,99.2 170.8,99.2 z M 166.2,105.9
C 162.3,105.9 158.4,107.4 155.4,110.3
C 155.4,110.4 155.4,110.4 155.3,110.5
C 154.5,111.3 154.6,112.6 155.4,113.4
C 156.3,114.1 157.6,114.1 158.3,113.2
C 162.7,108.9 169.7,108.9 174.0,113.2
C 178.3,117.6 178.3,124.6 174.0,128.9
C 169.7,133.2 162.7,133.2 158.3,128.9
C 157.8,128.4 157.1,128.2 156.3,128.4
C 155.6,128.6 155.1,129.1 154.9,129.8
C 154.7,130.5 154.9,131.3 155.4,131.8
C 161.4,137.7 171.0,137.7 176.9,131.8
C 182.8,125.9 182.8,116.3 176.9,110.3
C 174.0,107.4 170.1,105.9 166.2,105.9 z M 166.2,113.0
C 164.1,113.0 162.0,113.8 160.5,115.4
C 157.3,118.5 157.3,123.7 160.5,126.8
C 163.6,129.9 168.7,129.9 171.9,126.8
C 175.0,123.7 175.0,118.5 171.9,115.4
C 170.3,113.8 168.2,113.0 166.2,113.0 z M 146.7,113.7
C 146.1,113.7 145.5,114.0 145.1,114.5
C 144.9,114.7 144.7,115.0 144.6,115.4
C 143.6,119.2 143.6,122.9 144.6,126.7
C 144.9,127.8 146.1,128.5 147.3,128.2
C 148.4,127.9 149.1,126.7 148.8,125.6
C 147.9,122.4 147.9,119.7 148.8,116.5
C 149.1,115.5 148.6,114.5 147.8,114.0
C 147.4,113.8 147.1,113.7 146.7,113.7 z M 153.3,115.6
C 152.9,115.6 152.4,115.8 152.1,116.1
C 151.8,116.4 151.6,116.8 151.5,117.1
C 150.8,119.8 150.8,122.4 151.5,125.0
C 151.8,126.1 152.9,126.7 154.0,126.4
C 155.1,126.2 155.8,125.0 155.5,123.9
C 154.9,121.9 154.9,120.2 155.5,118.2
C 155.7,117.3 155.3,116.4 154.6,115.9
C 154.2,115.7 153.7,115.6 153.3,115.6 z M 166.2,117.0
C 167.2,117.0 168.3,117.4 169.1,118.2
C 170.7,119.8 170.7,122.4 169.1,124.0
C 167.5,125.6 164.9,125.6 163.3,124.0
C 161.7,122.4 161.7,119.8 163.3,118.2
C 164.1,117.4 165.1,117.0 166.2,117.0 z"
       style="fill:#2c2c2c;fill-opacity:1;fill-rule:nonzero;stroke:none;stroke-width:10;stroke-linecap:round;stroke-linejoin:miter;marker:none;marker-start:none;marker-mid:none;marker-end:none;stroke-miterlimit:4;stroke-dasharray:none;stroke-dashoffset:0;stroke-opacity:1;visibility:visible;display:inline;overflow:visible;enable-background:accumulate" />
    <path
       sodipodi:nodetypes="cscsscssc"
       id="path10066"
       d="M 180.3,133.6
C 179.7,133.6 179.2,133.8 178.7,134.2
C 176.4,136.5 174.0,137.9 170.8,138.7
C 169.9,139.0 169.2,139.9 169.2,140.9
C 169.2,141.9 170.0,142.7 170.9,142.9
C 171.3,143.0 171.6,143.0 171.9,142.9
C 175.8,141.9 179.0,140.0 181.8,137.2
C 182.6,136.4 182.6,135.0 181.8,134.2
C 181.4,133.8 180.8,133.6 180.3,133.6 z"
       style="fill:#009bf9;fill-opacity:1;fill-rule:nonzero;stroke:none;stroke-width:10;stroke-linecap:round;stroke-linejoin:miter;marker:none;marker-start:none;marker-mid:none;marker-end:none;stroke-miterlimit:4;stroke-dasharray:none;stroke-dashoffset:0;stroke-opacity:1;visibility:visible;display:inline;overflow:visible;enable-background:accumulate" />
  </g>
  <g
     id="g5893"
     transform="translate(-0.2,0)">
    <path
       id="path9977"
       d="M 219.2,99.2
C 219.1,99.2 219.0,99.2 218.9,99.2
C 217.9,99.4 217.2,100.3 217.2,101.3
C 217.2,102.3 217.8,103.2 218.8,103.4
C 222.0,104.3 224.4,105.7 226.7,108.0
C 227.6,108.8 228.9,108.8 229.8,108.0
C 230.6,107.2 230.6,105.8 229.8,105.0
C 227.0,102.2 223.8,100.3 219.9,99.3
C 219.7,99.2 219.4,99.2 219.2,99.2 z M 214.5,105.9
C 210.6,105.9 206.8,107.4 203.8,110.3
C 203.8,110.4 203.7,110.4 203.7,110.5
C 202.9,111.3 203.0,112.6 203.8,113.4
C 204.7,114.1 206.0,114.1 206.7,113.2
C 211.1,108.9 218.0,108.9 222.4,113.2
C 226.7,117.6 226.7,124.6 222.4,128.9
C 218.0,133.2 211.1,133.2 206.7,128.9
C 206.2,128.4 205.4,128.2 204.7,128.4
C 204.0,128.6 203.4,129.1 203.3,129.8
C 203.1,130.5 203.3,131.3 203.8,131.8
C 209.7,137.7 219.4,137.7 225.3,131.8
C 231.2,125.9 231.2,116.3 225.3,110.3
C 222.3,107.4 218.4,105.9 214.5,105.9 z M 214.5,113.0
C 212.5,113.0 210.4,113.8 208.8,115.4
C 205.7,118.5 205.7,123.7 208.8,126.8
C 212.0,129.9 217.1,129.9 220.2,126.8
C 223.4,123.7 223.4,118.5 220.2,115.4
C 218.7,113.8 216.6,113.0 214.5,113.0 z M 195.1,113.7
C 194.5,113.7 193.9,114.0 193.5,114.5
C 193.3,114.7 193.1,115.0 193.0,115.4
C 192.0,119.2 192.0,122.9 193.0,126.7
C 193.3,127.8 194.5,128.5 195.6,128.2
C 196.8,127.9 197.5,126.7 197.2,125.6
C 196.3,122.4 196.3,119.7 197.2,116.5
C 197.4,115.5 197.0,114.5 196.1,114.0
C 195.8,113.8 195.4,113.7 195.1,113.7 z M 201.7,115.6
C 201.2,115.6 200.8,115.8 200.5,116.1
C 200.2,116.4 200.0,116.8 199.9,117.1
C 199.2,119.8 199.2,122.4 199.9,125.0
C 200.2,126.1 201.3,126.7 202.4,126.4
C 203.5,126.2 204.1,125.0 203.8,123.9
C 203.3,121.9 203.3,120.2 203.8,118.2
C 204.1,117.3 203.7,116.4 202.9,115.9
C 202.5,115.7 202.1,115.6 201.7,115.6 z M 214.5,117.0
C 215.6,117.0 216.6,117.4 217.4,118.2
C 219.1,119.8 219.1,122.4 217.4,124.0
C 215.8,125.6 213.3,125.6 211.7,124.0
C 210.0,122.4 210.0,119.8 211.7,118.2
C 212.5,117.4 213.5,117.0 214.5,117.0 z M 228.7,133.5
C 228.1,133.5 227.5,133.7 227.1,134.1
C 224.8,136.5 222.4,137.9 219.2,138.7
C 218.3,139.0 217.6,139.8 217.6,140.9
C 217.6,141.9 218.3,142.7 219.3,142.9
C 219.7,143.0 220.0,143.0 220.3,142.9
C 224.2,141.8 227.4,140.0 230.2,137.2
C 231.0,136.3 231.0,135.0 230.2,134.1
C 229.7,133.7 229.2,133.5 228.7,133.5 z"
       style="fill:#2c2c2c;fill-opacity:1;fill-rule:nonzero;stroke:none;stroke-width:10;stroke-linecap:round;stroke-linejoin:miter;marker:none;marker-start:none;marker-mid:none;marker-end:none;stroke-miterlimit:4;stroke-dasharray:none;stroke-dashoffset:0;stroke-opacity:1;visibility:visible;display:inline;overflow:visible;enable-background:accumulate" />
    <path
       sodipodi:nodetypes="cscsscssc"
       id="path10068"
       d="M 228.7,133.5
C 228.1,133.5 227.6,133.7 227.1,134.2
C 224.8,136.5 222.4,137.9 219.3,138.7
C 218.3,139.0 217.6,139.8 217.6,140.9
C 217.6,141.9 218.4,142.7 219.4,142.9
C 219.7,143.0 220.0,143.0 220.4,142.9
C 224.2,141.9 227.4,140.0 230.2,137.2
C 231.0,136.4 231.0,135.0 230.2,134.2
C 229.8,133.7 229.2,133.5 228.7,133.5 z"
       style="opacity:0.6;fill:#009bf9;fill-opacity:1;fill-rule:nonzero;stroke:none;stroke-width:10;stroke-linecap:round;stroke-linejoin:miter;marker:none;marker-start:none;marker-mid:none;marker-end:none;stroke-miterlimit:4;stroke-dasharray:none;stroke-dashoffset:0;stroke-opacity:1;visibility:visible;display:inline;overflow:visible;enable-background:accumulate" />
  </g>
  <g
     id="g5897"
     transform="translate(-4.6e-2,0)">
    <path
       id="path9985"
       d="M 267.0,99.2
C 266.9,99.2 266.8,99.2 266.7,99.2
C 265.7,99.4 265.0,100.3 265.0,101.3
C 264.9,102.3 265.6,103.2 266.6,103.4
C 269.8,104.3 272.1,105.7 274.5,108.0
C 275.3,108.8 276.7,108.8 277.5,108.0
C 278.4,107.2 278.4,105.8 277.5,105.0
C 274.7,102.2 271.5,100.3 267.7,99.3
C 267.5,99.2 267.2,99.2 267.0,99.2 z M 262.3,105.9
C 258.4,105.9 254.5,107.4 251.6,110.3
C 251.5,110.4 251.5,110.4 251.4,110.5
C 250.7,111.3 250.7,112.6 251.6,113.4
C 252.4,114.1 253.7,114.1 254.5,113.2
C 258.8,108.9 265.8,108.9 270.1,113.2
C 274.5,117.6 274.5,124.6 270.1,128.9
C 265.8,133.2 258.8,133.2 254.5,128.9
C 254.0,128.4 253.2,128.2 252.5,128.4
C 251.8,128.6 251.2,129.1 251.0,129.8
C 250.8,130.5 251.1,131.3 251.6,131.8
C 257.5,137.7 267.1,137.7 273.0,131.8
C 279.0,125.9 279.0,116.3 273.0,110.3
C 270.1,107.4 266.2,105.9 262.3,105.9 z M 262.3,113.0
C 260.2,113.0 258.2,113.8 256.6,115.4
C 253.5,118.5 253.5,123.7 256.6,126.8
C 259.7,129.9 264.9,129.9 268.0,126.8
C 271.1,123.7 271.1,118.5 268.0,115.4
C 266.4,113.8 264.4,113.0 262.3,113.0 z M 242.8,113.7
C 242.2,113.7 241.7,114.0 241.2,114.5
C 241.0,114.7 240.9,115.0 240.8,115.4
C 239.7,119.2 239.7,122.9 240.8,126.7
C 241.1,127.8 242.3,128.5 243.4,128.2
C 244.6,127.9 245.2,126.7 244.9,125.6
C 244.1,122.4 244.1,119.7 244.9,116.5
C 245.2,115.5 244.8,114.5 243.9,114.0
C 243.6,113.8 243.2,113.7 242.8,113.7 z M 249.4,115.6
C 249.0,115.6 248.6,115.8 248.2,116.1
C 247.9,116.4 247.7,116.8 247.6,117.1
C 246.9,119.8 246.9,122.4 247.6,125.0
C 247.9,126.1 249.1,126.7 250.2,126.4
C 251.3,126.2 251.9,125.0 251.6,123.9
C 251.1,121.9 251.1,120.2 251.6,118.2
C 251.9,117.3 251.5,116.4 250.7,115.9
C 250.3,115.7 249.9,115.6 249.4,115.6 z M 262.3,117.0
C 263.4,117.0 264.4,117.4 265.2,118.2
C 266.8,119.8 266.8,122.4 265.2,124.0
C 263.6,125.6 261.0,125.6 259.4,124.0
C 257.8,122.4 257.8,119.8 259.4,118.2
C 260.2,117.4 261.3,117.0 262.3,117.0 z M 276.4,133.5
C 275.9,133.5 275.3,133.7 274.9,134.1
C 272.6,136.5 270.2,137.9 267.0,138.7
C 266.0,139.0 265.3,139.8 265.4,140.9
C 265.4,141.9 266.1,142.7 267.1,142.9
C 267.4,143.0 267.8,143.0 268.1,142.9
C 271.9,141.8 275.1,140.0 277.9,137.2
C 278.8,136.3 278.8,135.0 277.9,134.1
C 277.5,133.7 277.0,133.5 276.4,133.5 z"
       style="fill:#2c2c2c;fill-opacity:1;fill-rule:nonzero;stroke:none;stroke-width:10;stroke-linecap:round;stroke-linejoin:miter;marker:none;marker-start:none;marker-mid:none;marker-end:none;stroke-miterlimit:4;stroke-dasharray:none;stroke-dashoffset:0;stroke-opacity:1;visibility:visible;display:inline;overflow:visible;enable-background:accumulate" />
    <path
       sodipodi:nodetypes="cscsscssc"
       id="path10070"
       d="M 276.4,133.5
C 275.9,133.5 275.3,133.7 274.9,134.2
C 272.5,136.5 270.2,137.9 267.0,138.7
C 266.0,139.0 265.3,139.8 265.3,140.9
C 265.4,141.9 266.1,142.7 267.1,142.9
C 267.4,143.0 267.8,143.0 268.1,142.9
C 271.9,141.9 275.1,140.0 277.9,137.2
C 278.8,136.4 278.8,135.0 277.9,134.2
C 277.5,133.7 277.0,133.5 276.4,133.5 z"
       style="opacity:0.3;fill:#009bf9;fill-opacity:1;fill-rule:nonzero;stroke:none;stroke-width:10;stroke-linecap:round;stroke-linejoin:miter;marker:none;marker-start:none;marker-mid:none;marker-end:none;stroke-miterlimit:4;stroke-dasharray:none;stroke-dashoffset:0;stroke-opacity:1;visibility:visible;display:inline;overflow:visible;enable-background:accumulate" />
  </g>
  <g
     id="g5885"
     transform="translate(-0.3,0)">
    <path
       id="path9961"
       d="M 123.3,99.2
C 123.2,99.2 123.1,99.2 123.0,99.2
C 122.0,99.4 121.3,100.3 121.3,101.3
C 121.2,102.3 121.9,103.2 122.9,103.4
C 126.1,104.3 128.5,105.7 130.8,108.0
C 131.6,108.8 133.0,108.8 133.8,108.0
C 134.7,107.2 134.7,105.8 133.8,105.0
C 131.0,102.2 127.8,100.3 124.0,99.3
C 123.8,99.2 123.5,99.2 123.3,99.2 z M 118.6,105.9
C 114.7,105.9 110.8,107.4 107.9,110.3
C 107.8,110.4 107.8,110.4 107.8,110.5
C 107.0,111.3 107.0,112.6 107.9,113.4
C 108.7,114.1 110.0,114.1 110.8,113.2
C 115.1,108.9 122.1,108.9 126.4,113.2
C 130.8,117.6 130.8,124.6 126.4,128.9
C 122.1,133.2 115.1,133.2 110.8,128.9
C 110.3,128.4 109.5,128.2 108.8,128.4
C 108.1,128.6 107.5,129.1 107.3,129.8
C 107.1,130.5 107.4,131.3 107.9,131.8
C 113.8,137.7 123.4,137.7 129.4,131.8
C 135.3,125.9 135.3,116.3 129.4,110.3
C 126.4,107.4 122.5,105.9 118.6,105.9 z M 118.6,113.0
C 116.5,113.0 114.5,113.8 112.9,115.4
C 109.8,118.5 109.8,123.7 112.9,126.8
C 116.0,129.9 121.2,129.9 124.3,126.8
C 127.4,123.7 127.4,118.5 124.3,115.4
C 122.7,113.8 120.7,113.0 118.6,113.0 z M 99.1,113.7
C 98.6,113.7 98.0,114.0 97.6,114.5
C 97.3,114.7 97.2,115.0 97.1,115.4
C 96.1,119.2 96.1,122.9 97.1,126.7
C 97.4,127.8 98.6,128.5 99.7,128.2
C 100.9,127.9 101.5,126.7 101.2,125.6
C 100.4,122.4 100.4,119.7 101.2,116.5
C 101.5,115.5 101.1,114.5 100.2,114.0
C 99.9,113.8 99.5,113.7 99.1,113.7 z M 105.7,115.6
C 105.3,115.6 104.9,115.8 104.5,116.1
C 104.2,116.4 104.0,116.8 103.9,117.1
C 103.2,119.8 103.2,122.4 104.0,125.0
C 104.2,126.1 105.4,126.7 106.5,126.4
C 107.6,126.2 108.2,125.0 107.9,123.9
C 107.4,121.9 107.4,120.2 107.9,118.2
C 108.2,117.3 107.8,116.4 107.0,115.9
C 106.6,115.7 106.2,115.6 105.7,115.6 z M 118.6,117.0
C 119.7,117.0 120.7,117.4 121.5,118.2
C 123.1,119.8 123.1,122.4 121.5,124.0
C 119.9,125.6 117.3,125.6 115.7,124.0
C 114.1,122.4 114.1,119.8 115.7,118.2
C 116.5,117.4 117.6,117.0 118.6,117.0 z M 132.7,133.5
C 132.2,133.5 131.6,133.7 131.2,134.1
C 128.9,136.5 126.5,137.9 123.3,138.7
C 122.3,139.0 121.6,139.8 121.7,140.9
C 121.7,141.9 122.4,142.7 123.4,142.9
C 123.7,143.0 124.1,143.0 124.4,142.9
C 128.2,141.8 131.4,140.0 134.2,137.2
C 135.1,136.3 135.1,135.0 134.2,134.1
C 133.8,133.7 133.3,133.5 132.7,133.5 z"
       style="fill:#2c2c2c;fill-opacity:1;fill-rule:nonzero;stroke:none;stroke-width:10;stroke-linecap:round;stroke-linejoin:miter;marker:none;marker-start:none;marker-mid:none;marker-end:none;stroke-miterlimit:4;stroke-dasharray:none;stroke-dashoffset:0;stroke-opacity:1;visibility:visible;display:inline;overflow:visible;enable-background:accumulate" />
    <path
       sodipodi:nodetypes="cscsscssc"
       id="path10072"
       d="M 132.7,133.5
C 132.2,133.5 131.6,133.7 131.2,134.2
C 128.8,136.5 126.5,137.9 123.3,138.7
C 122.3,139.0 121.6,139.8 121.6,140.9
C 121.7,141.9 122.4,142.7 123.4,142.9
C 123.7,143.0 124.1,143.0 124.4,142.9
C 128.2,141.9 131.4,140.0 134.2,137.2
C 135.1,136.4 135.1,135.0 134.2,134.2
C 133.8,133.7 133.3,133.5 132.7,133.5 z"
       style="opacity:0.6;fill:#009bf9;fill-opacity:1;fill-rule:nonzero;stroke:none;stroke-width:10;stroke-linecap:round;stroke-linejoin:miter;marker:none;marker-start:none;marker-mid:none;marker-end:none;stroke-miterlimit:4;stroke-dasharray:none;stroke-dashoffset:0;stroke-opacity:1;visibility:visible;display:inline;overflow:visible;enable-background:accumulate" />
  </g>
  <g
     id="g5881"
     transform="translate(-0.1,0)">
    <path
       id="path9919"
       d="M 75.1,99.2
C 75.0,99.2 74.9,99.2 74.8,99.2
C 73.8,99.4 73.1,100.3 73.1,101.3
C 73.0,102.3 73.7,103.2 74.7,103.4
C 77.9,104.3 80.3,105.7 82.6,108.0
C 83.4,108.8 84.8,108.8 85.6,108.0
C 86.5,107.2 86.5,105.8 85.6,105.0
C 82.8,102.2 79.6,100.3 75.8,99.3
C 75.6,99.2 75.3,99.2 75.1,99.2 z M 70.4,105.9
C 66.5,105.9 62.6,107.4 59.7,110.3
C 59.6,110.4 59.6,110.4 59.5,110.5
C 58.8,111.3 58.8,112.6 59.7,113.4
C 60.5,114.1 61.8,114.1 62.6,113.2
C 66.9,108.9 73.9,108.9 78.2,113.2
C 82.6,117.6 82.6,124.6 78.2,128.9
C 73.9,133.2 66.9,133.2 62.6,128.9
C 62.1,128.4 61.3,128.2 60.6,128.4
C 59.9,128.6 59.3,129.1 59.1,129.8
C 58.9,130.5 59.2,131.3 59.7,131.8
C 65.6,137.7 75.2,137.7 81.1,131.8
C 87.1,125.9 87.1,116.3 81.1,110.3
C 78.2,107.4 74.3,105.9 70.4,105.9 z M 70.4,113.0
C 68.3,113.0 66.3,113.8 64.7,115.4
C 61.6,118.5 61.6,123.7 64.7,126.8
C 67.8,129.9 73.0,129.9 76.1,126.8
C 79.2,123.7 79.2,118.5 76.1,115.4
C 74.5,113.8 72.5,113.0 70.4,113.0 z M 50.9,113.7
C 50.3,113.7 49.8,114.0 49.4,114.5
C 49.1,114.7 49.0,115.0 48.9,115.4
C 47.9,119.2 47.9,122.9 48.9,126.7
C 49.2,127.8 50.4,128.5 51.5,128.2
C 52.7,127.9 53.3,126.7 53.0,125.6
C 52.2,122.4 52.2,119.7 53.0,116.5
C 53.3,115.5 52.9,114.5 52.0,114.0
C 51.7,113.8 51.3,113.7 50.9,113.7 z M 57.5,115.6
C 57.1,115.6 56.7,115.8 56.3,116.1
C 56.0,116.4 55.8,116.8 55.7,117.1
C 55.0,119.8 55.0,122.4 55.7,125.0
C 56.0,126.1 57.2,126.7 58.3,126.4
C 59.4,126.2 60.0,125.0 59.7,123.9
C 59.2,121.9 59.2,120.2 59.7,118.2
C 60.0,117.3 59.6,116.4 58.8,115.9
C 58.4,115.7 58.0,115.6 57.5,115.6 z M 70.4,117.0
C 71.5,117.0 72.5,117.4 73.3,118.2
C 74.9,119.8 74.9,122.4 73.3,124.0
C 71.7,125.6 69.1,125.6 67.5,124.0
C 65.9,122.4 65.9,119.8 67.5,118.2
C 68.3,117.4 69.4,117.0 70.4,117.0 z M 84.5,133.5
C 84.0,133.5 83.4,133.7 83.0,134.1
C 80.7,136.5 78.3,137.9 75.1,138.7
C 74.1,139.0 73.4,139.8 73.5,140.9
C 73.5,141.9 74.2,142.7 75.2,142.9
C 75.5,143.0 75.9,143.0 76.2,142.9
C 80.0,141.8 83.2,140.0 86.0,137.2
C 86.9,136.3 86.9,135.0 86.0,134.1
C 85.6,133.7 85.1,133.5 84.5,133.5 z"
       style="fill:#2c2c2c;fill-opacity:1;fill-rule:nonzero;stroke:none;stroke-width:10;stroke-linecap:round;stroke-linejoin:miter;marker:none;marker-start:none;marker-mid:none;marker-end:none;stroke-miterlimit:4;stroke-dasharray:none;stroke-dashoffset:0;stroke-opacity:1;visibility:visible;display:inline;overflow:visible;enable-background:accumulate" />
    <path
       sodipodi:nodetypes="cscsscssc"
       id="path10074"
       d="M 84.5,133.5
C 84.0,133.5 83.4,133.7 83.0,134.2
C 80.7,136.5 78.3,137.9 75.1,138.7
C 74.1,139.0 73.5,139.8 73.5,140.9
C 73.5,141.9 74.2,142.7 75.2,142.9
C 75.6,143.0 75.9,143.0 76.2,142.9
C 80.1,141.9 83.3,140.0 86.1,137.2
C 86.9,136.4 86.9,135.0 86.1,134.2
C 85.6,133.7 85.1,133.5 84.5,133.5 z"
       style="opacity:0.3;fill:#009bf9;fill-opacity:1;fill-rule:nonzero;stroke:none;stroke-width:10;stroke-linecap:round;stroke-linejoin:miter;marker:none;marker-start:none;marker-mid:none;marker-end:none;stroke-miterlimit:4;stroke-dasharray:none;stroke-dashoffset:0;stroke-opacity:1;visibility:visible;display:inline;overflow:visible;enable-background:accumulate" />
  </g>
</svg>
