<svg xmlns="http://www.w3.org/2000/svg" width="48" height="48">
<defs>
<defs
     id="defs4">
  </defs>
  <path
     id="path-main"
     d="M 24.009546,4 C 12.997253,4.0000006 4,12.978161 4,23.990453 4,35.002745 12.997255,44 24.009546,44 35.021836,43.999999 44.000002,35.002747 44,23.990453 43.999998,12.978161 35.021838,4 24.009546,4 z m 0,5.365155 c 8.104859,0 14.625299,6.520437 14.625299,14.625298 1e-6,8.104861 -6.520438,14.625299 -14.625299,14.625299 -8.104862,10e-7 -14.6252977,-6.520437 -14.6252977,-14.625299 -7e-7,-8.104861 6.5204367,-14.625298 14.6252977,-14.625298 z m -1.050119,2.023866 c -1.057555,0 -1.909308,0.851754 -1.909308,1.909308 l 0,12.162291 c 0,0.457984 0.172205,0.874612 0.439141,1.202864 0.0077,0.0125 0.01101,0.02583 0.01909,0.03819 0.06956,0.10631 0.155215,0.211536 0.24821,0.30549 l 6.319809,6.396181 c 0.743962,0.751628 1.95959,0.763057 2.711217,0.01909 l 0.706445,-0.706444 c 0.751628,-0.743961 0.763055,-1.959588 0.01909,-2.711218 l -5.632458,-5.708829 0,-10.997614 c 0,-1.057555 -0.851751,-1.909308 -1.909309,-1.909308 l -1.011932,0 z" />
</defs>
<acyl-settings>
<linearGradient
     id="linearGradient4321">
    <stop
       style="stop-color:#89F6FB;stop-opacity:1.0;"
       offset="0.5"
       id="stop1" />
    <stop
       style="stop-color:#10A1AA;stop-opacity:1.0;"
       offset="1.0"
       id="stop2" />
  </linearGradient>
<radialGradient
       inkscape:collect="always"
       xlink:href="#linearGradient4321"
       id="acyl_gradient"
       cx="50.0%"
       cy="50.0%"
       fx="50.0%"
       fy="50.0%"
       r="50.0%"
/>
<filter id="filter1111" x="-50%" y="-50%" width="200%" height="200%">
	<feImage
	id="feImage2"
	xlink:href="#1"
	result="result1" />
	<feComposite
	id="feComposite3633"
	in="result1"
	in2="SourceGraphic"
	operator="xor" />
</filter>
	<rect
	style="fill:#1A4B4F;fill-opacity:1.0;filter:url(#filter1111)"
	id="rect2835"
	width="48"
	height="48"
	x="0"
	y="0"
	rx="3.5"
	ry="3.5" />
	<rect
	style="fill:url(#acyl_gradient);filter:url(#filter1111)"
	id="rect2835"
	width="44"
	height="44"
	x="2"
	y="2"
	rx="3.5"
	ry="3.5" />
<defs>
<use id="1" transform="translate(22.5,22.5) scale(0.85) translate(-22.5,-22.5)" style="fill:#000000" xlink:href="#path-main" />
</defs>
	<use id="2" transform="translate(22.5,22.5) scale(0.85) translate(-22.5,-22.5)" style="fill:#1A4B4F;fill-opacity:1.0" xlink:href="#path-main" />
</acyl-settings>
</svg>
