<svg xmlns="http://www.w3.org/2000/svg" width="48" height="48">
<defs>
  <path
     d="M 5.4712548,12.858301 C 3.568194,12.858301 2,14.426496 2,16.329556 L 2,32.528745 C 2,34.431805 3.568194,36 5.4712548,36 l 32.3983782,0 c 1.90306,0 3.471255,-1.568195 3.471255,-3.471255 l 0,-3.471255 c 0.312593,0.01 0.561385,0.01227 0.940131,0 0.728357,-0.02351 1.617137,-0.180042 2.386488,-0.795495 0.860022,-0.667044 1.223092,-1.657071 1.30172,-2.458806 0.07572,-0.772042 -0.01388,-1.393528 0,-1.880263 0.0035,-0.02393 -0.0028,-0.04834 0,-0.07232 0.229057,-1.899644 -1.078012,-3.906346 -3.181983,-4.049797 l -0.07232,0 c -0.465555,-0.0014 -0.908564,0.0011 -1.374038,0 l 0,-3.471255 c 0,-1.90306 -1.568195,-3.471255 -3.471255,-3.471255 l -32.3983782,0 z m 24.2987832,2.31417 8.099595,0 c 0.66104,0 1.157085,0.496045 1.157085,1.157085 l 0,16.199189 c 0,0.661041 -0.496045,1.157085 -1.157085,1.157085 l -8.099595,0 0,-18.368723 c 0,-0.05029 0.0028,-0.09539 0,-0.144636 z m 11.57085,6.94251 c 0.440597,0.0011 0.861209,-0.0013 1.30172,0 0.63642,0.04339 1.108717,0.835353 1.012449,1.518674 l 0,0.07232 c -0.0327,0.743547 0.04612,1.409875 0,1.880263 -0.04612,0.470387 -0.09389,0.660172 -0.361589,0.867813 l -0.07232,0 c -0.245363,0.196288 -0.514336,0.27319 -1.01245,0.289272 -0.229889,0.0074 -0.579609,0.0099 -0.867813,0 l 0,-4.62834 z"
     id="path-main" />
</defs>
<acyl-settings>
<linearGradient
     id="linearGradient4321">
    <stop
       style="stop-color:#89F6FB;stop-opacity:1.0;"
       offset="0.5"
       id="stop1" />
    <stop
       style="stop-color:#10A1AA;stop-opacity:1.0;"
       offset="1.0"
       id="stop2" />
  </linearGradient>
<radialGradient
       inkscape:collect="always"
       xlink:href="#linearGradient4321"
       id="acyl_gradient"
       cx="50.0%"
       cy="50.0%"
       fx="50.0%"
       fy="50.0%"
       r="50.0%"
/>
<filter id="filter1111" x="-50%" y="-50%" width="200%" height="200%">
	<feImage
	id="feImage2"
	xlink:href="#1"
	result="result1" />
	<feComposite
	id="feComposite3633"
	in="result1"
	in2="SourceGraphic"
	operator="xor" />
</filter>
	<rect
	style="fill:#1A4B4F;fill-opacity:1.0;filter:url(#filter1111)"
	id="rect2835"
	width="48"
	height="48"
	x="0"
	y="0"
	rx="3.5"
	ry="3.5" />
	<rect
	style="fill:url(#acyl_gradient);filter:url(#filter1111)"
	id="rect2835"
	width="44"
	height="44"
	x="2"
	y="2"
	rx="3.5"
	ry="3.5" />
<defs>
<use id="1" transform="translate(22.5,22.5) scale(0.85) translate(-22.5,-22.5)" style="fill:#000000" xlink:href="#path-main" />
</defs>
	<use id="2" transform="translate(22.5,22.5) scale(0.85) translate(-22.5,-22.5)" style="fill:#1A4B4F;fill-opacity:1.0" xlink:href="#path-main" />
</acyl-settings>
</svg>
