<svg xmlns="http://www.w3.org/2000/svg" width="48" height="48">
<defs>
  <path
     d="M 12.231142,4.3887449 C 11.454992,4.4044229 10.783846,4.8066881 10.373703,5.3022397 9.96356,5.7977912 9.736211,6.3682014 9.734256,6.9769802 l -0.03045,1.0048443 -3.47128,0 C 3.89646,7.9818247 2,9.8782844 2,12.21435 l 0,29.292734 c 0,2.313104 1.865496,4.226475 4.171626,4.262976 0.02287,3.59e-4 0.03793,0 0.0609,0 l 18.726644,0 c 2.336067,-2e-6 4.262976,-1.92691 4.262976,-4.262976 l 0,-29.292734 c 0,-2.3360654 -1.92691,-4.2325255 -4.262976,-4.2325255 l -3.319031,0 0,-1.0961938 0,-0.03045 C 21.601887,5.5534099 20.573146,4.4084786 19.204152,4.4191947 l -6.97301,-0.03045 z m 0.03045,1.9487889 6.94256,0.03045 c 0.228803,-0.00179 0.478868,0.2646228 0.487198,0.5480969 l 0,2.0401384 0,0.9743944 0.974394,0 4.293426,0 c 1.290145,2e-7 2.314187,0.9935915 2.314187,2.2837365 l 0,29.292734 c 0,1.290143 -1.024041,2.314187 -2.314187,2.314187 l -18.726644,0 c -0.01266,-2e-6 -0.01782,2e-4 -0.03045,0 -1.270472,-0.02011 -2.253287,-1.036722 -2.253287,-2.314187 l 0,-29.292734 c 0,-1.290144 0.993592,-2.2837365 2.283737,-2.2837365 l 4.445675,0 0.974394,0 0,-0.9743944 0.03045,-1.948789 0,-0.03045 c 3.47e-4,-0.1081864 0.07396,-0.2949185 0.182699,-0.4262976 0.108736,-0.1313788 0.209504,-0.2093848 0.395848,-0.2131488 z m 19.640138,0 c -0.883236,0 -1.583391,0.7447429 -1.583391,1.6747405 l 0,35.9003457 c 0,0.929998 0.700156,1.705192 1.583391,1.705191 l 12.514879,0 c 0.883236,0 1.583389,-0.775193 1.583391,-1.705191 L 46,8.0122743 C 46,7.082277 45.299844,6.3375338 44.416609,6.3375338 l -12.514879,0 z m -18.239446,1.6747405 0,3.8366787 -6.851211,0 c -0.49688,0 -0.913495,0.305793 -0.913495,1.004844 l 0,2.923183 19.487889,0 0,-2.984083 c 0,-0.643434 -0.434779,-0.943944 -0.913494,-0.943944 l -6.881661,0 -0.03045,-3.8366787 -3.897578,0 z m -7.764706,9.7134947 0,6.820761 19.487889,0 0,-6.820761 -19.487889,0 z m 0,8.76955 0,6.820762 19.487889,0 0,-6.820762 -19.487889,0 z m 19.548789,8.739101 -19.518339,0.0609 0,4.811073 c 0,1.427006 0.653331,2.009688 2.040138,2.009689 l 15.468512,0 c 1.29699,0 2.009689,-0.667435 2.009689,-1.948789 l 0,-4.932872 z"
     id="path-main"
      />
</defs>
<acyl-settings>
<linearGradient
     id="linearGradient4321">
    <stop
       style="stop-color:#89F6FB;stop-opacity:1.0;"
       offset="0.5"
       id="stop1" />
    <stop
       style="stop-color:#10A1AA;stop-opacity:1.0;"
       offset="1.0"
       id="stop2" />
  </linearGradient>
<radialGradient
       inkscape:collect="always"
       xlink:href="#linearGradient4321"
       id="acyl_gradient"
       cx="50.0%"
       cy="50.0%"
       fx="50.0%"
       fy="50.0%"
       r="50.0%"
/>
<filter id="filter1111" x="-50%" y="-50%" width="200%" height="200%">
	<feImage
	id="feImage2"
	xlink:href="#1"
	result="result1" />
	<feComposite
	id="feComposite3633"
	in="result1"
	in2="SourceGraphic"
	operator="xor" />
</filter>
	<rect
	style="fill:#1A4B4F;fill-opacity:1.0;filter:url(#filter1111)"
	id="rect2835"
	width="48"
	height="48"
	x="0"
	y="0"
	rx="3.5"
	ry="3.5" />
	<rect
	style="fill:url(#acyl_gradient);filter:url(#filter1111)"
	id="rect2835"
	width="44"
	height="44"
	x="2"
	y="2"
	rx="3.5"
	ry="3.5" />
<defs>
<use id="1" transform="translate(22.5,22.5) scale(0.85) translate(-22.5,-22.5)" style="fill:#000000" xlink:href="#path-main" />
</defs>
	<use id="2" transform="translate(22.5,22.5) scale(0.85) translate(-22.5,-22.5)" style="fill:#1A4B4F;fill-opacity:1.0" xlink:href="#path-main" />
</acyl-settings>
</svg>
