<svg xmlns="http://www.w3.org/2000/svg" width="48" height="48">
<defs>
  <path
     d="M 34.847222,2.4444444 C 33.095179,2.5770067 31.46592,3.8609438 31.333333,5.8055556 l 0,0.076389 c -0.0015,0.4917636 0.0012,0.9597109 0,1.4513889 l -1.222222,0 c -2.010191,0 -3.666667,1.6564754 -3.666667,3.6666665 l 0,29.333333 C 26.444444,42.343525 28.10092,44 30.111111,44 l 12.222222,0 C 44.343525,44 46,42.343525 46,40.333333 L 46,11 C 46,8.9898087 44.343525,7.3333333 42.333333,7.3333333 l -1.222222,0 c 0.01051,-0.3301906 0.01296,-0.592988 0,-0.9930555 -0.02484,-0.7693596 -0.190178,-1.7081729 -0.840278,-2.5208334 -0.704596,-0.9084362 -1.750354,-1.2919475 -2.597222,-1.375 -0.815501,-0.079982 -1.471981,0.014667 -1.986111,0 -0.0198,-5.671e-4 -0.05722,8.434e-4 -0.07639,0 -0.250822,-0.030238 -0.513597,-0.018822 -0.763889,0 z m 0,2.4444445 c 0.180645,-0.042973 0.354276,-0.025422 0.534722,0 l 0.07639,0 c 0.78541,0.03454 1.489244,-0.048718 1.986111,0 0.496868,0.048718 0.697339,0.099171 0.916667,0.3819444 l 0,0.076389 c 0.207313,0.2591747 0.288569,0.54329 0.305556,1.0694445 0.0078,0.2428311 0.01051,0.612238 0,0.9166666 l -4.888889,0 c 0.0011,-0.4654002 -0.0014,-0.9096902 0,-1.375 0.03437,-0.5041862 0.527513,-0.940522 1.069444,-1.0694444 z M 4.4444444,7.3333333 C 3.0902222,7.3333333 2,8.4235556 2,9.7777778 L 2,41.555556 C 2,42.909778 3.0902222,44 4.4444444,44 l 14.6666666,0 c 1.354222,0 2.444445,-1.090222 2.444445,-2.444444 l 0,-31.7777782 c 0,-1.3542222 -1.090223,-2.4444445 -2.444445,-2.4444445 l -14.6666666,0 z m 1.2222223,2.4444445 12.2222223,0 c 0.677111,0 1.222222,0.5451112 1.222222,1.2222222 l 0,17.111111 c 0,0.677111 -0.545111,1.222222 -1.222222,1.222222 l -12.2222223,0 c -0.6771111,0 -1.2222223,-0.545111 -1.2222223,-1.222222 l 0,-17.111111 c 0,-0.677111 0.5451112,-1.2222222 1.2222223,-1.2222222 z m 0,24.4444442 c 0.6771111,0 1.2222222,0.545111 1.2222222,1.222222 0,0.677112 -0.5451111,1.222223 -1.2222222,1.222223 -0.6771111,0 -1.2222223,-0.545111 -1.2222223,-1.222223 0,-0.677111 0.5451112,-1.222222 1.2222223,-1.222222 z m 4.8888893,0 c 0.677111,0 1.222222,0.545111 1.222222,1.222222 0,-0.677111 0.545111,-1.222222 1.222222,-1.222222 0.677111,0 1.222222,0.545111 1.222222,1.222222 0,0.677112 -0.545111,1.222223 -1.222222,1.222223 -0.677111,0 -1.222222,-0.545111 -1.222222,-1.222223 0,0.677112 -0.545111,1.222223 -1.222222,1.222223 -0.677112,0 -1.222223,-0.545111 -1.222223,-1.222223 0,-0.677111 0.545111,-1.222222 1.222223,-1.222222 z m 7.333333,0 c 0.677111,0 1.222222,0.545111 1.222222,1.222222 0,0.677112 -0.545111,1.222223 -1.222222,1.222223 -0.677111,0 -1.222222,-0.545111 -1.222222,-1.222223 0,-0.677111 0.545111,-1.222222 1.222222,-1.222222 z M 5.6666667,39.111111 c 0.6771111,0 1.2222222,0.545111 1.2222222,1.222222 0,0.677111 -0.5451111,1.222223 -1.2222222,1.222223 -0.6771111,0 -1.2222223,-0.545112 -1.2222223,-1.222223 0,-0.677111 0.5451112,-1.222222 1.2222223,-1.222222 z m 4.8888893,0 c 0.677111,0 1.222222,0.545111 1.222222,1.222222 0,-0.677111 0.545111,-1.222222 1.222222,-1.222222 0.677111,0 1.222222,0.545111 1.222222,1.222222 0,0.677111 -0.545111,1.222223 -1.222222,1.222223 -0.677111,0 -1.222222,-0.545112 -1.222222,-1.222223 0,0.677111 -0.545111,1.222223 -1.222222,1.222223 -0.677112,0 -1.222223,-0.545112 -1.222223,-1.222223 0,-0.677111 0.545111,-1.222222 1.222223,-1.222222 z m 7.333333,0 c 0.677111,0 1.222222,0.545111 1.222222,1.222222 0,0.677111 -0.545111,1.222223 -1.222222,1.222223 -0.677111,0 -1.222222,-0.545112 -1.222222,-1.222223 0,-0.677111 0.545111,-1.222222 1.222222,-1.222222 z"
     id="path-main"
     sodipodi:nodetypes="cccccccccccccsssssccccsccsccsccccccccccccccccccccsssccsssssssccsssccsssccsssssssccsssc" />
</defs>
<acyl-settings>
<linearGradient
     id="linearGradient4321">
    <stop
       style="stop-color:#89F6FB;stop-opacity:1.0;"
       offset="0.5"
       id="stop1" />
    <stop
       style="stop-color:#10A1AA;stop-opacity:1.0;"
       offset="1.0"
       id="stop2" />
  </linearGradient>
<radialGradient
       inkscape:collect="always"
       xlink:href="#linearGradient4321"
       id="acyl_gradient"
       cx="50.0%"
       cy="50.0%"
       fx="50.0%"
       fy="50.0%"
       r="50.0%"
/>
<filter id="filter1111" x="-50%" y="-50%" width="200%" height="200%">
	<feImage
	id="feImage2"
	xlink:href="#1"
	result="result1" />
	<feComposite
	id="feComposite3633"
	in="result1"
	in2="SourceGraphic"
	operator="xor" />
</filter>
	<rect
	style="fill:#1A4B4F;fill-opacity:1.0;filter:url(#filter1111)"
	id="rect2835"
	width="48"
	height="48"
	x="0"
	y="0"
	rx="3.5"
	ry="3.5" />
	<rect
	style="fill:url(#acyl_gradient);filter:url(#filter1111)"
	id="rect2835"
	width="44"
	height="44"
	x="2"
	y="2"
	rx="3.5"
	ry="3.5" />
<defs>
<use id="1" transform="translate(22.5,22.5) scale(0.85) translate(-22.5,-22.5)" style="fill:#000000" xlink:href="#path-main" />
</defs>
	<use id="2" transform="translate(22.5,22.5) scale(0.85) translate(-22.5,-22.5)" style="fill:#1A4B4F;fill-opacity:1.0" xlink:href="#path-main" />
</acyl-settings>
</svg>
