<svg xmlns="http://www.w3.org/2000/svg" width="48" height="48">
<defs>
  <path
     d="M 21.375,2 C 18.051262,2 15.039221,2.970585 12.78125,4.6640625 10.523279,6.35754 9,8.8477723 9,11.625 l 0,24.75 c 0,2.777228 1.523279,5.26746 3.78125,6.960937 C 15.039221,45.029415 18.051262,46 21.375,46 l 5.5,0 c 3.323738,0 6.33578,-0.970585 8.59375,-2.664063 C 37.72672,41.64246 39.25,39.152228 39.25,36.375 l 0,-24.75 C 39.25,8.8477723 37.72672,6.35754 35.46875,4.6640625 33.21078,2.970585 30.198738,2 26.875,2 l -5.5,0 z m 0,2.75 1.460937,0 0,9.625 a 1.3751374,1.3751374 0 1 0 2.75,0 l 0,-9.625 1.289063,0 c 2.770262,0 5.242407,0.85954 6.960937,2.1484375 C 35.554467,8.187335 36.5,9.8317277 36.5,11.625 l 0,16.929687 C 35.856423,27.48073 34.668492,26.75 33.320312,26.75 l -18.390624,0 c -1.348181,0 -2.53611,0.73073 -3.179688,1.804687 l 0,-16.929687 c 0,-1.7932723 0.945533,-3.437665 2.664063,-4.7265625 C 16.132592,5.60954 18.604738,4.75 21.375,4.75 z"
     id="path-main" />
</defs>
<acyl-settings>
<linearGradient
     id="linearGradient4321">
    <stop
       style="stop-color:#89F6FB;stop-opacity:1.0;"
       offset="0.5"
       id="stop1" />
    <stop
       style="stop-color:#10A1AA;stop-opacity:1.0;"
       offset="1.0"
       id="stop2" />
  </linearGradient>
<radialGradient
       inkscape:collect="always"
       xlink:href="#linearGradient4321"
       id="acyl_gradient"
       cx="50.0%"
       cy="50.0%"
       fx="50.0%"
       fy="50.0%"
       r="50.0%"
/>
<filter id="filter1111" x="-50%" y="-50%" width="200%" height="200%">
	<feImage
	id="feImage2"
	xlink:href="#1"
	result="result1" />
	<feComposite
	id="feComposite3633"
	in="result1"
	in2="SourceGraphic"
	operator="xor" />
</filter>
	<rect
	style="fill:#1A4B4F;fill-opacity:1.0;filter:url(#filter1111)"
	id="rect2835"
	width="48"
	height="48"
	x="0"
	y="0"
	rx="3.5"
	ry="3.5" />
	<rect
	style="fill:url(#acyl_gradient);filter:url(#filter1111)"
	id="rect2835"
	width="44"
	height="44"
	x="2"
	y="2"
	rx="3.5"
	ry="3.5" />
<defs>
<use id="1" transform="translate(22.5,22.5) scale(0.85) translate(-22.5,-22.5)" style="fill:#000000" xlink:href="#path-main" />
</defs>
	<use id="2" transform="translate(22.5,22.5) scale(0.85) translate(-22.5,-22.5)" style="fill:#1A4B4F;fill-opacity:1.0" xlink:href="#path-main" />
</acyl-settings>
</svg>
