<svg xmlns="http://www.w3.org/2000/svg" width="48" height="48">
<defs>
  <path
     d="M 24.40625 2 C 18.727684 1.951919 13.391921 6.2411848 12.34375 11.625 C 11.295578 17.008815 14.127546 22.057268 19.4375 24 L 19.4375 38.65625 C 19.4375 43.545041 22.217315 46.040379 24.34375 46 C 26.470186 45.95962 29.21875 43.545041 29.21875 38.65625 L 34.125 36.21875 L 26.78125 33.78125 L 34.125 28.875 L 29.21875 26.4375 L 29.21875 24 C 34.56323 22.147488 37.356311 17.244487 36.40625 11.84375 C 35.45619 6.4430123 30.084815 2.0480837 24.40625 2 z M 38 6 L 38 26 L 40 34 L 44 34 L 46 26 L 46 6 L 38 6 z M 24.40625 9.25 C 25.8356 9.25 26.9375 10.351894 26.9375 11.78125 C 26.9375 13.210605 25.8356 14.3125 24.40625 14.3125 C 22.976899 14.3125 21.90625 13.210605 21.90625 11.78125 C 21.90625 10.351894 22.976899 9.25 24.40625 9.25 z M 24.40625 11.6875 C 24.45959 11.6875 24.34375 11.834584 24.34375 11.78125 C 24.34375 11.72791 24.459585 11.84375 24.40625 11.84375 C 24.35291 11.84375 24.5 11.727916 24.5 11.78125 C 24.5 11.83459 24.352916 11.6875 24.40625 11.6875 z M 38 38 L 38 46 L 46 46 L 46 38 L 38 38 z "
     id="path-main" />
</defs>
<acyl-settings>
<linearGradient
     id="linearGradient4321">
    <stop
       style="stop-color:#89F6FB;stop-opacity:1.0;"
       offset="0.5"
       id="stop1" />
    <stop
       style="stop-color:#10A1AA;stop-opacity:1.0;"
       offset="1.0"
       id="stop2" />
  </linearGradient>
<radialGradient
       inkscape:collect="always"
       xlink:href="#linearGradient4321"
       id="acyl_gradient"
       cx="50.0%"
       cy="50.0%"
       fx="50.0%"
       fy="50.0%"
       r="50.0%"
/>
<filter id="filter1111" x="-50%" y="-50%" width="200%" height="200%">
	<feImage
	id="feImage2"
	xlink:href="#1"
	result="result1" />
	<feComposite
	id="feComposite3633"
	in="result1"
	in2="SourceGraphic"
	operator="xor" />
</filter>
	<rect
	style="fill:#1A4B4F;fill-opacity:1.0;filter:url(#filter1111)"
	id="rect2835"
	width="48"
	height="48"
	x="0"
	y="0"
	rx="3.5"
	ry="3.5" />
	<rect
	style="fill:url(#acyl_gradient);filter:url(#filter1111)"
	id="rect2835"
	width="44"
	height="44"
	x="2"
	y="2"
	rx="3.5"
	ry="3.5" />
<defs>
<use id="1" transform="translate(22.5,22.5) scale(0.85) translate(-22.5,-22.5)" style="fill:#000000" xlink:href="#path-main" />
</defs>
	<use id="2" transform="translate(22.5,22.5) scale(0.85) translate(-22.5,-22.5)" style="fill:#1A4B4F;fill-opacity:1.0" xlink:href="#path-main" />
</acyl-settings>
</svg>
