<svg xmlns="http://www.w3.org/2000/svg" width="48" height="48">
<defs>
    <path
         d="m 23.839887,14.889317 c -4.833494,0 -8.750722,3.917228 -8.750722,8.750722 0,4.833494 3.919153,8.750722 8.750722,8.750722 4.829644,0 8.748797,-3.917228 8.748797,-8.750722 0,-4.833494 -3.919153,-8.750722 -8.748797,-8.750722 z m 0,14.585178 c -3.222329,0 -5.832532,-2.612127 -5.832532,-5.832531 0,-3.222329 2.610203,-5.834456 5.832532,-5.834456 3.220404,0 5.832531,2.612127 5.832531,5.834456 0,3.216554 -2.612127,5.832531 -5.832531,5.832531 z m -5.834457,9.718961 11.665063,0 0,-3.888355 -11.665063,0 0,3.888355 0,0 z m 0,6.806544 11.665063,0 0,-3.890279 -11.665063,0 0,3.890279 0,0 z M 16.40774,7.5457174 8.505912,15.422522 l 2.633301,2.625602 7.903754,-7.876805 -2.635227,-2.6256016 0,0 z M 11.139213,2.3349378 3.2373846,10.213667 5.8706858,12.841194 13.774439,4.9181909 11.139213,2.3349378 l 0,0 z m 26.39846,-0.3349374 -8.67565,8.6487006 6.900867,6.835419 8.677574,-8.5620792 -6.902791,-6.9220404 0,0 z"
       id="path-main" />
</defs>
<acyl-settings>
<linearGradient
     id="linearGradient4321">
    <stop
       style="stop-color:#89F6FB;stop-opacity:1.0;"
       offset="0.5"
       id="stop1" />
    <stop
       style="stop-color:#10A1AA;stop-opacity:1.0;"
       offset="1.0"
       id="stop2" />
  </linearGradient>
<radialGradient
       inkscape:collect="always"
       xlink:href="#linearGradient4321"
       id="acyl_gradient"
       cx="50.0%"
       cy="50.0%"
       fx="50.0%"
       fy="50.0%"
       r="50.0%"
/>
<filter id="filter1111" x="-50%" y="-50%" width="200%" height="200%">
	<feImage
	id="feImage2"
	xlink:href="#1"
	result="result1" />
	<feComposite
	id="feComposite3633"
	in="result1"
	in2="SourceGraphic"
	operator="xor" />
</filter>
	<rect
	style="fill:#1A4B4F;fill-opacity:1.0;filter:url(#filter1111)"
	id="rect2835"
	width="48"
	height="48"
	x="0"
	y="0"
	rx="3.5"
	ry="3.5" />
	<rect
	style="fill:url(#acyl_gradient);filter:url(#filter1111)"
	id="rect2835"
	width="44"
	height="44"
	x="2"
	y="2"
	rx="3.5"
	ry="3.5" />
<defs>
<use id="1" transform="translate(22.5,22.5) scale(0.85) translate(-22.5,-22.5)" style="fill:#000000" xlink:href="#path-main" />
</defs>
	<use id="2" transform="translate(22.5,22.5) scale(0.85) translate(-22.5,-22.5)" style="fill:#1A4B4F;fill-opacity:1.0" xlink:href="#path-main" />
</acyl-settings>
</svg>
