<svg xmlns="http://www.w3.org/2000/svg" width="48" height="48">
<defs>
<defs
     id="defs8577">
  </defs>
  <g
     id="layer1"
     inkscape:label="Layer 1"
     inkscape:groupmode="layer">
    <path
         d="m 6.217931,3.8510345 c -0.4777489,0 -0.9916691,0.020149 -1.4868965,0.091035 C 4.2358069,4.0129545 3.749076,4.134091 3.2441379,4.2758621 l 0,1.8510345 c 0.4156028,-0.1815835 0.82368,-0.3012637 1.244138,-0.3944828 0.4204579,-0.093219 0.8324195,-0.1517243 1.2441379,-0.1517241 0.5573738,0 0.9989517,0.095647 1.3048276,0.3034482 0.3058758,0.2078014 0.4551723,0.5296992 0.4551724,0.9103449 0,0.4117186 -0.1405572,0.7093405 -0.4551724,0.9103448 C 6.7226262,7.9058317 6.2225433,8.0082759 5.5806897,8.0082759 l -1.062069,0 0,1.6386207 1.0317241,0 c 0.7214786,0 1.2686567,0.1320604 1.6386207,0.3641374 0.3699642,0.232078 0.5462069,0.549849 0.5462069,1.00138 0,0.437936 -0.1849819,0.797705 -0.5462069,1.031724 -0.3612248,0.234019 -0.8707753,0.333793 -1.5475862,0.333793 -0.4554152,0 -0.9249103,-0.06069 -1.3958621,-0.182069 C 3.7745655,12.074483 3.2970592,11.88853 2.8193103,11.649655 l 0,1.972414 c 0.5000828,0.163134 1.0055063,0.282571 1.5172414,0.364138 0.5117352,0.08157 1.0084194,0.121379 1.5172414,0.121379 1.4429572,0 2.5550343,-0.247856 3.3075862,-0.75862 0.7525517,-0.510765 1.1227587,-1.262831 1.1227587,-2.245518 0,-0.659332 -0.168232,-1.1810209 -0.5158621,-1.6082756 C 9.4206455,9.0679172 8.9191063,8.7576718 8.2510345,8.5848276 8.8482207,8.4343172 9.280331,8.1648552 9.5862069,7.7958621 9.8920828,7.426869 10.041379,6.9493629 10.041379,6.3696552 10.041379,5.52 9.7406012,4.9106759 9.1006897,4.4882759 8.4607779,4.0658759 7.5055229,3.8510345 6.217931,3.8510345 z m 10.651035,0 c -1.70805,0 -3.053176,0.4488609 -4.035863,1.3655172 -0.982686,0.9166566 -1.456551,2.1654067 -1.456551,3.7627586 0,1.5798727 0.460998,2.8402757 1.426207,3.7627587 0.965208,0.922483 2.294069,1.365517 3.944827,1.365517 0.730218,0 1.437617,-0.05705 2.124138,-0.212414 0.686522,-0.155365 1.335414,-0.388171 1.972414,-0.697931 l 0,-4.7641376 -3.975172,0 0,1.6993106 1.547586,0 0,1.942069 c -0.181584,0.07088 -0.378704,0.118709 -0.606897,0.151724 -0.228193,0.03301 -0.493527,0.03034 -0.758621,0.03034 -0.977831,0 -1.714361,-0.278687 -2.245517,-0.849655 -0.531156,-0.570969 -0.788965,-1.378869 -0.788965,-2.4275867 0,-1.0574565 0.268734,-1.8595312 0.81931,-2.4275862 0.550577,-0.5680551 1.318908,-0.849655 2.336552,-0.8496551 0.548634,0 1.122273,0.057048 1.668965,0.2124138 0.546693,0.1553655 1.085132,0.4136606 1.638621,0.7282758 l 0,-2.0634483 C 19.94496,4.3365517 19.384672,4.1564248 18.78069,4.0331034 18.176706,3.9097821 17.528299,3.8510345 16.868966,3.8510345 z m 21.05931,0.9406896 C 36.560729,4.7917239 35.44,5.9134995 35.44,7.28 l 0,36.231724 C 35.440003,44.878873 36.561127,46 37.928276,46 l 5.583448,0 C 44.878874,45.999998 46,44.878873 46,43.511724 L 46,7.28 c -10e-7,-1.3665005 -1.120729,-2.4882759 -2.488276,-2.4882759 l -5.583448,0 z m 0,1.2744828 5.583448,0 c 0.68522,0 1.213793,0.5294689 1.213793,1.2137931 l 0,36.231724 c 0,0.685618 -0.528173,1.244137 -1.213793,1.244138 l -5.583448,0 c -0.685618,0 -1.213792,-0.558519 -1.213793,-1.244138 l 0,-36.231724 c 0,-0.6843243 0.528573,-1.2137932 1.213793,-1.2137931 z M 26.791724,13.166897 c -1.366501,0 -2.488276,1.120729 -2.488276,2.488275 l 0,27.856552 C 24.303448,44.879272 25.425223,46 26.791724,46 l 5.553104,0 c 1.367149,-2e-6 2.488275,-1.121127 2.488275,-2.488276 l 0,-27.856552 c 0.0013,-1.367869 -1.121127,-2.488275 -2.488275,-2.488275 l -5.553104,0 z m 0,1.244137 5.553104,0 c 0.685618,0 1.244785,0.559241 1.244138,1.244138 l 0,27.856552 c 0,0.685618 -0.558518,1.244137 -1.244138,1.244138 l -5.553104,0 c -0.684324,0 -1.244138,-0.558918 -1.244138,-1.244138 l 0,-27.856552 c 0,-0.68522 0.559814,-1.244138 1.244138,-1.244138 z m -11.166896,7.10069 C 14.258327,21.511725 13.136552,22.632453 13.136552,24 l 0,19.511724 C 13.136552,44.879272 14.258327,46 15.624828,46 l 5.583448,0 c 1.367148,-2e-6 2.488276,-1.121127 2.488276,-2.488276 l 0,-19.511724 c 0,-1.367149 -1.121128,-2.488276 -2.488276,-2.488276 l -5.583448,0 z m 0,1.274483 5.583448,0 c 0.685618,0 1.244138,0.528176 1.244138,1.213793 l 0,19.511724 c 0,0.685618 -0.558519,1.244137 -1.244138,1.244138 l -5.583448,0 c -0.684324,0 -1.213794,-0.558918 -1.213794,-1.244138 l 0,-19.511724 c 0,-0.68522 0.529469,-1.213793 1.213794,-1.213793 z M 4.4882759,29.886897 C 3.1211273,29.886898 2,31.008024 2,32.375172 L 2,43.511724 C 2.0000001,44.878874 3.121127,46 4.4882759,46 l 5.5834481,0 c 1.3665,-2e-6 2.488276,-1.120729 2.488276,-2.488276 l 0,-11.136552 c 0,-1.3665 -1.120729,-2.488275 -2.488276,-2.488275 l -5.5834481,0 z"
       id="path-main" />
  </g>
</defs>
<acyl-settings>
<linearGradient
     id="linearGradient4321">
    <stop
       style="stop-color:#89F6FB;stop-opacity:1.0;"
       offset="0.5"
       id="stop1" />
    <stop
       style="stop-color:#10A1AA;stop-opacity:1.0;"
       offset="1.0"
       id="stop2" />
  </linearGradient>
<radialGradient
       inkscape:collect="always"
       xlink:href="#linearGradient4321"
       id="acyl_gradient"
       cx="50.0%"
       cy="50.0%"
       fx="50.0%"
       fy="50.0%"
       r="50.0%"
/>
<filter id="filter1111" x="-50%" y="-50%" width="200%" height="200%">
	<feImage
	id="feImage2"
	xlink:href="#1"
	result="result1" />
	<feComposite
	id="feComposite3633"
	in="result1"
	in2="SourceGraphic"
	operator="xor" />
</filter>
	<rect
	style="fill:#1A4B4F;fill-opacity:1.0;filter:url(#filter1111)"
	id="rect2835"
	width="48"
	height="48"
	x="0"
	y="0"
	rx="3.5"
	ry="3.5" />
	<rect
	style="fill:url(#acyl_gradient);filter:url(#filter1111)"
	id="rect2835"
	width="44"
	height="44"
	x="2"
	y="2"
	rx="3.5"
	ry="3.5" />
<defs>
<use id="1" transform="translate(22.5,22.5) scale(0.85) translate(-22.5,-22.5)" style="fill:#000000" xlink:href="#path-main" />
</defs>
	<use id="2" transform="translate(22.5,22.5) scale(0.85) translate(-22.5,-22.5)" style="fill:#1A4B4F;fill-opacity:1.0" xlink:href="#path-main" />
</acyl-settings>
</svg>
