<svg xmlns="http://www.w3.org/2000/svg" width="48" height="48">
<defs>
  <path
     d="M 30.3125 2 C 26.77996 2 23.76511 3.8885738 22.15625 6.625 C 21.250313 5.9809271 20.082115 5.5625 18.8125 5.5625 C 15.927013 5.5625 13.59375 7.56508 13.59375 10.03125 C 13.59375 10.58511 13.690382 11.104173 13.90625 11.59375 C 10.624514 12.846994 8.375 15.687733 8.375 18.96875 C 8.375 23.423935 12.568553 27.03125 17.78125 27.03125 L 36.59375 27.03125 C 41.806447 27.03125 46 23.423935 46 18.96875 C 46 15.439856 43.341565 12.463269 39.65625 11.375 C 39.66445 11.222337 39.71875 11.092087 39.71875 10.9375 C 39.71875 6.0051635 35.506379 2 30.3125 2 z M 9.8125 30.125 A 1.5683569 1.5638498 0 0 0 9.75 30.15625 A 1.5683569 1.5638498 0 0 0 8.5625 31.03125 L 2.28125 43.53125 A 1.5683569 1.5638498 0 1 0 5.03125 45 L 11.3125 32.5 A 1.5683569 1.5638498 0 0 0 9.8125 30.125 z M 15.96875 30.125 A 1.5683569 1.5638498 0 0 0 15.90625 30.15625 A 1.5683569 1.5638498 0 0 0 14.71875 31.03125 L 8.46875 43.53125 A 1.6000374 1.5954393 0 1 0 11.3125 45 L 17.5625 32.5 A 1.5683569 1.5638498 0 0 0 15.96875 30.125 z M 22.34375 30.125 A 1.5683569 1.5638498 0 0 0 22.28125 30.15625 A 1.5683569 1.5638498 0 0 0 21.09375 31.03125 L 14.84375 43.53125 A 1.5683569 1.5638498 0 1 0 17.5625 45 L 23.84375 32.5 A 1.5683569 1.5638498 0 0 0 22.34375 30.125 z M 28.5 30.125 A 1.5683569 1.5638498 0 0 0 28.46875 30.15625 A 1.5683569 1.5638498 0 0 0 27.28125 31.03125 L 21 43.53125 A 1.6000374 1.5954393 0 1 0 23.84375 45 L 30.125 32.5 A 1.5683569 1.5638498 0 0 0 28.5 30.125 z M 34.90625 30.125 A 1.5683569 1.5638498 0 0 0 34.8125 30.15625 A 1.5683569 1.5638498 0 0 0 33.65625 31.03125 L 27.375 43.53125 A 1.5683569 1.5638498 0 1 0 30.125 45 L 36.40625 32.5 A 1.5683569 1.5638498 0 0 0 34.90625 30.125 z M 41.0625 30.125 A 1.5683569 1.5638498 0 0 0 41 30.15625 A 1.5683569 1.5638498 0 0 0 39.8125 31.03125 L 33.5625 43.53125 A 1.6000374 1.5954393 0 1 0 36.40625 45 L 42.65625 32.5 A 1.5683569 1.5638498 0 0 0 41.0625 30.125 z "
     id="path-main" />
</defs>
<acyl-settings>
<linearGradient
     id="linearGradient4321">
    <stop
       style="stop-color:#89F6FB;stop-opacity:1.0;"
       offset="0.5"
       id="stop1" />
    <stop
       style="stop-color:#10A1AA;stop-opacity:1.0;"
       offset="1.0"
       id="stop2" />
  </linearGradient>
<radialGradient
       inkscape:collect="always"
       xlink:href="#linearGradient4321"
       id="acyl_gradient"
       cx="50.0%"
       cy="50.0%"
       fx="50.0%"
       fy="50.0%"
       r="50.0%"
/>
<filter id="filter1111" x="-50%" y="-50%" width="200%" height="200%">
	<feImage
	id="feImage2"
	xlink:href="#1"
	result="result1" />
	<feComposite
	id="feComposite3633"
	in="result1"
	in2="SourceGraphic"
	operator="xor" />
</filter>
	<rect
	style="fill:#1A4B4F;fill-opacity:1.0;filter:url(#filter1111)"
	id="rect2835"
	width="48"
	height="48"
	x="0"
	y="0"
	rx="3.5"
	ry="3.5" />
	<rect
	style="fill:url(#acyl_gradient);filter:url(#filter1111)"
	id="rect2835"
	width="44"
	height="44"
	x="2"
	y="2"
	rx="3.5"
	ry="3.5" />
<defs>
<use id="1" transform="translate(22.5,22.5) scale(0.85) translate(-22.5,-22.5)" style="fill:#000000" xlink:href="#path-main" />
</defs>
	<use id="2" transform="translate(22.5,22.5) scale(0.85) translate(-22.5,-22.5)" style="fill:#1A4B4F;fill-opacity:1.0" xlink:href="#path-main" />
</acyl-settings>
</svg>
