<svg xmlns="http://www.w3.org/2000/svg" width="48" height="48">
<defs>
<defs
     id="defs1308">
  </defs>
  <path
     d="m 32.40625,7 c -1.994403,0 -3.59375,1.4794118 -3.59375,3.3125 -2e-6,0.126698 0.01631,0.252085 0.03125,0.375 l -13.65625,0 c 0,-1.222059 -1.0454,-2.21875 -2.375,-2.21875 -1.3296,-4e-7 -2.40625,0.9966912 -2.40625,2.21875 L 8,10.6875 8,32 l 32,0 0,-21.3125 -1.65625,0 c 0.01494,-0.122916 0.0625,-0.248301 0.0625,-0.375 C 38.406248,8.4794117 36.8069,7 34.8125,7 L 32.40625,7 z M 24,12.875 c 5.279998,0 9.5625,3.973162 9.5625,8.84375 0,4.870588 -4.2825,8.8125 -9.5625,8.8125 -5.280002,1e-6 -9.5625,-3.941912 -9.5625,-8.8125 C 14.4375,16.848162 18.72,12.875 24,12.875 z m 0,2.21875 c -3.9744,0 -7.187501,2.97206 -7.1875,6.625 0,3.652941 3.213101,6.59375 7.1875,6.59375 3.9744,0 7.1875,-2.940808 7.1875,-6.59375 0,-3.652941 -3.2131,-6.625 -7.1875,-6.625 z M 15.40625,35 c -0.18517,0.0286 -0.347,0.166 -0.40625,0.34375 -0.05925,0.177752 -0.006,0.36602 0.125,0.5 l 8.5,9 C 23.719925,44.95136 23.856505,45 24,45 c 0.143495,10e-7 0.280075,-0.04864 0.375,-0.15625 l 8.5,-9 c 0.138862,-0.146629 0.175769,-0.377958 0.09375,-0.5625 C 32.886733,35.096709 32.701889,34.995184 32.5,35 l -17,0 c -0.03118,-0.0029 -0.06257,-0.0029 -0.09375,0 z"
     id="path-main"
      />
</defs>
<acyl-settings>
<linearGradient
     id="linearGradient4321">
    <stop
       style="stop-color:#89F6FB;stop-opacity:1.0;"
       offset="0.5"
       id="stop1" />
    <stop
       style="stop-color:#10A1AA;stop-opacity:1.0;"
       offset="1.0"
       id="stop2" />
  </linearGradient>
<radialGradient
       inkscape:collect="always"
       xlink:href="#linearGradient4321"
       id="acyl_gradient"
       cx="50.0%"
       cy="50.0%"
       fx="50.0%"
       fy="50.0%"
       r="50.0%"
/>
<filter id="filter1111" x="-50%" y="-50%" width="200%" height="200%">
	<feImage
	id="feImage2"
	xlink:href="#1"
	result="result1" />
	<feComposite
	id="feComposite3633"
	in="result1"
	in2="SourceGraphic"
	operator="xor" />
</filter>
	<rect
	style="fill:#1A4B4F;fill-opacity:1.0;filter:url(#filter1111)"
	id="rect2835"
	width="48"
	height="48"
	x="0"
	y="0"
	rx="3.5"
	ry="3.5" />
	<rect
	style="fill:url(#acyl_gradient);filter:url(#filter1111)"
	id="rect2835"
	width="44"
	height="44"
	x="2"
	y="2"
	rx="3.5"
	ry="3.5" />
<defs>
<use id="1" transform="translate(22.5,22.5) scale(0.85) translate(-22.5,-22.5)" style="fill:#000000" xlink:href="#path-main" />
</defs>
	<use id="2" transform="translate(22.5,22.5) scale(0.85) translate(-22.5,-22.5)" style="fill:#1A4B4F;fill-opacity:1.0" xlink:href="#path-main" />
</acyl-settings>
</svg>
