<svg xmlns="http://www.w3.org/2000/svg" width="48" height="48">
<defs>
<defs
     id="defs3">
  </defs>
  <g
     id="layer1"
     inkscape:label="Layer 1"
     inkscape:groupmode="layer">
    <path
         d="m 25.807059,2.0046113 c -2.07188,-0.01939 -3.92487,0.028643 -3.92487,0.028643 2.359496,0.5987102 4.183168,4.7648087 4.211357,4.8119956 0.736103,1.2323393 2.807571,5.3562091 2.807571,5.3562091 l -5.156763,3.265283 12.318935,0.973856 4.784331,-11.9154174 -5.643792,4.0672816 c 2e-6,0 -2.415352,-5.7787609 -4.154059,-6.2441368 -0.869353,-0.2326862 -3.17083,-0.3243237 -5.24271,-0.3437139 z m -6.216765,0.4296424 c -2.998576,0 -6.789739,7.3612073 -6.789739,7.3612073 l 8.394065,5.413495 4.068114,-7.9913495 C 23.968819,5.0830804 22.614236,2.4342537 19.590294,2.4342537 z M 13.430826,15.037099 2,15.867742 6.6983847,19.362167 c -2e-7,-1e-6 -3.2586521,4.717324 -2.8075713,6.501923 0.4510807,1.784596 3.0081121,9.165706 3.0081121,9.165706 -0.640071,-2.405781 2.0076289,-6.081317 2.0340568,-6.129566 0.6902151,-1.259984 3.5810857,-6.129566 3.5810857,-6.129566 l 4.841628,2.864283 -3.92487,-10.597848 z m 29.565445,3.924068 -8.852444,4.582853 4.58379,7.704922 c 2.449622,-0.04206 5.379126,0.141081 6.932982,-2.520569 1.540829,-2.639322 -2.664327,-9.767207 -2.664328,-9.767206 z M 31.278958,26.207804 23.314623,35.946366 30.906525,46 31.049769,39.669934 c -1e-6,0 5.59313,0.546548 6.875685,-0.744713 1.282547,-1.291259 6.617846,-7.819493 6.617846,-7.819493 -1.713035,1.76916 -6.134176,1.259718 -6.188116,1.260284 -1.408646,0.01467 -6.99028,-0.114571 -6.99028,-0.114571 l -0.08595,-6.043637 z m -12.977855,3.465782 -8.795147,0.229143 c -1.1863025,2.199359 -2.7912351,4.737743 -1.3178396,7.447136 1.461039,2.686663 9.5973096,2.491924 9.5973106,2.491926 l 0.515676,-10.168205 z"
       id="path-main" />
  </g>
</defs>
<acyl-settings>
<linearGradient
     id="linearGradient4321">
    <stop
       style="stop-color:#89F6FB;stop-opacity:1.0;"
       offset="0.5"
       id="stop1" />
    <stop
       style="stop-color:#10A1AA;stop-opacity:1.0;"
       offset="1.0"
       id="stop2" />
  </linearGradient>
<radialGradient
       inkscape:collect="always"
       xlink:href="#linearGradient4321"
       id="acyl_gradient"
       cx="50.0%"
       cy="50.0%"
       fx="50.0%"
       fy="50.0%"
       r="50.0%"
/>
<filter id="filter1111" x="-50%" y="-50%" width="200%" height="200%">
	<feImage
	id="feImage2"
	xlink:href="#1"
	result="result1" />
	<feComposite
	id="feComposite3633"
	in="result1"
	in2="SourceGraphic"
	operator="xor" />
</filter>
	<rect
	style="fill:#1A4B4F;fill-opacity:1.0;filter:url(#filter1111)"
	id="rect2835"
	width="48"
	height="48"
	x="0"
	y="0"
	rx="3.5"
	ry="3.5" />
	<rect
	style="fill:url(#acyl_gradient);filter:url(#filter1111)"
	id="rect2835"
	width="44"
	height="44"
	x="2"
	y="2"
	rx="3.5"
	ry="3.5" />
<defs>
<use id="1" transform="translate(22.5,22.5) scale(0.85) translate(-22.5,-22.5)" style="fill:#000000" xlink:href="#path-main" />
</defs>
	<use id="2" transform="translate(22.5,22.5) scale(0.85) translate(-22.5,-22.5)" style="fill:#1A4B4F;fill-opacity:1.0" xlink:href="#path-main" />
</acyl-settings>
</svg>
