<?xml version="1.0" encoding="UTF-8" standalone="no"?>
<svg
   xmlns:dc="http://purl.org/dc/elements/1.1/"
   xmlns:cc="http://creativecommons.org/ns#"
   xmlns:rdf="http://www.w3.org/1999/02/22-rdf-syntax-ns#"
   xmlns:svg="http://www.w3.org/2000/svg"
   xmlns="http://www.w3.org/2000/svg"
   xmlns:sodipodi="http://sodipodi.sourceforge.net/DTD/sodipodi-0.dtd"
   xmlns:inkscape="http://www.inkscape.org/namespaces/inkscape"
   width="48px"
   height="48px"
   id="svg11300"
   output_extension="org.inkscape.output.svg.inkscape"
   sodipodi:version="0.32"
   inkscape:version="0.46"
   inkscape:output_extension="org.inkscape.output.svg.inkscape"
   sodipodi:docname="gnome-session-reboot.svg">
  <sodipodi:namedview
     inkscape:window-height="636"
     inkscape:window-width="640"
     inkscape:pageshadow="2"
     inkscape:pageopacity="0.0"
     guidetolerance="10.0"
     gridtolerance="10.0"
     objecttolerance="10.0"
     borderopacity="1.0"
     bordercolor="#666666"
     pagecolor="#ffffff"
     id="namedview56"
     showgrid="false"
     showguides="true"
     inkscape:guide-bbox="true"
     inkscape:zoom="9.7083333"
     inkscape:cx="24"
     inkscape:cy="24"
     inkscape:window-x="0"
     inkscape:window-y="6"
     inkscape:current-layer="svg11300">
    <sodipodi:guide
       orientation="0,1"
       position="1.9570815,24"
       id="guide2431" />
    <sodipodi:guide
       orientation="1,0"
       position="24,5.8712446"
       id="guide2433" />
    <sodipodi:guide
       orientation="0,1"
       position="47.690987,4"
       id="guide2435" />
  </sodipodi:namedview>
  <defs
     id="defs3">
    <inkscape:perspective
       sodipodi:type="inkscape:persp3d"
       inkscape:vp_x="0 : 24 : 1"
       inkscape:vp_y="0 : 1000 : 0"
       inkscape:vp_z="48 : 24 : 1"
       inkscape:persp3d-origin="24 : 16 : 1"
       id="perspective58" />
  </defs>
  <namedview
     stroke="#3465a4"
     fill="#729fcf"
     id="base"
     pagecolor="#ffffff"
     bordercolor="#666666"
     borderopacity="0.25490196"
     showgrid="false"
     window-y="6" />
  <metadata
     id="metadata4">
    <RDF
       id="RDF6">
      <Work
         about=""
         id="Work8">
        <format
           id="format10">image/svg+xml</format>
        <type
           resource="http://purl.org/dc/dcmitype/StillImage"
           id="type12" />
        <creator
           id="creator14">
          <Agent
             id="Agent16">
            <title
               id="title18">Jakub Steiner</title>
          </Agent>
        </creator>
        <source
           id="source20">http://jimmac.musichall.cz</source>
        <license
           resource="http://creativecommons.org/licenses/by-sa/2.0/"
           id="license22" />
        <title
           id="title24">View Refresh</title>
        <subject
           id="subject26">
          <Bag
             id="Bag28">
            <li
               id="li30">reload</li>
            <li
               id="li32">refresh</li>
            <li
               id="li34">view</li>
          </Bag>
        </subject>
      </Work>
      <License
         about="http://creativecommons.org/licenses/by-sa/2.0/"
         id="License36">
        <permits
           resource="http://web.resource.org/cc/Reproduction"
           id="permits38" />
        <permits
           resource="http://web.resource.org/cc/Distribution"
           id="permits40" />
        <requires
           resource="http://web.resource.org/cc/Notice"
           id="requires42" />
        <requires
           resource="http://web.resource.org/cc/Attribution"
           id="requires44" />
        <permits
           resource="http://web.resource.org/cc/DerivativeWorks"
           id="permits46" />
        <requires
           resource="http://web.resource.org/cc/ShareAlike"
           id="requires48" />
      </License>
    </RDF>
    <rdf:RDF>
      <cc:Work
         rdf:about="">
        <dc:format>image/svg+xml</dc:format>
        <dc:type
           rdf:resource="http://purl.org/dc/dcmitype/StillImage" />
      </cc:Work>
    </rdf:RDF>
  </metadata>
  <path
     id="path2435"
     d="M 24,3.2949482 C 13.36332,3.2949482 4.721687,11.651072 4.1450719,22.145002 L 13.18894,22.145002 C 13.745653,16.655354 18.362361,12.373467 24,12.373467 C 27.728381,12.373467 31.00883,14.258064 32.974566,17.120631 C 30.471532,19.966405 27.361131,23.496385 27.361131,23.496385 L 43.958881,23.496385 L 44.062833,4.5077274 C 44.062833,4.5077273 41.167009,7.8098524 39.073113,10.190464 C 35.413786,5.9733524 30.011018,3.2949481 24,3.2949482 z M 20.396313,24.501259 L 4.1797228,24.639862 L 4.1450719,43.697821 C 4.1450719,43.697821 7.210533,40.082993 9.7238563,37.114163 C 13.341371,40.866401 18.381402,43.212711 24,43.212709 C 34.214122,43.212709 42.65328,35.514299 43.820277,25.610086 L 34.672457,25.610086 C 33.585902,30.483239 29.200195,34.13419 24,34.134191 C 19.573702,34.134192 17.237972,32.805993 15.198688,30.634457 C 17.457946,27.965738 20.396313,24.501259 20.396313,24.501259 z"
     style="fill:#e3007f;fill-opacity:1;stroke:#000000;stroke-width:1;stroke-linejoin:miter;stroke-miterlimit:4;stroke-opacity:1;stroke-dasharray:none" />
</svg>
