<svg xmlns="http://www.w3.org/2000/svg" width="48" height="48">
<defs>
<defs
     id="defs2385">
  </defs>
  <path
     id="path-main"
   d="M 13.09375 4.59375 C 12.693018 4.59375 12.40625 4.8950423 12.40625 5.28125 L 12.40625 41.90625 C 12.40625 42.292462 12.693018 42.59375 13.09375 42.59375 L 23.875 42.59375 L 36.40625 30.78125 L 36.40625 16.78125 L 23.5 4.59375 L 13.09375 4.59375 z M 25.53125 4.59375 L 36.40625 14.84375 L 36.40625 5.28125 C 36.40625 4.8950423 36.056977 4.59375 35.65625 4.59375 L 25.53125 4.59375 z M 24.375 14.09375 C 24.940939 14.09375 25.479824 14.411274 25.75 14.9375 L 32.59375 28.75 L 32.625 28.75 L 32.625 28.78125 C 32.825366 29.270007 32.80102 29.83017 32.53125 30.3125 C 32.52605 30.32175 32.53665 30.33455 32.53125 30.34375 C 32.279903 30.83722 31.769893 31.125001 31.21875 31.125 L 17.5625 31.125 C 17.030478 31.125 16.553943 30.846719 16.28125 30.375 C 15.989594 29.870481 15.988472 29.302984 16.21875 28.8125 L 16.21875 28.78125 L 23 15 L 23.03125 14.96875 C 23.298223 14.456542 23.775144 14.093751 24.375 14.09375 z M 24.375 18.3125 C 24.319371 18.3125 24.28459 18.34603 24.25 18.4375 L 19.40625 28.1875 C 19.302829 28.370446 19.422594 28.5 19.59375 28.5 L 29.25 28.5 C 29.421159 28.500002 29.508216 28.370448 29.40625 28.1875 L 24.53125 18.4375 C 24.480272 18.346032 24.43063 18.3125 24.375 18.3125 z M 23.53125 21.5625 L 25.46875 21.59375 L 24.75 24.46875 L 24.25 24.53125 L 23.53125 21.5625 z M 24.375 25.4375 C 24.457386 25.419084 24.539212 25.426055 24.625 25.4375 C 24.739385 25.45276 24.853768 25.49612 24.96875 25.5625 C 25.428676 25.828037 25.506878 26.291705 25.25 26.8125 C 24.980964 27.278486 24.491176 27.484289 24.03125 27.21875 C 23.604174 26.972177 23.480965 26.434733 23.75 25.96875 C 23.912973 25.686471 24.127842 25.492749 24.375 25.4375 z M 36.40625 32.6875 L 25.90625 42.59375 L 35.65625 42.59375 C 36.056987 42.59375 36.40625 42.292462 36.40625 41.90625 L 36.40625 32.6875 z "
 />
</defs>
<acyl-settings>
<linearGradient
     id="linearGradient4321">
    <stop
       style="stop-color:#89F6FB;stop-opacity:1.0;"
       offset="0.5"
       id="stop1" />
    <stop
       style="stop-color:#10A1AA;stop-opacity:1.0;"
       offset="1.0"
       id="stop2" />
  </linearGradient>
<radialGradient
       inkscape:collect="always"
       xlink:href="#linearGradient4321"
       id="acyl_gradient"
       cx="50.0%"
       cy="50.0%"
       fx="50.0%"
       fy="50.0%"
       r="50.0%"
/>
<filter id="filter1111" x="-50%" y="-50%" width="200%" height="200%">
	<feImage
	id="feImage2"
	xlink:href="#1"
	result="result1" />
	<feComposite
	id="feComposite3633"
	in="result1"
	in2="SourceGraphic"
	operator="xor" />
</filter>
	<rect
	style="fill:#1A4B4F;fill-opacity:1.0;filter:url(#filter1111)"
	id="rect2835"
	width="48"
	height="48"
	x="0"
	y="0"
	rx="3.5"
	ry="3.5" />
	<rect
	style="fill:url(#acyl_gradient);filter:url(#filter1111)"
	id="rect2835"
	width="44"
	height="44"
	x="2"
	y="2"
	rx="3.5"
	ry="3.5" />
<defs>
<use id="1" transform="translate(22.5,22.5) scale(0.85) translate(-22.5,-22.5)" style="fill:#000000" xlink:href="#path-main" />
</defs>
	<use id="2" transform="translate(22.5,22.5) scale(0.85) translate(-22.5,-22.5)" style="fill:#1A4B4F;fill-opacity:1.0" xlink:href="#path-main" />
</acyl-settings>
</svg>
