<?xml version="1.0" encoding="UTF-8" standalone="no"?>
<!-- Created with Inkscape (http://www.inkscape.org/) -->

<svg
   xmlns:dc="http://purl.org/dc/elements/1.1/"
   xmlns:cc="http://creativecommons.org/ns#"
   xmlns:rdf="http://www.w3.org/1999/02/22-rdf-syntax-ns#"
   xmlns:svg="http://www.w3.org/2000/svg"
   xmlns="http://www.w3.org/2000/svg"
   xmlns:xlink="http://www.w3.org/1999/xlink"
   xmlns:sodipodi="http://sodipodi.sourceforge.net/DTD/sodipodi-0.dtd"
   xmlns:inkscape="http://www.inkscape.org/namespaces/inkscape"
   version="1.1"
   width="24"
   height="24"
   id="svg3816"
   inkscape:version="0.91 r"
   sodipodi:docname="2.svg">
  <sodipodi:namedview
     pagecolor="#ffffff"
     bordercolor="#666666"
     borderopacity="1"
     objecttolerance="10"
     gridtolerance="10"
     guidetolerance="10"
     inkscape:pageopacity="0"
     inkscape:pageshadow="2"
     inkscape:window-width="1855"
     inkscape:window-height="1056"
     id="namedview221"
     showgrid="true"
     inkscape:zoom="42.096549"
     inkscape:cx="12.306771"
     inkscape:cy="9.5743777"
     inkscape:window-x="65"
     inkscape:window-y="24"
     inkscape:window-maximized="1"
     inkscape:current-layer="svg3816">
    <inkscape:grid
       type="xygrid"
       id="grid3318"
       empspacing="5"
       visible="true"
       enabled="true"
       snapvisiblegridlinesonly="true" />
  </sodipodi:namedview>
  <defs
     id="defs3818">
    <linearGradient
       x1="38.851257"
       y1="41.608219"
       x2="34.130882"
       y2="37.809635"
       id="linearGradient5701-5"
       xlink:href="#linearGradient6455-7-3-3-2"
       gradientUnits="userSpaceOnUse" />
    <linearGradient
       id="linearGradient6455-7-3-3-2">
      <stop
         id="stop6457-5-1-10-5"
         style="stop-color:#fbac9b;stop-opacity:1"
         offset="0" />
      <stop
         id="stop6459-8-9-7-0"
         style="stop-color:#fcfafc;stop-opacity:1"
         offset="1" />
    </linearGradient>
    <linearGradient
       x1="38.851257"
       y1="41.608219"
       x2="34.130882"
       y2="37.809635"
       id="linearGradient5699-5"
       xlink:href="#linearGradient6413-0-0-0-9"
       gradientUnits="userSpaceOnUse" />
    <linearGradient
       id="linearGradient6413-0-0-0-9">
      <stop
         id="stop6415-1-7-3-8"
         style="stop-color:#feffff;stop-opacity:1"
         offset="0" />
      <stop
         id="stop6417-4-9-2-3"
         style="stop-color:#fe70ca;stop-opacity:1"
         offset="1" />
    </linearGradient>
    <radialGradient
       cx="36.49107"
       cy="39.708927"
       r="3.1589286"
       fx="36.49107"
       fy="39.708927"
       id="radialGradient5697-4"
       xlink:href="#linearGradient6303-33-0-2-0-0"
       gradientUnits="userSpaceOnUse" />
    <linearGradient
       id="linearGradient6303-33-0-2-0-0">
      <stop
         id="stop6305-1-0-2-0-2"
         style="stop-color:#ffffff;stop-opacity:1"
         offset="0" />
      <stop
         id="stop6307-5-0-6-1-8"
         style="stop-color:#ffffff;stop-opacity:0"
         offset="1" />
    </linearGradient>
    <radialGradient
       cx="36.49107"
       cy="39.708927"
       r="3.1589286"
       fx="36.49107"
       fy="39.708927"
       id="radialGradient5695-8"
       xlink:href="#linearGradient6303-3-2-1-4-9"
       gradientUnits="userSpaceOnUse" />
    <linearGradient
       id="linearGradient6303-3-2-1-4-9">
      <stop
         id="stop6305-3-0-9-0-0"
         style="stop-color:#ffffff;stop-opacity:1"
         offset="0" />
      <stop
         id="stop6307-1-0-1-2-1"
         style="stop-color:#ffffff;stop-opacity:0"
         offset="1" />
    </linearGradient>
    <radialGradient
       cx="36.49107"
       cy="39.708927"
       r="3.1589286"
       fx="36.49107"
       fy="39.708927"
       id="radialGradient5693-2"
       xlink:href="#linearGradient6303-4-8-5-0"
       gradientUnits="userSpaceOnUse" />
    <linearGradient
       id="linearGradient6303-4-8-5-0">
      <stop
         id="stop6305-33-3-3-7"
         style="stop-color:#ffffff;stop-opacity:1"
         offset="0" />
      <stop
         id="stop6307-9-3-4-0"
         style="stop-color:#ffffff;stop-opacity:0"
         offset="1" />
    </linearGradient>
    <radialGradient
       cx="32.372566"
       cy="31.405056"
       r="3.857446"
       fx="32.372566"
       fy="31.405056"
       id="radialGradient5691-8"
       xlink:href="#linearGradient6088-6-1-0-06-8"
       gradientUnits="userSpaceOnUse"
       gradientTransform="matrix(2.0664963,0,0,2.0664963,-34.525221,-33.493375)" />
    <linearGradient
       id="linearGradient6088-6-1-0-06-8">
      <stop
         id="stop6090-2-0-4-9-4"
         style="stop-color:#ff54d2;stop-opacity:0"
         offset="0" />
      <stop
         id="stop6257-4-6-1-76-0"
         style="stop-color:#ff54d2;stop-opacity:0"
         offset="0.32368398" />
      <stop
         id="stop6255-3-6-7-23-8"
         style="stop-color:#ff54d2;stop-opacity:0.2521739"
         offset="0.56140333" />
      <stop
         id="stop6092-9-6-8-9-2"
         style="stop-color:#ff54d2;stop-opacity:0.47826087"
         offset="1" />
    </linearGradient>
    <radialGradient
       cx="32.372566"
       cy="31.405056"
       r="3.857446"
       fx="32.372566"
       fy="31.405056"
       id="radialGradient5689-3"
       xlink:href="#linearGradient6191-8-3-4-5-4"
       gradientUnits="userSpaceOnUse"
       gradientTransform="matrix(2.0676498,0.55402509,-0.5348486,1.9960821,-17.765612,-49.217228)" />
    <linearGradient
       id="linearGradient6191-8-3-4-5-4">
      <stop
         id="stop6193-75-7-6-4-2"
         style="stop-color:#ffffff;stop-opacity:0"
         offset="0" />
      <stop
         id="stop6197-3-4-1-4-8"
         style="stop-color:#ffffff;stop-opacity:0"
         offset="0.40531859" />
      <stop
         id="stop6195-7-2-5-7-8"
         style="stop-color:#ffffff;stop-opacity:0.47826087"
         offset="1" />
    </linearGradient>
    <radialGradient
       cx="32.372566"
       cy="31.405056"
       r="3.857446"
       fx="32.372566"
       fy="31.405056"
       id="radialGradient5687-9"
       xlink:href="#linearGradient6191-7-9-4-9-2"
       gradientUnits="userSpaceOnUse"
       gradientTransform="matrix(2.0676498,0.55402509,-0.5348486,1.9960821,-17.765612,-49.217228)" />
    <linearGradient
       id="linearGradient6191-7-9-4-9-2">
      <stop
         id="stop6193-7-3-6-0-5"
         style="stop-color:#ffffff;stop-opacity:0"
         offset="0" />
      <stop
         id="stop6197-2-2-0-4-9"
         style="stop-color:#ffffff;stop-opacity:0"
         offset="0.40531859" />
      <stop
         id="stop6195-2-1-9-1-9"
         style="stop-color:#ffffff;stop-opacity:0.47826087"
         offset="1" />
    </linearGradient>
    <radialGradient
       cx="32.372566"
       cy="31.405056"
       r="3.857446"
       fx="32.372566"
       fy="31.405056"
       id="radialGradient5685-6"
       xlink:href="#linearGradient6191-9-9-5-0"
       gradientUnits="userSpaceOnUse"
       gradientTransform="matrix(2.0676498,0.55402509,-0.5348486,1.9960821,-17.765612,-49.217228)" />
    <linearGradient
       id="linearGradient6191-9-9-5-0">
      <stop
         id="stop6193-8-1-3-2"
         style="stop-color:#ffffff;stop-opacity:0"
         offset="0" />
      <stop
         id="stop6197-8-8-7-1"
         style="stop-color:#ffffff;stop-opacity:0"
         offset="0.40531859" />
      <stop
         id="stop6195-9-3-6-0"
         style="stop-color:#ffffff;stop-opacity:0.47826087"
         offset="1" />
    </linearGradient>
    <linearGradient
       x1="68.313301"
       y1="52.925316"
       x2="68.313301"
       y2="65.922028"
       id="linearGradient5713-5"
       xlink:href="#linearGradient3990-3-1-7-0-9"
       gradientUnits="userSpaceOnUse"
       gradientTransform="matrix(0.05404846,0,0,0.04053616,32.383161,32.92865)" />
    <linearGradient
       id="linearGradient3990-3-1-7-0-9">
      <stop
         id="stop3992-0-0-1-0-0"
         style="stop-color:#ffffff;stop-opacity:1"
         offset="0" />
      <stop
         id="stop3994-2-1-8-6-6"
         style="stop-color:#ffffff;stop-opacity:0"
         offset="1" />
    </linearGradient>
    <linearGradient
       x1="92.696327"
       y1="16.554602"
       x2="92.696327"
       y2="48.983677"
       id="linearGradient5735-1"
       xlink:href="#linearGradient4316-4-6-6-4-5-1"
       gradientUnits="userSpaceOnUse" />
    <linearGradient
       id="linearGradient4316-4-6-6-4-5-1">
      <stop
         id="stop4318-4-4-6-5-3-0"
         style="stop-color:#ffffff;stop-opacity:1"
         offset="0" />
      <stop
         id="stop4320-2-2-6-59-35-1"
         style="stop-color:#ffffff;stop-opacity:0.23529412"
         offset="0.33799788" />
      <stop
         id="stop4322-4-5-5-0-1-8"
         style="stop-color:#ffffff;stop-opacity:0.15686275"
         offset="0.61996669" />
      <stop
         id="stop4324-4-1-5-5-42-0"
         style="stop-color:#ffffff;stop-opacity:0.39215687"
         offset="1" />
    </linearGradient>
    <radialGradient
       cx="32.372566"
       cy="31.405056"
       r="3.857446"
       fx="32.372566"
       fy="31.405056"
       id="radialGradient5679-1"
       xlink:href="#linearGradient6088-74-4-8-8"
       gradientUnits="userSpaceOnUse"
       gradientTransform="matrix(2.0664963,0,0,2.0664963,-34.525221,-33.493375)" />
    <linearGradient
       id="linearGradient6088-74-4-8-8">
      <stop
         id="stop6090-5-66-7-7"
         style="stop-color:#ff54d2;stop-opacity:0"
         offset="0" />
      <stop
         id="stop6257-5-4-6-4"
         style="stop-color:#f62b68;stop-opacity:1"
         offset="0.32368398" />
      <stop
         id="stop6255-6-7-9-7"
         style="stop-color:#ff0105;stop-opacity:1"
         offset="0.56140333" />
      <stop
         id="stop6092-0-22-2-1"
         style="stop-color:#ff54d2;stop-opacity:0.47826087"
         offset="1" />
    </linearGradient>
    <linearGradient
       x1="92.696327"
       y1="16.554602"
       x2="92.696327"
       y2="48.983677"
       id="linearGradient5677-7"
       xlink:href="#linearGradient4316-4-0-7-5-1"
       gradientUnits="userSpaceOnUse" />
    <linearGradient
       id="linearGradient4316-4-0-7-5-1">
      <stop
         id="stop4318-4-5-3-2-3"
         style="stop-color:#ffffff;stop-opacity:1"
         offset="0" />
      <stop
         id="stop4320-2-9-4-1-5"
         style="stop-color:#ffffff;stop-opacity:0.23529412"
         offset="0.33799788" />
      <stop
         id="stop4322-4-1-3-4-1"
         style="stop-color:#ffffff;stop-opacity:0.15686275"
         offset="0.61996669" />
      <stop
         id="stop4324-4-8-66-2-4"
         style="stop-color:#ffffff;stop-opacity:0.39215687"
         offset="1" />
    </linearGradient>
    <radialGradient
       cx="95.838364"
       cy="95.388451"
       r="9.4981718"
       fx="95.838364"
       fy="95.388451"
       id="radialGradient5720-8"
       xlink:href="#linearGradient4278-3-5-5-9"
       gradientUnits="userSpaceOnUse"
       gradientTransform="matrix(0.19553888,-2.9157311e-8,2.7395628e-8,0.18372271,17.229421,18.403041)" />
    <linearGradient
       id="linearGradient4278-3-5-5-9">
      <stop
         id="stop4280-6-90-6-3"
         style="stop-color:#000000;stop-opacity:0"
         offset="0" />
      <stop
         id="stop4286-1-9-5-7"
         style="stop-color:#000000;stop-opacity:0"
         offset="0.5" />
      <stop
         id="stop4282-24-4-0-5"
         style="stop-color:#000000;stop-opacity:1"
         offset="1" />
    </linearGradient>
    <radialGradient
       cx="23.896"
       cy="3.99"
       r="20.396999"
       id="radialGradient5723-3"
       xlink:href="#linearGradient2867-449-88-871-390-598-476-591-434-148-57-177-691-4-22-1-2"
       gradientUnits="userSpaceOnUse"
       gradientTransform="matrix(0,0.2344161,-0.30942651,0,37.234491,28.249571)" />
    <linearGradient
       id="linearGradient2867-449-88-871-390-598-476-591-434-148-57-177-691-4-22-1-2">
      <stop
         id="stop7191-4-6-8-8"
         style="stop-color:#612f91;stop-opacity:1"
         offset="0" />
      <stop
         id="stop7197-2-8-6-5"
         style="stop-color:#1a4aa2;stop-opacity:1"
         offset="1" />
    </linearGradient>
    <linearGradient
       x1="7.0776"
       y1="3.0816"
       x2="7.0776"
       y2="45.368999"
       id="linearGradient5726-9"
       xlink:href="#linearGradient3087-408-5-3-7-9"
       gradientUnits="userSpaceOnUse"
       gradientTransform="matrix(0.09821987,0,0,0.09821945,33.642581,33.642799)" />
    <linearGradient
       x1="7.0776"
       y1="3.0816"
       x2="7.0776"
       y2="45.368999"
       id="linearGradient3087-408-5-3-7-9"
       gradientUnits="userSpaceOnUse"
       gradientTransform="matrix(0.22110724,0,0,0.22110728,6.6934256,6.693263)">
      <stop
         id="stop7201-5-71-3-5"
         style="stop-color:#170418;stop-opacity:1"
         offset="0" />
      <stop
         id="stop7203-2-8-8-5"
         style="stop-color:#50386b;stop-opacity:1"
         offset="1" />
    </linearGradient>
    <radialGradient
       cx="31.999998"
       cy="21.239277"
       r="10.498171"
       fx="31.999998"
       fy="21.239277"
       id="radialGradient5731-0"
       xlink:href="#linearGradient6042-1-7-8-8"
       gradientUnits="userSpaceOnUse"
       gradientTransform="matrix(0,0.6733571,-1.5511106,0,68.944331,10.850549)" />
    <linearGradient
       id="linearGradient6042-1-7-8-8">
      <stop
         id="stop6044-9-6-3-6"
         style="stop-color:#07132d;stop-opacity:1"
         offset="0" />
      <stop
         id="stop6046-9-5-1-2"
         style="stop-color:#425479;stop-opacity:1"
         offset="1" />
    </linearGradient>
    <radialGradient
       cx="91.349998"
       cy="16.447752"
       r="15.639286"
       fx="91.349998"
       fy="16.447752"
       id="radialGradient5441-6"
       xlink:href="#linearGradient4507-6-5-9-8"
       gradientUnits="userSpaceOnUse"
       gradientTransform="matrix(0,1.9804002,-1.9804002,0,123.92313,-164.4618)" />
    <linearGradient
       id="linearGradient4507-6-5-9-8">
      <stop
         id="stop4509-3-8-8-5"
         style="stop-color:#2d3955;stop-opacity:1"
         offset="0" />
      <stop
         id="stop5959-4-45-4-7"
         style="stop-color:#2b3853;stop-opacity:1"
         offset="0.72468865" />
      <stop
         id="stop5961-1-7-2-5"
         style="stop-color:#192640;stop-opacity:1"
         offset="0.75" />
      <stop
         id="stop4511-1-0-8-9"
         style="stop-color:#08142e;stop-opacity:1"
         offset="1" />
    </linearGradient>
    <linearGradient
       x1="92.696327"
       y1="16.554602"
       x2="92.696327"
       y2="48.983677"
       id="linearGradient5411-4"
       xlink:href="#linearGradient4316-5-3-5-6"
       gradientUnits="userSpaceOnUse" />
    <linearGradient
       id="linearGradient4316-5-3-5-6">
      <stop
         id="stop4318-1-6-2-7"
         style="stop-color:#ffffff;stop-opacity:1"
         offset="0" />
      <stop
         id="stop4320-9-8-9-7"
         style="stop-color:#ffffff;stop-opacity:0.23529412"
         offset="0.33799788" />
      <stop
         id="stop4322-42-31-5-1"
         style="stop-color:#ffffff;stop-opacity:0.15686275"
         offset="0.61996669" />
      <stop
         id="stop4324-9-9-3-4"
         style="stop-color:#ffffff;stop-opacity:0.39215687"
         offset="1" />
    </linearGradient>
    <linearGradient
       x1="91.566116"
       y1="16.542858"
       x2="91.566116"
       y2="48.631081"
       id="linearGradient5407-1"
       xlink:href="#linearGradient4220-7-2-0-5"
       gradientUnits="userSpaceOnUse" />
    <linearGradient
       id="linearGradient4220-7-2-0-5">
      <stop
         id="stop4222-7-5-5-4"
         style="stop-color:#7a8498;stop-opacity:1"
         offset="0" />
      <stop
         id="stop4224-0-5-2-0"
         style="stop-color:#34405c;stop-opacity:1"
         offset="1" />
    </linearGradient>
    <linearGradient
       x1="51.199997"
       y1="8.1142893"
       x2="51.199997"
       y2="56.114563"
       id="linearGradient5397-1"
       xlink:href="#linearGradient4164-9-2-4"
       gradientUnits="userSpaceOnUse"
       gradientTransform="matrix(0.37500007,0,0,0.37499833,16.757001,24.000191)" />
    <linearGradient
       id="linearGradient4164-9-2-4">
      <stop
         id="stop4166-3-2-5"
         style="stop-color:#b6b6b6;stop-opacity:1"
         offset="0" />
      <stop
         id="stop4216-6-7-6"
         style="stop-color:#a4a4a4;stop-opacity:1"
         offset="0.33095336" />
      <stop
         id="stop4168-0-3-8"
         style="stop-color:#c5c5c5;stop-opacity:1"
         offset="1" />
    </linearGradient>
    <linearGradient
       x1="71.204407"
       y1="15.369057"
       x2="71.204407"
       y2="40.495617"
       id="linearGradient5400-4"
       xlink:href="#linearGradient4806-2-9-2"
       gradientUnits="userSpaceOnUse"
       gradientTransform="matrix(0.78776,0,0,0.78776,-20.857591,14.047705)" />
    <linearGradient
       id="linearGradient4806-2-9-2">
      <stop
         id="stop4808-4-6-7"
         style="stop-color:#ffffff;stop-opacity:1"
         offset="0" />
      <stop
         id="stop4810-0-9-3"
         style="stop-color:#ffffff;stop-opacity:0.23529412"
         offset="0.42447853" />
      <stop
         id="stop4812-8-7-9"
         style="stop-color:#ffffff;stop-opacity:0.15686275"
         offset="0.82089913" />
      <stop
         id="stop4814-0-7-4"
         style="stop-color:#ffffff;stop-opacity:0.39215687"
         offset="1" />
    </linearGradient>
    <radialGradient
       cx="23.896"
       cy="3.99"
       r="20.396999"
       fx="23.896"
       fy="3.99"
       id="radialGradient6657"
       xlink:href="#radialGradient3093-0-3-6-6-0-8"
       gradientUnits="userSpaceOnUse"
       gradientTransform="matrix(0,1.4794679,-1.9528714,0,43.792011,-10.070966)" />
    <radialGradient
       cx="23.896"
       cy="3.99"
       r="20.396999"
       id="radialGradient3093-0-3-6-6-0-8"
       gradientUnits="userSpaceOnUse"
       gradientTransform="matrix(0,1.2316483,-1.625754,0,18.486966,-28.721977)">
      <stop
         id="stop3244-9-33-7-0-9-5-0"
         style="stop-color:#ffffff;stop-opacity:1"
         offset="0" />
      <stop
         id="stop3246-3-5-0-8-5-0-0"
         style="stop-color:#dddddd;stop-opacity:1"
         offset="0.26238" />
      <stop
         id="stop3248-1-7-8-8-1-0-6"
         style="stop-color:#abacae;stop-opacity:1"
         offset="0.66093999" />
      <stop
         id="stop3250-9-3-0-5-1-2-1"
         style="stop-color:#89898b;stop-opacity:1"
         offset="1" />
    </radialGradient>
    <radialGradient
       cx="62.625"
       cy="4.625"
       r="10.625"
       id="radialGradient3169-1"
       xlink:href="#radialGradient3109-3"
       gradientUnits="userSpaceOnUse"
       gradientTransform="matrix(0.94117645,0,0,0.23529375,-22.941181,44.41176)" />
    <radialGradient
       cx="62.625"
       cy="4.625"
       r="10.625"
       id="radialGradient3109-3"
       gradientUnits="userSpaceOnUse"
       gradientTransform="matrix(1.1294118,0,0,0.2823525,-58.729414,19.694118)">
      <stop
         id="stop8840-3-7"
         style="stop-color:#000000;stop-opacity:1"
         offset="0" />
      <stop
         id="stop8842-5-0"
         style="stop-color:#000000;stop-opacity:0"
         offset="1" />
    </radialGradient>
    <linearGradient
       x1="-184.92441"
       y1="113.97943"
       x2="-175.25337"
       y2="88.801025"
       id="linearGradient6598-5"
       xlink:href="#linearGradient4574-39-1"
       gradientUnits="userSpaceOnUse"
       gradientTransform="matrix(0.15070105,0,0,0.15182597,40.329191,20.187484)" />
    <linearGradient
       id="linearGradient4574-39-1">
      <stop
         id="stop4576-75-8"
         style="stop-color:#7a0f01;stop-opacity:1"
         offset="0" />
      <stop
         id="stop4578-96-3"
         style="stop-color:#d31807;stop-opacity:1"
         offset="1" />
    </linearGradient>
    <linearGradient
       x1="-211.28862"
       y1="88.750069"
       x2="-208.49672"
       y2="75.190559"
       id="linearGradient4478-4-9"
       xlink:href="#linearGradient4470-86-9"
       gradientUnits="userSpaceOnUse" />
    <linearGradient
       id="linearGradient4470-86-9">
      <stop
         id="stop4472-0-4"
         style="stop-color:#ec4502;stop-opacity:1"
         offset="0" />
      <stop
         id="stop4474-9-9"
         style="stop-color:#fe7617;stop-opacity:1"
         offset="1" />
    </linearGradient>
    <linearGradient
       x1="-107.45584"
       y1="-37.385227"
       x2="-107.45584"
       y2="38.561256"
       id="linearGradient6785"
       xlink:href="#linearGradient3871-6-7"
       gradientUnits="userSpaceOnUse"
       gradientTransform="matrix(0.23682313,0,0,0.23897582,54.815171,17.241527)" />
    <linearGradient
       id="linearGradient3871-6-7">
      <stop
         id="stop3873-3-2"
         style="stop-color:#0b85e9;stop-opacity:1"
         offset="0" />
      <stop
         id="stop3875-4-0"
         style="stop-color:#69d1ef;stop-opacity:1"
         offset="1" />
    </linearGradient>
    <linearGradient
       x1="-96.557358"
       y1="110.92493"
       x2="-96.557358"
       y2="39.991924"
       id="linearGradient6790"
       xlink:href="#linearGradient3825-5-8-9"
       gradientUnits="userSpaceOnUse"
       gradientTransform="matrix(0.23682313,0,0,0.23897582,54.815171,17.241527)" />
    <linearGradient
       id="linearGradient3825-5-8-9">
      <stop
         id="stop3827-2-3-55"
         style="stop-color:#e89c42;stop-opacity:1"
         offset="0" />
      <stop
         id="stop3829-5-0-1"
         style="stop-color:#faca67;stop-opacity:1"
         offset="1" />
    </linearGradient>
    <linearGradient
       x1="23.99999"
       y1="5.5641499"
       x2="23.99999"
       y2="43"
       id="linearGradient3174-3"
       xlink:href="#linearGradient3977-7-61"
       gradientUnits="userSpaceOnUse"
       gradientTransform="matrix(1.0540541,0,0,0.83783781,-1.2972891,5.8918999)" />
    <linearGradient
       id="linearGradient3977-7-61">
      <stop
         id="stop3979-6-49"
         style="stop-color:#ffffff;stop-opacity:1"
         offset="0" />
      <stop
         id="stop3981-3-78"
         style="stop-color:#ffffff;stop-opacity:0.23529412"
         offset="0.03626217" />
      <stop
         id="stop3983-8-86"
         style="stop-color:#ffffff;stop-opacity:0.15686275"
         offset="0.95056331" />
      <stop
         id="stop3985-2-07"
         style="stop-color:#ffffff;stop-opacity:0.39215687"
         offset="1" />
    </linearGradient>
    <linearGradient
       x1="25.132275"
       y1="0.98520643"
       x2="25.132275"
       y2="47.013336"
       id="linearGradient3182-6"
       xlink:href="#linearGradient3600-9-51"
       gradientUnits="userSpaceOnUse"
       gradientTransform="matrix(1.1428545,0,0,0.69530686,-3.4285091,8.2459499)" />
    <linearGradient
       id="linearGradient3600-9-51">
      <stop
         id="stop3602-0-0"
         style="stop-color:#f4f4f4;stop-opacity:1"
         offset="0" />
      <stop
         id="stop3604-9-04"
         style="stop-color:#dbdbdb;stop-opacity:1"
         offset="1" />
    </linearGradient>
    <linearGradient
       x1="-76.834877"
       y1="6.6805849"
       x2="-76.844345"
       y2="52.887863"
       id="linearGradient3185-6"
       xlink:href="#linearGradient4623-7-15"
       gradientUnits="userSpaceOnUse"
       gradientTransform="matrix(0.99682577,5.6082336e-4,2.043022e-4,0.71682639,121.08747,4.8432599)" />
    <linearGradient
       id="linearGradient4623-7-15">
      <stop
         id="stop4625-3-7"
         style="stop-color:#000000;stop-opacity:0.27058825"
         offset="0" />
      <stop
         id="stop4627-1-42"
         style="stop-color:#000000;stop-opacity:0.368"
         offset="1" />
    </linearGradient>
    <linearGradient
       x1="23.99999"
       y1="5.5641499"
       x2="23.99999"
       y2="43"
       id="linearGradient3188-3"
       xlink:href="#linearGradient3977-7-9-0"
       gradientUnits="userSpaceOnUse"
       gradientTransform="matrix(0.99352183,0.26504064,-0.20865372,0.77527588,5.1631609,-0.9676401)" />
    <linearGradient
       id="linearGradient3977-7-9-0">
      <stop
         id="stop3979-6-2-7"
         style="stop-color:#ffffff;stop-opacity:1"
         offset="0" />
      <stop
         id="stop3981-3-2-3"
         style="stop-color:#ffffff;stop-opacity:0.23529412"
         offset="0.03626217" />
      <stop
         id="stop3983-8-7-2"
         style="stop-color:#ffffff;stop-opacity:0.15686275"
         offset="0.95056331" />
      <stop
         id="stop3985-2-7-9"
         style="stop-color:#ffffff;stop-opacity:0.39215687"
         offset="1" />
    </linearGradient>
    <linearGradient
       x1="25.132275"
       y1="0.98520643"
       x2="25.132275"
       y2="47.013336"
       id="linearGradient3192-0"
       xlink:href="#linearGradient3600-9-0-4"
       gradientUnits="userSpaceOnUse"
       gradientTransform="matrix(1.0786784,0.28775775,-0.17353123,0.64477442,2.5426809,0.6300199)" />
    <linearGradient
       id="linearGradient3600-9-0-4">
      <stop
         id="stop3602-0-8-7"
         style="stop-color:#f4f4f4;stop-opacity:1"
         offset="0" />
      <stop
         id="stop3604-9-2-8"
         style="stop-color:#dbdbdb;stop-opacity:1"
         offset="1" />
    </linearGradient>
    <linearGradient
       x1="-76.834877"
       y1="6.6805849"
       x2="-76.844345"
       y2="52.887863"
       id="linearGradient3195-4"
       xlink:href="#linearGradient4623-7-8-2"
       gradientUnits="userSpaceOnUse"
       gradientTransform="matrix(0.94191741,0.25183272,-0.17907033,0.66612446,121.0441,28.81807)" />
    <linearGradient
       id="linearGradient4623-7-8-2">
      <stop
         id="stop4625-3-6-6"
         style="stop-color:#000000;stop-opacity:0.27058825"
         offset="0" />
      <stop
         id="stop4627-1-9-0"
         style="stop-color:#000000;stop-opacity:0.368"
         offset="1" />
    </linearGradient>
    <linearGradient
       id="linearGradient5071-7-3-2">
      <stop
         id="stop5073-2-9-5"
         style="stop-color:#000000;stop-opacity:1"
         offset="0" />
      <stop
         id="stop5075-2-1-5"
         style="stop-color:#000000;stop-opacity:0"
         offset="1" />
    </linearGradient>
    <radialGradient
       cx="19.53446"
       cy="40.430397"
       r="23.929714"
       fx="19.53446"
       fy="40.430397"
       id="radialGradient3814"
       xlink:href="#linearGradient5071-7-3-2"
       gradientUnits="userSpaceOnUse"
       gradientTransform="matrix(0.92701214,0,0,0.06268357,4.0977309,40.46568)" />
    <linearGradient
       inkscape:collect="always"
       xlink:href="#linearGradient4574-39-1"
       id="linearGradient3277"
       gradientUnits="userSpaceOnUse"
       gradientTransform="matrix(0.07502968,0,0,0.07558974,20.869769,9.8579913)"
       x1="-184.92441"
       y1="113.97943"
       x2="-175.25337"
       y2="88.801025" />
    <linearGradient
       inkscape:collect="always"
       xlink:href="#linearGradient4470-86-9"
       id="linearGradient3281"
       gradientUnits="userSpaceOnUse"
       x1="-211.28862"
       y1="88.750069"
       x2="-208.49672"
       y2="75.190559"
       gradientTransform="matrix(0.07511055,0.00586778,-0.00619394,0.07150456,24.004891,11.546757)" />
    <linearGradient
       inkscape:collect="always"
       xlink:href="#linearGradient3871-6-7"
       id="linearGradient3289"
       gradientUnits="userSpaceOnUse"
       gradientTransform="matrix(0.11183314,0,0,0.11948791,26.051608,9.6135161)"
       x1="-107.45584"
       y1="-37.385227"
       x2="-107.45584"
       y2="38.561256" />
    <linearGradient
       inkscape:collect="always"
       xlink:href="#linearGradient3825-5-8-9"
       id="linearGradient3294"
       gradientUnits="userSpaceOnUse"
       gradientTransform="matrix(0.11183314,0,0,0.11095306,26.051608,9.4335646)"
       x1="-96.557358"
       y1="110.92493"
       x2="-96.557358"
       y2="39.991924" />
    <linearGradient
       inkscape:collect="always"
       xlink:href="#linearGradient3977-7-61"
       id="linearGradient3297"
       gradientUnits="userSpaceOnUse"
       gradientTransform="matrix(0.50965251,0,0,0.39639638,-0.23165537,3.5817268)"
       x1="23.99999"
       y1="5.5641499"
       x2="23.99999"
       y2="43" />
    <linearGradient
       inkscape:collect="always"
       xlink:href="#linearGradient3600-9-51"
       id="linearGradient3300"
       gradientUnits="userSpaceOnUse"
       gradientTransform="matrix(0.56870617,0,0,0.34144534,-1.6489477,4.3767304)"
       x1="25.132275"
       y1="0.98520643"
       x2="25.132275"
       y2="47.013336" />
    <linearGradient
       inkscape:collect="always"
       xlink:href="#linearGradient4623-7-15"
       id="linearGradient3303"
       gradientUnits="userSpaceOnUse"
       gradientTransform="matrix(0.50941251,2.8486335e-4,1.044055e-4,0.36410318,61.61506,2.3489313)"
       x1="-76.834877"
       y1="6.6805849"
       x2="-76.844345"
       y2="52.887863" />
    <radialGradient
       inkscape:collect="always"
       xlink:href="#linearGradient6042-1-7-8-8"
       id="radialGradient3373"
       gradientUnits="userSpaceOnUse"
       gradientTransform="matrix(0,0.38321362,-0.88274982,0,50.748971,2.6871444)"
       cx="31.999998"
       cy="21.239277"
       fx="31.999998"
       fy="21.239277"
       r="10.498171" />
    <linearGradient
       x1="302.85715"
       y1="366.64789"
       x2="302.85715"
       y2="609.50507"
       id="linearGradient3028"
       xlink:href="#linearGradient5048"
       gradientUnits="userSpaceOnUse"
       gradientTransform="matrix(2.774389,0,0,1.969706,-1892.179,-872.8854)" />
    <linearGradient
       id="linearGradient5048">
      <stop
         id="stop5050"
         style="stop-color:#000000;stop-opacity:0"
         offset="0" />
      <stop
         id="stop5056"
         style="stop-color:#000000;stop-opacity:1"
         offset="0.5" />
      <stop
         id="stop5052"
         style="stop-color:#000000;stop-opacity:0"
         offset="1" />
    </linearGradient>
    <radialGradient
       cx="605.71429"
       cy="486.64789"
       r="117.14286"
       fx="605.71429"
       fy="486.64789"
       id="radialGradient3030"
       xlink:href="#linearGradient5060"
       gradientUnits="userSpaceOnUse"
       gradientTransform="matrix(2.774389,0,0,1.969706,-1891.633,-872.8854)" />
    <linearGradient
       id="linearGradient5060">
      <stop
         id="stop5062"
         style="stop-color:#000000;stop-opacity:1"
         offset="0" />
      <stop
         id="stop5064"
         style="stop-color:#000000;stop-opacity:0"
         offset="1" />
    </linearGradient>
    <radialGradient
       cx="605.71429"
       cy="486.64789"
       r="117.14286"
       fx="605.71429"
       fy="486.64789"
       id="radialGradient3032"
       xlink:href="#linearGradient5060"
       gradientUnits="userSpaceOnUse"
       gradientTransform="matrix(-2.774389,0,0,1.969706,112.7623,-872.8854)" />
    <linearGradient
       id="linearGradient3060">
      <stop
         id="stop3062"
         style="stop-color:#000000;stop-opacity:1"
         offset="0" />
      <stop
         id="stop3064"
         style="stop-color:#000000;stop-opacity:0"
         offset="1" />
    </linearGradient>
    <radialGradient
       inkscape:collect="always"
       xlink:href="#linearGradient3846"
       id="radialGradient3227"
       gradientUnits="userSpaceOnUse"
       gradientTransform="matrix(0,0.14726617,-0.13956661,0,18.186811,7.6546758)"
       cx="15.026252"
       cy="8.6257601"
       fx="4.4589653"
       fy="8.5088921"
       r="19.99999" />
    <linearGradient
       id="linearGradient3846">
      <stop
         offset="0"
         style="stop-color:#fff3cb;stop-opacity:1"
         id="stop3848" />
      <stop
         offset="0.26238"
         style="stop-color:#fdde76;stop-opacity:1"
         id="stop3850" />
      <stop
         offset="0.66093999"
         style="stop-color:#f9c440;stop-opacity:1"
         id="stop3852" />
      <stop
         offset="1"
         style="stop-color:#e48b20;stop-opacity:1"
         id="stop3854" />
    </linearGradient>
    <radialGradient
       r="19.99999"
       fy="8.44977"
       fx="-0.025213266"
       cy="8.449769"
       cx="15.645058"
       gradientTransform="matrix(0,0.08617489,-0.08166937,0,17.687401,8.5726195)"
       gradientUnits="userSpaceOnUse"
       id="radialGradient3043"
       xlink:href="#linearGradient2867-449-88-871-390-598-476-591-434-148-57-177-3-8-7"
       inkscape:collect="always" />
    <linearGradient
       id="linearGradient2867-449-88-871-390-598-476-591-434-148-57-177-3-8-7">
      <stop
         id="stop3750-8-9-6"
         style="stop-color:#90dbec;stop-opacity:1"
         offset="0" />
      <stop
         id="stop3752-3-2-2"
         style="stop-color:#42baea;stop-opacity:1"
         offset="0.26238" />
      <stop
         id="stop3754-7-2-00"
         style="stop-color:#3689e6;stop-opacity:1"
         offset="0.704952" />
      <stop
         id="stop3756-9-3-69"
         style="stop-color:#2b63a0;stop-opacity:1"
         offset="1" />
    </linearGradient>
    <linearGradient
       inkscape:collect="always"
       xlink:href="#linearGradient3804"
       id="linearGradient3810"
       x1="24"
       y1="1035.3622"
       x2="23"
       y2="1038.3622"
       gradientUnits="userSpaceOnUse"
       gradientTransform="matrix(0.37026233,0,0,0.36808545,3.0952391,-367.45446)" />
    <linearGradient
       id="linearGradient3804">
      <stop
         style="stop-color:#686868;stop-opacity:1;"
         offset="0"
         id="stop3806" />
      <stop
         style="stop-color:#665858;stop-opacity:1;"
         offset="1"
         id="stop3808" />
    </linearGradient>
    <linearGradient
       inkscape:collect="always"
       xlink:href="#linearGradient3812"
       id="linearGradient3818"
       x1="27"
       y1="1031.3622"
       x2="26"
       y2="1034.3622"
       gradientUnits="userSpaceOnUse"
       gradientTransform="matrix(0.37026233,0,0,0.36808545,3.0952391,-367.45446)" />
    <linearGradient
       id="linearGradient3812">
      <stop
         style="stop-color:#818181;stop-opacity:1;"
         offset="0"
         id="stop3814" />
      <stop
         style="stop-color:#807071;stop-opacity:1;"
         offset="1"
         id="stop3816" />
    </linearGradient>
    <linearGradient
       inkscape:collect="always"
       xlink:href="#linearGradient3820"
       id="linearGradient3826"
       x1="40"
       y1="1035.3622"
       x2="43"
       y2="1038.3622"
       gradientUnits="userSpaceOnUse"
       gradientTransform="matrix(0.37026233,0,0,0.36808545,3.0952391,-367.45446)" />
    <linearGradient
       id="linearGradient3820">
      <stop
         style="stop-color:#665554;stop-opacity:1;"
         offset="0"
         id="stop3822" />
      <stop
         style="stop-color:#564241;stop-opacity:1;"
         offset="1"
         id="stop3824" />
    </linearGradient>
    <linearGradient
       inkscape:collect="always"
       xlink:href="#linearGradient3794"
       id="linearGradient3800"
       x1="17"
       y1="12"
       x2="13"
       y2="24"
       gradientUnits="userSpaceOnUse"
       gradientTransform="matrix(0.37026233,0,0,0.36808545,3.0952391,6.2855718)" />
    <linearGradient
       id="linearGradient3794">
      <stop
         style="stop-color:#606060;stop-opacity:1;"
         offset="0"
         id="stop3796" />
      <stop
         id="stop3802"
         offset="0.5"
         style="stop-color:#4a3e3c;stop-opacity:1;" />
      <stop
         style="stop-color:#3f3432;stop-opacity:1;"
         offset="1"
         id="stop3798" />
    </linearGradient>
    <linearGradient
       inkscape:collect="always"
       xlink:href="#linearGradient3785"
       id="linearGradient4976"
       x1="11.022917"
       y1="7"
       x2="1.0020833"
       y2="17"
       gradientUnits="userSpaceOnUse"
       gradientTransform="matrix(0.36949254,0,0,0.36808545,3.0952391,6.2855718)" />
    <linearGradient
       id="linearGradient3785">
      <stop
         id="stop3787"
         offset="0"
         style="stop-color:#ed8f35;stop-opacity:1;" />
      <stop
         style="stop-color:#f2a152;stop-opacity:1;"
         offset="0.39999998"
         id="stop3789" />
      <stop
         id="stop3791"
         offset="1"
         style="stop-color:#f8cd70;stop-opacity:1;" />
    </linearGradient>
    <linearGradient
       y2="13"
       x2="28.058332"
       y1="0"
       x1="28.058332"
       gradientTransform="matrix(0.35539999,0,0,0.3534209,3.4638458,6.435802)"
       gradientUnits="userSpaceOnUse"
       id="linearGradient4561"
       xlink:href="#linearGradient4232"
       inkscape:collect="always" />
    <linearGradient
       id="linearGradient4232">
      <stop
         offset="0"
         style="stop-color:#af5d14;stop-opacity:1;"
         id="stop4234" />
      <stop
         id="stop4236"
         style="stop-color:#d4933d;stop-opacity:1;"
         offset="0.6491555" />
      <stop
         offset="1"
         style="stop-color:#faca67;stop-opacity:1"
         id="stop4238" />
    </linearGradient>
    <linearGradient
       y2="13"
       x2="28.058332"
       y1="0"
       x1="28.058332"
       gradientTransform="matrix(0.36949254,0,0,0.36808545,3.0952391,6.2855718)"
       gradientUnits="userSpaceOnUse"
       id="linearGradient3532"
       xlink:href="#linearGradient4232"
       inkscape:collect="always" />
  </defs>
  <metadata
     id="metadata3821">
    <rdf:RDF>
      <cc:Work
         rdf:about="">
        <dc:format>image/svg+xml</dc:format>
        <dc:type
           rdf:resource="http://purl.org/dc/dcmitype/StillImage" />
        <dc:title></dc:title>
      </cc:Work>
    </rdf:RDF>
  </metadata>
  <path
     style="color:#000000;display:inline;overflow:visible;visibility:visible;fill:none;stroke:url(#linearGradient3303);stroke-width:1.04753721;stroke-linecap:butt;stroke-linejoin:round;stroke-miterlimit:4;stroke-dasharray:none;stroke-dashoffset:0;stroke-opacity:1;marker:none;enable-background:accumulate"
     id="rect6741-1-2-0-3"
     inkscape:connector-curvature="0"
     d="m 22.476231,21.476231 -20.9524624,0 0,-16.7619858 20.9524624,0 z" />
  <path
     style="display:inline;fill:url(#linearGradient3300);fill-opacity:1;stroke:none"
     id="path4160-9-1"
     inkscape:connector-curvature="0"
     d="m 2.04762,5.2380942 c 4.5611909,0 19.904737,9.821e-4 19.904737,9.821e-4 l 2.5e-5,15.7133037 c 0,0 -13.2698428,0 -19.904762,0 0,-5.238092 0,-10.476184 0,-15.7142711 z" />
  <path
     style="fill:none;stroke:url(#linearGradient3297);stroke-width:1.0476191;stroke-linecap:round;stroke-linejoin:miter;stroke-miterlimit:4;stroke-dasharray:none;stroke-dashoffset:0;stroke-opacity:1"
     id="rect6741-1-2-1"
     inkscape:connector-curvature="0"
     d="m 21.428573,20.42857 -18.8571435,0 0,-14.6666663 18.8571435,0 z" />
  <path
     style="fill:url(#linearGradient3532);fill-opacity:1;stroke:none"
     d="M 3.0952391,6.2855718 9.3211281,10.69522 10.115596,15.48771 20.86783,18.432441 20.90478,6.2855718 Z"
     id="path4916"
     inkscape:connector-curvature="0"
     sodipodi:nodetypes="cccccc" />
  <path
     style="fill:url(#linearGradient4976);fill-opacity:1;stroke:none"
     d="m 3.0952391,6.2855718 0,11.0426062 6.281372,-6.625562 -4.4339104,-4.4170442 z"
     id="path4926"
     inkscape:connector-curvature="0"
     sodipodi:nodetypes="ccccc" />
  <path
     style="fill:url(#linearGradient3800);fill-opacity:1;stroke:none"
     d="m 9.378127,10.702616 -3.8530413,3.86486 -0.023142,-0.05727 -1.0413637,-1.081245 -1.365342,1.219031 0,5.256773 1.8513105,0 0.3702621,0 6.6415813,-6.625569 -2.5802661,-2.576572 z"
     id="path3397"
     inkscape:connector-curvature="0" />
  <path
     style="fill:url(#linearGradient3826);fill-opacity:1;stroke:none"
     d="m 14.962383,16.510216 2.943262,-3.082204 2.962185,2.427854 0,4.048889 -5.579407,0 z"
     id="path4212"
     inkscape:connector-curvature="0"
     sodipodi:nodetypes="cccccc" />
  <path
     style="fill:url(#linearGradient3818);fill-opacity:1;stroke:none"
     d="m 11.898172,13.345322 1.178405,-1.296932 7.791253,6.752103 0,1.104262 -2.253992,0 z"
     id="path4182"
     inkscape:connector-curvature="0"
     sodipodi:nodetypes="cccccc" />
  <path
     style="fill:url(#linearGradient3810);fill-opacity:1;stroke:none"
     d="M 19.41567,19.904755 11.923761,13.289811 5.3121823,19.904755 Z"
     id="path4167"
     inkscape:connector-curvature="0"
     sodipodi:nodetypes="cccc" />
  <ellipse
     id="path4206"
     style="opacity:0.2;fill:#ffe491;fill-opacity:1;stroke:none"
     cx="16.968805"
     cy="10.143786"
     rx="2.7769673"
     ry="2.7606409" />
  <path
     inkscape:connector-curvature="0"
     style="color:#000000;display:inline;overflow:visible;visibility:visible;fill:url(#radialGradient3043);fill-opacity:1;fill-rule:nonzero;stroke:none;stroke-width:1;marker:none;enable-background:accumulate"
     id="path2555-7-66"
     d="m 16.997306,8.5523114 c -0.888696,0 -1.610641,0.7177741 -1.610641,1.6011416 0,0.883471 0.721945,1.601245 1.610641,1.601245 0.888697,0 1.610641,-0.717774 1.61064,-1.601245 0,-0.8833675 -0.721943,-1.6011416 -1.61064,-1.6011416 z" />
  <path
     inkscape:connector-curvature="0"
     style="color:#000000;display:inline;overflow:visible;visibility:visible;fill:url(#radialGradient3227);fill-opacity:1;fill-rule:nonzero;stroke:none;stroke-width:1;marker:none;enable-background:accumulate"
     id="path2555-7-65"
     d="m 16.997306,8.5523114 c -0.888683,0 -1.61062,0.7177741 -1.61062,1.6011416 0,0.883471 0.721937,1.601142 1.61062,1.601142 0.888686,0 1.61062,-0.717671 1.610619,-1.601142 0,-0.8833675 -0.721933,-1.6011416 -1.610619,-1.6011416 z" />
  <path
     inkscape:connector-curvature="0"
     style="color:#000000;display:inline;overflow:visible;visibility:visible;opacity:0.5;fill:none;stroke:#985800;stroke-width:0.11075167;stroke-linecap:round;stroke-linejoin:round;stroke-miterlimit:4;stroke-dasharray:none;stroke-dashoffset:0;stroke-opacity:1;marker:none;enable-background:accumulate"
     id="path2555-7-1-7"
     d="m 16.997306,8.5523114 c -0.888696,0 -1.610641,0.7177741 -1.610641,1.6011416 0,0.883471 0.721945,1.601245 1.610641,1.601245 0.888697,0 1.610641,-0.717774 1.61064,-1.601245 0,-0.8833675 -0.721943,-1.6011416 -1.61064,-1.6011416 z" />
  <path
     style="color:#000000;display:inline;overflow:visible;visibility:visible;opacity:0.3;fill:none;stroke:#000000;stroke-width:1.04761887;stroke-linecap:butt;stroke-linejoin:miter;stroke-miterlimit:4;stroke-dasharray:none;stroke-dashoffset:0;stroke-opacity:1;marker:none;enable-background:accumulate"
     id="path4160-62-8"
     inkscape:connector-curvature="0"
     d="m 3.6190475,6.8095296 c 3.841002,0 16.7618865,7.916e-4 16.7618865,7.916e-4 l 1.8e-5,12.5706298 c 0,0 -11.1746022,0 -16.7619045,0 0,-4.190477 0,-8.380952 0,-12.5714278 z" />
</svg>
