<?xml version="1.0" encoding="UTF-8" standalone="no"?>
<!-- Created with Inkscape (http://www.inkscape.org/) -->

<svg
   xmlns:dc="http://purl.org/dc/elements/1.1/"
   xmlns:cc="http://creativecommons.org/ns#"
   xmlns:rdf="http://www.w3.org/1999/02/22-rdf-syntax-ns#"
   xmlns:svg="http://www.w3.org/2000/svg"
   xmlns="http://www.w3.org/2000/svg"
   xmlns:xlink="http://www.w3.org/1999/xlink"
   xmlns:sodipodi="http://sodipodi.sourceforge.net/DTD/sodipodi-0.dtd"
   xmlns:inkscape="http://www.inkscape.org/namespaces/inkscape"
   version="1.1"
   width="24"
   height="24"
   id="svg3426"
   inkscape:version="0.91 r"
   sodipodi:docname="applications-ide.svg">
  <sodipodi:namedview
     pagecolor="#ffffff"
     bordercolor="#666666"
     borderopacity="1"
     objecttolerance="10"
     gridtolerance="10"
     guidetolerance="10"
     inkscape:pageopacity="0"
     inkscape:pageshadow="2"
     inkscape:window-width="1855"
     inkscape:window-height="1056"
     id="namedview58"
     showgrid="true"
     inkscape:zoom="44.190574"
     inkscape:cx="12.000004"
     inkscape:cy="11.499997"
     inkscape:window-x="65"
     inkscape:window-y="24"
     inkscape:window-maximized="1"
     inkscape:current-layer="svg3426">
    <inkscape:grid
       type="xygrid"
       id="grid3860" />
  </sodipodi:namedview>
  <defs
     id="defs3428">
    <radialGradient
       cx="4.9929786"
       cy="43.5"
       r="2.5"
       fx="4.9929786"
       fy="43.5"
       id="radialGradient3152"
       xlink:href="#linearGradient3688-166-749"
       gradientUnits="userSpaceOnUse"
       gradientTransform="matrix(2.003784,0,0,1.4,27.98813,-17.4)" />
    <linearGradient
       id="linearGradient3688-166-749">
      <stop
         id="stop2883"
         style="stop-color:#181818;stop-opacity:1"
         offset="0" />
      <stop
         id="stop2885"
         style="stop-color:#181818;stop-opacity:0"
         offset="1" />
    </linearGradient>
    <radialGradient
       cx="4.9929786"
       cy="43.5"
       r="2.5"
       fx="4.9929786"
       fy="43.5"
       id="radialGradient3154"
       xlink:href="#linearGradient3688-464-309"
       gradientUnits="userSpaceOnUse"
       gradientTransform="matrix(2.003784,0,0,1.4,-20.01187,-104.4)" />
    <linearGradient
       id="linearGradient3688-464-309">
      <stop
         id="stop2889"
         style="stop-color:#181818;stop-opacity:1"
         offset="0" />
      <stop
         id="stop2891"
         style="stop-color:#181818;stop-opacity:0"
         offset="1" />
    </linearGradient>
    <linearGradient
       x1="25.058096"
       y1="47.027729"
       x2="25.058096"
       y2="39.999443"
       id="linearGradient3156"
       xlink:href="#linearGradient3702-501-757"
       gradientUnits="userSpaceOnUse" />
    <linearGradient
       id="linearGradient3702-501-757">
      <stop
         id="stop2895"
         style="stop-color:#181818;stop-opacity:0"
         offset="0" />
      <stop
         id="stop2897"
         style="stop-color:#181818;stop-opacity:1"
         offset="0.5" />
      <stop
         id="stop2899"
         style="stop-color:#181818;stop-opacity:0"
         offset="1" />
    </linearGradient>
    <linearGradient
       id="linearGradient3680-6-6-6-3-7-4">
      <stop
         id="stop3682-4-6-1-3-7-5"
         style="stop-color:#dcdcdc;stop-opacity:1"
         offset="0" />
      <stop
         id="stop3684-8-5-8-0-2-3"
         style="stop-color:#ffffff;stop-opacity:1"
         offset="1" />
    </linearGradient>
    <linearGradient
       inkscape:collect="always"
       xlink:href="#linearGradient3680-6-6-6-3-7-4"
       id="linearGradient3875"
       gradientUnits="userSpaceOnUse"
       gradientTransform="matrix(0.46525496,0,0,0.46525496,0.2208768,-0.3282085)"
       x1="20"
       y1="26.000008"
       x2="20"
       y2="13.000008" />
    <linearGradient
       inkscape:collect="always"
       xlink:href="#linearGradient3680-6-6-6-3-7-4"
       id="linearGradient3880"
       gradientUnits="userSpaceOnUse"
       gradientTransform="matrix(0.66257291,0,0,0.66257291,-2.4539575,-4.5672473)"
       x1="20"
       y1="26.000008"
       x2="20"
       y2="13.000008" />
    <linearGradient
       id="linearGradient3924-0">
      <stop
         offset="0"
         style="stop-color:#ffffff;stop-opacity:1"
         id="stop3926-6" />
      <stop
         offset="0.06316455"
         style="stop-color:#ffffff;stop-opacity:0.23529412"
         id="stop3928-3" />
      <stop
         offset="0.95056331"
         style="stop-color:#ffffff;stop-opacity:0.15686275"
         id="stop3930-2" />
      <stop
         offset="1"
         style="stop-color:#ffffff;stop-opacity:0.39215687"
         id="stop3932-62" />
    </linearGradient>
    <linearGradient
       id="linearGradient2867-449-88-871-390-598-476-591-434-148-57-177-8-3-3-6-4-8-8-8-5-6-7">
      <stop
         offset="0"
         style="stop-color:#505050;stop-opacity:1"
         id="stop3750-1-0-7-6-6-1-3-9-3-0-9" />
      <stop
         offset="0.26238"
         style="stop-color:#2b2b2b;stop-opacity:1"
         id="stop3752-3-7-4-0-32-8-923-0-7-7-5" />
      <stop
         offset="0.704952"
         style="stop-color:#0a0a0a;stop-opacity:1"
         id="stop3754-1-8-5-2-7-6-7-1-9-1-6" />
      <stop
         offset="1"
         style="stop-color:#000000;stop-opacity:1"
         id="stop3756-1-6-2-6-6-1-96-6-0-6-5" />
    </linearGradient>
    <radialGradient
       r="12.671875"
       fy="9.9571075"
       fx="7.1183534"
       cy="9.9571075"
       cx="7.1183534"
       gradientTransform="matrix(0,4.4529398,-5.4667877,0,66.838269,-38.124667)"
       gradientUnits="userSpaceOnUse"
       id="radialGradient3173"
       xlink:href="#radialGradient3006"
       inkscape:collect="always" />
    <linearGradient
       inkscape:collect="always"
       xlink:href="#linearGradient3924-0"
       id="linearGradient3203"
       gradientUnits="userSpaceOnUse"
       gradientTransform="matrix(0.62162164,0,0,0.62162164,27.298203,-6.3512651)"
       x1="23.99999"
       y1="4.999989"
       x2="23.99999"
       y2="43" />
    <linearGradient
       id="linearGradient3924-64">
      <stop
         id="stop3926-3-6"
         style="stop-color:#ffffff;stop-opacity:1"
         offset="0" />
      <stop
         id="stop3928-0"
         style="stop-color:#ffffff;stop-opacity:0.23529412"
         offset="0.06316455" />
      <stop
         id="stop3930-3-59"
         style="stop-color:#ffffff;stop-opacity:0.15686275"
         offset="0.95056331" />
      <stop
         id="stop3932-0"
         style="stop-color:#ffffff;stop-opacity:0.39215687"
         offset="1" />
    </linearGradient>
    <linearGradient
       y2="43"
       x2="23.99999"
       y1="4.999989"
       x1="23.99999"
       gradientTransform="matrix(0.45945947,0,0,0.45945947,0.9742189,0.9717506)"
       gradientUnits="userSpaceOnUse"
       id="linearGradient3101"
       xlink:href="#linearGradient3924-64"
       inkscape:collect="always" />
    <linearGradient
       inkscape:collect="always"
       xlink:href="#linearGradient3680-6-6-6-3-7-1"
       id="linearGradient3823"
       x1="38"
       y1="44"
       x2="38"
       y2="26"
       gradientUnits="userSpaceOnUse"
       gradientTransform="matrix(0.45133155,0,0,0.45133155,-2.5395491,-2.3906906)" />
    <linearGradient
       id="linearGradient3680-6-6-6-3-7-1">
      <stop
         id="stop3682-4-6-1-3-7-7"
         style="stop-color:#dcdcdc;stop-opacity:1"
         offset="0" />
      <stop
         id="stop3684-8-5-8-0-2-6"
         style="stop-color:#ffffff;stop-opacity:1"
         offset="1" />
    </linearGradient>
    <linearGradient
       inkscape:collect="always"
       xlink:href="#linearGradient3680-6-6-6-3-7-1"
       id="linearGradient3815"
       x1="26"
       y1="40"
       x2="26"
       y2="23"
       gradientUnits="userSpaceOnUse"
       gradientTransform="matrix(0.45133155,0,0,0.45133155,-2.5395491,-2.3906895)" />
    <linearGradient
       id="linearGradient3049">
      <stop
         id="stop3051"
         style="stop-color:#dcdcdc;stop-opacity:1"
         offset="0" />
      <stop
         id="stop3053"
         style="stop-color:#ffffff;stop-opacity:1"
         offset="1" />
    </linearGradient>
    <linearGradient
       x1="-51.786404"
       y1="50.786446"
       x2="-51.786404"
       y2="2.9062471"
       id="linearGradient3114"
       xlink:href="#linearGradient3104-6-2"
       gradientUnits="userSpaceOnUse"
       gradientTransform="matrix(0.37459597,0,0,0.4144562,5.0500982,1.0813493)" />
    <linearGradient
       id="linearGradient3104-6-2">
      <stop
         id="stop3106-3-4"
         style="stop-color:#000000;stop-opacity:0.31782946"
         offset="0" />
      <stop
         id="stop3108-9-9"
         style="stop-color:#000000;stop-opacity:0.24031007"
         offset="1" />
    </linearGradient>
    <linearGradient
       x1="23.997284"
       y1="4.414464"
       x2="23.99999"
       y2="41.441586"
       id="linearGradient3138"
       xlink:href="#linearGradient3917"
       gradientUnits="userSpaceOnUse"
       gradientTransform="matrix(0.45945947,0,0,0.45945947,-22.402408,1.8548496)" />
    <linearGradient
       id="linearGradient3917">
      <stop
         id="stop3919"
         style="stop-color:#ffffff;stop-opacity:1"
         offset="0" />
      <stop
         id="stop3921"
         style="stop-color:#ffffff;stop-opacity:0.23529412"
         offset="0.01020449" />
      <stop
         id="stop3923"
         style="stop-color:#ffffff;stop-opacity:0.15686275"
         offset="0.99008638" />
      <stop
         id="stop3925"
         style="stop-color:#ffffff;stop-opacity:0.39215687"
         offset="1" />
    </linearGradient>
    <linearGradient
       x1="25.132275"
       y1="0.98520643"
       x2="25.132275"
       y2="47.013336"
       id="linearGradient3125"
       xlink:href="#linearGradient2867-449-88-871-390-598-476-591-434-148-57-177-8-3-3-6-4-8-8-8-5"
       gradientUnits="userSpaceOnUse"
       gradientTransform="matrix(0.4301289,0,0,0.41244197,-21.673747,2.6374335)" />
    <linearGradient
       id="linearGradient2867-449-88-871-390-598-476-591-434-148-57-177-8-3-3-6-4-8-8-8-5">
      <stop
         id="stop3750-1-0-7-6-6-1-3-9-3"
         style="stop-color:#919caf;stop-opacity:1"
         offset="0" />
      <stop
         id="stop3752-3-7-4-0-32-8-923-0-7"
         style="stop-color:#68758e;stop-opacity:1"
         offset="0.26238" />
      <stop
         id="stop3754-1-8-5-2-7-6-7-1-9"
         style="stop-color:#485a6c;stop-opacity:1"
         offset="0.704952" />
      <stop
         id="stop3756-1-6-2-6-6-1-96-6-0"
         style="stop-color:#444c5c;stop-opacity:1"
         offset="1" />
    </linearGradient>
    <radialGradient
       cx="4.9929786"
       cy="43.5"
       r="2.5"
       fx="4.9929786"
       fy="43.5"
       id="radialGradient3082"
       xlink:href="#linearGradient3688-166-749"
       gradientUnits="userSpaceOnUse"
       gradientTransform="matrix(2.003784,0,0,1.4,27.98813,-17.4)" />
    <radialGradient
       cx="4.9929786"
       cy="43.5"
       r="2.5"
       fx="4.9929786"
       fy="43.5"
       id="radialGradient3084"
       xlink:href="#linearGradient3688-166-749"
       gradientUnits="userSpaceOnUse"
       gradientTransform="matrix(2.003784,0,0,1.4,-20.01187,-104.4)" />
    <linearGradient
       x1="27.913973"
       y1="13.796004"
       x2="27.048578"
       y2="8.9730778"
       id="linearGradient3284"
       xlink:href="#linearGradient5950-9"
       gradientUnits="userSpaceOnUse"
       gradientTransform="matrix(0.33807626,0,0,0.2263944,3.7714202,14.561982)" />
    <linearGradient
       id="linearGradient5950-9">
      <stop
         id="stop5956-4"
         style="stop-color:#3689e6;stop-opacity:0"
         offset="0" />
      <stop
         id="stop5958-1"
         style="stop-color:#2b63a0;stop-opacity:1"
         offset="1" />
    </linearGradient>
    <linearGradient
       x1="12.25"
       y1="20.230709"
       x2="17.125"
       y2="34.173542"
       id="linearGradient3697"
       xlink:href="#linearGradient14414"
       gradientUnits="userSpaceOnUse"
       gradientTransform="matrix(0.25139407,0,0,0.35831355,7.2446989,1.1761266)" />
    <linearGradient
       id="linearGradient14414">
      <stop
         id="stop14422"
         style="stop-color:#ffffff;stop-opacity:1"
         offset="0" />
      <stop
         id="stop14418"
         style="stop-color:#ffffff;stop-opacity:0"
         offset="1" />
    </linearGradient>
    <linearGradient
       x1="21.48451"
       y1="30.443268"
       x2="21.48451"
       y2="18.793646"
       id="linearGradient3717"
       xlink:href="#linearGradient4646"
       gradientUnits="userSpaceOnUse"
       gradientTransform="matrix(0.21538264,0,0,0.23008101,6.8198181,6.4750981)" />
    <linearGradient
       id="linearGradient4646">
      <stop
         id="stop4648"
         style="stop-color:#b5ec90;stop-opacity:1"
         offset="0" />
      <stop
         id="stop4650"
         style="stop-color:#adec55;stop-opacity:1"
         offset="0.26238" />
      <stop
         id="stop4652"
         style="stop-color:#3a9501;stop-opacity:1"
         offset="0.704952" />
      <stop
         id="stop4654"
         style="stop-color:#49a02b;stop-opacity:1"
         offset="1" />
    </linearGradient>
    <linearGradient
       x1="34.771473"
       y1="16.057415"
       x2="34.771473"
       y2="6.9943509"
       id="linearGradient3719"
       xlink:href="#linearGradient5860"
       gradientUnits="userSpaceOnUse"
       gradientTransform="matrix(0.20958897,0,0,0.14687535,6.9587922,10.662267)" />
    <linearGradient
       id="linearGradient5860">
      <stop
         id="stop5862"
         style="stop-color:#c0f0a4;stop-opacity:1"
         offset="0" />
      <stop
         id="stop5864"
         style="stop-color:#79e72f;stop-opacity:1"
         offset="0.26238" />
      <stop
         id="stop5866"
         style="stop-color:#62e52b;stop-opacity:1"
         offset="0.704952" />
      <stop
         id="stop5868"
         style="stop-color:#49a02b;stop-opacity:1"
         offset="1" />
    </linearGradient>
    <linearGradient
       x1="63.147945"
       y1="35.980946"
       x2="79.187645"
       y2="35.980946"
       id="linearGradient4623"
       xlink:href="#linearGradient4636"
       gradientUnits="userSpaceOnUse"
       gradientTransform="matrix(0.25969314,0,0,0.25928898,-5.1710081,5.4737021)"
       spreadMethod="reflect" />
    <linearGradient
       id="linearGradient4636">
      <stop
         id="stop4638"
         style="stop-color:#87df08;stop-opacity:1"
         offset="0" />
      <stop
         id="stop4644"
         style="stop-color:#62a805;stop-opacity:1"
         offset="1" />
    </linearGradient>
    <linearGradient
       x1="4"
       y1="13.500015"
       x2="10.142856"
       y2="13.500015"
       id="linearGradient4691"
       xlink:href="#linearGradient4151-767-958-6-9-3"
       gradientUnits="userSpaceOnUse"
       gradientTransform="matrix(0.27120574,0,0,0.19935564,44.827755,109.77238)"
       spreadMethod="reflect" />
    <linearGradient
       id="linearGradient4151-767-958-6-9-3">
      <stop
         id="stop4470-1-5-85"
         style="stop-color:#b4b4b4;stop-opacity:0.58823532"
         offset="0" />
      <stop
         id="stop4472-0-7-35"
         style="stop-color:#e4e4e4;stop-opacity:0.58823532"
         offset="1" />
    </linearGradient>
    <radialGradient
       cx="4.993"
       cy="43.5"
       r="2.5"
       id="radialGradient2873-966-168"
       gradientUnits="userSpaceOnUse"
       gradientTransform="matrix(2.0038,0,0,1.4,27.988,-17.4)">
      <stop
         id="stop2883-5"
         style="stop-color:#181818;stop-opacity:1"
         offset="0" />
      <stop
         id="stop2885-9"
         style="stop-color:#181818;stop-opacity:0"
         offset="1" />
    </radialGradient>
    <radialGradient
       cx="4.993"
       cy="43.5"
       r="2.5"
       id="radialGradient2875-742-326"
       gradientUnits="userSpaceOnUse"
       gradientTransform="matrix(2.0038,0,0,1.4,-20.012,-104.4)">
      <stop
         id="stop2889-6"
         style="stop-color:#181818;stop-opacity:1"
         offset="0" />
      <stop
         id="stop2891-3"
         style="stop-color:#181818;stop-opacity:0"
         offset="1" />
    </radialGradient>
    <linearGradient
       x1="25.058001"
       y1="47.028"
       x2="25.058001"
       y2="39.999001"
       id="linearGradient2877-634-617"
       gradientUnits="userSpaceOnUse">
      <stop
         id="stop2895-1"
         style="stop-color:#181818;stop-opacity:0"
         offset="0" />
      <stop
         id="stop2897-2"
         style="stop-color:#181818;stop-opacity:1"
         offset="0.5" />
      <stop
         id="stop2899-5"
         style="stop-color:#181818;stop-opacity:0"
         offset="1" />
    </linearGradient>
    <radialGradient
       cx="7.4956999"
       cy="8.4497995"
       r="20"
       id="radialGradient3006"
       gradientUnits="userSpaceOnUse"
       gradientTransform="matrix(-5.554e-6,1.8475,-3.0782,-9.3318e-6,7.1154471,-24.544966)">
      <stop
         id="stop3892"
         style="stop-color:#dac197;stop-opacity:1"
         offset="0" />
      <stop
         id="stop3894"
         style="stop-color:#c1a581;stop-opacity:1"
         offset="0.82028002" />
      <stop
         id="stop3898"
         style="stop-color:#a68b60;stop-opacity:1"
         offset="1" />
    </radialGradient>
    <linearGradient
       x1="24"
       y1="5"
       x2="24"
       y2="43"
       id="linearGradient3003"
       gradientUnits="userSpaceOnUse"
       gradientTransform="translate(-42.894553,-15.746766)">
      <stop
         id="stop2919"
         style="stop-color:#ffffff;stop-opacity:1"
         offset="0" />
      <stop
         id="stop2921"
         style="stop-color:#ffffff;stop-opacity:0"
         offset="1" />
    </linearGradient>
  </defs>
  <metadata
     id="metadata3431">
    <rdf:RDF>
      <cc:Work
         rdf:about="">
        <dc:format>image/svg+xml</dc:format>
        <dc:type
           rdf:resource="http://purl.org/dc/dcmitype/StillImage" />
        <dc:title></dc:title>
      </cc:Work>
    </rdf:RDF>
  </metadata>
  <g
     style="display:inline"
     id="g2036"
     transform="matrix(0.55,0,0,0.3333336,-1.2000011,7.33331)">
    <g
       style="opacity:0.4"
       id="g3712"
       transform="matrix(1.052632,0,0,1.285713,-1.263158,-13.42854)">
      <rect
         style="fill:url(#radialGradient3152);fill-opacity:1;stroke:none"
         id="rect2801"
         y="40"
         x="38"
         height="7"
         width="5" />
      <rect
         style="fill:url(#radialGradient3154);fill-opacity:1;stroke:none"
         id="rect3696"
         transform="scale(-1,-1)"
         y="-47"
         x="-10"
         height="7"
         width="5" />
      <rect
         style="fill:url(#linearGradient3156);fill-opacity:1;stroke:none"
         id="rect3700"
         y="40"
         x="10"
         height="7.0000005"
         width="28" />
    </g>
  </g>
  <rect
     style="opacity:0.9;color:#000000;fill:url(#radialGradient3173);fill-opacity:1.0;fill-rule:nonzero;stroke:none;stroke-width:0.99999994;marker:none;visibility:visible;display:inline;overflow:visible;enable-background:accumulate"
     id="rect5505-21-6"
     y="2.5000269"
     x="2.499999"
     ry="1"
     rx="1"
     height="19"
     width="19" />
  <rect
     width="19.000002"
     height="19.000002"
     rx="1"
     ry="1"
     x="2.4999981"
     y="2.500026"
     id="rect5505-21-8-1"
     style="opacity:0.4;color:#000000;fill:none;stroke:#1f1911;stroke-width:1;stroke-linecap:round;stroke-linejoin:round;stroke-miterlimit:4;stroke-opacity:1;stroke-dasharray:none;stroke-dashoffset:0;marker:none;visibility:visible;display:inline;overflow:visible;enable-background:accumulate" />
  <path
     inkscape:connector-curvature="0"
     d="m 10.051307,15.508378 -3.499221,0 3e-6,2.495771 3.499221,0 z m 3.983999,-12.4489059 -4.002518,0 -0.003,2.4957708 4.002518,0 z m 6.964699,-0.059669 -3.494079,0 -0.003,2.4957707 3.494079,0 z m -3.497074,2.5023097 -3.47072,0 -2.69e-4,2.519082 3.47072,0 z M 6.487595,2.9994537 l -3.484695,0 L 3,5.4951248 l 3.484695,0 z m 14.508916,2.5023101 -2.69e-4,2.519081 z m 0,2.519231 -3.49408,0 0,2.4957712 3.49408,0 z m -3.49408,2.4957712 -3.470719,0 0,2.495771 3.470719,0 z m -3.470719,-2.4957712 -4.002518,0 0,2.4957712 4.002518,0 z m -4.002268,-2.519081 -3.499221,0 -4.99e-4,2.519231 3.499071,0 z m -3.49957,2.519231 -3.484745,0 0,2.4957712 3.484745,0 z m 3.499221,2.4957712 -3.499221,0 0,2.495771 3.499221,0 z m -3.499221,2.495771 -3.484745,0 0,2.495771 3.484745,0 z m 14.466487,-2.495771 0,2.495771 z m 1e-6,2.495771 -3.494079,0 0,2.495771 3.494079,0 z m -1e-6,2.495771 3e-6,2.495771 z m 4e-6,2.495771 -3.494079,0 -0.009,2.495771 3.494079,0 z m -3.494079,-2.495771 -3.470719,0 3e-6,2.495771 3.470719,0 z m -3.47062,-2.495771 -4.002518,0 0,2.495771 4.002518,0 z m -0.04669,4.991542 -4.002518,0 -0.0085,2.495771 4.002518,0 z m -7.454869,0 -3.484745,0 -0.0091,2.495771 3.484745,0 z"
     id="rect4691"
     style="opacity:0.08999999;fill:#1f1911;fill-rule:evenodd" />
  <path
     inkscape:connector-curvature="0"
     d="m 17.912487,4.5269859 c -0.205293,0.01716 -0.411273,0.120515 -0.577122,0.280774 l -3.71246,3.228929 c -0.160169,0.154822 -0.249577,0.372528 -0.249577,0.592745 0,0.105057 0.02402,0.201684 0.06239,0.296373 0.0018,0.0045 -0.0019,0.01108 0,0.0156 -0.137227,0.293822 -0.09359,0.704506 -0.09359,1.5910541 0,0.326706 -0.849511,0.670763 -1.060703,0.670763 -0.01047,-1.24e-4 -0.02065,0 -0.0312,0 -0.675505,0 -2.865295,0.10015 -3.5409,1.029506 -0.675855,0.929425 -3.213555,5.152269 -3.213555,5.77172 1.013333,0 8.373312,-3.678168 8.750672,-4.024431 0.456732,-0.418925 0.232771,-1.262411 -0.06239,-1.825008 0.002,-0.0026 -0.0012,-0.01247 0,-0.0156 0.0082,-0.02034 0.01062,-0.04962 -0.0156,-0.09359 -0.158197,-0.26536 -0.249577,-0.532947 -0.249577,-0.904717 0,-0.826549 0.08676,-1.2826261 0.265175,-1.5442831 0.398515,0.0688 0.975497,-0.126171 1.232312,-0.374366 l 3.260076,-3.10414 c 0.331748,-0.320647 0.409886,-0.80244 0.07799,-1.123097 l -0.265051,-0.265051 c -0.165719,-0.160228 -0.37187,-0.219628 -0.577022,-0.202656 z"
     id="path4060"
     style="opacity:0.5;enable-background:new" />
  <path
     inkscape:connector-curvature="0"
     d="m 17.912487,5.5252939 c -0.205293,0.01716 -0.411273,0.120516 -0.577122,0.280774 l -3.71246,3.228929 c -0.160169,0.154823 -0.249577,0.372529 -0.249577,0.592746 0,0.105057 0.02402,0.201683 0.06239,0.296372 0.0018,0.0045 -0.0019,0.01108 0,0.0156 -0.137227,0.2938221 -0.09359,0.7045061 -0.09359,1.5910541 0,0.326707 -0.568737,0.452359 -0.779929,0.452359 -0.01047,-1.25e-4 -0.02066,0 -0.0312,0 -0.675505,0 -2.865295,0.10015 -3.5409,1.029505 -0.675605,0.929355 -3.494079,5.3704 -3.494079,5.98985 1.013333,10e-7 8.373311,-3.678167 8.750672,-4.02443 0.456731,-0.418925 0.232771,-1.262411 -0.06239,-1.825008 0.002,-0.0026 -0.0012,-0.01247 0,-0.0156 0.0082,-0.02033 0.01062,-0.04961 -0.0156,-0.09359 -0.158197,-0.26536 -0.249577,-0.532947 -0.249577,-0.904717 0,-0.826549 0.08676,-1.282626 0.265176,-1.544283 0.398515,0.0688 0.975497,-0.126171 1.232312,-0.374366 l 3.260076,-3.1041401 c 0.331748,-0.320647 0.409885,-0.80244 0.07799,-1.123097 l -0.26555,-0.265051 c -0.16572,-0.160228 -0.37187,-0.219628 -0.577023,-0.202656 z"
     id="path5577"
     style="opacity:0.5;fill:#ffffff;enable-background:new" />
  <path
     inkscape:connector-curvature="0"
     d="m 17.912487,5.0261399 c -0.205293,0.01716 -0.411273,0.120516 -0.577122,0.280774 l -3.71246,3.228929 c -0.160169,0.154823 -0.249577,0.372529 -0.249577,0.592745 0,0.105057 0.02402,0.201684 0.06239,0.296373 0.0018,0.0045 -0.0019,0.01108 0,0.0156 -0.137227,0.293822 -0.09359,0.7045061 -0.09359,1.5910541 0,0.326706 -0.849511,0.670763 -1.060703,0.670763 -0.01047,-1.24e-4 -0.02065,0 -0.0312,0 -0.675505,0 -2.865295,0.100151 -3.5409,1.029506 -0.675855,0.929425 -3.213555,5.152269 -3.213555,5.77172 1.013333,0 8.373312,-3.678168 8.750672,-4.024431 0.456732,-0.418925 0.232771,-1.262411 -0.06239,-1.825008 0.002,-0.0026 -0.0012,-0.01247 0,-0.0156 0.0082,-0.02034 0.01062,-0.04962 -0.0156,-0.09359 -0.158197,-0.26536 -0.249577,-0.532946 -0.249577,-0.904716 0,-0.82655 0.08676,-1.282627 0.265175,-1.544284 0.398515,0.0688 0.975497,-0.1261711 1.232312,-0.3743651 l 3.260076,-3.104141 c 0.331748,-0.320646 0.409886,-0.80244 0.07799,-1.123097 l -0.265051,-0.26505 c -0.165719,-0.160229 -0.37187,-0.219628 -0.577022,-0.202657 z"
     id="path4062"
     style="opacity:0.5;fill:#1f1911;enable-background:new" />
  <rect
     width="17"
     height="17"
     x="3.5012493"
     y="3.4987738"
     id="rect6741-9-5"
     style="opacity:0.3;fill:none;stroke:url(#linearGradient3101);stroke-width:0.99999987999999995;stroke-linecap:round;stroke-linejoin:round;stroke-miterlimit:4;stroke-opacity:1;stroke-dasharray:none;stroke-dashoffset:0" />
</svg>
