<svg xmlns="http://www.w3.org/2000/svg" width="48" height="48">
<defs>
  <path
     d="M 3.60931,4.0000202 C 2.717752,4.0000202 2,4.723483 2,5.6221392 L 2,42.377881 C 2,43.276537 2.717752,44 3.60931,44 l 40.78138,0 c 0.111445,0 0.224227,-0.01532 0.329177,-0.03689 C 45.454523,43.812348 46,43.16418 46,42.377861 l 0,-24.884783 c 0,-0.898656 -0.717752,-1.622119 -1.60931,-1.622119 l -34.34414,0 c -0.891557,0 -1.60931,0.723463 -1.60931,1.622119 0,0.898656 0.717753,1.622119 1.60931,1.622119 l 32.73483,0 0,21.640545 -37.56276,0 0,-33.5115039 12.874481,0 0,4.8663569 c 0,0.898656 0.717752,1.622119 1.60931,1.622119 l 21.469659,0 c 0.891558,0 1.60931,-0.723463 1.60931,-1.622119 0,-0.898656 -0.717752,-1.622119 -1.60931,-1.622119 l -19.860349,0 0,-4.866357 C 21.311721,4.7234628 20.593968,4 19.702411,4 L 3.60931,4 z"
     id="path-main" />
</defs>
<acyl-settings>
<linearGradient
     id="linearGradient4321">
    <stop
       style="stop-color:#89F6FB;stop-opacity:1.0;"
       offset="0.5"
       id="stop1" />
    <stop
       style="stop-color:#10A1AA;stop-opacity:1.0;"
       offset="1.0"
       id="stop2" />
  </linearGradient>
<radialGradient
       inkscape:collect="always"
       xlink:href="#linearGradient4321"
       id="acyl_gradient"
       cx="50.0%"
       cy="50.0%"
       fx="50.0%"
       fy="50.0%"
       r="50.0%"
/>
<filter id="filter1111" x="-50%" y="-50%" width="200%" height="200%">
	<feImage
	id="feImage2"
	xlink:href="#1"
	result="result1" />
	<feComposite
	id="feComposite3633"
	in="result1"
	in2="SourceGraphic"
	operator="xor" />
</filter>
	<rect
	style="fill:#1A4B4F;fill-opacity:1.0;filter:url(#filter1111)"
	id="rect2835"
	width="48"
	height="48"
	x="0"
	y="0"
	rx="3.5"
	ry="3.5" />
	<rect
	style="fill:url(#acyl_gradient);filter:url(#filter1111)"
	id="rect2835"
	width="44"
	height="44"
	x="2"
	y="2"
	rx="3.5"
	ry="3.5" />
<defs>
<use id="1" transform="translate(22.5,22.5) scale(0.85) translate(-22.5,-22.5)" style="fill:#000000" xlink:href="#path-main" />
</defs>
	<use id="2" transform="translate(22.5,22.5) scale(0.85) translate(-22.5,-22.5)" style="fill:#1A4B4F;fill-opacity:1.0" xlink:href="#path-main" />
</acyl-settings>
</svg>
