<svg xmlns="http://www.w3.org/2000/svg" width="48" height="48">
<defs>
<defs
     id="defs2385">
  </defs>
  <path
     id="path-main"
     d="M 3 7 L 3 42 L 45 42 L 45 10.5 L 25.75 10.5 L 25.75 7 L 3 7 z M 4.75 8.75 L 24 8.75 L 24 12.25 L 43.25 12.25 L 43.25 15.75 L 20.5 15.75 L 20.5 12.25 L 4.75 12.25 L 4.75 8.75 z M 13.78125 21.375 C 13.7899 21.374674 13.8037 21.375 13.8125 21.375 L 17.65625 21.375 C 18.028218 21.375 18.312499 21.690533 18.3125 22.0625 L 18.3125 22.78125 L 34.34375 22.78125 C 35.087686 22.78125 35.656248 23.349813 35.65625 24.09375 L 35.65625 35.28125 C 35.656251 36.025188 35.087686 36.624999 34.34375 36.625 L 12.96875 36.625 C 12.224813 36.625 11.59375 36.025187 11.59375 35.28125 L 11.59375 24.09375 C 11.59375 23.367158 12.186507 22.8083 12.90625 22.78125 C 12.91191 22.781035 12.9319 22.781391 12.9375 22.78125 C 12.94905 22.780957 12.9571 22.78125 12.96875 22.78125 L 13.15625 22.78125 L 13.15625 22.0625 C 13.15625 21.699249 13.42144 21.3886 13.78125 21.375 z M 30.625 23.71875 C 30.468725 23.732396 30.34375 23.840069 30.34375 24 L 30.34375 25.6875 C 30.34375 25.856577 30.487174 26.000001 30.65625 26 L 34.03125 26 C 34.200324 26 34.343749 25.856575 34.34375 25.6875 L 34.34375 24 C 34.34375 23.830925 34.200329 23.71875 34.03125 23.71875 L 30.65625 23.71875 C 30.64968 23.71875 30.6315 23.718339 30.625 23.71875 z M 23.5 24.8125 C 20.862408 24.879097 18.750001 27.03395 18.75 29.6875 C 18.75 32.382961 20.929541 34.625 23.625 34.625 C 26.320459 34.625 28.562499 32.382959 28.5625 29.6875 C 28.5625 26.99204 26.320463 24.812501 23.625 24.8125 C 23.60397 24.8125 23.58349 24.812235 23.5625 24.8125 C 23.5521 24.812632 23.54159 24.812304 23.53125 24.8125 C 23.52089 24.812696 23.51034 24.812239 23.5 24.8125 z M 23.625 26.5625 C 25.360205 26.562502 26.78125 27.952294 26.78125 29.6875 C 26.78125 31.422703 25.360206 32.84375 23.625 32.84375 C 21.889793 32.84375 20.5 31.422704 20.5 29.6875 C 20.5 27.952294 21.889795 26.5625 23.625 26.5625 z "
/>
</defs>
<acyl-settings>
<linearGradient
     id="linearGradient4321">
    <stop
       style="stop-color:#89F6FB;stop-opacity:1.0;"
       offset="0.5"
       id="stop1" />
    <stop
       style="stop-color:#10A1AA;stop-opacity:1.0;"
       offset="1.0"
       id="stop2" />
  </linearGradient>
<radialGradient
       inkscape:collect="always"
       xlink:href="#linearGradient4321"
       id="acyl_gradient"
       cx="50.0%"
       cy="50.0%"
       fx="50.0%"
       fy="50.0%"
       r="50.0%"
/>
<filter id="filter1111" x="-50%" y="-50%" width="200%" height="200%">
	<feImage
	id="feImage2"
	xlink:href="#1"
	result="result1" />
	<feComposite
	id="feComposite3633"
	in="result1"
	in2="SourceGraphic"
	operator="xor" />
</filter>
	<rect
	style="fill:#1A4B4F;fill-opacity:1.0;filter:url(#filter1111)"
	id="rect2835"
	width="48"
	height="48"
	x="0"
	y="0"
	rx="3.5"
	ry="3.5" />
	<rect
	style="fill:url(#acyl_gradient);filter:url(#filter1111)"
	id="rect2835"
	width="44"
	height="44"
	x="2"
	y="2"
	rx="3.5"
	ry="3.5" />
<defs>
<use id="1" transform="translate(22.5,22.5) scale(0.85) translate(-22.5,-22.5)" style="fill:#000000" xlink:href="#path-main" />
</defs>
	<use id="2" transform="translate(22.5,22.5) scale(0.85) translate(-22.5,-22.5)" style="fill:#1A4B4F;fill-opacity:1.0" xlink:href="#path-main" />
</acyl-settings>
</svg>
