<?xml version="1.0" encoding="UTF-8" standalone="no"?>
<svg
   xmlns:dc="http://purl.org/dc/elements/1.1/"
   xmlns:cc="http://creativecommons.org/ns#"
   xmlns:rdf="http://www.w3.org/1999/02/22-rdf-syntax-ns#"
   xmlns:svg="http://www.w3.org/2000/svg"
   xmlns="http://www.w3.org/2000/svg"
   xmlns:xlink="http://www.w3.org/1999/xlink"
   version="1.1"
   width="64"
   height="64"
   id="svg4143">
  <defs
     id="defs4145">
    <linearGradient
       x1="23.731871"
       y1="4.4175272"
       x2="23.731871"
       y2="42.03978"
       id="linearGradient3234"
       xlink:href="#linearGradient2867-449-88-871-390-598-476-591-434-148-57-177-0"
       gradientUnits="userSpaceOnUse"
       gradientTransform="matrix(-2.1893914,0,0,2.0370459,174.9827,-15.426312)" />
    <linearGradient
       id="linearGradient2867-449-88-871-390-598-476-591-434-148-57-177-0">
      <stop
         id="stop3750-4"
         style="stop-color:#90dbec;stop-opacity:1"
         offset="0" />
      <stop
         id="stop3752-4"
         style="stop-color:#55c1ec;stop-opacity:1"
         offset="0.26238" />
      <stop
         id="stop3754-4"
         style="stop-color:#3689e6;stop-opacity:1"
         offset="0.704952" />
      <stop
         id="stop3756-4"
         style="stop-color:#2b63a0;stop-opacity:1"
         offset="1" />
    </linearGradient>
    <linearGradient
       x1="35.998066"
       y1="37.038586"
       x2="35.998066"
       y2="4.0044417"
       id="linearGradient3236"
       xlink:href="#linearGradient3707-319-631-407-324-7"
       gradientUnits="userSpaceOnUse"
       gradientTransform="matrix(-2.1893914,0,0,2.0370459,174.9827,-15.426312)" />
    <linearGradient
       id="linearGradient3707-319-631-407-324-7">
      <stop
         id="stop3760-6"
         style="stop-color:#185f9a;stop-opacity:1"
         offset="0" />
      <stop
         id="stop3762-3"
         style="stop-color:#599ec9;stop-opacity:1"
         offset="1" />
    </linearGradient>
    <linearGradient
       x1="38.940514"
       y1="15.991243"
       x2="20.576487"
       y2="15.991243"
       id="linearGradient3238"
       xlink:href="#linearGradient4087-8"
       gradientUnits="userSpaceOnUse"
       gradientTransform="matrix(0,-2.3872671,-2.5658052,0,171.07945,94.78014)" />
    <linearGradient
       id="linearGradient4087-8">
      <stop
         id="stop4089-4"
         style="stop-color:#ffffff;stop-opacity:1"
         offset="0" />
      <stop
         id="stop4091-8"
         style="stop-color:#ffffff;stop-opacity:0.23529412"
         offset="0.51153916" />
      <stop
         id="stop4093-1"
         style="stop-color:#ffffff;stop-opacity:0.15686275"
         offset="0.58522105" />
      <stop
         id="stop4095-03"
         style="stop-color:#ffffff;stop-opacity:0.39215687"
         offset="1" />
    </linearGradient>
    <linearGradient
       x1="38.940514"
       y1="15.991243"
       x2="20.576487"
       y2="15.991243"
       id="linearGradient3269"
       xlink:href="#linearGradient4087-8-0"
       gradientUnits="userSpaceOnUse"
       gradientTransform="matrix(0,-1.6273539,-1.7508644,0,59.437071,75.161427)" />
    <linearGradient
       id="linearGradient4087-8-0">
      <stop
         id="stop4089-4-4"
         style="stop-color:#ffffff;stop-opacity:1"
         offset="0" />
      <stop
         id="stop4091-8-2"
         style="stop-color:#ffffff;stop-opacity:0.23529412"
         offset="0.51153916" />
      <stop
         id="stop4093-1-9"
         style="stop-color:#ffffff;stop-opacity:0.15686275"
         offset="0.58522105" />
      <stop
         id="stop4095-03-6"
         style="stop-color:#ffffff;stop-opacity:0.39215687"
         offset="1" />
    </linearGradient>
    <linearGradient
       x1="23.731871"
       y1="4.4175272"
       x2="23.731871"
       y2="42.03978"
       id="linearGradient3234-4"
       xlink:href="#linearGradient3671-580-6"
       gradientUnits="userSpaceOnUse"
       gradientTransform="matrix(-1.4940056,0,0,1.3886149,62.100586,0.03581458)" />
    <linearGradient
       id="linearGradient3671-580-6">
      <stop
         id="stop4088-6"
         style="stop-color:#fc93dc;stop-opacity:1"
         offset="0" />
      <stop
         id="stop4090-4"
         style="stop-color:#da72d3;stop-opacity:1"
         offset="0.26238" />
      <stop
         id="stop4092-6"
         style="stop-color:#a33fab;stop-opacity:1"
         offset="0.704952" />
      <stop
         id="stop4094-2"
         style="stop-color:#502b58;stop-opacity:1"
         offset="1" />
    </linearGradient>
    <linearGradient
       x1="35.998066"
       y1="37.038586"
       x2="35.998066"
       y2="4.0044417"
       id="linearGradient3236-8"
       xlink:href="#linearGradient3707-662-8"
       gradientUnits="userSpaceOnUse"
       gradientTransform="matrix(-1.4940056,0,0,1.3886149,62.100586,0.03581458)" />
    <linearGradient
       id="linearGradient3707-662-8">
      <stop
         id="stop4098-9"
         style="stop-color:#542f57;stop-opacity:1"
         offset="0" />
      <stop
         id="stop4100-6"
         style="stop-color:#bb5ca4;stop-opacity:1"
         offset="1" />
    </linearGradient>
    <radialGradient
       cx="24.837126"
       cy="36.421127"
       r="15.644737"
       fx="24.837126"
       fy="36.421127"
       id="radialGradient3140"
       xlink:href="#linearGradient8662"
       gradientUnits="userSpaceOnUse"
       gradientTransform="matrix(1,0,0,0.536723,0,16.87306)" />
    <linearGradient
       id="linearGradient8662">
      <stop
         id="stop8664"
         style="stop-color:#000000;stop-opacity:1"
         offset="0" />
      <stop
         id="stop8666"
         style="stop-color:#000000;stop-opacity:0"
         offset="1" />
    </linearGradient>
    <radialGradient
       cx="24.837126"
       cy="36.421127"
       r="15.644737"
       fx="24.837126"
       fy="36.421127"
       id="radialGradient4195"
       xlink:href="#linearGradient8662-7"
       gradientUnits="userSpaceOnUse"
       gradientTransform="matrix(1,0,0,0.536723,0,16.87306)" />
    <linearGradient
       id="linearGradient8662-7">
      <stop
         id="stop8664-0"
         style="stop-color:#000000;stop-opacity:1"
         offset="0" />
      <stop
         id="stop8666-1"
         style="stop-color:#000000;stop-opacity:0"
         offset="1" />
    </linearGradient>
  </defs>
  <metadata
     id="metadata4148">
    <rdf:RDF>
      <cc:Work
         rdf:about="">
        <dc:format>image/svg+xml</dc:format>
        <dc:type
           rdf:resource="http://purl.org/dc/dcmitype/StillImage" />
        <dc:title />
      </cc:Work>
    </rdf:RDF>
  </metadata>
  <g
     id="layer1">
    <g
       transform="matrix(2.6666667,0,0,2.6666667,-2.8740425e-7,-21.333333)"
       id="layer1-6">
      <path
         d="m 40.481863,36.421127 a 15.644737,8.3968946 0 1 1 -31.2894745,0 15.644737,8.3968946 0 1 1 31.2894745,0 z"
         transform="matrix(0.52995454,0,0,-0.65783905,0.487385,48.935435)"
         id="path3501"
         style="opacity:0.14117647;fill:url(#radialGradient3140);fill-opacity:1;fill-rule:evenodd;stroke:none;stroke-width:1;marker:none;visibility:visible;display:inline;overflow:visible" />
      <g
         transform="translate(-2,0)"
         id="g4190">
        <path
           d="m 40.481863,36.421127 a 15.644737,8.3968946 0 1 1 -31.2894745,0 15.644737,8.3968946 0 1 1 31.2894745,0 z"
           transform="matrix(0.52995454,0,0,-0.65783905,0.487385,48.935435)"
           id="path3501-0"
           style="opacity:0.14117647;fill:url(#radialGradient4195);fill-opacity:1;fill-rule:evenodd;stroke:none;stroke-width:1;marker:none;visibility:visible;display:inline;overflow:visible" />
      </g>
    </g>
    <path
       d="M 38.695463,53.518037 C 57.665459,40.730214 47.644575,17.1963 26.499999,17.38896 l 0,-10.9068916 -26.0180363,18.7929666 26.0180363,18.699472 0,-10.906891 c 13.637403,-0.528147 21.262444,11.527517 11.51308,20.450421 z"
       id="path3503-2-0"
       style="fill:url(#linearGradient3234-4);fill-opacity:1;fill-rule:nonzero;stroke:url(#linearGradient3236-8);stroke-width:0.96392483;stroke-linecap:butt;stroke-linejoin:round;stroke-miterlimit:7;stroke-opacity:1;stroke-dasharray:none;stroke-dashoffset:0;marker:none;visibility:visible;display:block;overflow:visible" />
    <path
       d="M 40.747181,51.500444 C 55.205178,38.368479 46.839675,18.32819 25.499999,18.32819 l 0,-9.9447245 -23.3284733,16.8915695 23.3284733,16.716837 0,-10.027078 c 20.258685,0.201254 19.805943,16.121693 15.247182,19.53565 z"
       id="path3505-1-4"
       style="opacity:0.52999998;fill:none;stroke:url(#linearGradient3269);stroke-width:0.96392483;stroke-linecap:butt;stroke-linejoin:miter;stroke-miterlimit:7;stroke-opacity:1;stroke-dasharray:none;stroke-dashoffset:0;marker:none;visibility:visible;display:block;overflow:visible" />
    <g
       transform="matrix(0.68238399,0,0,0.68168071,-42.304807,10.551634)"
       id="g3230">
      <path
         d="m 140.68365,63.0301 c 27.79959,-18.759257 13.11448,-53.2826247 -17.87185,-53 l 0,-15.9999997 L 84.683654,21.598676 122.8118,49.0301 l 0,-16 c 19.98494,-0.774772 31.15906,16.910435 16.87185,30 z"
         id="path3503-2"
         style="fill:url(#linearGradient3234);fill-opacity:1;fill-rule:nonzero;stroke:url(#linearGradient3236);stroke-width:1.41331267;stroke-linecap:butt;stroke-linejoin:round;stroke-miterlimit:7;stroke-opacity:1;stroke-dasharray:none;stroke-dashoffset:0;marker:none;visibility:visible;display:block;overflow:visible" />
      <path
         d="m 143.69034,60.070367 c 21.18748,-19.2641 8.92825,-48.662451 -22.34399,-48.662451 l 0,-14.5885376 -34.186725,24.7792976 34.186725,24.522973 0,-14.709348 c 29.6881,0.295233 29.02463,23.649919 22.34399,28.658066 z"
         id="path3505-1"
         style="opacity:0.52999998;fill:none;stroke:url(#linearGradient3238);stroke-width:1.41331267;stroke-linecap:butt;stroke-linejoin:miter;stroke-miterlimit:7;stroke-opacity:1;stroke-dasharray:none;stroke-dashoffset:0;marker:none;visibility:visible;display:block;overflow:visible" />
    </g>
  </g>
</svg>
