<svg xmlns="http://www.w3.org/2000/svg" width="48" height="48">
<defs>
    <path
         d="m 11.420213,6.5239362 c -2.3374489,0 -4.2420215,1.3048128 -4.2420215,2.9255318 l 31.5372345,0 c 0,-1.620719 -1.904574,-2.9255318 -4.242022,-2.9255318 l -23.053191,0 z M 7.8803191,10.210106 C 4.6150646,10.210106 2,12.468962 2,15.271277 l 0,17.757978 c 0,2.802315 2.6150646,5.06117 5.8803191,5.061171 l 15.4468089,0 0,1.43351 c -0.562826,0.249405 -1.033008,0.711713 -1.257979,1.287234 l -17.9335107,0 c -0.029246,-0.0014 -0.058529,-0.0014 -0.087766,0 -0.5170375,0.02424 -0.901897,0.477648 -0.8776595,0.994681 0.024237,0.517034 0.4483881,0.901895 0.9654255,0.87766 l 18.0212767,0 c 0.380319,0.778441 1.182168,1.316488 2.106383,1.316489 0.924215,10e-7 1.726064,-0.538049 2.106383,-1.316489 l 17.992021,0 c 0.337611,0.0048 0.648944,-0.17647 0.819149,-0.468085 0.170196,-0.291615 0.170196,-0.644556 0,-0.936171 -0.170205,-0.291613 -0.481538,-0.472859 -0.819149,-0.468085 l -17.904255,0 c -0.224971,-0.57552 -0.695163,-1.03783 -1.257979,-1.287234 l 0,-1.43351 14.920213,0 C 43.384935,38.090426 46,35.83157 46,33.029255 l 0,-17.757978 c 0,-2.802315 -2.615065,-5.061171 -5.880319,-5.061171 l -32.2393619,0 z"
       id="path-main" />
</defs>
<acyl-settings>
<linearGradient
     id="linearGradient4321">
    <stop
       style="stop-color:#89F6FB;stop-opacity:1.0;"
       offset="0.5"
       id="stop1" />
    <stop
       style="stop-color:#10A1AA;stop-opacity:1.0;"
       offset="1.0"
       id="stop2" />
  </linearGradient>
<radialGradient
       inkscape:collect="always"
       xlink:href="#linearGradient4321"
       id="acyl_gradient"
       cx="50.0%"
       cy="50.0%"
       fx="50.0%"
       fy="50.0%"
       r="50.0%"
/>
<filter id="filter1111" x="-50%" y="-50%" width="200%" height="200%">
	<feImage
	id="feImage2"
	xlink:href="#1"
	result="result1" />
	<feComposite
	id="feComposite3633"
	in="result1"
	in2="SourceGraphic"
	operator="xor" />
</filter>
	<rect
	style="fill:#1A4B4F;fill-opacity:1.0;filter:url(#filter1111)"
	id="rect2835"
	width="48"
	height="48"
	x="0"
	y="0"
	rx="3.5"
	ry="3.5" />
	<rect
	style="fill:url(#acyl_gradient);filter:url(#filter1111)"
	id="rect2835"
	width="44"
	height="44"
	x="2"
	y="2"
	rx="3.5"
	ry="3.5" />
<defs>
<use id="1" transform="translate(22.5,22.5) scale(0.85) translate(-22.5,-22.5)" style="fill:#000000" xlink:href="#path-main" />
</defs>
	<use id="2" transform="translate(22.5,22.5) scale(0.85) translate(-22.5,-22.5)" style="fill:#1A4B4F;fill-opacity:1.0" xlink:href="#path-main" />
</acyl-settings>
</svg>
