<svg xmlns="http://www.w3.org/2000/svg" width="48" height="48">
<defs>
  <path
     d="m 23.977418,2 c -3.313059,0 -5.997175,2.699653 -5.997175,6.012712 0,1.128747 0.312429,2.174553 0.85452,3.076271 -2.767278,1.560836 -6.521948,5.105833 -6.680791,8.918079 -0.181783,4.362781 2.9e-5,10.182717 -1.817797,13.454802 C 8.51835,36.73395 4.339,36.367232 4.339,36.367232 l 0,5.810738 15.474576,0 C 19.950043,44.31345 21.714257,46 23.884198,46 c 2.16994,0 3.934155,-1.68655 4.070621,-3.82203 l 14.930794,0 0,-5.810738 c 0,0 -4.194889,0.366718 -6.012715,-2.905368 C 35.055073,30.189779 35.236884,24.369843 35.055102,20.007062 34.906284,16.435434 31.596137,13.105456 28.902559,11.415254 29.576138,10.445458 29.974593,9.282937 29.974593,8.012712 29.974593,4.699653 27.290477,2 23.977418,2 z m -0.279661,4.909605 c 0.953759,0 1.724576,0.700308 1.724576,1.553672 0,0.853364 -0.770817,1.538135 -1.724576,1.538135 -0.953759,0 -1.724576,-0.684771 -1.724576,-1.538135 0,-0.853364 0.770817,-1.553672 1.724576,-1.553672 z"
     id="path-main"
      />
</defs>
<acyl-settings>
<linearGradient
     id="linearGradient4321">
    <stop
       style="stop-color:#89F6FB;stop-opacity:1.0;"
       offset="0.5"
       id="stop1" />
    <stop
       style="stop-color:#10A1AA;stop-opacity:1.0;"
       offset="1.0"
       id="stop2" />
  </linearGradient>
<radialGradient
       inkscape:collect="always"
       xlink:href="#linearGradient4321"
       id="acyl_gradient"
       cx="50.0%"
       cy="50.0%"
       fx="50.0%"
       fy="50.0%"
       r="50.0%"
/>
<filter id="filter1111" x="-50%" y="-50%" width="200%" height="200%">
	<feImage
	id="feImage2"
	xlink:href="#1"
	result="result1" />
	<feComposite
	id="feComposite3633"
	in="result1"
	in2="SourceGraphic"
	operator="xor" />
</filter>
	<rect
	style="fill:#1A4B4F;fill-opacity:1.0;filter:url(#filter1111)"
	id="rect2835"
	width="48"
	height="48"
	x="0"
	y="0"
	rx="3.5"
	ry="3.5" />
	<rect
	style="fill:url(#acyl_gradient);filter:url(#filter1111)"
	id="rect2835"
	width="44"
	height="44"
	x="2"
	y="2"
	rx="3.5"
	ry="3.5" />
<defs>
<use id="1" transform="translate(22.5,22.5) scale(0.85) translate(-22.5,-22.5)" style="fill:#000000" xlink:href="#path-main" />
</defs>
	<use id="2" transform="translate(22.5,22.5) scale(0.85) translate(-22.5,-22.5)" style="fill:#1A4B4F;fill-opacity:1.0" xlink:href="#path-main" />
</acyl-settings>
</svg>
