<svg xmlns="http://www.w3.org/2000/svg" width="48" height="48">
<defs>
  <path
     d="M 3.374013,9.507087 C 2.615765,9.507087 2,10.122851 2,10.8811 l 0,4.169418 44,0 0,-4.169418 C 46,10.122851 45.384235,9.507087 44.625987,9.507087 l -41.251974,0 z M 2,17.040468 2,39.229987 C 2,39.988236 2.615765,40.604 3.374013,40.604 l 41.251974,0 C 45.384235,40.604 46,39.988236 46,39.229987 l 0,-22.189519 -44,0 z m 6.206748,7.407035 28.190955,0 c 0.612683,0 1.105527,0.492845 1.105527,1.105528 l 0,3.821967 c 0,0.612683 -0.492844,1.105527 -1.105527,1.105527 l -28.190955,0 c -0.612683,0 -1.105528,-0.492844 -1.105528,-1.105527 l 0,-3.821967 c 0,-0.612683 0.492845,-1.105528 1.105528,-1.105528 z m 0.58435,1.058148 0,3.916727 2.163676,0 0,-3.916727 -2.163676,0 z"
     id="path-main"
      />
</defs>
<acyl-settings>
<linearGradient
     id="linearGradient4321">
    <stop
       style="stop-color:#89F6FB;stop-opacity:1.0;"
       offset="0.5"
       id="stop1" />
    <stop
       style="stop-color:#10A1AA;stop-opacity:1.0;"
       offset="1.0"
       id="stop2" />
  </linearGradient>
<radialGradient
       inkscape:collect="always"
       xlink:href="#linearGradient4321"
       id="acyl_gradient"
       cx="50.0%"
       cy="50.0%"
       fx="50.0%"
       fy="50.0%"
       r="50.0%"
/>
<filter id="filter1111" x="-50%" y="-50%" width="200%" height="200%">
	<feImage
	id="feImage2"
	xlink:href="#1"
	result="result1" />
	<feComposite
	id="feComposite3633"
	in="result1"
	in2="SourceGraphic"
	operator="xor" />
</filter>
	<rect
	style="fill:#1A4B4F;fill-opacity:1.0;filter:url(#filter1111)"
	id="rect2835"
	width="48"
	height="48"
	x="0"
	y="0"
	rx="3.5"
	ry="3.5" />
	<rect
	style="fill:url(#acyl_gradient);filter:url(#filter1111)"
	id="rect2835"
	width="44"
	height="44"
	x="2"
	y="2"
	rx="3.5"
	ry="3.5" />
<defs>
<use id="1" transform="translate(22.5,22.5) scale(0.85) translate(-22.5,-22.5)" style="fill:#000000" xlink:href="#path-main" />
</defs>
	<use id="2" transform="translate(22.5,22.5) scale(0.85) translate(-22.5,-22.5)" style="fill:#1A4B4F;fill-opacity:1.0" xlink:href="#path-main" />
</acyl-settings>
</svg>
