<svg xmlns="http://www.w3.org/2000/svg" width="48" height="48">
<defs>
  <path
     id="path-main"
     d="M 13.456916,7.6503693 C 10.146433,7.9653677 7.7888326,9.9392261 5.5041099,12.160006 4.5367388,13.276592 3.7899472,14.42382 3.401644,15.420352 c -0.1941485,0.498266 -0.279867,0.970307 -0.2742347,1.401644 0.00559,0.431337 0.1606701,0.862581 0.5179988,1.127409 l 6.2769273,2.498583 1.5539966,5.515164 c 0.0562,0.189268 0.259792,0.327327 0.457058,0.335176 l 3.900226,0.182823 c 0.132275,0.0037 0.273904,-0.05702 0.365647,-0.152352 0,0 0.685357,-0.67374 1.462585,-1.401644 0.388613,-0.363955 0.782668,-0.760371 1.127409,-1.035998 0.534472,-0.499887 1.009351,-0.416631 1.645408,-0.121882 0.384658,0.226824 0.831896,0.547278 1.462585,0.517999 0.599548,-0.02794 1.026342,-0.360417 1.249291,-0.609411 0.363703,-0.481917 0.609492,-0.341466 1.096939,-0.09141 0.333354,0.20632 0.693908,0.538382 1.035998,0.853174 0.684186,0.629578 1.249291,1.279762 1.249291,1.279762 0.07768,0.08997 0.217035,0.139244 0.335176,0.152353 l 3.016582,0.243764 c 0.907962,-0.0037 1.162011,-0.220503 1.340702,-0.883645 0.202477,-0.469167 0.227432,-1.014817 0.274235,-1.706349 L 31.86111,17.03529 C 31.919917,13.792341 30.635642,11.554767 29.179705,10.270834 27.481226,8.7730123 25.409215,7.7611012 23.603599,7.6808398 20.22387,7.6700777 16.836636,7.6610982 13.456916,7.6503693 z m 12.218679,5.6370467 c 1.211484,-0.05044 2.234852,0.890981 2.285289,2.102466 0.05044,1.211484 -0.890982,2.234852 -2.102466,2.285289 -1.211485,0.05044 -2.234853,-0.890982 -2.285289,-2.102466 -0.05044,-1.211485 0.890981,-2.234853 2.102466,-2.285289 z m -10.420918,0.182823 c 1.211484,-0.05044 2.234852,0.890981 2.285289,2.102466 0.05044,1.211484 -0.890982,2.234852 -2.102466,2.285289 -1.211485,0.05044 -2.234853,-0.890982 -2.285289,-2.102466 -0.05044,-1.211485 0.890981,-2.234852 2.102466,-2.285289 z m 23.066184,1.736819 A 1.2731305,1.2731305 0 0 0 38.046626,17.6447 c 3.441188,1.517767 5.358287,5.568358 5.393282,9.96386 0.03499,4.395503 -1.831686,8.895242 -5.545634,11.182682 a 1.2731305,1.2731305 0 1 0 1.340702,2.163407 C 43.881429,38.092878 46.040254,32.705633 45.999432,27.57809 45.95861,22.450547 43.69857,17.364846 39.082624,15.328941 a 1.2731305,1.2731305 0 0 0 -0.609411,-0.121883 1.2731305,1.2731305 0 0 0 -0.152352,0 z m -2.986111,6.246457 a 1.2731305,1.2731305 0 0 0 -0.121882,0.03047 1.2731305,1.2731305 0 0 0 -0.365647,2.437641 c 1.561586,0.648199 2.304061,2.317125 2.254819,4.204932 -0.04924,1.887807 -0.984039,3.690435 -2.31576,4.326814 a 1.2812123,1.2812123 0 0 0 1.096939,2.31576 c 2.482241,-1.18617 3.678877,-3.93639 3.747874,-6.581633 0.069,-2.645243 -1.083486,-5.480847 -3.808815,-6.612103 A 1.2731305,1.2731305 0 0 0 35.33475,21.453515 z M 3.0664682,23.921627 C 2.7604868,23.954349 2.5117706,24.133848 2.3351757,24.348215 2.1128038,24.647079 2.0445799,25.013529 2,25.506094 l 0.4265873,8.348923 c 0.096332,1.928463 0.7744825,2.984673 1.8282312,3.686933 1.0537488,0.702264 2.4171993,1.116657 4.0221088,1.980584 3.3541037,1.805531 8.5622167,2.071995 8.5622167,2.071995 l 9.415391,0.03047 c 1.015084,-0.152819 2.014273,-0.967234 2.864229,-1.523526 0.788423,-0.57699 1.401349,-1.344692 1.493055,-2.285289 l 0.09141,-5.81987 c -0.005,-0.314866 -0.121343,-0.580065 -0.304706,-0.761763 -0.183362,-0.181698 -0.426407,-0.291278 -0.670351,-0.335175 -0.854564,-0.02627 -1.705208,-0.05702 -2.559524,-0.09141 -1.007278,-0.0024 -1.658697,0.627629 -2.315759,1.310233 -0.626671,0.647318 -1.377098,1.333788 -2.955641,1.675878 -1.238595,0.01683 -2.079442,-0.434158 -2.95564,-1.035998 C 18.065415,32.156241 17.151958,31.28722 15.925026,31.05173 13.913134,31.00547 10.475323,30.849304 8.4597484,30.838437 L 6.326814,25.018566 c -0.9790926,-0.36301 -1.9450959,-0.73714 -2.92517,-1.096939 -0.1148408,-0.02553 -0.2331819,-0.01091 -0.3351758,0 z" />
</defs>
<acyl-settings>
<linearGradient
     id="linearGradient4321">
    <stop
       style="stop-color:#89F6FB;stop-opacity:1.0;"
       offset="0.5"
       id="stop1" />
    <stop
       style="stop-color:#10A1AA;stop-opacity:1.0;"
       offset="1.0"
       id="stop2" />
  </linearGradient>
<radialGradient
       inkscape:collect="always"
       xlink:href="#linearGradient4321"
       id="acyl_gradient"
       cx="50.0%"
       cy="50.0%"
       fx="50.0%"
       fy="50.0%"
       r="50.0%"
/>
<filter id="filter1111" x="-50%" y="-50%" width="200%" height="200%">
	<feImage
	id="feImage2"
	xlink:href="#1"
	result="result1" />
	<feComposite
	id="feComposite3633"
	in="result1"
	in2="SourceGraphic"
	operator="xor" />
</filter>
	<rect
	style="fill:#1A4B4F;fill-opacity:1.0;filter:url(#filter1111)"
	id="rect2835"
	width="48"
	height="48"
	x="0"
	y="0"
	rx="3.5"
	ry="3.5" />
	<rect
	style="fill:url(#acyl_gradient);filter:url(#filter1111)"
	id="rect2835"
	width="44"
	height="44"
	x="2"
	y="2"
	rx="3.5"
	ry="3.5" />
<defs>
<use id="1" transform="translate(22.5,22.5) scale(0.85) translate(-22.5,-22.5)" style="fill:#000000" xlink:href="#path-main" />
</defs>
	<use id="2" transform="translate(22.5,22.5) scale(0.85) translate(-22.5,-22.5)" style="fill:#1A4B4F;fill-opacity:1.0" xlink:href="#path-main" />
</acyl-settings>
</svg>
