<svg xmlns="http://www.w3.org/2000/svg" width="48" height="48">
<defs>
<defs
     id="defs5">
  </defs>
  <path
     d="m 14.202516,2 c -2.073545,0 -3.666667,1.7237829 -3.666667,3.8671875 l 0,27.1276045 C 10.535849,44.538187 17.869182,46 25.202516,46 32.535849,46 39.869182,44.538185 39.869182,32.994792 l 0,-27.1276045 C 39.869182,3.7237827 38.276061,2 36.202516,2 l -22,0 z m 3.4375,5.5 15.125,0 c 1.445798,0 2.520833,1.412978 2.520833,2.520833 l 0,15.125 c 0,1.324681 -1.351957,2.520834 -2.520833,2.520834 l -15.125,0 c -1.71438,0 -2.520834,-1.412979 -2.520834,-2.520834 l 0,-15.125 C 15.119182,8.912978 16.244999,7.5 17.640016,7.5 z m 4.8125,24.75 5.5,0 0,11 -5.5,0 0,-11 z m -7.877604,1.833333 3.666666,0 0,7.333334 c 0,3.146299 -5.5,-7.333334 -3.666666,-7.333334 z m 17.960937,0 3.666667,0 c 1.833333,0 -3.666667,10.479633 -3.666667,7.333334 l 0,-7.333334 z"
     id="path-main"
      />
</defs>
<acyl-settings>
<linearGradient
     id="linearGradient4321">
    <stop
       style="stop-color:#89F6FB;stop-opacity:1.0;"
       offset="0.5"
       id="stop1" />
    <stop
       style="stop-color:#10A1AA;stop-opacity:1.0;"
       offset="1.0"
       id="stop2" />
  </linearGradient>
<radialGradient
       inkscape:collect="always"
       xlink:href="#linearGradient4321"
       id="acyl_gradient"
       cx="50.0%"
       cy="50.0%"
       fx="50.0%"
       fy="50.0%"
       r="50.0%"
/>
<filter id="filter1111" x="-50%" y="-50%" width="200%" height="200%">
	<feImage
	id="feImage2"
	xlink:href="#1"
	result="result1" />
	<feComposite
	id="feComposite3633"
	in="result1"
	in2="SourceGraphic"
	operator="xor" />
</filter>
	<rect
	style="fill:#1A4B4F;fill-opacity:1.0;filter:url(#filter1111)"
	id="rect2835"
	width="48"
	height="48"
	x="0"
	y="0"
	rx="3.5"
	ry="3.5" />
	<rect
	style="fill:url(#acyl_gradient);filter:url(#filter1111)"
	id="rect2835"
	width="44"
	height="44"
	x="2"
	y="2"
	rx="3.5"
	ry="3.5" />
<defs>
<use id="1" transform="translate(22.5,22.5) scale(0.85) translate(-22.5,-22.5)" style="fill:#000000" xlink:href="#path-main" />
</defs>
	<use id="2" transform="translate(22.5,22.5) scale(0.85) translate(-22.5,-22.5)" style="fill:#1A4B4F;fill-opacity:1.0" xlink:href="#path-main" />
</acyl-settings>
</svg>
