<svg xmlns="http://www.w3.org/2000/svg" width="48" height="48">
<defs>
  <path
     id="path-main"
     d="M 7.2708333,4.6313875 C 4.3532178,4.6313875 2,6.9282982 2,9.7589922 L 2,38.089721 c 0,2.830694 2.3532178,5.098958 5.2708333,5.098958 l 33.4583337,0 C 43.646782,43.188679 46,40.920416 46,38.089721 L 46,9.7589922 C 46,6.9282978 43.646784,4.6313875 40.729167,4.6313875 l -33.4583337,0 z m 2.40625,4.2968747 28.6458337,0 c 1.872792,0 3.380208,1.4920968 3.380208,3.3515628 l 0,23.260416 c 10e-7,1.859466 -1.507414,3.351563 -3.380208,3.351563 l -28.6458337,0 C 7.8042893,38.891803 6.296875,37.399707 6.296875,35.540241 l 0,-23.260416 c 0,-1.859466 1.5074148,-3.3515628 3.3802083,-3.3515628 z m 19.0494787,0.34375 c -1.049495,0.097 -1.934293,0.8229868 -2.234375,1.8333338 l -5.84375,19.049479 -1.947916,-2.835938 C 18.220387,26.620836 17.42796,26.203207 16.580729,26.2017 l -7.4192707,0 c -0.9297575,-0.01314 -1.794308,0.485987 -2.2630208,1.289062 -0.4687129,0.803076 -0.4687129,1.77505 0,2.578125 0.4687128,0.803075 1.3332633,1.302201 2.2630208,1.289063 l 6.0729167,0 4.153646,6.130208 c 0.558717,0.828544 1.533342,1.270525 2.520833,1.117188 C 22.896345,38.452008 23.718845,37.730971 24,36.772012 l 5.15625,-16.815104 3.552083,9.710938 c 0.370753,1.010343 1.330046,1.684133 2.40625,1.690104 l 3.723959,0 c 0.929757,0.01314 1.794308,-0.485987 2.26302,-1.289063 0.468714,-0.803076 0.468714,-1.77505 0,-2.578125 -0.468712,-0.803074 -1.333263,-1.302201 -2.26302,-1.289062 l -1.919271,0 -5.557292,-15.239583 C 30.965227,9.8688442 29.885674,9.1765212 28.726562,9.2720122 z" />
</defs>
<acyl-settings>
<linearGradient
     id="linearGradient4321">
    <stop
       style="stop-color:#89F6FB;stop-opacity:1.0;"
       offset="0.5"
       id="stop1" />
    <stop
       style="stop-color:#10A1AA;stop-opacity:1.0;"
       offset="1.0"
       id="stop2" />
  </linearGradient>
<radialGradient
       inkscape:collect="always"
       xlink:href="#linearGradient4321"
       id="acyl_gradient"
       cx="50.0%"
       cy="50.0%"
       fx="50.0%"
       fy="50.0%"
       r="50.0%"
/>
<filter id="filter1111" x="-50%" y="-50%" width="200%" height="200%">
	<feImage
	id="feImage2"
	xlink:href="#1"
	result="result1" />
	<feComposite
	id="feComposite3633"
	in="result1"
	in2="SourceGraphic"
	operator="xor" />
</filter>
	<rect
	style="fill:#1A4B4F;fill-opacity:1.0;filter:url(#filter1111)"
	id="rect2835"
	width="48"
	height="48"
	x="0"
	y="0"
	rx="3.5"
	ry="3.5" />
	<rect
	style="fill:url(#acyl_gradient);filter:url(#filter1111)"
	id="rect2835"
	width="44"
	height="44"
	x="2"
	y="2"
	rx="3.5"
	ry="3.5" />
<defs>
<use id="1" transform="translate(22.5,22.5) scale(0.85) translate(-22.5,-22.5)" style="fill:#000000" xlink:href="#path-main" />
</defs>
	<use id="2" transform="translate(22.5,22.5) scale(0.85) translate(-22.5,-22.5)" style="fill:#1A4B4F;fill-opacity:1.0" xlink:href="#path-main" />
</acyl-settings>
</svg>
