<svg xmlns="http://www.w3.org/2000/svg" width="48" height="48">
<defs>
  <path
     d="m 6.4847801,2 2.125604,5.801648 C -2.7833257,14.688545 3.4417691,23.810959 7.3475251,27.56976 l 1.312873,-0.837735 C 6.7512321,22.733046 6.2595351,18.783186 11.511208,15.041204 L 14.174464,21.768115 21.226467,7.238988 6.4847801,2 z M 26.527973,12.940608 25.2151,13.778346 c 1.014245,2.124457 1.622282,4.241364 1.187837,6.314293 1.352613,-0.636599 2.821465,-1.065593 4.36374,-1.250355 -1.07375,-2.435369 -2.81137,-4.528045 -4.238704,-5.901676 z m -6.826939,5.801648 -7.052003,14.529124 5.689116,2.02558 c -0.115288,-0.73027 -0.17505,-1.47598 -0.17505,-2.23814 0,-3.57521 1.326072,-6.841017 3.500994,-9.352654 l -1.963057,-4.96391 z m 12.778629,1.37539 c -7.14762,0 -12.941175,5.793555 -12.941175,12.941174 0,7.14762 5.793555,12.94118 12.941175,12.94118 7.147624,0 12.941177,-5.79356 12.941177,-12.94118 0,-7.147619 -5.793553,-12.941174 -12.941177,-12.941174 z m 0,1.925547 c 0.817415,0 1.47542,0.676506 1.47542,1.51293 0,0.836424 -0.658005,1.51293 -1.47542,1.51293 -0.817414,0 -1.487922,-0.676506 -1.487922,-1.51293 0,-0.836424 0.670508,-1.51293 1.487922,-1.51293 z m 0.325093,7.764707 c 0.06427,-0.007 0.12264,-0.002 0.187553,0 0.236047,0.007 0.48192,0.074 0.700199,0.20006 0.698499,0.40327 0.928424,1.28956 0.525149,1.98806 -0.02385,0.0413 -0.08169,0.14338 -0.125035,0.21256 2.763137,1.70017 6.171581,3.81146 6.876954,4.17619 1.134574,0.58666 1.869471,1.45488 1.625462,1.92554 -0.244014,0.47067 -1.366137,0.3616 -2.500711,-0.22506 -0.728875,-0.37688 -4.665857,-2.03636 -7.689685,-3.32594 -1.028805,1.53828 -2.128446,3.17861 -2.350668,3.56351 -0.403276,0.6985 -1.116881,1.0419 -1.600454,0.76272 -0.483576,-0.2792 -0.553322,-1.07702 -0.150043,-1.77551 0.20928,-0.36249 1.002132,-1.97557 1.775505,-3.55101 -0.543498,-0.23678 -0.989976,-0.4362 -1.137824,-0.51264 -0.872756,-0.45128 -1.214587,-1.52908 -0.762716,-2.40069 0.451869,-0.8716 1.527927,-1.21399 2.400682,-0.76271 0.143887,0.0744 0.539121,0.30664 1.025291,0.60017 0.02383,-0.0443 0.07084,-0.12114 0.08752,-0.15005 0.242595,-0.42019 0.662922,-0.67825 1.112816,-0.7252 z"
     id="path-main"
      />
</defs>
<acyl-settings>
<linearGradient
     id="linearGradient4321">
    <stop
       style="stop-color:#89F6FB;stop-opacity:1.0;"
       offset="0.5"
       id="stop1" />
    <stop
       style="stop-color:#10A1AA;stop-opacity:1.0;"
       offset="1.0"
       id="stop2" />
  </linearGradient>
<radialGradient
       inkscape:collect="always"
       xlink:href="#linearGradient4321"
       id="acyl_gradient"
       cx="50.0%"
       cy="50.0%"
       fx="50.0%"
       fy="50.0%"
       r="50.0%"
/>
<filter id="filter1111" x="-50%" y="-50%" width="200%" height="200%">
	<feImage
	id="feImage2"
	xlink:href="#1"
	result="result1" />
	<feComposite
	id="feComposite3633"
	in="result1"
	in2="SourceGraphic"
	operator="xor" />
</filter>
	<rect
	style="fill:#1A4B4F;fill-opacity:1.0;filter:url(#filter1111)"
	id="rect2835"
	width="48"
	height="48"
	x="0"
	y="0"
	rx="3.5"
	ry="3.5" />
	<rect
	style="fill:url(#acyl_gradient);filter:url(#filter1111)"
	id="rect2835"
	width="44"
	height="44"
	x="2"
	y="2"
	rx="3.5"
	ry="3.5" />
<defs>
<use id="1" transform="translate(22.5,22.5) scale(0.85) translate(-22.5,-22.5)" style="fill:#000000" xlink:href="#path-main" />
</defs>
	<use id="2" transform="translate(22.5,22.5) scale(0.85) translate(-22.5,-22.5)" style="fill:#1A4B4F;fill-opacity:1.0" xlink:href="#path-main" />
</acyl-settings>
</svg>
