<svg xmlns="http://www.w3.org/2000/svg" width="48" height="48">
<defs>
  <path
     d="M 9.90625,5.51255 C 9.3604986,5.5480433 8.855557,5.6865267 8.3125,6.07505 7.726798,6.494083 7.554988,7.92985 8.5,8.6688 l 11.78125,9.1875 c 0.478529,0.37419 1.095744,0.5625 1.71875,0.5625 0.623006,0 1.27147,-0.18831 1.75,-0.5625 L 35.53125,8.6688 c 0.945011,-0.73895 0.773202,-2.174717 0.1875,-2.59375 -0.724076,-0.51803 -1.361003,-0.585827 -2.15625,-0.5625 -8.070883,0.23674 -14.653442,0.04101 -23.09375,0 -0.198894,-9.75e-4 -0.380583,-0.011831 -0.5625,0 z m 29.625,4.78125 -15.125,11.84375 c -1.327775,1.03825 -3.484725,1.03825 -4.8125,0 L 4.46875,10.32505 C 3.050975,10.58522 2,11.82983 2,13.32505 l 0,16.875 c 0,1.68551 1.345741,3.03125 3.03125,3.03125 l 19.09375,0 c -0.03205,-3.043249 1.096848,-6.096852 3.40625,-8.40625 2.277119,-2.277121 5.257228,-3.40625 8.25,-3.40625 2.24458,0 4.489436,0.627849 6.4375,1.90625 l 0,-10 c 0,-1.568291 -1.16636,-2.860269 -2.6875,-3.03125 z m -3.75,12.625 c -2.610343,0 -5.196202,0.97745 -7.1875,2.96875 -3.982607,3.9826 -3.982607,10.4549 0,14.4375 3.982599,3.9826 10.423654,3.9826 14.40625,0 3.982608,-3.9826 3.982608,-10.4549 0,-14.4375 -1.991298,-1.9913 -4.608405,-2.96875 -7.21875,-2.96875 z m -1.84375,4.03125 3.71875,0 0,4.28125 4.28125,0 0,3.75 -4.28125,0 0,4.28125 -3.71875,0 0,-4.28125 -4.28125,0 0,-3.75 4.28125,0 0,-4.28125 z"
     id="path-main"
      />
</defs>
<acyl-settings>
<linearGradient
     id="linearGradient4321">
    <stop
       style="stop-color:#89F6FB;stop-opacity:1.0;"
       offset="0.5"
       id="stop1" />
    <stop
       style="stop-color:#10A1AA;stop-opacity:1.0;"
       offset="1.0"
       id="stop2" />
  </linearGradient>
<radialGradient
       inkscape:collect="always"
       xlink:href="#linearGradient4321"
       id="acyl_gradient"
       cx="50.0%"
       cy="50.0%"
       fx="50.0%"
       fy="50.0%"
       r="50.0%"
/>
<filter id="filter1111" x="-50%" y="-50%" width="200%" height="200%">
	<feImage
	id="feImage2"
	xlink:href="#1"
	result="result1" />
	<feComposite
	id="feComposite3633"
	in="result1"
	in2="SourceGraphic"
	operator="xor" />
</filter>
	<rect
	style="fill:#1A4B4F;fill-opacity:1.0;filter:url(#filter1111)"
	id="rect2835"
	width="48"
	height="48"
	x="0"
	y="0"
	rx="3.5"
	ry="3.5" />
	<rect
	style="fill:url(#acyl_gradient);filter:url(#filter1111)"
	id="rect2835"
	width="44"
	height="44"
	x="2"
	y="2"
	rx="3.5"
	ry="3.5" />
<defs>
<use id="1" transform="translate(22.5,22.5) scale(0.85) translate(-22.5,-22.5)" style="fill:#000000" xlink:href="#path-main" />
</defs>
	<use id="2" transform="translate(22.5,22.5) scale(0.85) translate(-22.5,-22.5)" style="fill:#1A4B4F;fill-opacity:1.0" xlink:href="#path-main" />
</acyl-settings>
</svg>
