<svg xmlns="http://www.w3.org/2000/svg" width="48" height="48">
<defs>
<defs
     id="defs4291">
  </defs>
  <path
     id="path-main"
   d="M 41.8125 3.21875 C 41.665263 3.2074173 41.447518 3.3000374 41.25 3.4375 C 40.986642 3.6207825 40.717857 3.9084716 40.46875 4.28125 L 26.96875 24.5625 C 26.833797 24.772204 26.705608 24.980583 26.625 25.1875 L 22.71875 35 C 22.558549 35.398322 22.523999 35.722693 22.625 35.90625 C 22.726002 36.08981 22.959547 36.09903 23.25 35.9375 C 23.419551 35.83764 23.572641 35.691413 23.75 35.5 L 30.6875 28.25 C 30.825155 28.100714 30.913429 27.928975 31.03125 27.75 L 44.9375 7 C 45.435916 6.2545706 45.618141 5.4983604 45.3125 5.3125 L 41.9375 3.25 C 41.899341 3.2266981 41.861579 3.2225276 41.8125 3.21875 z M 41.40625 4.40625 C 41.488253 4.3932471 41.592163 4.4028523 41.6875 4.4375 C 41.75106 4.460598 41.811501 4.5205832 41.875 4.5625 L 42.09375 4.71875 C 42.347745 4.8864152 42.470169 5.1370795 42.375 5.28125 L 28.8125 25.8125 C 28.71733 25.956671 28.441496 25.917668 28.1875 25.75 L 27.96875 25.625 C 27.714755 25.457335 27.561081 25.17542 27.65625 25.03125 L 41.21875 4.5 C 41.25444 4.4459361 41.324247 4.4192529 41.40625 4.40625 z M 10.96875 15 C 9.6111178 15.0018 9.2802821 16.966907 9.5625 18.78125 C 9.1701995 18.909697 8.8378106 19.297694 8.71875 19.78125 C 6.9864211 26.81701 4.2948295 34.026739 2.5625 41.0625 C 2.2523691 42.322078 2.55395 43.253569 2.59375 44.65625 C 2.610886 45.260082 2.9194632 45.71875 3.65625 45.71875 L 33.40625 45.71875 C 34.143037 45.71875 34.596461 45.25373 34.59375 44.65625 C 34.58725 43.220776 34.725223 42.082673 34.5 40.71875 C 33.731925 36.067411 33.040293 32.136559 32.09375 27.4375 L 31.34375 28.53125 C 31.225929 28.710225 31.137655 28.881964 31 29.03125 L 24.25 36.1875 C 24.072641 36.378913 23.607051 36.71264 23.4375 36.8125 C 23.147047 36.97403 22.309336 37.027318 21.9375 36.5625 C 21.565665 36.097681 21.746046 34.992072 21.90625 34.59375 L 25.9375 24.78125 C 26.01811 24.574333 26.146297 24.365954 26.28125 24.15625 L 29.9375 18.96875 C 29.748905 18.54759 29.795748 18.71875 29.40625 18.71875 L 28.46875 18.71875 C 28.357642 18.082269 27.709962 14.997353 25.6875 15 C 24.340917 15.0018 24.065404 16.916784 24.34375 18.71875 L 20.71875 18.71875 C 20.607641 18.082269 19.959962 14.997353 17.9375 15 C 16.590917 15.0018 16.315405 16.916784 16.59375 18.71875 L 13.71875 18.71875 C 13.611497 18.079838 12.990133 14.997354 10.96875 15 z M 11.25 16.6875 C 11.821288 16.6875 12.202755 17.961884 12.375 18.71875 L 11 18.71875 C 10.770425 17.702902 10.819132 16.6875 11.25 16.6875 z M 18.25 16.6875 C 18.821287 16.6875 19.202755 17.961884 19.375 18.71875 L 17.96875 18.71875 C 17.747164 17.702902 17.819131 16.6875 18.25 16.6875 z M 25.96875 16.6875 C 26.539855 16.6875 26.929404 17.961767 27.09375 18.71875 L 25.71875 18.71875 C 25.497164 17.702902 25.537882 16.6875 25.96875 16.6875 z M 9.84375 17.28125 C 10.214464 18.296321 10.265393 19.158326 10.875 19.15625 C 11.059681 19.783528 11.321587 20.120341 11.53125 20.34375 C 12.406122 21.275978 11.012724 21.843524 10.46875 21.0625 C 10.01242 20.40731 9.8504275 18.510133 9.84375 17.28125 z M 16.84375 17.28125 C 17.214464 18.296321 17.234142 19.158326 17.84375 19.15625 C 18.028431 19.783528 18.321587 20.120341 18.53125 20.34375 C 19.406122 21.275978 18.012723 21.843524 17.46875 21.0625 C 17.01242 20.40731 16.850429 18.510133 16.84375 17.28125 z M 24.5625 17.28125 C 24.933214 18.296321 24.984141 19.158326 25.59375 19.15625 C 25.778429 19.783528 26.040337 20.120341 26.25 20.34375 C 27.124873 21.275978 25.731472 21.843524 25.1875 21.0625 C 24.731169 20.40731 24.569177 18.510133 24.5625 17.28125 z M 26.90625 26.15625 C 27.176236 26.520306 27.439366 26.865608 27.875 27.0625 L 25.75 31.0625 C 25.507542 30.913235 25.295425 30.887696 25.09375 30.9375 L 26.90625 26.15625 z M 4.96875 42.03125 L 32.25 42.03125 C 32.603607 42.03125 32.921356 42.266919 32.96875 42.59375 C 33.0336 43.040938 32.92888 43.490312 32.90625 43.9375 C 32.88961 44.266338 32.677898 44.53125 32.3125 44.53125 L 4.8125 44.53125 C 4.4471031 44.53125 4.2701208 44.269764 4.28125 43.9375 C 4.295029 43.526086 4.1487358 43.040938 4.25 42.59375 C 4.324011 42.266919 4.615143 42.03125 4.96875 42.03125 z "
/>
</defs>
<acyl-settings>
<linearGradient
     id="linearGradient4321">
    <stop
       style="stop-color:#89F6FB;stop-opacity:1.0;"
       offset="0.5"
       id="stop1" />
    <stop
       style="stop-color:#10A1AA;stop-opacity:1.0;"
       offset="1.0"
       id="stop2" />
  </linearGradient>
<radialGradient
       inkscape:collect="always"
       xlink:href="#linearGradient4321"
       id="acyl_gradient"
       cx="50.0%"
       cy="50.0%"
       fx="50.0%"
       fy="50.0%"
       r="50.0%"
/>
<filter id="filter1111" x="-50%" y="-50%" width="200%" height="200%">
	<feImage
	id="feImage2"
	xlink:href="#1"
	result="result1" />
	<feComposite
	id="feComposite3633"
	in="result1"
	in2="SourceGraphic"
	operator="xor" />
</filter>
	<rect
	style="fill:#1A4B4F;fill-opacity:1.0;filter:url(#filter1111)"
	id="rect2835"
	width="48"
	height="48"
	x="0"
	y="0"
	rx="3.5"
	ry="3.5" />
	<rect
	style="fill:url(#acyl_gradient);filter:url(#filter1111)"
	id="rect2835"
	width="44"
	height="44"
	x="2"
	y="2"
	rx="3.5"
	ry="3.5" />
<defs>
<use id="1" transform="translate(22.5,22.5) scale(0.85) translate(-22.5,-22.5)" style="fill:#000000" xlink:href="#path-main" />
</defs>
	<use id="2" transform="translate(22.5,22.5) scale(0.85) translate(-22.5,-22.5)" style="fill:#1A4B4F;fill-opacity:1.0" xlink:href="#path-main" />
</acyl-settings>
</svg>
