<svg xmlns="http://www.w3.org/2000/svg" width="48" height="48">
<defs>
  <path
     d="M 5.175817,10.057744 C 3.411097,10.057744 2,11.482413 2,13.247133 L 2,36.753611 C 2,38.518331 3.411097,39.943 5.175817,39.943 l 37.648366,0 C 44.588903,39.943 46,38.518331 46,36.753611 l 0,-23.506478 c 0,-1.76472 -1.411097,-3.189389 -3.175817,-3.189389 l -37.648366,0 z m 32.531771,2.863664 c 1.921807,0 3.48797,1.552593 3.48797,3.474399 0,1.921806 -1.566163,3.48797 -3.48797,3.48797 -1.921806,0 -3.474399,-1.566164 -3.474399,-3.48797 0,-1.921806 1.552593,-3.474399 3.474399,-3.474399 z m -30.889574,0.108575 20.846391,0 c 0.97093,0 1.764343,0.779841 1.764343,1.750771 l 0,20.439236 c 0,0.97093 -0.793413,1.750771 -1.764343,1.750771 l -20.846391,0 c -0.970931,0 -1.750772,-0.779841 -1.750772,-1.750771 l 0,-20.439236 c 0,-0.97093 0.779841,-1.750771 1.750772,-1.750771 z m 30.889574,2.144356 c -0.678285,0 -1.221468,0.543183 -1.221468,1.221468 0,0.678285 0.543183,1.23504 1.221468,1.23504 0.678285,0 1.23504,-0.556755 1.23504,-1.23504 0,-0.678285 -0.556755,-1.221468 -1.23504,-1.221468 z m 0,6.758791 c 1.921807,0 3.48797,1.552592 3.48797,3.474398 0,1.921806 -1.566163,3.474399 -3.48797,3.474399 -1.921806,0 -3.474399,-1.552593 -3.474399,-3.474399 0,-1.921806 1.552593,-3.474398 3.474399,-3.474398 z m 0,2.25293 c -0.678285,0 -1.221468,0.543183 -1.221468,1.221468 0,0.678285 0.543183,1.23504 1.221468,1.23504 0.678285,0 1.23504,-0.556755 1.23504,-1.23504 0,-0.678285 -0.556755,-1.221468 -1.23504,-1.221468 z m -5.415176,10.938926 10.843924,0 0,1.845775 -10.843924,0 0,-1.845775 z"
     id="path-main"
      />
</defs>
<acyl-settings>
<linearGradient
     id="linearGradient4321">
    <stop
       style="stop-color:#89F6FB;stop-opacity:1.0;"
       offset="0.5"
       id="stop1" />
    <stop
       style="stop-color:#10A1AA;stop-opacity:1.0;"
       offset="1.0"
       id="stop2" />
  </linearGradient>
<radialGradient
       inkscape:collect="always"
       xlink:href="#linearGradient4321"
       id="acyl_gradient"
       cx="50.0%"
       cy="50.0%"
       fx="50.0%"
       fy="50.0%"
       r="50.0%"
/>
<filter id="filter1111" x="-50%" y="-50%" width="200%" height="200%">
	<feImage
	id="feImage2"
	xlink:href="#1"
	result="result1" />
	<feComposite
	id="feComposite3633"
	in="result1"
	in2="SourceGraphic"
	operator="xor" />
</filter>
	<rect
	style="fill:#1A4B4F;fill-opacity:1.0;filter:url(#filter1111)"
	id="rect2835"
	width="48"
	height="48"
	x="0"
	y="0"
	rx="3.5"
	ry="3.5" />
	<rect
	style="fill:url(#acyl_gradient);filter:url(#filter1111)"
	id="rect2835"
	width="44"
	height="44"
	x="2"
	y="2"
	rx="3.5"
	ry="3.5" />
<defs>
<use id="1" transform="translate(22.5,22.5) scale(0.85) translate(-22.5,-22.5)" style="fill:#000000" xlink:href="#path-main" />
</defs>
	<use id="2" transform="translate(22.5,22.5) scale(0.85) translate(-22.5,-22.5)" style="fill:#1A4B4F;fill-opacity:1.0" xlink:href="#path-main" />
</acyl-settings>
</svg>
