<svg xmlns="http://www.w3.org/2000/svg" width="48" height="48">
<defs>
	<path
   d="m 12.171273,4.7214313 c -1.154717,4e-7 -2.43186,0.2210645 -3.908351,0.66932 -0.24903,0.075364 -0.434677,0.2915928 -0.466133,0.5497985 L 7.497985,8.4265953 c -0.02818,0.2372346 0.08092,0.4699709 0.2749,0.6095593 0.193982,0.1389332 0.441759,0.1619945 0.657367,0.059761 0.693354,-0.330293 1.776804,-0.7290807 2.976084,-0.7290807 1.059036,0 1.589635,0.2841948 1.589635,0.83665 -1e-6,1.4771461 -1.501145,1.7689171 -4.099585,1.7689171 -0.318497,10e-7 -0.591022,0.223936 -0.645416,0.537846 l -0.406373,2.330668 c -0.03342,0.190704 0.01826,0.390394 0.143426,0.537846 0.123861,0.148764 0.308664,0.239043 0.50199,0.239043 2.106277,0 3.51393,0.218345 3.51393,1.314735 0,1.737973 -2.274993,1.792822 -2.533854,1.792822 -1.319208,0 -2.185517,-0.194975 -3.310744,-0.729081 -0.178908,-0.0852 -0.382841,-0.08651 -0.56175,0 -0.177598,0.08585 -0.314001,0.248903 -0.358565,0.442229 l -0.525894,2.282859 c -0.07012,0.300149 0.08004,0.608654 0.358564,0.741033 1.272024,0.606849 2.832614,0.908363 4.637432,0.908363 3.339634,0 6.705151,-1.707786 6.705151,-5.52189 0,-1.557753 -0.712972,-2.462417 -1.553778,-3.035843 1.621977,-0.77003 2.557758,-2.115672 2.557758,-3.8844464 0,-2.5538763 -2.060707,-4.207154 -5.24699,-4.207154 z m 13.995958,2.5338541 c -0.257551,0 -0.491441,0.1472003 -0.597607,0.3824686 10e-7,0 -9.40377,20.789504 -10.314699,22.804687 -0.996124,-1.575448 -4.57767,-7.219094 -4.57767,-7.219094 -0.119929,-0.190705 -0.325016,-0.310756 -0.549798,-0.310756 l -7.470089,0 C 2.294962,22.912592 2,23.207554 2,23.569959 l 0,5.24699 c 0,0.362405 0.294962,0.657368 0.657368,0.657368 0,1e-6 3.607014,0 4.219106,0 0.368959,0.584568 8.677255,13.721059 8.677255,13.721059 0.129103,0.204468 0.369703,0.315189 0.609559,0.298804 0.240511,-0.01706 0.450186,-0.162932 0.549799,-0.382469 0,0 12.915457,-28.555627 13.254925,-29.306652 0.798208,10e-7 14.426236,0 14.426236,0 0.362404,10e-7 0.657367,-0.294962 0.657367,-0.657368 l 0,-5.2350378 c 0,-0.362405 -0.294963,-0.6573678 -0.657367,-0.6573678 l -18.227017,0 z M 40.330519,23.223347 c 0,-1e-6 -6.02096,0.154788 -7.063716,5.031852 -4.091419,-2.237613 -8.5,1.865383 -8.497972,1.864534 0,1e-6 5.179058,-3.61207 9.99199,1.613539 -1.007048,-6.330954 5.569698,-8.509925 5.569698,-8.509925 z m 5.593603,5.999975 c -0.877161,0.09924 -9.577032,1.794454 -11.043779,8.772873 -6.178134,-3.405967 -14.127126,2.773371 -13.840581,2.653375 -0.118406,0.06626 8.696954,-5.349963 16.219057,2.856562 -1.586863,-9.873968 8.822497,-14.323375 8.737016,-14.28281 0.01553,-0.0065 -0.01323,-0.0066 -0.07171,0 z"
   id="path-main"
    />
</defs>
<acyl-settings>
<linearGradient
     id="linearGradient4321">
    <stop
       style="stop-color:#89F6FB;stop-opacity:1.0;"
       offset="0.5"
       id="stop1" />
    <stop
       style="stop-color:#10A1AA;stop-opacity:1.0;"
       offset="1.0"
       id="stop2" />
  </linearGradient>
<radialGradient
       inkscape:collect="always"
       xlink:href="#linearGradient4321"
       id="acyl_gradient"
       cx="50.0%"
       cy="50.0%"
       fx="50.0%"
       fy="50.0%"
       r="50.0%"
/>
<filter id="filter1111" x="-50%" y="-50%" width="200%" height="200%">
	<feImage
	id="feImage2"
	xlink:href="#1"
	result="result1" />
	<feComposite
	id="feComposite3633"
	in="result1"
	in2="SourceGraphic"
	operator="xor" />
</filter>
	<rect
	style="fill:#1A4B4F;fill-opacity:1.0;filter:url(#filter1111)"
	id="rect2835"
	width="48"
	height="48"
	x="0"
	y="0"
	rx="3.5"
	ry="3.5" />
	<rect
	style="fill:url(#acyl_gradient);filter:url(#filter1111)"
	id="rect2835"
	width="44"
	height="44"
	x="2"
	y="2"
	rx="3.5"
	ry="3.5" />
<defs>
<use id="1" transform="translate(22.5,22.5) scale(0.85) translate(-22.5,-22.5)" style="fill:#000000" xlink:href="#path-main" />
</defs>
	<use id="2" transform="translate(22.5,22.5) scale(0.85) translate(-22.5,-22.5)" style="fill:#1A4B4F;fill-opacity:1.0" xlink:href="#path-main" />
</acyl-settings>
</svg>
