<?xml version="1.0" encoding="UTF-8" standalone="no"?>
<svg
   xmlns:dc="http://purl.org/dc/elements/1.1/"
   xmlns:cc="http://creativecommons.org/ns#"
   xmlns:rdf="http://www.w3.org/1999/02/22-rdf-syntax-ns#"
   xmlns:svg="http://www.w3.org/2000/svg"
   xmlns="http://www.w3.org/2000/svg"
   xmlns:xlink="http://www.w3.org/1999/xlink"
   xmlns:sodipodi="http://sodipodi.sourceforge.net/DTD/sodipodi-0.dtd"
   xmlns:inkscape="http://www.inkscape.org/namespaces/inkscape"
   version="1.1"
   width="128"
   height="128"
   id="svg3981"
   inkscape:version="0.91 r"
   sodipodi:docname="2.svg">
  <sodipodi:namedview
     pagecolor="#ffffff"
     bordercolor="#666666"
     borderopacity="1"
     objecttolerance="10"
     gridtolerance="10"
     guidetolerance="10"
     inkscape:pageopacity="0"
     inkscape:pageshadow="2"
     inkscape:window-width="640"
     inkscape:window-height="480"
     id="namedview41"
     showgrid="false"
     inkscape:zoom="1.84375"
     inkscape:cx="64"
     inkscape:cy="64"
     inkscape:window-x="928"
     inkscape:window-y="170"
     inkscape:window-maximized="0"
     inkscape:current-layer="layer1" />
  <defs
     id="defs3983">
    <linearGradient
       x1="23.99999"
       y1="5.5641499"
       x2="23.99999"
       y2="42.586357"
       id="linearGradient3093"
       xlink:href="#linearGradient3977"
       gradientUnits="userSpaceOnUse"
       gradientTransform="matrix(2.4594595,0,0,3.1081081,4.9729852,-78.59456)" />
    <linearGradient
       id="linearGradient3977">
      <stop
         id="stop3979"
         style="stop-color:#ffffff;stop-opacity:1"
         offset="0" />
      <stop
         id="stop3981"
         style="stop-color:#ffffff;stop-opacity:0.23529412"
         offset="0.00974362" />
      <stop
         id="stop3983"
         style="stop-color:#ffffff;stop-opacity:0.15686275"
         offset="0.98164976" />
      <stop
         id="stop3985"
         style="stop-color:#ffffff;stop-opacity:0.39215687"
         offset="1" />
    </linearGradient>
    <radialGradient
       cx="7.8060555"
       cy="9.9571075"
       r="12.671875"
       fx="7.2758255"
       fy="9.9571075"
       id="radialGradient3914"
       xlink:href="#linearGradient2867-449-88-871-390-598-476-591-434-148-57-177-8-3-3"
       gradientUnits="userSpaceOnUse"
       gradientTransform="matrix(-4.2958754e-7,17.552708,-21.502112,-5.2688504e-7,278.07032,-223.53343)" />
    <linearGradient
       id="linearGradient2867-449-88-871-390-598-476-591-434-148-57-177-8-3-3">
      <stop
         id="stop3750-1-0-7"
         style="stop-color:#ffcd7d;stop-opacity:1"
         offset="0" />
      <stop
         id="stop3752-3-7-4"
         style="stop-color:#fc8f36;stop-opacity:1"
         offset="0.26238" />
      <stop
         id="stop3754-1-8-5"
         style="stop-color:#e23a0e;stop-opacity:1"
         offset="0.704952" />
      <stop
         id="stop3756-1-6-2"
         style="stop-color:#ac441f;stop-opacity:1"
         offset="1" />
    </linearGradient>
    <linearGradient
       x1="25"
       y1="47.935162"
       x2="25"
       y2="0.91790956"
       id="linearGradient3916"
       xlink:href="#linearGradient4039"
       gradientUnits="userSpaceOnUse"
       gradientTransform="matrix(2.6571366,0,0,2.6587499,0.228715,-63.815793)" />
    <linearGradient
       id="linearGradient4039">
      <stop
         id="stop4041"
         style="stop-color:#ba3d12;stop-opacity:1"
         offset="0" />
      <stop
         id="stop4043"
         style="stop-color:#db6737;stop-opacity:1"
         offset="1" />
    </linearGradient>
    <linearGradient
       x1="25.058096"
       y1="47.027729"
       x2="25.058096"
       y2="39.999443"
       id="linearGradient3120"
       xlink:href="#linearGradient3702-501-757-486"
       gradientUnits="userSpaceOnUse"
       gradientTransform="matrix(3.1428572,0,0,1.2857143,-11.428573,-2.428573)" />
    <linearGradient
       id="linearGradient3702-501-757-486">
      <stop
         id="stop3100"
         style="stop-color:#181818;stop-opacity:0"
         offset="0" />
      <stop
         id="stop3102"
         style="stop-color:#181818;stop-opacity:1"
         offset="0.5" />
      <stop
         id="stop3104"
         style="stop-color:#181818;stop-opacity:0"
         offset="1" />
    </linearGradient>
    <radialGradient
       cx="4.9929786"
       cy="43.5"
       r="2.5"
       fx="4.9929786"
       fy="43.5"
       id="radialGradient3123"
       xlink:href="#linearGradient3688-464-309-255"
       gradientUnits="userSpaceOnUse"
       gradientTransform="matrix(2.4045407,0,0,1.7999999,-32.014243,-131.8)" />
    <linearGradient
       id="linearGradient3688-464-309-255">
      <stop
         id="stop3094"
         style="stop-color:#181818;stop-opacity:1"
         offset="0" />
      <stop
         id="stop3096"
         style="stop-color:#181818;stop-opacity:0"
         offset="1" />
    </linearGradient>
    <linearGradient
       id="linearGradient3688-166-749-737">
      <stop
         id="stop3088"
         style="stop-color:#181818;stop-opacity:1"
         offset="0" />
      <stop
         id="stop3090"
         style="stop-color:#181818;stop-opacity:0"
         offset="1" />
    </linearGradient>
    <radialGradient
       cx="4.9929786"
       cy="43.5"
       r="2.5"
       fx="4.9929786"
       fy="43.5"
       id="radialGradient3979"
       xlink:href="#linearGradient3688-166-749-737"
       gradientUnits="userSpaceOnUse"
       gradientTransform="matrix(2.4045407,0,0,1.7999999,95.985757,-24.8)" />
    <linearGradient
       x1="27.096104"
       y1="10.880992"
       x2="27.096104"
       y2="39.150768"
       id="linearGradient3446"
       xlink:href="#linearGradient3895-9-0-3-5-2-0-4-9-5"
       gradientUnits="userSpaceOnUse"
       gradientTransform="matrix(2.1153751,0,0,2.1153751,117.80222,-83.986087)" />
    <linearGradient
       id="linearGradient3895-9-0-3-5-2-0-4-9-5">
      <stop
         id="stop3897-0-5-7-89-6-6-7-0-4"
         style="stop-color:#dc5639;stop-opacity:1"
         offset="0" />
      <stop
         id="stop3899-8-7-06-3-8-3-8-0-6"
         style="stop-color:#9d0f0f;stop-opacity:1"
         offset="1" />
    </linearGradient>
  </defs>
  <metadata
     id="metadata3986">
    <rdf:RDF>
      <cc:Work
         rdf:about="">
        <dc:format>image/svg+xml</dc:format>
        <dc:type
           rdf:resource="http://purl.org/dc/dcmitype/StillImage" />
        <dc:title></dc:title>
      </cc:Work>
    </rdf:RDF>
  </metadata>
  <g
     transform="translate(0,64)"
     id="layer1">
    <rect
       width="6"
       height="8.999999"
       x="108"
       y="49"
       id="rect2801"
       style="opacity:0.4;fill:url(#radialGradient3979);fill-opacity:1;stroke:none" />
    <rect
       width="6"
       height="8.999999"
       x="-20"
       y="-58"
       transform="scale(-1,-1)"
       id="rect3696"
       style="opacity:0.4;fill:url(#radialGradient3123);fill-opacity:1;stroke:none" />
    <rect
       width="88"
       height="9"
       x="20"
       y="49"
       id="rect3700"
       style="opacity:0.4;fill:url(#linearGradient3120);fill-opacity:1;stroke:none" />
    <path
       d="m 17.500001,-62.492564 c 21.31102,0 92.999889,0 92.999889,0 L 110.5,54.5 c 0,0 -61.999998,0 -92.999999,0 0,-39.000027 0,-78.000053 0,-117 z"
       id="path4160-4"
       style="color:#000000;fill:url(#radialGradient3914);fill-opacity:1;fill-rule:nonzero;stroke:url(#linearGradient3916);stroke-width:1;stroke-linecap:butt;stroke-linejoin:round;stroke-miterlimit:4;stroke-opacity:1;stroke-dasharray:none;stroke-dashoffset:0;marker:none;visibility:visible;display:inline;overflow:visible;enable-background:accumulate" />
    <path
       d="m 109.5,53.5 -91,0 0,-115.000004 91,0 z"
       id="rect6741-1"
       style="opacity:0.5;fill:none;stroke:url(#linearGradient3093);stroke-width:1;stroke-linecap:round;stroke-linejoin:round;stroke-miterlimit:4;stroke-opacity:1;stroke-dasharray:none;stroke-dashoffset:0" />
    <path
       d="m 66.718847,-25.026172 -25.499885,4.499979 a 1.5012804,1.5012804 0 0 0 -1.218745,1.499994 l 0,32.999851 a 1.5012804,1.5012804 0 0 0 1.218745,1.499993 l 25.499885,4.49998 a 1.5012804,1.5012804 0 0 0 1.781242,-1.499994 l 0,-4.499979 14.999932,0 a 1.5012804,1.5012804 0 0 0 1.499993,-1.499994 l 0,-7.4999657 1.499993,0 a 1.5012804,1.5012804 0 0 0 1.499994,-1.499993 l 0,-19.4999123 0,-1.499993 a 1.5012804,1.5012804 0 0 0 -1.499994,-1.499993 l -1.499993,0 -16.499925,0 0,-4.49998 a 1.5012804,1.5012804 0 0 0 -1.781242,-1.499993 z m 6.281221,14.109311 c 1.157473,0.453679 1.936936,1.2331413 2.390615,2.3906143 l -2.390615,0 0,-2.3906143 z m -16.687424,3.1874853 c 0.07008,0.05456 0.300148,0.02203 0.374998,0.09375 0.128144,0.12276 0.09613,0.517547 0.187499,0.656247 -0.164794,-0.268734 -0.322062,-0.53684 -0.562497,-0.749997 z m 12.187445,2.34374 a 1.5012804,1.5012804 0 0 0 1.499993,1.359369 l 3.890607,0 c -0.654576,1.670022 -1.975846,2.999986 -3.890607,2.999986 -0.305786,0 -0.680021,-0.07274 -1.124995,-0.187499 a 1.5012804,1.5012804 0 0 0 -0.374998,-0.04687 l 0,-4.124981 z m -11.906197,2.812487 c -0.02673,0.03075 -0.01915,0.111615 -0.04687,0.140625 -0.02119,0.02219 -0.0718,0.02541 -0.09375,0.04687 0.05232,-0.05719 0.0927,-0.126974 0.140624,-0.187499 z m -4.40623,0.984371 c 0.13362,0.133619 0.241504,0.05884 0.374999,0.140624 a 1.5012804,1.5012804 0 0 0 -0.374999,0.187499 l 0,-0.328123 z"
       id="path3444"
       style="color:#000000;display:inline;overflow:visible;visibility:visible;opacity:0.15;fill:url(#linearGradient3446);fill-opacity:1;fill-rule:nonzero;stroke:none;stroke-width:0.98542738;marker:none;enable-background:accumulate"
       inkscape:connector-curvature="0" />
    <path
       d="m 67.000095,-23.526179 -25.499885,4.49998 0,32.999851 25.499885,4.499979 0,-41.99981 z m 1.499994,5.999973 0,1.499993 16.499925,0 0,19.4999123 1.499993,0 0,-19.4999123 0,-1.499993 -1.499993,0 -16.499925,0 z m 0,2.999986 0,3.234361 c 0.480245,-0.123847 0.981069,-0.234374 1.499993,-0.234374 l 0,5.9999733 5.999973,0 c 0,3.313693 -2.68628,5.99997203 -5.999973,5.99997203 -0.518924,0 -1.019748,-0.110519 -1.499993,-0.234373 l 0,1.73436697 10.499952,0 0,1.499993 -10.499952,0 0,2.999986 10.499952,0 0,1.499994 -10.499952,0 0,4.4999787 14.999932,0 0,-26.999878 -14.999932,0 z m 2.999986,1.499993 c 3.313694,0 5.999973,2.68628 5.999973,5.9999733 l -5.999973,0 0,-5.9999733 z M 54.81265,-9.6512417 c 1.503054,0.02567 2.266235,0.324326 2.906237,0.937496 0.834836,0.79982 1.181815,1.851376 1.17187,3.703108 -0.01635,3.03936 -1.828327,4.92185303 -4.687479,4.92185303 l -1.07812,0 -0.09375,2.43748897 -0.04687,2.484364 -1.124995,-0.09375 -1.17187,-0.04687 0,-7.078093 0,-7.078093 2.343739,-0.140624 c 0.692652,-0.03928 1.280215,-0.05542 1.781242,-0.04687 z m -1.734367,2.531239 0,2.15624 c 0,1.18364 0.107235,2.21662 0.187499,2.296865 0.234479,0.234471 0.886166,0.194189 1.687493,-0.140625 0.972385,-0.406288 1.413893,-1.675953 1.031245,-2.953111 -0.282134,-0.941695 -0.907556,-1.359369 -2.109365,-1.359369 l -0.796872,0 z"
       id="path3065-9"
       style="color:#000000;display:inline;overflow:visible;visibility:visible;opacity:0.3;fill:#ae2109;fill-opacity:1;fill-rule:nonzero;stroke:none;stroke-width:0.99999994;marker:none;enable-background:accumulate"
       inkscape:connector-curvature="0" />
    <path
       d="m 67.000095,-25.026172 -25.499885,4.499979 0,32.999851 25.499885,4.49998 0,-41.99981 z m 1.499994,5.999973 0,1.499993 16.499925,0 0,19.4999123 1.499993,0 0,-19.4999123 0,-1.499993 -1.499993,0 -16.499925,0 z m 0,2.999986 0,3.23436 c 0.480245,-0.123847 0.981069,-0.234374 1.499993,-0.234374 l 0,5.9999733 5.999973,0 c 0,3.313694 -2.68628,5.999973 -5.999973,5.999973 -0.518924,0 -1.019748,-0.110519 -1.499993,-0.234374 l 0,1.73436703 10.499952,0 0,1.49999397 -10.499952,0 0,2.999986 10.499952,0 0,1.499993 -10.499952,0 0,4.4999797 14.999932,0 0,-26.999878 -14.999932,0 z m 2.999986,1.499993 c 3.313694,0 5.999973,2.68628 5.999973,5.9999733 l -5.999973,0 0,-5.9999733 z m -16.687425,3.374985 c 1.503054,0.02567 2.266235,0.324325 2.906237,0.937496 0.834836,0.7998203 1.181815,1.8513753 1.17187,3.7031083 -0.01635,3.03936 -1.828327,4.921853 -4.687479,4.921853 l -1.07812,0 -0.09375,2.43748903 -0.04687,2.48436397 -1.124995,-0.09375 -1.17187,-0.04687 0,-7.078093 0,-7.0780933 2.343739,-0.140624 c 0.692652,-0.03928 1.280215,-0.05542 1.781242,-0.04687 z m -1.734367,2.5312393 0,2.15624 c 0,1.18364 0.107235,2.216619 0.187499,2.296864 0.234479,0.234472 0.886166,0.19419 1.687493,-0.140624 0.972385,-0.406288 1.413893,-1.675953 1.031245,-2.953112 -0.282134,-0.941694 -0.907556,-1.359368 -2.109365,-1.359368 l -0.796872,0 z"
       id="path3065"
       style="color:#000000;display:inline;overflow:visible;visibility:visible;fill:#ffffff;fill-opacity:1;fill-rule:nonzero;stroke:none;stroke-width:0.99999994;marker:none;enable-background:accumulate"
       inkscape:connector-curvature="0" />
  </g>
</svg>
