<?xml version="1.0" encoding="UTF-8" standalone="no"?>
<svg
   xmlns:dc="http://purl.org/dc/elements/1.1/"
   xmlns:cc="http://creativecommons.org/ns#"
   xmlns:rdf="http://www.w3.org/1999/02/22-rdf-syntax-ns#"
   xmlns:svg="http://www.w3.org/2000/svg"
   xmlns="http://www.w3.org/2000/svg"
   xmlns:xlink="http://www.w3.org/1999/xlink"
   xmlns:sodipodi="http://sodipodi.sourceforge.net/DTD/sodipodi-0.dtd"
   xmlns:inkscape="http://www.inkscape.org/namespaces/inkscape"
   version="1.1"
   width="128"
   height="128"
   id="svg3172"
   inkscape:version="0.91 r"
   sodipodi:docname="empty.svg">
  <sodipodi:namedview
     pagecolor="#ffffff"
     bordercolor="#666666"
     borderopacity="1"
     objecttolerance="10"
     gridtolerance="10"
     guidetolerance="10"
     inkscape:pageopacity="0"
     inkscape:pageshadow="2"
     inkscape:window-width="1855"
     inkscape:window-height="1056"
     id="namedview34"
     showgrid="true"
     inkscape:zoom="7.25"
     inkscape:cx="64"
     inkscape:cy="64"
     inkscape:window-x="65"
     inkscape:window-y="24"
     inkscape:window-maximized="1"
     inkscape:current-layer="svg3172">
    <inkscape:grid
       type="xygrid"
       id="grid4432" />
  </sodipodi:namedview>
  <defs
     id="defs3174">
    <linearGradient
       id="linearGradient3977">
      <stop
         id="stop3979"
         style="stop-color:#ffffff;stop-opacity:1"
         offset="0" />
      <stop
         id="stop3981"
         style="stop-color:#ffffff;stop-opacity:0.23529412"
         offset="0.00648027" />
      <stop
         id="stop3983"
         style="stop-color:#ffffff;stop-opacity:0.15686275"
         offset="0.99423188" />
      <stop
         id="stop3985"
         style="stop-color:#ffffff;stop-opacity:0.39215687"
         offset="1" />
    </linearGradient>
    <linearGradient
       id="linearGradient3600">
      <stop
         id="stop3602"
         style="stop-color:#f4f4f4;stop-opacity:1"
         offset="0" />
      <stop
         id="stop3604"
         style="stop-color:#dbdbdb;stop-opacity:1"
         offset="1" />
    </linearGradient>
    <linearGradient
       id="linearGradient3702-501-757-486">
      <stop
         id="stop3100"
         style="stop-color:#181818;stop-opacity:0"
         offset="0" />
      <stop
         id="stop3102"
         style="stop-color:#181818;stop-opacity:1"
         offset="0.5" />
      <stop
         id="stop3104"
         style="stop-color:#181818;stop-opacity:0"
         offset="1" />
    </linearGradient>
    <linearGradient
       id="linearGradient3688-464-309-255">
      <stop
         id="stop3094"
         style="stop-color:#181818;stop-opacity:1"
         offset="0" />
      <stop
         id="stop3096"
         style="stop-color:#181818;stop-opacity:0"
         offset="1" />
    </linearGradient>
    <linearGradient
       id="linearGradient3688-166-749-737">
      <stop
         id="stop3088"
         style="stop-color:#181818;stop-opacity:1"
         offset="0" />
      <stop
         id="stop3090"
         style="stop-color:#181818;stop-opacity:0"
         offset="1" />
    </linearGradient>
    <linearGradient
       x1="23.99999"
       y1="5.5641499"
       x2="23.99999"
       y2="42.194839"
       id="linearGradient3016"
       xlink:href="#linearGradient3977"
       gradientUnits="userSpaceOnUse"
       gradientTransform="matrix(2.4594595,0,0,3.1081081,4.9729852,-14.594559)" />
    <linearGradient
       x1="25.132275"
       y1="0.98520643"
       x2="25.132275"
       y2="47.013336"
       id="linearGradient3019"
       xlink:href="#linearGradient3600"
       gradientUnits="userSpaceOnUse"
       gradientTransform="matrix(2.6571409,0,0,2.5422194,0.228619,-4.91283)" />
    <linearGradient
       x1="25.058096"
       y1="47.027729"
       x2="25.058096"
       y2="39.999443"
       id="linearGradient3024"
       xlink:href="#linearGradient3702-501-757-486"
       gradientUnits="userSpaceOnUse"
       gradientTransform="matrix(3.1428572,0,0,1.2857143,-11.428573,61.571428)" />
    <radialGradient
       cx="4.9929786"
       cy="43.5"
       r="2.5"
       fx="4.9929786"
       fy="43.5"
       id="radialGradient3027"
       xlink:href="#linearGradient3688-464-309-255"
       gradientUnits="userSpaceOnUse"
       gradientTransform="matrix(2.4045407,0,0,1.7999999,-32.014243,-195.8)" />
    <radialGradient
       cx="4.9929786"
       cy="43.5"
       r="2.5"
       fx="4.9929786"
       fy="43.5"
       id="radialGradient3030"
       xlink:href="#linearGradient3688-166-749-737"
       gradientUnits="userSpaceOnUse"
       gradientTransform="matrix(2.4045407,0,0,1.7999999,95.985757,39.200001)" />
    <linearGradient
       x1="22.953798"
       y1="7.6358142"
       x2="22.953798"
       y2="19.321308"
       id="linearGradient3762"
       xlink:href="#linearGradient4042"
       gradientUnits="userSpaceOnUse"
       gradientTransform="matrix(1.8584725,0,0,1.7341158,19.483106,7.8649109)" />
    <linearGradient
       id="linearGradient4042">
      <stop
         id="stop4044"
         style="stop-color:#595959;stop-opacity:1;"
         offset="0" />
      <stop
         id="stop4046"
         style="stop-color:#333333;stop-opacity:1;"
         offset="1" />
    </linearGradient>
    <linearGradient
       x1="-125.5994"
       y1="77.089539"
       x2="-125.5994"
       y2="87.611153"
       id="linearGradient4018-819-428-410"
       xlink:href="#linearGradient3878-807-456-317"
       gradientUnits="userSpaceOnUse"
       gradientTransform="matrix(0.80829829,0,0,1.0103727,134.36029,-14.639705)" />
    <linearGradient
       id="linearGradient3878-807-456-317">
      <stop
         id="stop5529"
         style="stop-color:#a3b7e6;stop-opacity:1"
         offset="0" />
      <stop
         id="stop5531"
         style="stop-color:#a6bef8;stop-opacity:1"
         offset="0.12062506" />
      <stop
         id="stop5533"
         style="stop-color:#6588dd;stop-opacity:1"
         offset="1" />
    </linearGradient>
    <linearGradient
       x1="-122.15204"
       y1="75.476608"
       x2="-122.15204"
       y2="87.611115"
       id="linearGradient4020-670-947-281"
       xlink:href="#linearGradient4022-710-393-153"
       gradientUnits="userSpaceOnUse"
       gradientTransform="matrix(0.80829829,0,0,1.0103727,134.36029,-14.639705)" />
    <linearGradient
       id="linearGradient4022-710-393-153">
      <stop
         id="stop5537"
         style="stop-color:#93a1c1;stop-opacity:1"
         offset="0" />
      <stop
         id="stop5539"
         style="stop-color:#9dadd7;stop-opacity:1"
         offset="0.08361457" />
      <stop
         id="stop5541"
         style="stop-color:#9fb2e3;stop-opacity:1"
         offset="0.14855438" />
      <stop
         id="stop5543"
         style="stop-color:#607fcb;stop-opacity:1"
         offset="0.8635664" />
      <stop
         id="stop5545"
         style="stop-color:#f2f2f2;stop-opacity:0.56896549"
         offset="0.87115383" />
      <stop
         id="stop5547"
         style="stop-color:#f2f2f2;stop-opacity:0.50862068"
         offset="1" />
    </linearGradient>
    <linearGradient
       x1="-125.5994"
       y1="76.397659"
       x2="-125.5994"
       y2="87.611153"
       id="linearGradient3965-293-767-619"
       xlink:href="#linearGradient3922-140-682-296"
       gradientUnits="userSpaceOnUse"
       gradientTransform="matrix(0.80829829,0,0,1.0103727,134.3606,12.360289)" />
    <linearGradient
       id="linearGradient3922-140-682-296">
      <stop
         id="stop5507"
         style="stop-color:#c9b1d6;stop-opacity:1"
         offset="0" />
      <stop
         id="stop5509"
         style="stop-color:#d4b5e7;stop-opacity:1"
         offset="0.12062506" />
      <stop
         id="stop5511"
         style="stop-color:#a97cc4;stop-opacity:1"
         offset="1" />
    </linearGradient>
    <linearGradient
       x1="-122.15204"
       y1="75.476608"
       x2="-122.15204"
       y2="87.611115"
       id="linearGradient3967-559-364-412"
       xlink:href="#linearGradient3908-425-486-280"
       gradientUnits="userSpaceOnUse"
       gradientTransform="matrix(0.80829829,0,0,1.0103727,134.3606,12.360289)" />
    <linearGradient
       id="linearGradient3908-425-486-280">
      <stop
         id="stop5515"
         style="stop-color:#ad9eb6;stop-opacity:1"
         offset="0" />
      <stop
         id="stop5517"
         style="stop-color:#bdaaca;stop-opacity:1"
         offset="0.08361457" />
      <stop
         id="stop5519"
         style="stop-color:#c6add4;stop-opacity:1"
         offset="0.14855438" />
      <stop
         id="stop5521"
         style="stop-color:#9e75b5;stop-opacity:1"
         offset="0.86632949" />
      <stop
         id="stop5523"
         style="stop-color:#f2f2f2;stop-opacity:0.5"
         offset="0.87625819" />
      <stop
         id="stop5525"
         style="stop-color:#f2f2f2;stop-opacity:0.5"
         offset="1" />
    </linearGradient>
    <linearGradient
       x1="-125.5994"
       y1="76.397659"
       x2="-125.5994"
       y2="87.611153"
       id="linearGradient3970-548-241-367"
       xlink:href="#linearGradient3886-233-361-669"
       gradientUnits="userSpaceOnUse"
       gradientTransform="matrix(0.80829829,0,0,1.0103727,134.3606,-1.1397081)" />
    <linearGradient
       id="linearGradient3886-233-361-669">
      <stop
         id="stop5463"
         style="stop-color:#b4a9e1;stop-opacity:1"
         offset="0" />
      <stop
         id="stop5465"
         style="stop-color:#b8aaf4;stop-opacity:1"
         offset="0.12062506" />
      <stop
         id="stop5467"
         style="stop-color:#806cd5;stop-opacity:1"
         offset="1" />
    </linearGradient>
    <linearGradient
       x1="-122.15204"
       y1="75.476608"
       x2="-122.15204"
       y2="87.611115"
       id="linearGradient3972-393-404-624"
       xlink:href="#linearGradient3894-484-185-212"
       gradientUnits="userSpaceOnUse"
       gradientTransform="matrix(0.80829829,0,0,1.0103727,134.3606,-1.1397081)" />
    <linearGradient
       id="linearGradient3894-484-185-212">
      <stop
         id="stop5471"
         style="stop-color:#9e98be;stop-opacity:1"
         offset="0" />
      <stop
         id="stop5473"
         style="stop-color:#aba1d3;stop-opacity:1"
         offset="0.08361457" />
      <stop
         id="stop5475"
         style="stop-color:#afa3df;stop-opacity:1"
         offset="0.14855438" />
      <stop
         id="stop5477"
         style="stop-color:#7966c3;stop-opacity:1"
         offset="0.86632949" />
      <stop
         id="stop5479"
         style="stop-color:#f2f2f2;stop-opacity:0.56896549"
         offset="0.87625819" />
      <stop
         id="stop5481"
         style="stop-color:#f2f2f2;stop-opacity:0.56034482"
         offset="1" />
    </linearGradient>
    <linearGradient
       x1="-125.5994"
       y1="76.397659"
       x2="-125.5994"
       y2="87.611153"
       id="linearGradient3980-918-232-953"
       xlink:href="#linearGradient3824-983-564-189"
       gradientUnits="userSpaceOnUse"
       gradientTransform="matrix(0.80829829,0,0,1.0103727,134.3606,-28.139704)" />
    <linearGradient
       id="linearGradient3824-983-564-189">
      <stop
         id="stop5441"
         style="stop-color:#a7d3e1;stop-opacity:1"
         offset="0" />
      <stop
         id="stop5443"
         style="stop-color:#a9dff4;stop-opacity:1"
         offset="0.12062506" />
      <stop
         id="stop5445"
         style="stop-color:#6cbad5;stop-opacity:1"
         offset="1" />
    </linearGradient>
    <linearGradient
       x1="-122.15204"
       y1="75.476608"
       x2="-122.15204"
       y2="87.611115"
       id="linearGradient3982-549-177-866"
       xlink:href="#linearGradient3832-377-24-877"
       gradientUnits="userSpaceOnUse"
       gradientTransform="matrix(0.80829829,0,0,1.0103727,134.3606,-28.139704)" />
    <linearGradient
       id="linearGradient3832-377-24-877">
      <stop
         id="stop5449"
         style="stop-color:#97b3be;stop-opacity:1"
         offset="0" />
      <stop
         id="stop5451"
         style="stop-color:#a0c7d4;stop-opacity:1"
         offset="0.08361457" />
      <stop
         id="stop5453"
         style="stop-color:#a1d0df;stop-opacity:1"
         offset="0.14855438" />
      <stop
         id="stop5455"
         style="stop-color:#66adc3;stop-opacity:1"
         offset="0.86495483" />
      <stop
         id="stop5457"
         style="stop-color:#f2f2f2;stop-opacity:0.51724136"
         offset="0.87397081" />
      <stop
         id="stop5459"
         style="stop-color:#f2f2f2;stop-opacity:0.54310346"
         offset="1" />
    </linearGradient>
    <linearGradient
       x1="-125.5994"
       y1="77.089539"
       x2="-125.5994"
       y2="87.611153"
       id="linearGradient3985-791-953-465"
       xlink:href="#linearGradient4008-600-60-367"
       gradientUnits="userSpaceOnUse"
       gradientTransform="matrix(0.80829829,0,0,1.0103727,134.36029,-55.139705)" />
    <linearGradient
       id="linearGradient4008-600-60-367">
      <stop
         id="stop5485"
         style="stop-color:#e4d7a4;stop-opacity:1"
         offset="0" />
      <stop
         id="stop5487"
         style="stop-color:#f6e7a6;stop-opacity:1"
         offset="0.20396857" />
      <stop
         id="stop5489"
         style="stop-color:#dbc465;stop-opacity:1"
         offset="1" />
    </linearGradient>
    <linearGradient
       x1="-122.15204"
       y1="75.476608"
       x2="-122.15204"
       y2="87.611115"
       id="linearGradient3987-577-169-971"
       xlink:href="#linearGradient3994-831-135-992"
       gradientUnits="userSpaceOnUse"
       gradientTransform="matrix(0.80829829,0,0,1.0103727,134.36029,-55.139705)" />
    <linearGradient
       id="linearGradient3994-831-135-992">
      <stop
         id="stop5493"
         style="stop-color:#a49c76;stop-opacity:1;"
         offset="0" />
      <stop
         id="stop5495"
         style="stop-color:#d6ca9e;stop-opacity:1"
         offset="0.13853648" />
      <stop
         id="stop5497"
         style="stop-color:#e2d49f;stop-opacity:1"
         offset="0.3133201" />
      <stop
         id="stop5499"
         style="stop-color:#cab560;stop-opacity:1"
         offset="0.86330098" />
      <stop
         id="stop5501"
         style="stop-color:#f2f2f2;stop-opacity:0.48275861"
         offset="0.87486351" />
      <stop
         id="stop5503"
         style="stop-color:#f2f2f2;stop-opacity:0.57758623"
         offset="1" />
    </linearGradient>
    <linearGradient
       y2="87.611153"
       x2="-125.5994"
       y1="76.397659"
       x1="-125.5994"
       gradientTransform="matrix(0.80829829,0,0,1.0103727,134.3606,-41.639705)"
       gradientUnits="userSpaceOnUse"
       id="linearGradient3658"
       xlink:href="#linearGradient3810-275-851-777"
       inkscape:collect="always" />
    <linearGradient
       id="linearGradient3810-275-851-777">
      <stop
         id="stop5419"
         style="stop-color:#c5cfb9;stop-opacity:1"
         offset="0" />
      <stop
         id="stop5421"
         style="stop-color:#cfddc0;stop-opacity:1"
         offset="0.12062506" />
      <stop
         id="stop5423"
         style="stop-color:#a3b68a;stop-opacity:1"
         offset="1" />
    </linearGradient>
    <linearGradient
       y2="87.611115"
       x2="-122.15204"
       y1="75.476608"
       x1="-122.15204"
       gradientTransform="matrix(0.80829829,0,0,1.0103727,134.3606,-41.639705)"
       gradientUnits="userSpaceOnUse"
       id="linearGradient3660"
       xlink:href="#linearGradient3796-12-137-419"
       inkscape:collect="always" />
    <linearGradient
       id="linearGradient3796-12-137-419">
      <stop
         id="stop5427"
         style="stop-color:#abb1a5;stop-opacity:1"
         offset="0" />
      <stop
         id="stop5429"
         style="stop-color:#bac4b0;stop-opacity:1"
         offset="0.08361457" />
      <stop
         id="stop5431"
         style="stop-color:#c2cbb6;stop-opacity:1"
         offset="0.14855438" />
      <stop
         id="stop5433"
         style="stop-color:#97a884;stop-opacity:1"
         offset="0.8619926" />
      <stop
         id="stop5435"
         style="stop-color:#f2f2f2;stop-opacity:0.5258621"
         offset="0.88253927" />
      <stop
         id="stop5437"
         style="stop-color:#f2f2f2;stop-opacity:0.50862068"
         offset="1" />
    </linearGradient>
    <linearGradient
       x1="22.004084"
       y1="47.813133"
       x2="22.004084"
       y2="3.3638515"
       id="linearGradient3046"
       xlink:href="#linearGradient3104-5"
       gradientUnits="userSpaceOnUse"
       gradientTransform="matrix(1.8492464,0,0,1.8428584,25.448076,22.882472)" />
    <linearGradient
       id="linearGradient3104-5">
      <stop
         id="stop3106-2"
         style="stop-color:#aaaaaa;stop-opacity:1"
         offset="0" />
      <stop
         id="stop3108-5"
         style="stop-color:#c8c8c8;stop-opacity:1"
         offset="1" />
    </linearGradient>
  </defs>
  <metadata
     id="metadata3177">
    <rdf:RDF>
      <cc:Work
         rdf:about="">
        <dc:format>image/svg+xml</dc:format>
        <dc:type
           rdf:resource="http://purl.org/dc/dcmitype/StillImage" />
        <dc:title></dc:title>
      </cc:Work>
    </rdf:RDF>
  </metadata>
  <rect
     width="6"
     height="8.999999"
     x="108"
     y="113"
     id="rect2801"
     style="opacity:0.4;fill:url(#radialGradient3030);fill-opacity:1;stroke:none" />
  <rect
     width="6"
     height="8.999999"
     x="-20"
     y="-122"
     transform="scale(-1,-1)"
     id="rect3696"
     style="opacity:0.4;fill:url(#radialGradient3027);fill-opacity:1;stroke:none" />
  <rect
     width="88"
     height="9"
     x="20"
     y="113"
     id="rect3700"
     style="opacity:0.4;fill:url(#linearGradient3024);fill-opacity:1;stroke:none" />
  <path
     d="m 17.499929,1.500412 c 21.311061,0 93.000031,0.007 93.000031,0.007 l 1.1e-4,116.992628 c 0,0 -62.0001,0 -93.00014,0 0,-39.000029 0,-78.000054 0,-117.000079 z"
     id="path4160"
     style="fill:url(#linearGradient3019);fill-opacity:1;stroke:none;display:inline" />
  <path
     d="m 109.5,117.5 -91,0 0,-115.000003 91,0 z"
     id="rect6741-1"
     style="fill:none;stroke:url(#linearGradient3016);stroke-width:1;stroke-linecap:round;stroke-linejoin:round;stroke-miterlimit:4;stroke-opacity:1;stroke-dasharray:none;stroke-dashoffset:0" />
  <path
     d="m 17.499929,1.5004119 c 21.311061,0 93.000031,0.007 93.000031,0.007 l 1.1e-4,116.9926281 c 0,0 -62.0001,0 -93.00014,0 0,-39.000029 0,-78.000054 0,-117.0000791 z"
     id="path4160-4"
     style="opacity:0.3;fill:none;stroke:#000000;stroke-width:0.99992186;stroke-linecap:butt;stroke-linejoin:round;stroke-miterlimit:4;stroke-opacity:1;stroke-dasharray:none;stroke-dashoffset:0;display:inline" />
  <rect
     width="9"
     height="11.25"
     rx="0"
     ry="0"
     x="31.125324"
     y="35.125"
     id="rect2987"
     style="display:inline;fill:url(#linearGradient3658);fill-opacity:1;stroke:url(#linearGradient3660);stroke-width:2.24999952;stroke-linecap:butt;stroke-linejoin:miter;stroke-miterlimit:4;stroke-dasharray:none;stroke-dashoffset:0;stroke-opacity:1" />
  <rect
     width="9"
     height="11.25"
     rx="0"
     ry="0"
     x="31.125"
     y="21.624998"
     id="rect3790"
     style="display:inline;fill:url(#linearGradient3985-791-953-465);fill-opacity:1;stroke:url(#linearGradient3987-577-169-971);stroke-width:2.24999952;stroke-linecap:butt;stroke-linejoin:miter;stroke-miterlimit:4;stroke-dasharray:none;stroke-dashoffset:0;stroke-opacity:1" />
  <rect
     width="9"
     height="11.25"
     rx="0"
     ry="0"
     x="31.125324"
     y="48.624985"
     id="rect3818"
     style="display:inline;fill:url(#linearGradient3980-918-232-953);fill-opacity:1;stroke:url(#linearGradient3982-549-177-866);stroke-width:2.24999952;stroke-linecap:butt;stroke-linejoin:miter;stroke-miterlimit:4;stroke-dasharray:none;stroke-dashoffset:0;stroke-opacity:1" />
  <rect
     width="9"
     height="11.25"
     rx="0"
     ry="0"
     x="31.125324"
     y="75.624985"
     id="rect3852"
     style="display:inline;fill:url(#linearGradient3970-548-241-367);fill-opacity:1;stroke:url(#linearGradient3972-393-404-624);stroke-width:2.24999952;stroke-linecap:butt;stroke-linejoin:miter;stroke-miterlimit:4;stroke-dasharray:none;stroke-dashoffset:0;stroke-opacity:1" />
  <rect
     width="9"
     height="11.25"
     rx="0"
     ry="0"
     x="31.125324"
     y="89.125"
     id="rect3858"
     style="display:inline;fill:url(#linearGradient3965-293-767-619);fill-opacity:1;stroke:url(#linearGradient3967-559-364-412);stroke-width:2.24999952;stroke-linecap:butt;stroke-linejoin:miter;stroke-miterlimit:4;stroke-dasharray:none;stroke-dashoffset:0;stroke-opacity:1" />
  <rect
     width="9"
     height="11.25"
     rx="0"
     ry="0"
     x="31.125"
     y="62.124992"
     id="rect4016"
     style="display:inline;fill:url(#linearGradient4018-819-428-410);fill-opacity:1;stroke:url(#linearGradient4020-670-947-281);stroke-width:2.24999952;stroke-linecap:butt;stroke-linejoin:miter;stroke-miterlimit:4;stroke-dasharray:none;stroke-dashoffset:0;stroke-opacity:1" />
  <path
     inkscape:connector-curvature="0"
     d="m 60.743793,22.975827 c -1.360926,3.44346 -2.721855,6.886922 -4.082784,10.330381 2.726823,0 5.453646,0 8.180468,0 -1.365895,-3.443459 -2.731789,-6.886921 -4.097684,-10.330381 z m -1.698677,-2.766822 c 1.137419,0 2.274836,0 3.412252,0 2.826161,6.919369 5.65232,13.838728 8.47848,20.758095 -1.043045,0 -2.086091,0 -3.129136,0 -0.675498,-1.775029 -1.350994,-3.550055 -2.026493,-5.325085 -3.342714,0 -6.68543,0 -10.028146,0 -0.675499,1.77503 -1.350997,3.550056 -2.026494,5.325085 -1.057948,0 -2.115895,0 -3.173843,0 2.831127,-6.919367 5.662254,-13.838726 8.49338,-20.758095 z m 22.58941,12.930359 c -1.747788,0.0677 -3.78844,-0.04861 -5.164944,1.126197 -1.418052,1.511961 -0.715585,4.396392 1.539305,4.811897 2.201488,0.58183 4.77275,-0.388313 5.697468,-2.393481 0.509881,-1.035901 0.848006,-2.549776 0.567546,-3.544613 -0.879791,0 -1.759582,0 -2.639375,0 z m 5.468541,-1.056669 c 0,2.961466 0,5.922936 0,8.884405 -0.913905,0 -1.827811,0 -2.741721,0 0,-0.787871 0,-1.575744 0,-2.363616 -1.131884,1.905563 -3.493875,2.862759 -5.766556,2.766822 -2.415763,0.130952 -4.987157,-1.291804 -5.440778,-3.616297 -0.577092,-2.240578 0.341552,-4.976759 2.792182,-5.865961 2.657131,-1.075417 5.602551,-0.668724 8.415152,-0.750801 0.191604,-1.661173 -0.980975,-3.314586 -2.741727,-3.7053 -2.479673,-0.576942 -5.164732,-0.0849 -7.390721,1.03581 -2e-6,-0.787874 -2e-6,-1.575744 -2e-6,-2.363617 3.079326,-1.084873 6.724958,-1.677885 9.789557,-0.256447 2.428254,1.179179 3.112492,3.886856 3.084619,6.235002 l -5e-6,0 z"
     id="text4036"
     style="font-style:normal;font-weight:normal;font-size:15.32311249px;font-family:'Bitstream Vera Sans';display:inline;fill:url(#linearGradient3762);fill-opacity:1;stroke:none" />
  <path
     inkscape:connector-curvature="0"
     d="m 49.455172,43.837809 4.334171,0 z m 4.969849,0 4.045227,0 z m 4.680905,0 3.582915,0 z m 4.160804,0 1.560301,0 z m 2.19598,0 3.467336,0 z m 4.160804,0 9.130653,0 z m 9.708543,0 6.992462,0 z m 7.57035,0 2.138192,0 z m -37.447235,4.17572 6.761307,0 z m 7.512562,0 3.236182,0 z m 3.814072,0 1.61809,0 z m 2.253768,0 2.947236,0 z m 3.582915,0 3.005025,0 z m 3.582915,0 4.796481,0 z m 5.43216,0 6.241207,0 z m 6.819096,0 4.160804,0 z m 4.738693,0 1.040201,0 z m -37.736181,4.146927 5.721106,0 z m 6.298995,0 9.361809,0 z m 9.939699,0 4.565325,0 z m 5.143215,0 4.276383,0 z m 4.854272,0 3.640704,0 z m 4.218593,0 5.721106,0.05759 z m 6.241206,0.05759 9.30402,0 z m -36.69598,4.146926 7.917085,0 z m 8.552765,0 8.552762,0 z m 9.130652,0 3.409548,0 z m 3.987438,0 8.032662,0 z m 8.552763,0 5.48995,0 z m 6.125628,0 2.195981,0 z m 2.773869,0 1.213568,0 z m 1.849246,0 3.409549,0 z m -40.972361,4.175722 2.947236,0 z m 3.871859,0 10.922111,0 z m -3.871859,6.959535 4.334171,0 z m 4.969849,0 3.987438,0 z m 4.680905,0 3.582915,0 z m 4.160804,0 1.560301,0 z m 2.19598,0 3.467336,0 z m 4.160804,0 9.072863,0 z m 9.708543,0 6.934673,0 z m 7.512563,0 2.195979,0 z m 2.773869,0 5.201005,0 z m -40.163317,4.17572 7.281407,0 z m 7.859296,0 7.801508,0 z m 8.379398,0 3.005024,0 z m 3.582913,0 7.339197,0 z m 7.917087,0 9.24623,0 z m 9.881909,0 3.409548,0 z m -37.620603,4.175722 7.917085,0 z m 8.552765,0 8.552762,0 z m 9.130652,0 3.409548,0 z m 3.987438,0 8.032662,0 z m 8.552763,0 5.48995,0 z m 6.125628,0 2.195981,0 z m 2.773869,0 1.213568,0 z m 1.849246,0 3.409549,0 z m -40.972361,4.175721 6.761307,0 z m 7.512562,0 3.236182,0 z m 3.814072,0 1.61809,0 z m 2.253768,0 2.947236,0 z m 3.582915,0 3.005025,0 z m 3.582915,0 4.796481,0 z m 5.43216,0 6.241207,0 z m 6.819096,0 4.160804,0 z m 4.738693,0 1.040201,0 z m -37.736181,6.930747 5.721106,0 z m 6.298995,0 9.361809,0 z m 9.939699,0 4.565325,0 z m 5.143215,0 4.276383,0 z m 4.854272,0 3.640704,0 z m 4.218593,0 5.721106,0.05758 z m 6.241206,0.05758 9.30402,0 z m -36.69598,4.146935 6.761307,0 z m 7.512562,0 3.236182,0 z m 3.814072,0 1.61809,0 z m 2.253768,0 2.947236,0 z m 3.582915,0 3.005025,0 z m 3.582915,0 4.796481,0 z m 5.43216,0 6.241207,0 z m 6.819096,0 4.160804,0 z m 4.738693,0 1.040201,0 z m -37.736181,4.175722 7.165829,0 z m 7.801508,0 2.253768,0 z m 2.831658,0 5.143217,0 z m 5.721106,0 7.570351,0 z m 8.206029,0 5.143216,0 z m 5.663317,0 1.09799,0 z m 1.67588,0 6.53015,0 z m 7.223617,0 3.409548,0 z m -39.123115,4.175724 7.165829,0 z m 7.801508,0 3.23618,0 z m 3.814069,0 5.085428,0 z m 5.663317,0 5.48995,0 z m 6.125629,0 2.19598,0 z m 2.773869,0 1.213568,0 z m 1.849245,0 3.409549,0 z"
     id="path3475"
     style="fill:none;stroke:url(#linearGradient3046);stroke-width:0.69595349px;stroke-linecap:butt;stroke-linejoin:miter;stroke-opacity:1" />
</svg>
