<svg xmlns="http://www.w3.org/2000/svg" width="48" height="48">
<defs>
<defs
     id="defs4">
  </defs>
  <path
     d="M 29.735877,2.5934103 C 28.689865,2.3131324 27.635437,2.1243707 26.590517,2 L 24.64025,7.6497313 C 22.746329,7.5726867 20.906437,7.8134566 19.150261,8.360822 L 15.800636,3.4107702 C 13.348019,4.187565 12.167914,4.8688993 10.268884,6.60453 l 2.612059,5.375886 c -1.352121,1.24721 -2.480577,2.720217 -3.360816,4.398925 L 3.6521828,15.243456 C 3.2374277,16.210568 2.8736906,17.218109 2.5934112,18.264125 2.3131298,19.310141 2.124365,20.364565 2,21.409486 l 5.6497316,1.950264 c -0.077044,1.893925 0.1637236,3.733814 0.7110906,5.48999 l -4.9500516,3.349626 c 0.7767937,2.452613 1.4581293,3.632722 3.1937587,5.531752 l 5.3758877,-2.61206 c 1.247209,1.352121 2.720216,2.480577 4.398925,3.360816 l -1.135885,5.867944 c 0.967112,0.414751 1.974654,0.778494 3.020667,1.058772 1.046012,0.280277 2.100443,0.469039 3.145362,0.59341 l 1.950265,-5.649731 c 1.893924,0.07705 3.733812,-0.163726 5.489989,-0.711091 l 3.349625,4.950051 c 2.45262,-0.776794 3.632722,-1.45813 5.531753,-3.193759 l -2.61206,-5.375887 c 1.352121,-1.247209 2.480578,-2.720216 3.360817,-4.398924 l 5.867943,1.135884 c 0.414754,-0.967111 0.77849,-1.974652 1.058771,-3.020669 C 45.686868,28.689863 45.875635,27.635435 46,26.590515 l -5.649731,-1.950266 c 0.07704,-1.893923 -0.163724,-3.733813 -0.711091,-5.489989 l 4.950052,-3.349626 c -0.656504,-2.385838 -1.458128,-3.632721 -3.193759,-5.531752 l -5.375887,2.612059 C 34.772374,11.528822 33.299368,10.400364 31.620659,9.520125 L 32.756544,3.6521812 C 31.789432,3.2374296 30.781893,2.8736892 29.735877,2.5934103 z M 25.24693,19.346394 c 2.568792,0.688306 4.094981,3.33174 3.406677,5.900534 -0.688305,2.568797 -3.331739,4.094984 -5.900537,3.406678 -2.568794,-0.688306 -4.094982,-3.331739 -3.406676,-5.900535 0.688306,-2.568795 3.331742,-4.094983 5.900536,-3.406677 z"
     id="path-main"
      />
</defs>
<acyl-settings>
<linearGradient
     id="linearGradient4321">
    <stop
       style="stop-color:#89F6FB;stop-opacity:1.0;"
       offset="0.5"
       id="stop1" />
    <stop
       style="stop-color:#10A1AA;stop-opacity:1.0;"
       offset="1.0"
       id="stop2" />
  </linearGradient>
<radialGradient
       inkscape:collect="always"
       xlink:href="#linearGradient4321"
       id="acyl_gradient"
       cx="50.0%"
       cy="50.0%"
       fx="50.0%"
       fy="50.0%"
       r="50.0%"
/>
<filter id="filter1111" x="-50%" y="-50%" width="200%" height="200%">
	<feImage
	id="feImage2"
	xlink:href="#1"
	result="result1" />
	<feComposite
	id="feComposite3633"
	in="result1"
	in2="SourceGraphic"
	operator="xor" />
</filter>
	<rect
	style="fill:#1A4B4F;fill-opacity:1.0;filter:url(#filter1111)"
	id="rect2835"
	width="48"
	height="48"
	x="0"
	y="0"
	rx="3.5"
	ry="3.5" />
	<rect
	style="fill:url(#acyl_gradient);filter:url(#filter1111)"
	id="rect2835"
	width="44"
	height="44"
	x="2"
	y="2"
	rx="3.5"
	ry="3.5" />
<defs>
<use id="1" transform="translate(22.5,22.5) scale(0.85) translate(-22.5,-22.5)" style="fill:#000000" xlink:href="#path-main" />
</defs>
	<use id="2" transform="translate(22.5,22.5) scale(0.85) translate(-22.5,-22.5)" style="fill:#1A4B4F;fill-opacity:1.0" xlink:href="#path-main" />
</acyl-settings>
</svg>
