<svg xmlns="http://www.w3.org/2000/svg" width="48" height="48">
<defs>
<defs
     id="defs2385">
    <inkscape:perspective
       sodipodi:type="inkscape:persp3d"
       inkscape:vp_x="0 : 24 : 1"
       inkscape:vp_y="0 : 1000 : 0"
       inkscape:vp_z="48 : 24 : 1"
       inkscape:persp3d-origin="24 : 16 : 1"
       id="perspective32" />
  </defs>
  <path
     id="path-main"
     d="m 21.15625,2.0557348 c -0.109784,0.00794 -0.216474,0.039949 -0.3125,0.09375 L 12.5625,5.09375 C 12.55178,5.103858 12.54136,5.114279 12.53125,5.125 12.344412,5.2550012 12.160421,5.3744944 11.96875,5.53125 11.777079,5.6880056 11.5,5.9819073 11.5,6.40625 l 0,35.1875 c -2.17e-4,0.01042 -2.17e-4,0.02083 0,0.03125 0.01873,0.45998 0.246235,0.66928 0.4375,0.84375 0.191265,0.17447 0.426516,0.306732 0.65625,0.4375 l 8.25,2.887972 c 0.114663,0.06347 0.243956,0.0958 0.375,0.09375 0.772879,0 1.468749,-0.612192 1.46875,-1.40625 l 0,-1.481722 0.78125,0 c 0.106668,-0.0025 0.207921,-0.04749 0.28125,-0.125 l 9.40625,-9 0.03125,0 c 0.270545,0.01885 0.539667,0.0081 0.8125,0 l -8.8125,8.4375 c -0.114104,0.109694 -0.147841,0.288749 -0.09375,0.4375 0.05409,0.148752 0.185838,0.239221 0.34375,0.25 l 9.4375,0 c 0.594678,2e-6 1.125,-0.487189 1.125,-1.09375 l 0,-8.34375 c 0.365007,-0.103903 0.706863,-0.216783 1.0625,-0.375 0.570712,-0.2539 1.115409,-0.577309 1.59375,-0.9375 l 5.71875,4.6875 c 0.828427,0.673097 2.045653,0.547177 2.71875,-0.28125 0.673097,-0.828427 0.547177,-2.045653 -0.28125,-2.71875 L 41.09375,29.25 C 42.040429,27.220167 42.125941,24.805847 41.125,22.625 40.116736,20.428199 38.193649,18.88517 36,18.25 l 0,-0.9375 C 35.9975,17.205832 35.95251,17.104579 35.875,17.03125 L 23.40625,5.125 C 23.332921,5.0474935 23.231668,5.0024923 23.125,5 l -0.4375,0 0,-1.5380152 c 0,-0.7940589 -0.695871,-1.4062501 -1.46875,-1.40625 -0.02082,-8.684e-4 -0.04168,-8.684e-4 -0.0625,0 z M 25,5 c -0.147155,0.030707 -0.272947,0.136222 -0.3125,0.28125 -0.03955,0.1450279 0.01381,0.3050849 0.125,0.40625 l 10.5,10.03125 c 0.113737,0.11753 0.286124,0.155676 0.4375,0.09375 0.151378,-0.06193 0.251249,-0.211452 0.25,-0.375 L 36,6.09375 C 36.000001,5.4871816 35.469672,5 34.875,5 L 25.09375,5 C 25.062608,4.9963256 25.031142,4.9963256 25,5 z m -2.3125,0.8125 0.28125,0 12.21875,11.65625 0,0.625 c -1.569232,-0.28713 -3.226853,-0.160276 -4.78125,0.53125 -4.058398,1.805514 -5.896373,6.566862 -4.0625,10.5625 1.122332,2.445333 3.370795,4.05613 5.875,4.53125 l -8.875,8.46875 -0.65625,0 0,-36.375 z m 3.40625,0 8.78125,0 c 0.180062,0 0.3125,0.1316642 0.3125,0.28125 l 0,8.40625 -9.09375,-8.6875 z m 7.5625,15.9375 c 0.527972,-0.01402 1.043804,0.07622 1.53125,0.25 l 0,7.78125 C 33.110617,30.541445 30.802606,29.646061 29.875,27.625 28.905617,25.512912 29.854736,23.079392 32,22.125 32.536316,21.886402 33.107524,21.764573 33.65625,21.75 z M 36,22.375 c 0.673166,0.421088 1.236881,1.034955 1.59375,1.8125 0.883993,1.92604 0.162886,4.123642 -1.59375,5.21875 L 36,22.375 z m -0.8125,11.46875 0,8.0625 c 0,0.149595 -0.132423,0.281251 -0.3125,0.28125 l -8.4375,0 8.75,-8.34375 z"     />
</defs>
<acyl-settings>
<linearGradient
     id="linearGradient4321">
    <stop
       style="stop-color:#89F6FB;stop-opacity:1.0;"
       offset="0.5"
       id="stop1" />
    <stop
       style="stop-color:#10A1AA;stop-opacity:1.0;"
       offset="1.0"
       id="stop2" />
  </linearGradient>
<radialGradient
       inkscape:collect="always"
       xlink:href="#linearGradient4321"
       id="acyl_gradient"
       cx="50.0%"
       cy="50.0%"
       fx="50.0%"
       fy="50.0%"
       r="50.0%"
/>
<filter id="filter1111" x="-50%" y="-50%" width="200%" height="200%">
	<feImage
	id="feImage2"
	xlink:href="#1"
	result="result1" />
	<feComposite
	id="feComposite3633"
	in="result1"
	in2="SourceGraphic"
	operator="xor" />
</filter>
	<rect
	style="fill:#1A4B4F;fill-opacity:1.0;filter:url(#filter1111)"
	id="rect2835"
	width="48"
	height="48"
	x="0"
	y="0"
	rx="3.5"
	ry="3.5" />
	<rect
	style="fill:url(#acyl_gradient);filter:url(#filter1111)"
	id="rect2835"
	width="44"
	height="44"
	x="2"
	y="2"
	rx="3.5"
	ry="3.5" />
<defs>
<use id="1" transform="translate(22.5,22.5) scale(0.85) translate(-22.5,-22.5)" style="fill:#000000" xlink:href="#path-main" />
</defs>
	<use id="2" transform="translate(22.5,22.5) scale(0.85) translate(-22.5,-22.5)" style="fill:#1A4B4F;fill-opacity:1.0" xlink:href="#path-main" />
</acyl-settings>
</svg>
