<svg xmlns="http://www.w3.org/2000/svg" width="48" height="48">
<defs>
  <path
     d="M 42.5625 8.75 L 5.1875 8.78125 C 3.6978404 8.78125 2 10.645778 2 12 L 2 34.75 C 2 36.536835 3.9378936 38.0625 5.5625 38.0625 L 42.34375 38.0625 C 44.292815 38.0625 46 36.425567 46 34.71875 L 46 12.3125 C 46 10.416739 44.322506 8.75 42.5625 8.75 z M 6.5 11.875 L 23.25 28.59375 L 24.6875 28.59375 L 41.5 11.875 L 43.1875 13.5625 L 33.15625 23.71875 L 40.71875 31.4375 L 39.0625 33.09375 L 31.34375 25.40625 L 25.75 31.03125 L 22.25 31.03125 L 16.65625 25.40625 L 8.9375 33.1875 L 7.28125 31.4375 L 14.90625 23.71875 L 4.8125 13.5625 L 6.5 11.875 z "
     id="path-main" />
</defs>
<acyl-settings>
<linearGradient
     id="linearGradient4321">
    <stop
       style="stop-color:#89F6FB;stop-opacity:1.0;"
       offset="0.5"
       id="stop1" />
    <stop
       style="stop-color:#10A1AA;stop-opacity:1.0;"
       offset="1.0"
       id="stop2" />
  </linearGradient>
<radialGradient
       inkscape:collect="always"
       xlink:href="#linearGradient4321"
       id="acyl_gradient"
       cx="50.0%"
       cy="50.0%"
       fx="50.0%"
       fy="50.0%"
       r="50.0%"
/>
<filter id="filter1111" x="-50%" y="-50%" width="200%" height="200%">
	<feImage
	id="feImage2"
	xlink:href="#1"
	result="result1" />
	<feComposite
	id="feComposite3633"
	in="result1"
	in2="SourceGraphic"
	operator="xor" />
</filter>
	<rect
	style="fill:#1A4B4F;fill-opacity:1.0;filter:url(#filter1111)"
	id="rect2835"
	width="48"
	height="48"
	x="0"
	y="0"
	rx="3.5"
	ry="3.5" />
	<rect
	style="fill:url(#acyl_gradient);filter:url(#filter1111)"
	id="rect2835"
	width="44"
	height="44"
	x="2"
	y="2"
	rx="3.5"
	ry="3.5" />
<defs>
<use id="1" transform="translate(22.5,22.5) scale(0.85) translate(-22.5,-22.5)" style="fill:#000000" xlink:href="#path-main" />
</defs>
	<use id="2" transform="translate(22.5,22.5) scale(0.85) translate(-22.5,-22.5)" style="fill:#1A4B4F;fill-opacity:1.0" xlink:href="#path-main" />
</acyl-settings>
</svg>
