<svg xmlns="http://www.w3.org/2000/svg" width="48" height="48">
<defs>
<defs
     id="defs8577">
  </defs>
  <g
     id="layer1"
     inkscape:label="Layer 1"
     inkscape:groupmode="layer">
    <path
         d="M 37.928276,4.7917241 C 36.560729,4.7917239 35.44,5.9134995 35.44,7.28 l 0,36.231724 C 35.440003,44.878873 36.561127,46 37.928276,46 l 5.583448,0 C 44.878874,45.999998 46,44.878873 46,43.511724 L 46,7.28 c -10e-7,-1.3665005 -1.120729,-2.4882759 -2.488276,-2.4882759 l -5.583448,0 z m -32.2565519,0.030345 0,9.8924139 7.0399999,0 0,-1.942069 -4.4910343,0 0,-2.245517 4.0662073,0 0,-1.9420693 -4.0662073,0 0,-1.8510345 4.3393103,0 0,-1.9117241 -6.8882759,0 z m 32.2565519,1.2441379 5.583448,0 c 0.68522,0 1.213793,0.5294689 1.213793,1.2137931 l 0,36.2317239 c 0,0.685618 -0.528173,1.244137 -1.213793,1.244138 l -5.583448,0 c -0.685618,0 -1.213792,-0.558519 -1.213793,-1.244138 l 0,-36.2317239 c 0,-0.6843243 0.528573,-1.2137932 1.213793,-1.2137931 z m -11.136552,7.10069 c -1.366501,0 -2.488276,1.120729 -2.488276,2.488275 l 0,27.856552 C 24.303448,44.879272 25.425223,46 26.791724,46 l 5.553104,0 c 1.367149,-2e-6 2.488275,-1.121127 2.488275,-2.488276 l 0,-27.856552 c 0.0013,-1.367869 -1.121127,-2.488275 -2.488275,-2.488275 l -5.553104,0 z m 0,1.244137 5.553104,0 c 0.685618,0 1.244785,0.559241 1.244138,1.244138 l 0,27.856552 c 0,0.685618 -0.558518,1.244137 -1.244138,1.244138 l -5.553104,0 c -0.684324,0 -1.244138,-0.558918 -1.244138,-1.244138 l 0,-27.856552 c 0,-0.68522 0.559814,-1.244138 1.244138,-1.244138 z m -11.166896,7.10069 C 14.258327,21.511725 13.136552,22.632453 13.136552,24 l 0,19.511724 C 13.136552,44.879272 14.258327,46 15.624828,46 l 5.583448,0 c 1.367148,-2e-6 2.488276,-1.121127 2.488276,-2.488276 l 0,-19.511724 c 0,-1.367149 -1.121128,-2.488276 -2.488276,-2.488276 l -5.583448,0 z m 0,1.274483 5.583448,0 c 0.685618,0 1.244138,0.528176 1.244138,1.213793 l 0,19.511724 c 0,0.685618 -0.558519,1.244137 -1.244138,1.244138 l -5.583448,0 c -0.684324,0 -1.213794,-0.558918 -1.213794,-1.244138 l 0,-19.511724 c 0,-0.68522 0.529469,-1.213793 1.213794,-1.213793 z M 4.4882759,29.886897 C 3.1211273,29.886898 2,31.008024 2,32.375172 L 2,43.511724 C 2.0000001,44.878874 3.121127,46 4.4882759,46 l 5.5834481,0 c 1.3665,-2e-6 2.488276,-1.120729 2.488276,-2.488276 l 0,-11.136552 c 0,-1.3665 -1.120729,-2.488275 -2.488276,-2.488275 l -5.5834481,0 z m 0,1.244137 5.5834481,0 c 0.68522,0 1.213793,0.559814 1.213793,1.244138 l 0,11.136552 c 0,0.68522 -0.529468,1.244137 -1.213793,1.244138 l -5.5834481,0 c -0.6856181,0 -1.2137931,-0.55852 -1.2137931,-1.244138 l 0,-11.136552 c 0,-0.685618 0.5281749,-1.244138 1.2137931,-1.244138 z"
       id="path-main" />
  </g>
</defs>
<acyl-settings>
<linearGradient
     id="linearGradient4321">
    <stop
       style="stop-color:#89F6FB;stop-opacity:1.0;"
       offset="0.5"
       id="stop1" />
    <stop
       style="stop-color:#10A1AA;stop-opacity:1.0;"
       offset="1.0"
       id="stop2" />
  </linearGradient>
<radialGradient
       inkscape:collect="always"
       xlink:href="#linearGradient4321"
       id="acyl_gradient"
       cx="50.0%"
       cy="50.0%"
       fx="50.0%"
       fy="50.0%"
       r="50.0%"
/>
<filter id="filter1111" x="-50%" y="-50%" width="200%" height="200%">
	<feImage
	id="feImage2"
	xlink:href="#1"
	result="result1" />
	<feComposite
	id="feComposite3633"
	in="result1"
	in2="SourceGraphic"
	operator="xor" />
</filter>
	<rect
	style="fill:#1A4B4F;fill-opacity:1.0;filter:url(#filter1111)"
	id="rect2835"
	width="48"
	height="48"
	x="0"
	y="0"
	rx="3.5"
	ry="3.5" />
	<rect
	style="fill:url(#acyl_gradient);filter:url(#filter1111)"
	id="rect2835"
	width="44"
	height="44"
	x="2"
	y="2"
	rx="3.5"
	ry="3.5" />
<defs>
<use id="1" transform="translate(22.5,22.5) scale(0.85) translate(-22.5,-22.5)" style="fill:#000000" xlink:href="#path-main" />
</defs>
	<use id="2" transform="translate(22.5,22.5) scale(0.85) translate(-22.5,-22.5)" style="fill:#1A4B4F;fill-opacity:1.0" xlink:href="#path-main" />
</acyl-settings>
</svg>
