<svg xmlns="http://www.w3.org/2000/svg" width="48" height="48">
<defs>
  <path
     d="m 27.666667,6.5963739 c -4.129782,0 -7.667743,2.5972712 -9.548611,6.3402781 -1.059104,-0.88099 -2.411567,-1.451389 -3.895834,-1.451389 -3.373333,0 -6.1111106,2.737777 -6.1111109,6.111111 0,0.757602 0.12958,1.469216 0.3819445,2.138889 C 4.6564812,21.449503 2,25.330674 2,29.818596 c 0,6.094 4.906,11 11,11 l 22,0 c 6.094,0 11,-4.906 11,-11 0,-4.826978 -3.10134,-8.900303 -7.409722,-10.388889 0.0095,-0.208829 0.07639,-0.399664 0.07639,-0.611111 0,-6.746667 -4.928,-12.2222221 -11,-12.2222221 z M 24,13.929707 c 1.354222,0 2.444444,1.090222 2.444444,2.444445 l 0,12.222222 c 0,1.354222 -1.090222,2.444444 -2.444444,2.444444 -1.354222,0 -2.444444,-1.090222 -2.444444,-2.444444 l 0,-12.222222 c 0,-1.354223 1.090222,-2.444445 2.444444,-2.444445 z m -1.222222,19.555556 1.222222,0 1.222222,0 c 0.677111,0 1.222222,0.545111 1.222222,1.222222 l 0,1.222222 0,1.222222 c 0,0.677111 -0.545111,1.222223 -1.222222,1.222223 l -1.222222,0 -1.222222,0 c -0.677111,0 -1.222222,-0.545112 -1.222222,-1.222223 l 0,-1.222222 0,-1.222222 c 0,-0.677111 0.545111,-1.222222 1.222222,-1.222222 z"
     id="path-main"
      />
</defs>
<acyl-settings>
<linearGradient
     id="linearGradient4321">
    <stop
       style="stop-color:#89F6FB;stop-opacity:1.0;"
       offset="0.5"
       id="stop1" />
    <stop
       style="stop-color:#10A1AA;stop-opacity:1.0;"
       offset="1.0"
       id="stop2" />
  </linearGradient>
<radialGradient
       inkscape:collect="always"
       xlink:href="#linearGradient4321"
       id="acyl_gradient"
       cx="50.0%"
       cy="50.0%"
       fx="50.0%"
       fy="50.0%"
       r="50.0%"
/>
<filter id="filter1111" x="-50%" y="-50%" width="200%" height="200%">
	<feImage
	id="feImage2"
	xlink:href="#1"
	result="result1" />
	<feComposite
	id="feComposite3633"
	in="result1"
	in2="SourceGraphic"
	operator="xor" />
</filter>
	<rect
	style="fill:#1A4B4F;fill-opacity:1.0;filter:url(#filter1111)"
	id="rect2835"
	width="48"
	height="48"
	x="0"
	y="0"
	rx="3.5"
	ry="3.5" />
	<rect
	style="fill:url(#acyl_gradient);filter:url(#filter1111)"
	id="rect2835"
	width="44"
	height="44"
	x="2"
	y="2"
	rx="3.5"
	ry="3.5" />
<defs>
<use id="1" transform="translate(22.5,22.5) scale(0.85) translate(-22.5,-22.5)" style="fill:#000000" xlink:href="#path-main" />
</defs>
	<use id="2" transform="translate(22.5,22.5) scale(0.85) translate(-22.5,-22.5)" style="fill:#1A4B4F;fill-opacity:1.0" xlink:href="#path-main" />
</acyl-settings>
</svg>
