<svg xmlns="http://www.w3.org/2000/svg" width="48" height="48">
<defs>
<defs
     id="defs1874">
  </defs>
  <path
     d="M 24,2 C 11.849736,2 2,11.848314 2,24 2,36.151685 11.849736,46 24,46 36.150264,46 46,36.151684 46,24 46,11.848315 36.150264,2 24,2 z m 14.265625,12.215789 c 0.273795,0.03537 0.522469,0.21992 0.630208,0.492106 0.143654,0.362914 -0.0093,0.78785 -0.34375,0.98421 -0.495134,0.357032 -0.945848,0.78204 -1.403646,1.244737 -1.750591,2.514992 -4.108563,3.776023 -7.161458,3.96579 -0.01972,-0.0015 -0.03755,0.0016 -0.05729,0 -0.0028,-5.2e-5 0.0027,-0.02889 0,-0.02895 -1.566623,-0.03233 -2.719106,-0.908791 -3.666666,-1.707895 -0.881658,-0.743525 -1.629917,-1.358569 -2.492188,-1.563157 -0.248569,0.145981 -0.501039,0.285452 -0.744791,0.43421 -0.01864,0.01187 -0.03861,0.01697 -0.05729,0.02895 -1.299749,0.796375 -2.504401,1.669586 -3.4375,2.778948 -0.0819,0.317072 -0.07515,0.639575 0.05729,1.013158 0.147533,0.416153 0.418522,0.860607 0.6875,1.302631 0.01144,0.02827 0.02101,0.05729 0.02865,0.08684 0.492191,1.115624 0.793213,1.860424 1.460938,2.75 0.02265,0.03669 0.04183,0.07546 0.05729,0.11579 0.266652,0.536061 1.204008,0.938758 2.148437,0.955263 0.656566,0.01647 1.146618,-0.274498 1.375,-0.607895 0.228382,-0.333396 0.261873,-0.714404 -0.08594,-1.244737 -2.01e-4,-0.0096 -2.01e-4,-0.0193 0,-0.02895 -0.08206,-0.139854 -0.513635,-0.576628 -0.945313,-1.013158 -0.431677,-0.43653 -0.92491,-0.85825 -1.059896,-1.592105 -0.07119,-0.375699 0.172486,-0.738584 0.544271,-0.810526 0.371785,-0.07194 0.730891,0.174301 0.802083,0.55 0.0068,0.03666 0.261804,0.466907 0.658855,0.868421 0.387836,0.392195 0.844127,0.777663 1.145833,1.273684 0.0038,0.0062 -0.0037,0.02274 0,0.02895 0.586969,0.915529 0.577411,1.990718 0.05729,2.75 -0.524881,0.766233 -1.464443,1.213336 -2.520834,1.186842 -1.223368,-0.02138 -2.582609,-0.452479 -3.236979,-1.621052 l -0.02865,0.02895 c -0.02917,-0.03886 -0.02929,-0.07728 -0.05729,-0.115789 -0.697994,-0.959665 -1.074228,-1.826134 -1.51823,-2.836842 -0.01242,-0.02828 -0.01606,-0.05831 -0.02865,-0.08684 -0.260658,-0.428153 -0.570884,-0.90496 -0.773438,-1.476315 -0.213519,-0.602283 -0.307548,-1.306765 -0.05729,-2.026316 0.02338,-0.08381 0.06226,-0.162393 0.114584,-0.231579 0.06457,-0.07998 0.133937,-0.154283 0.200521,-0.231579 -3.260563,0.231709 -6.441023,-1.132382 -8.9375003,-3.039474 -0.3480545,-0.263789 -0.4329159,-0.777229 -0.171875,-1.128947 0.2610408,-0.351719 0.7691333,-0.408526 1.1171873,-0.144737 2.637092,2.014509 6.049326,3.297166 9.223958,2.547368 0.0094,-0.0022 0.01924,0.0023 0.02865,0 1.102297,-0.438791 2.100536,-1.39897 3.494792,-2.055263 0.524799,-0.155707 0.842616,0.04979 1.317708,0.173685 1.068559,0.392882 1.895293,1.141622 2.635417,1.765789 0.934894,0.788422 1.712229,1.356554 2.721354,1.360526 0.01948,0.0089 0.03859,0.01851 0.05729,0.02895 2.324144,0.192496 4.607537,-1.373323 5.901041,-3.386842 0.02343,-0.05122 0.05224,-0.09974 0.08594,-0.144737 0.49037,-0.495618 1.03478,-0.987194 1.632812,-1.418421 0.09297,-0.0715 0.200664,-0.120961 0.315105,-0.144737 0.09405,-0.02272 0.195193,-0.04074 0.286458,-0.02895 z m -9.596354,8.886843 c 0.196894,-0.0016 0.38488,0.0828 0.515625,0.231579 0.150194,0.151773 0.839366,0.353922 1.747396,1.042105 0.636775,0.482602 0.297265,0.210826 0.973958,0.723684 0.704515,0.53394 1.176619,1.035351 1.71875,1.765789 0.218221,0.294021 0.738047,1.034534 1.03125,1.447369 0.895105,-0.835792 1.767341,-1.64935 2.549479,-2.518421 0.01795,-0.02043 0.03708,-0.03976 0.05729,-0.0579 1.364988,-1.163126 2.950245,-2.057263 4.669271,-2.576316 0.01864,-0.01055 0.03776,-0.02021 0.05729,-0.02895 0.353963,-0.07065 0.711011,0.139314 0.802084,0.492105 0.09107,0.352792 -0.115327,0.726388 -0.458334,0.839474 -1.505344,0.454532 -2.912522,1.238618 -4.125,2.257895 -0.01897,0.02107 -0.03826,0.03694 -0.05729,0.05789 -1.475204,1.624303 -3.148084,2.927693 -4.46875,4.457895 l -0.02865,-0.02895 c -0.887559,1.827356 -2.360981,3.32527 -4.182292,4.226316 -0.232432,0.143578 -0.361081,0.32434 -0.515625,0.463157 -1.579241,1.532854 -3.755677,2.119502 -5.757812,2.31579 -0.01909,8.1e-4 -0.03821,8.1e-4 -0.05729,0 -1.664219,0.03202 -3.054465,-0.656856 -4.268229,-1.476316 -1.213764,-0.81946 -2.309447,-1.773682 -3.408854,-2.402631 -0.0098,-0.0094 -0.01939,-0.01901 -0.02865,-0.02895 -0.540683,-0.346715 -0.864619,-0.859776 -1.03125,-1.360526 -0.166631,-0.500751 -0.192545,-0.974131 -0.229167,-1.418421 -0.03662,-0.44429 -0.08227,-0.856187 -0.171875,-1.157895 C 13.944356,30.172294 13.8558,30.033208 13.744784,29.905246 13.340271,29.723219 13.082619,29.570692 12.770833,29.413158 10.724744,28.511052 9.3262704,26.807404 7.7005208,25.910526 7.368287,25.726674 7.2607708,25.319942 7.4427083,24.984211 7.6246459,24.648479 8.0271412,24.510884 8.359375,24.694737 c 2.247482,1.239868 3.604824,3.242911 5.658713,3.790469 0.0806,0.05282 0.278244,0.05315 0.356912,0.08848 0.430072,0.02958 1.018827,0.02108 1.632813,0.02895 1.22797,0.01573 2.572657,-0.02448 3.552083,0.694736 1.040586,0.764122 0.498349,0.34587 1.604166,1.157895 1.130096,0.829852 1.851394,1.556415 2.721355,2.692105 0.371722,0.485269 1.250143,1.651 1.604166,2.113158 0.198478,0.185034 0.259072,0.465421 0.171875,0.723685 -0.05869,0.173832 -0.158748,0.325506 -0.315104,0.405263 0.9727,-0.298281 1.860542,-0.759952 2.578125,-1.418421 -0.01596,-0.03077 -0.04108,-0.05565 -0.05729,-0.08684 -0.612325,-1.177711 -1.60146,-2.596523 -2.177083,-3.155264 -0.192465,-0.181501 -0.251442,-0.4701 -0.171875,-0.723684 0.07957,-0.253584 0.283475,-0.426886 0.544271,-0.463158 0.211828,-0.02677 0.423842,0.04822 0.572917,0.202632 0.78882,0.765685 1.72971,2.127179 2.40625,3.415789 0.715342,-0.374227 1.378634,-0.870754 1.947916,-1.447368 -0.0085,-0.02079 -0.02205,-0.03605 -0.02865,-0.0579 -0.10381,-0.208049 -0.211293,-0.399846 -0.315104,-0.607895 -0.592726,-1.187906 -1.553507,-2.615813 -2.119791,-3.18421 -0.190818,-0.173489 -0.267035,-0.444212 -0.200521,-0.694737 0.06651,-0.250526 0.264497,-0.438435 0.515625,-0.492105 0.23059,-0.04676 0.468753,0.02982 0.630208,0.202631 0.787318,0.790254 1.72081,2.215274 2.377604,3.531579 0.02454,0.04918 0.06109,0.09448 0.08594,0.144737 0.226944,-0.339024 0.430601,-0.700342 0.601562,-1.071052 0.02925,-0.06344 0.06789,-0.122004 0.114584,-0.173685 0.321055,-0.371993 0.663202,-0.730871 1.002604,-1.071052 -0.313919,-0.435234 -0.945194,-1.331421 -1.117188,-1.563158 -0.489397,-0.659388 -0.794778,-0.964209 -1.432291,-1.447369 -0.676694,-0.512858 -0.365828,-0.270028 -1.002605,-0.752631 -0.693126,-0.525311 -1.285925,-0.575785 -1.890625,-1.186842 -0.199296,-0.193019 -0.27223,-0.492763 -0.171875,-0.752632 0.100356,-0.259868 0.354215,-0.428624 0.630209,-0.43421 z m -13.348958,6.860526 c 0.148861,0.501218 0.164428,1.009503 0.20052,1.447368 0.03609,0.437866 0.07671,0.814014 0.171875,1.1 0.09037,0.271557 0.220729,0.445215 0.458334,0.607895 0.01262,0.0086 0.01527,0.02037 0.02865,0.02895 1.095687,0.632402 2.045504,1.449206 3.007812,2.142106 0.03085,-0.11062 0.08877,-0.204797 0.171875,-0.289474 0.649056,-0.746235 1.257469,-1.507037 1.632812,-2.344737 0.05679,-0.148249 0.154974,-0.269925 0.286459,-0.347368 -0.268821,-0.236194 -0.56444,-0.465038 -0.916667,-0.723684 -0.729788,-0.5359 -0.837021,-0.615291 -1.059896,-0.781579 -0.457084,0.926239 -1.09035,1.738042 -1.71875,2.460526 -0.25313,0.287769 -0.689186,0.313689 -0.973958,0.0579 -0.284772,-0.255795 -0.310422,-0.696442 -0.05729,-0.984211 0.603149,-0.693453 1.14319,-1.402422 1.518229,-2.171053 -0.555345,-0.108612 -1.324923,-0.163871 -2.091145,-0.173684 -0.233133,-0.003 -0.43416,-0.02297 -0.658854,-0.02895 z m 6.874999,3.271053 c -0.463389,1.019296 -1.126123,1.882996 -1.804687,2.663157 -0.0305,0.04135 -0.0768,0.08304 -0.114583,0.11579 0.879251,0.508735 1.778693,0.816636 2.778645,0.810526 0.01958,-1.19e-4 0.03762,3.79e-4 0.05729,0 0.666026,-0.0679 1.33599,-0.198413 1.976563,-0.376316 C 24.819535,36.471228 24.560069,36.338966 24.429685,36.1 24.07076,35.631443 23.163871,34.465943 22.796873,33.986842 22.582495,33.706982 22.387751,33.457211 22.19531,33.234211 z"
     id="path-main"
      />
</defs>
<acyl-settings>
<linearGradient
     id="linearGradient4321">
    <stop
       style="stop-color:#89F6FB;stop-opacity:1.0;"
       offset="0.5"
       id="stop1" />
    <stop
       style="stop-color:#10A1AA;stop-opacity:1.0;"
       offset="1.0"
       id="stop2" />
  </linearGradient>
<radialGradient
       inkscape:collect="always"
       xlink:href="#linearGradient4321"
       id="acyl_gradient"
       cx="50.0%"
       cy="50.0%"
       fx="50.0%"
       fy="50.0%"
       r="50.0%"
/>
<filter id="filter1111" x="-50%" y="-50%" width="200%" height="200%">
	<feImage
	id="feImage2"
	xlink:href="#1"
	result="result1" />
	<feComposite
	id="feComposite3633"
	in="result1"
	in2="SourceGraphic"
	operator="xor" />
</filter>
	<rect
	style="fill:#1A4B4F;fill-opacity:1.0;filter:url(#filter1111)"
	id="rect2835"
	width="48"
	height="48"
	x="0"
	y="0"
	rx="3.5"
	ry="3.5" />
	<rect
	style="fill:url(#acyl_gradient);filter:url(#filter1111)"
	id="rect2835"
	width="44"
	height="44"
	x="2"
	y="2"
	rx="3.5"
	ry="3.5" />
<defs>
<use id="1" transform="translate(22.5,22.5) scale(0.85) translate(-22.5,-22.5)" style="fill:#000000" xlink:href="#path-main" />
</defs>
	<use id="2" transform="translate(22.5,22.5) scale(0.85) translate(-22.5,-22.5)" style="fill:#1A4B4F;fill-opacity:1.0" xlink:href="#path-main" />
</acyl-settings>
</svg>
