<svg xmlns="http://www.w3.org/2000/svg" width="48" height="48">
<defs>
<defs
     id="defs1874">
    <inkscape:perspective
       sodipodi:type="inkscape:persp3d"
       inkscape:vp_x="0 : 24 : 1"
       inkscape:vp_y="0 : 1000 : 0"
       inkscape:vp_z="48 : 24 : 1"
       inkscape:persp3d-origin="24 : 16 : 1"
       id="perspective31" />
  </defs>
  <path
     d="M 24,2 C 11.849736,2 2,11.866713 2,24.014388 2,36.162064 11.849736,46 24,46 36.150264,46 46,36.162065 46,24.014388 46,11.866712 36.150264,2 24,2 z m -0.05729,5.7266187 c 1.459011,-0.0025 2.925234,0.1757879 4.382813,0.5755393 0.603763,0.164982 0.986675,0.760591 0.888021,1.381295 l -1.575523,10.877698 10.169271,-3.251798 c 0.623765,-0.197879 1.292226,0.131546 1.518229,0.748201 1.488588,3.822826 1.608172,8.175849 -0.08594,12.258993 C 35.774272,38.668634 26.142192,42.620265 17.8125,39.093525 9.4828074,35.56678 5.552919,25.891659 9.0182292,17.539568 11.406536,11.783271 16.701525,8.280365 22.481771,7.7841727 c 0.481687,-0.041349 0.974601,-0.056721 1.460937,-0.057554 z m -0.28646,2.4460433 c -0.325819,-0.01028 -0.653176,0.0022 -0.973958,0.02878 -4.918171,0.407035 -9.370271,3.393206 -11.401042,8.28777 -2.9532312,7.117877 0.396335,15.349854 7.505208,18.359712 7.108871,3.009852 15.236872,-0.36414 18.190104,-7.482015 1.283408,-3.093269 1.276588,-6.331359 0.372396,-9.323741 L 26.520833,23.52518 C 26.119111,23.650602 25.694812,23.56951 25.375,23.294964 25.055189,23.020419 24.884619,22.590842 24.945312,22.172662 L 26.606771,10.57554 C 25.625193,10.385358 24.633706,10.203512 23.65625,10.172662 z"
     id="path-main"
      />
</defs>
<acyl-settings>
<linearGradient
     id="linearGradient4321">
    <stop
       style="stop-color:#89F6FB;stop-opacity:1.0;"
       offset="0.5"
       id="stop1" />
    <stop
       style="stop-color:#10A1AA;stop-opacity:1.0;"
       offset="1.0"
       id="stop2" />
  </linearGradient>
<radialGradient
       inkscape:collect="always"
       xlink:href="#linearGradient4321"
       id="acyl_gradient"
       cx="50.0%"
       cy="50.0%"
       fx="50.0%"
       fy="50.0%"
       r="50.0%"
/>
<filter id="filter1111" x="-50%" y="-50%" width="200%" height="200%">
	<feImage
	id="feImage2"
	xlink:href="#1"
	result="result1" />
	<feComposite
	id="feComposite3633"
	in="result1"
	in2="SourceGraphic"
	operator="xor" />
</filter>
	<rect
	style="fill:#1A4B4F;fill-opacity:1.0;filter:url(#filter1111)"
	id="rect2835"
	width="48"
	height="48"
	x="0"
	y="0"
	rx="3.5"
	ry="3.5" />
	<rect
	style="fill:url(#acyl_gradient);filter:url(#filter1111)"
	id="rect2835"
	width="44"
	height="44"
	x="2"
	y="2"
	rx="3.5"
	ry="3.5" />
<defs>
<use id="1" transform="translate(22.5,22.5) scale(0.85) translate(-22.5,-22.5)" style="fill:#000000" xlink:href="#path-main" />
</defs>
	<use id="2" transform="translate(22.5,22.5) scale(0.85) translate(-22.5,-22.5)" style="fill:#1A4B4F;fill-opacity:1.0" xlink:href="#path-main" />
</acyl-settings>
</svg>
