<?xml version="1.0" encoding="UTF-8" standalone="no"?>
<!-- Created with Inkscape (http://www.inkscape.org/) -->

<svg
   xmlns:dc="http://purl.org/dc/elements/1.1/"
   xmlns:cc="http://creativecommons.org/ns#"
   xmlns:rdf="http://www.w3.org/1999/02/22-rdf-syntax-ns#"
   xmlns:svg="http://www.w3.org/2000/svg"
   xmlns="http://www.w3.org/2000/svg"
   xmlns:xlink="http://www.w3.org/1999/xlink"
   xmlns:sodipodi="http://sodipodi.sourceforge.net/DTD/sodipodi-0.dtd"
   xmlns:inkscape="http://www.inkscape.org/namespaces/inkscape"
   version="1.0"
   width="22"
   height="22"
   id="svg11703"
   inkscape:version="0.91 r"
   sodipodi:docname="align-vertical-bottom-to-anchor.svg">
  <sodipodi:namedview
     pagecolor="#ffffff"
     bordercolor="#666666"
     borderopacity="1"
     objecttolerance="10"
     gridtolerance="10"
     guidetolerance="10"
     inkscape:pageopacity="0"
     inkscape:pageshadow="2"
     inkscape:window-width="1855"
     inkscape:window-height="1056"
     id="namedview102"
     showgrid="true"
     inkscape:zoom="44.930745"
     inkscape:cx="20.561913"
     inkscape:cy="5.3683617"
     inkscape:window-x="65"
     inkscape:window-y="24"
     inkscape:window-maximized="1"
     inkscape:current-layer="g7308">
    <inkscape:grid
       type="xygrid"
       id="grid4770" />
  </sodipodi:namedview>
  <defs
     id="defs11705">
    <linearGradient
       x1="187.60938"
       y1="489.35938"
       x2="186.93732"
       y2="489.35938"
       id="linearGradient4684"
       xlink:href="#linearGradient2968"
       gradientUnits="userSpaceOnUse"
       gradientTransform="translate(-395.9999,-981)" />
    <linearGradient
       x1="187.81554"
       y1="489.54688"
       x2="187.1716"
       y2="489.54688"
       id="linearGradient4682"
       xlink:href="#linearGradient2974"
       gradientUnits="userSpaceOnUse"
       gradientTransform="translate(-395.9999,-981)" />
    <linearGradient
       x1="187.60938"
       y1="489.35938"
       x2="186.93732"
       y2="489.35938"
       id="linearGradient4680"
       xlink:href="#linearGradient2986"
       gradientUnits="userSpaceOnUse" />
    <linearGradient
       x1="187.81554"
       y1="489.54688"
       x2="187.1716"
       y2="489.54688"
       id="linearGradient4678"
       xlink:href="#linearGradient2980"
       gradientUnits="userSpaceOnUse" />
    <linearGradient
       id="linearGradient2968">
      <stop
         id="stop2970"
         style="stop-color:#ce5c00;stop-opacity:1"
         offset="0" />
      <stop
         id="stop2972"
         style="stop-color:#ce5c00;stop-opacity:0"
         offset="1" />
    </linearGradient>
    <linearGradient
       x1="187.60938"
       y1="489.35938"
       x2="186.93732"
       y2="489.35938"
       id="linearGradient4676"
       xlink:href="#linearGradient2968"
       gradientUnits="userSpaceOnUse"
       gradientTransform="translate(-395.9999,-981)" />
    <linearGradient
       id="linearGradient2974">
      <stop
         id="stop2976"
         style="stop-color:#fcaf3e;stop-opacity:1"
         offset="0" />
      <stop
         id="stop2978"
         style="stop-color:#fcaf3e;stop-opacity:0"
         offset="1" />
    </linearGradient>
    <linearGradient
       x1="187.81554"
       y1="489.54688"
       x2="187.1716"
       y2="489.54688"
       id="linearGradient4674"
       xlink:href="#linearGradient2974"
       gradientUnits="userSpaceOnUse"
       gradientTransform="translate(-395.9999,-981)" />
    <linearGradient
       id="linearGradient2986">
      <stop
         id="stop2988"
         style="stop-color:#ce5c00;stop-opacity:1"
         offset="0" />
      <stop
         id="stop2990"
         style="stop-color:#ce5c00;stop-opacity:0"
         offset="1" />
    </linearGradient>
    <linearGradient
       x1="187.60938"
       y1="489.35938"
       x2="186.93732"
       y2="489.35938"
       id="linearGradient4672"
       xlink:href="#linearGradient2986"
       gradientUnits="userSpaceOnUse" />
    <linearGradient
       id="linearGradient2980">
      <stop
         id="stop2982"
         style="stop-color:#fcaf3e;stop-opacity:1"
         offset="0" />
      <stop
         id="stop2984"
         style="stop-color:#fcaf3e;stop-opacity:0"
         offset="1" />
    </linearGradient>
    <linearGradient
       x1="187.81554"
       y1="489.54688"
       x2="187.1716"
       y2="489.54688"
       id="linearGradient4670"
       xlink:href="#linearGradient2980"
       gradientUnits="userSpaceOnUse" />
    <linearGradient
       x1="23.4375"
       y1="423.9375"
       x2="26.251186"
       y2="434.43832"
       id="linearGradient9698"
       xlink:href="#linearGradient6950"
       gradientUnits="userSpaceOnUse"
       gradientTransform="translate(0,7)" />
    <linearGradient
       id="linearGradient6950">
      <stop
         id="stop6952"
         style="stop-color:#d3d7cf;stop-opacity:1"
         offset="0" />
      <stop
         id="stop6954"
         style="stop-color:#eeeeec;stop-opacity:1"
         offset="1" />
    </linearGradient>
    <linearGradient
       x1="22.910416"
       y1="431.60751"
       x2="27.329832"
       y2="440.2254"
       id="linearGradient9700"
       xlink:href="#linearGradient9682"
       gradientUnits="userSpaceOnUse" />
    <linearGradient
       id="linearGradient9682">
      <stop
         id="stop9684"
         style="stop-color:#ffffff;stop-opacity:1"
         offset="0" />
      <stop
         id="stop9686"
         style="stop-color:#ffffff;stop-opacity:0"
         offset="1" />
    </linearGradient>
    <linearGradient
       inkscape:collect="always"
       xlink:href="#linearGradient6950"
       id="linearGradient4862"
       gradientUnits="userSpaceOnUse"
       gradientTransform="translate(0,7)"
       x1="23.4375"
       y1="423.9375"
       x2="26.251186"
       y2="434.43832" />
    <linearGradient
       inkscape:collect="always"
       xlink:href="#linearGradient9682"
       id="linearGradient4864"
       gradientUnits="userSpaceOnUse"
       x1="22.910416"
       y1="431.60751"
       x2="27.329832"
       y2="440.2254" />
    <linearGradient
       inkscape:collect="always"
       xlink:href="#linearGradient6950"
       id="linearGradient4184"
       gradientUnits="userSpaceOnUse"
       gradientTransform="translate(0,7)"
       x1="23.4375"
       y1="423.9375"
       x2="26.251186"
       y2="434.43832" />
    <linearGradient
       inkscape:collect="always"
       xlink:href="#linearGradient9682"
       id="linearGradient4186"
       gradientUnits="userSpaceOnUse"
       x1="22.910416"
       y1="431.60751"
       x2="27.329832"
       y2="440.2254" />
  </defs>
  <metadata
     id="metadata11708">
    <rdf:RDF>
      <cc:Work
         rdf:about="">
        <dc:format>image/svg+xml</dc:format>
        <dc:type
           rdf:resource="http://purl.org/dc/dcmitype/StillImage" />
        <dc:title />
      </cc:Work>
    </rdf:RDF>
  </metadata>
  <g
     id="layer1">
    <g
       transform="translate(-59.996137,70.00002)"
       id="g7308"
       style="display:inline">
      <g
         transform="translate(-127.00379,-549.49997)"
         id="g3690">
        <path
           d="m 198.49998,491.5 -12.00009,0 0,-2 12.00009,0"
           inkscape:connector-curvature="0"
           id="path3692"
           style="fill:url(#linearGradient4670);fill-opacity:1;stroke:url(#linearGradient4672);stroke-width:0.99999976;stroke-linecap:butt;stroke-linejoin:round;stroke-miterlimit:0;stroke-dashoffset:0;stroke-opacity:1" />
        <path
           d="m -197.49989,-489.5 -12.00009,0 0,-2 12.00009,0"
           inkscape:connector-curvature="0"
           transform="scale(-1,-1)"
           id="path3694"
           style="fill:url(#linearGradient4674);fill-opacity:1;stroke:url(#linearGradient4676);stroke-width:0.99999976;stroke-linecap:butt;stroke-linejoin:round;stroke-miterlimit:0;stroke-dashoffset:0;stroke-opacity:1" />
      </g>
      <g
         id="g4856"
         transform="matrix(0,-1,1,0,-357.00386,-42.00002)">
        <rect
           style="fill:url(#linearGradient4862);fill-opacity:1;stroke:#888a85;stroke-width:1;stroke-linecap:round;stroke-linejoin:round;stroke-miterlimit:4;stroke-dasharray:none;stroke-dashoffset:0;stroke-opacity:1"
           id="rect4858"
           y="430.5"
           x="21.5"
           ry="0.64931798"
           rx="0.64931798"
           height="6"
           width="6" />
        <path
           style="fill:none;stroke:url(#linearGradient4864);stroke-width:1.00000048;stroke-linecap:round;stroke-linejoin:miter;stroke-miterlimit:4;stroke-opacity:1"
           id="path4860"
           inkscape:connector-curvature="0"
           d="m 22.500007,431.50001 3.999986,0 0,4.00012 -3.999986,0 0,-4.00012 z" />
      </g>
      <g
         transform="matrix(0,-1,1,0,-368.00386,-42.00002)"
         id="g4178">
        <rect
           width="6"
           height="6"
           rx="0.64931798"
           ry="0.64931798"
           x="21.5"
           y="430.5"
           id="rect4180"
           style="fill:url(#linearGradient4184);fill-opacity:1;stroke:#888a85;stroke-width:1;stroke-linecap:round;stroke-linejoin:round;stroke-miterlimit:4;stroke-dasharray:none;stroke-dashoffset:0;stroke-opacity:1" />
        <path
           d="m 22.500007,431.50001 3.999986,0 0,4.00012 -3.999986,0 0,-4.00012 z"
           inkscape:connector-curvature="0"
           id="path4182"
           style="fill:none;stroke:url(#linearGradient4186);stroke-width:1.00000048;stroke-linecap:round;stroke-linejoin:miter;stroke-miterlimit:4;stroke-opacity:1" />
      </g>
      <g
         style="display:inline"
         id="g4856-0"
         transform="matrix(0,-1,1,0,-357.00386,-27.00002)">
        <rect
           style="fill:url(#linearGradient9698);fill-opacity:1;stroke:#eb701f;stroke-width:1;stroke-linecap:round;stroke-linejoin:round;stroke-miterlimit:4;stroke-dasharray:none;stroke-dashoffset:0;stroke-opacity:1"
           id="rect4858-6"
           y="430.5"
           x="21.5"
           ry="0.64931798"
           rx="0.64931798"
           height="6"
           width="6" />
        <path
           style="fill:none;stroke:url(#linearGradient9700);stroke-width:1.00000048;stroke-linecap:round;stroke-linejoin:miter;stroke-miterlimit:4;stroke-opacity:1"
           id="path4860-9"
           inkscape:connector-curvature="0"
           d="m 22.500007,431.50001 3.999986,0 0,4.00012 -3.999986,0 0,-4.00012 z" />
      </g>
    </g>
  </g>
</svg>
