<?xml version="1.0" encoding="UTF-8" standalone="no"?>
<svg
   xmlns:dc="http://purl.org/dc/elements/1.1/"
   xmlns:cc="http://creativecommons.org/ns#"
   xmlns:rdf="http://www.w3.org/1999/02/22-rdf-syntax-ns#"
   xmlns:svg="http://www.w3.org/2000/svg"
   xmlns="http://www.w3.org/2000/svg"
   xmlns:xlink="http://www.w3.org/1999/xlink"
   xmlns:sodipodi="http://sodipodi.sourceforge.net/DTD/sodipodi-0.dtd"
   xmlns:inkscape="http://www.inkscape.org/namespaces/inkscape"
   version="1.1"
   width="24"
   height="24"
   id="svg5527"
   inkscape:version="0.91 r"
   sodipodi:docname="distribute-vertical-margin.svg">
  <sodipodi:namedview
     pagecolor="#ffffff"
     bordercolor="#666666"
     borderopacity="1"
     objecttolerance="10"
     gridtolerance="10"
     guidetolerance="10"
     inkscape:pageopacity="0"
     inkscape:pageshadow="2"
     inkscape:window-width="1268"
     inkscape:window-height="683"
     id="namedview42"
     showgrid="false"
     inkscape:zoom="9.8333333"
     inkscape:cx="-1.6271186"
     inkscape:cy="12"
     inkscape:window-x="463"
     inkscape:window-y="196"
     inkscape:window-maximized="0"
     inkscape:current-layer="svg5527" />
  <defs
     id="defs5529">
    <linearGradient
       id="linearGradient2980">
      <stop
         id="stop2982"
         style="stop-color:#fcaf3e;stop-opacity:1"
         offset="0" />
      <stop
         id="stop2984"
         style="stop-color:#fcaf3e;stop-opacity:0"
         offset="1" />
    </linearGradient>
    <linearGradient
       id="linearGradient2986">
      <stop
         id="stop2988"
         style="stop-color:#ce5c00;stop-opacity:1"
         offset="0" />
      <stop
         id="stop2990"
         style="stop-color:#ce5c00;stop-opacity:0"
         offset="1" />
    </linearGradient>
    <linearGradient
       id="linearGradient2974">
      <stop
         id="stop2976"
         style="stop-color:#fcaf3e;stop-opacity:1"
         offset="0" />
      <stop
         id="stop2978"
         style="stop-color:#fcaf3e;stop-opacity:0"
         offset="1" />
    </linearGradient>
    <linearGradient
       id="linearGradient2968">
      <stop
         id="stop2970"
         style="stop-color:#ce5c00;stop-opacity:1"
         offset="0" />
      <stop
         id="stop2972"
         style="stop-color:#ce5c00;stop-opacity:0"
         offset="1" />
    </linearGradient>
    <linearGradient
       x1="187.81554"
       y1="489.54688"
       x2="187.1716"
       y2="489.54688"
       id="linearGradient5722"
       xlink:href="#linearGradient2980"
       gradientUnits="userSpaceOnUse" />
    <linearGradient
       x1="187.60938"
       y1="489.35938"
       x2="186.93732"
       y2="489.35938"
       id="linearGradient5724"
       xlink:href="#linearGradient2986"
       gradientUnits="userSpaceOnUse" />
    <linearGradient
       x1="187.81554"
       y1="489.54688"
       x2="187.1716"
       y2="489.54688"
       id="linearGradient5726"
       xlink:href="#linearGradient2974"
       gradientUnits="userSpaceOnUse"
       gradientTransform="translate(-395.9999,-981)" />
    <linearGradient
       x1="187.60938"
       y1="489.35938"
       x2="186.93732"
       y2="489.35938"
       id="linearGradient5728"
       xlink:href="#linearGradient2968"
       gradientUnits="userSpaceOnUse"
       gradientTransform="translate(-395.9999,-981)" />
    <linearGradient
       id="linearGradient3600-4-3">
      <stop
         offset="0"
         style="stop-color:#f4f4f4;stop-opacity:1"
         id="stop3602-7-7" />
      <stop
         offset="1"
         style="stop-color:#dbdbdb;stop-opacity:1"
         id="stop3604-6-7" />
    </linearGradient>
    <linearGradient
       id="linearGradient3924-742">
      <stop
         offset="0"
         style="stop-color:#ffffff;stop-opacity:1"
         id="stop3115" />
      <stop
         offset="0.01102275"
         style="stop-color:#ffffff;stop-opacity:0.23529412"
         id="stop3117" />
      <stop
         offset="0.98111719"
         style="stop-color:#ffffff;stop-opacity:0.15686275"
         id="stop3119" />
      <stop
         offset="1"
         style="stop-color:#ffffff;stop-opacity:0.39215687"
         id="stop3121" />
    </linearGradient>
    <linearGradient
       xlink:href="#linearGradient3600-4-3"
       id="linearGradient3258"
       gradientUnits="userSpaceOnUse"
       gradientTransform="matrix(0.5428581,0,0,0.41284003,-29.601524,1.6269498)"
       x1="25.132275"
       y1="0.98520643"
       x2="25.132275"
       y2="47.013336" />
    <linearGradient
       xlink:href="#linearGradient3924-742"
       id="linearGradient3260"
       gradientUnits="userSpaceOnUse"
       gradientTransform="matrix(0.45945947,0,0,0.43243245,-27.598709,2.2888369)"
       x1="23.99999"
       y1="4.3278437"
       x2="23.99999"
       y2="42.039913" />
  </defs>
  <metadata
     id="metadata5532">
    <rdf:RDF>
      <cc:Work
         rdf:about="">
        <dc:format>image/svg+xml</dc:format>
        <dc:type
           rdf:resource="http://purl.org/dc/dcmitype/StillImage" />
        <dc:title></dc:title>
      </cc:Work>
    </rdf:RDF>
  </metadata>
  <g
     id="g3253"
     transform="matrix(0.99999913,-0.00131932,0.00131932,0.99999913,28.55686,-0.19031012)">
    <rect
       style="color:#000000;display:inline;overflow:visible;visibility:visible;fill:url(#linearGradient3258);fill-opacity:1;fill-rule:nonzero;stroke:none;stroke-width:0.99992186;marker:none;enable-background:accumulate"
       id="rect5505-21-9-4"
       y="2.6684558"
       x="-26.072929"
       ry="1"
       rx="1"
       height="19"
       width="19" />
    <rect
       style="color:#000000;display:inline;overflow:visible;visibility:visible;opacity:0.3;fill:none;stroke:#000000;stroke-width:0.99992186;stroke-linecap:butt;stroke-linejoin:round;stroke-miterlimit:4;stroke-dasharray:none;stroke-dashoffset:0;stroke-opacity:1;marker:none;enable-background:accumulate"
       id="rect5505-21-9-4-6"
       y="2.6684558"
       x="-26.072929"
       ry="1"
       rx="1"
       height="19"
       width="19" />
    <path
       style="opacity:0.8;fill:none;stroke:url(#linearGradient3260);stroke-width:0.99999988;stroke-linecap:round;stroke-linejoin:round;stroke-miterlimit:4;stroke-dashoffset:0;stroke-opacity:1"
       id="rect6741-9"
       d="m -25.071683,3.6668339 16.999999,0 0,17.0003781 -16.999999,0 z"
       inkscape:connector-curvature="0" />
  </g>
  <g
     id="g5710"
     transform="translate(0.49995564,7.499959)">
    <g
       style="display:inline"
       id="g3861"
       transform="matrix(0,-1,1,0,-478.99991,202.99989)">
      <rect
         style="fill:url(#linearGradient5722);fill-opacity:1;stroke:url(#linearGradient5724);stroke-width:0.99999976;stroke-linecap:butt;stroke-linejoin:round;stroke-miterlimit:0;stroke-dasharray:none;stroke-dashoffset:0;stroke-opacity:1"
         id="rect3863"
         y="489.5"
         x="186.49989"
         height="1.9999999"
         width="3.0000916" />
      <rect
         style="fill:#fcaf3e;fill-opacity:1;stroke:#ce5c00;stroke-width:0.99999976;stroke-linecap:butt;stroke-linejoin:round;stroke-miterlimit:0;stroke-dasharray:none;stroke-dashoffset:0;stroke-opacity:1"
         id="rect3865"
         y="489.5"
         x="191.49989"
         height="1.9999999"
         width="3.0000916" />
      <rect
         style="fill:#fcaf3e;fill-opacity:1;stroke:#ce5c00;stroke-width:0.99999976;stroke-linecap:butt;stroke-linejoin:round;stroke-miterlimit:0;stroke-dasharray:none;stroke-dashoffset:0;stroke-opacity:1"
         id="rect3867"
         y="489.5"
         x="196.49989"
         height="1.9999999"
         width="3.0000916" />
      <rect
         style="fill:#fcaf3e;fill-opacity:1;stroke:#ce5c00;stroke-width:0.99999976;stroke-linecap:butt;stroke-linejoin:round;stroke-miterlimit:0;stroke-dasharray:none;stroke-dashoffset:0;stroke-opacity:1"
         id="rect3869"
         y="489.5"
         x="201.49989"
         height="1.9999999"
         width="3.0000916" />
      <rect
         style="fill:url(#linearGradient5726);fill-opacity:1;stroke:url(#linearGradient5728);stroke-width:0.99999976;stroke-linecap:butt;stroke-linejoin:round;stroke-miterlimit:0;stroke-dasharray:none;stroke-dashoffset:0;stroke-opacity:1"
         id="rect3871"
         transform="scale(-1,-1)"
         y="-491.5"
         x="-209.49998"
         height="1.9999999"
         width="3.0000916" />
    </g>
  </g>
</svg>
