<?xml version="1.0" encoding="UTF-8" standalone="no"?>
<!-- Created with Inkscape (http://www.inkscape.org/) -->

<svg
   xmlns:dc="http://purl.org/dc/elements/1.1/"
   xmlns:cc="http://creativecommons.org/ns#"
   xmlns:rdf="http://www.w3.org/1999/02/22-rdf-syntax-ns#"
   xmlns:svg="http://www.w3.org/2000/svg"
   xmlns="http://www.w3.org/2000/svg"
   xmlns:xlink="http://www.w3.org/1999/xlink"
   xmlns:sodipodi="http://sodipodi.sourceforge.net/DTD/sodipodi-0.dtd"
   xmlns:inkscape="http://www.inkscape.org/namespaces/inkscape"
   version="1.0"
   width="22"
   height="22"
   id="svg11703"
   inkscape:version="0.91 r"
   sodipodi:docname="distribute-vertical-baseline.svg">
  <sodipodi:namedview
     pagecolor="#ffffff"
     bordercolor="#666666"
     borderopacity="1"
     objecttolerance="10"
     gridtolerance="10"
     guidetolerance="10"
     inkscape:pageopacity="0"
     inkscape:pageshadow="2"
     inkscape:window-width="1855"
     inkscape:window-height="1056"
     id="namedview39"
     showgrid="false"
     inkscape:zoom="10.727273"
     inkscape:cx="-22.652542"
     inkscape:cy="11"
     inkscape:window-x="65"
     inkscape:window-y="24"
     inkscape:window-maximized="1"
     inkscape:current-layer="g7308" />
  <defs
     id="defs11705">
    <linearGradient
       x1="187.60938"
       y1="489.35938"
       x2="186.93732"
       y2="489.35938"
       id="linearGradient4684"
       xlink:href="#linearGradient2968"
       gradientUnits="userSpaceOnUse"
       gradientTransform="translate(-395.9999,-981)" />
    <linearGradient
       x1="187.81554"
       y1="489.54688"
       x2="187.1716"
       y2="489.54688"
       id="linearGradient4682"
       xlink:href="#linearGradient2974"
       gradientUnits="userSpaceOnUse"
       gradientTransform="translate(-395.9999,-981)" />
    <linearGradient
       x1="187.60938"
       y1="489.35938"
       x2="186.93732"
       y2="489.35938"
       id="linearGradient4680"
       xlink:href="#linearGradient2986"
       gradientUnits="userSpaceOnUse" />
    <linearGradient
       x1="187.81554"
       y1="489.54688"
       x2="187.1716"
       y2="489.54688"
       id="linearGradient4678"
       xlink:href="#linearGradient2980"
       gradientUnits="userSpaceOnUse" />
    <linearGradient
       id="linearGradient2968">
      <stop
         id="stop2970"
         style="stop-color:#ce5c00;stop-opacity:1"
         offset="0" />
      <stop
         id="stop2972"
         style="stop-color:#ce5c00;stop-opacity:0"
         offset="1" />
    </linearGradient>
    <linearGradient
       x1="187.60938"
       y1="489.35938"
       x2="186.93732"
       y2="489.35938"
       id="linearGradient4676"
       xlink:href="#linearGradient2968"
       gradientUnits="userSpaceOnUse"
       gradientTransform="translate(-395.9999,-981)" />
    <linearGradient
       id="linearGradient2974">
      <stop
         id="stop2976"
         style="stop-color:#fcaf3e;stop-opacity:1"
         offset="0" />
      <stop
         id="stop2978"
         style="stop-color:#fcaf3e;stop-opacity:0"
         offset="1" />
    </linearGradient>
    <linearGradient
       x1="187.81554"
       y1="489.54688"
       x2="187.1716"
       y2="489.54688"
       id="linearGradient4674"
       xlink:href="#linearGradient2974"
       gradientUnits="userSpaceOnUse"
       gradientTransform="translate(-395.9999,-981)" />
    <linearGradient
       id="linearGradient2986">
      <stop
         id="stop2988"
         style="stop-color:#ce5c00;stop-opacity:1"
         offset="0" />
      <stop
         id="stop2990"
         style="stop-color:#ce5c00;stop-opacity:0"
         offset="1" />
    </linearGradient>
    <linearGradient
       x1="187.60938"
       y1="489.35938"
       x2="186.93732"
       y2="489.35938"
       id="linearGradient4672"
       xlink:href="#linearGradient2986"
       gradientUnits="userSpaceOnUse" />
    <linearGradient
       id="linearGradient2980">
      <stop
         id="stop2982"
         style="stop-color:#fcaf3e;stop-opacity:1"
         offset="0" />
      <stop
         id="stop2984"
         style="stop-color:#fcaf3e;stop-opacity:0"
         offset="1" />
    </linearGradient>
    <linearGradient
       x1="187.81554"
       y1="489.54688"
       x2="187.1716"
       y2="489.54688"
       id="linearGradient4670"
       xlink:href="#linearGradient2980"
       gradientUnits="userSpaceOnUse" />
    <linearGradient
       inkscape:collect="always"
       xlink:href="#linearGradient2980"
       id="linearGradient4221"
       gradientUnits="userSpaceOnUse"
       x1="187.81554"
       y1="489.54688"
       x2="187.1716"
       y2="489.54688" />
    <linearGradient
       inkscape:collect="always"
       xlink:href="#linearGradient2986"
       id="linearGradient4223"
       gradientUnits="userSpaceOnUse"
       x1="187.60938"
       y1="489.35938"
       x2="186.93732"
       y2="489.35938" />
    <linearGradient
       inkscape:collect="always"
       xlink:href="#linearGradient2974"
       id="linearGradient4225"
       gradientUnits="userSpaceOnUse"
       gradientTransform="translate(-395.9999,-981)"
       x1="187.81554"
       y1="489.54688"
       x2="187.1716"
       y2="489.54688" />
    <linearGradient
       inkscape:collect="always"
       xlink:href="#linearGradient2968"
       id="linearGradient4227"
       gradientUnits="userSpaceOnUse"
       gradientTransform="translate(-395.9999,-981)"
       x1="187.60938"
       y1="489.35938"
       x2="186.93732"
       y2="489.35938" />
    <linearGradient
       inkscape:collect="always"
       xlink:href="#linearGradient2980"
       id="linearGradient4183"
       gradientUnits="userSpaceOnUse"
       x1="187.81554"
       y1="489.54688"
       x2="187.1716"
       y2="489.54688" />
    <linearGradient
       inkscape:collect="always"
       xlink:href="#linearGradient2986"
       id="linearGradient4185"
       gradientUnits="userSpaceOnUse"
       x1="187.60938"
       y1="489.35938"
       x2="186.93732"
       y2="489.35938" />
    <linearGradient
       inkscape:collect="always"
       xlink:href="#linearGradient2974"
       id="linearGradient4187"
       gradientUnits="userSpaceOnUse"
       gradientTransform="translate(-395.9999,-981)"
       x1="187.81554"
       y1="489.54688"
       x2="187.1716"
       y2="489.54688" />
    <linearGradient
       inkscape:collect="always"
       xlink:href="#linearGradient2968"
       id="linearGradient4189"
       gradientUnits="userSpaceOnUse"
       gradientTransform="translate(-395.9999,-981)"
       x1="187.60938"
       y1="489.35938"
       x2="186.93732"
       y2="489.35938" />
  </defs>
  <metadata
     id="metadata11708">
    <rdf:RDF>
      <cc:Work
         rdf:about="">
        <dc:format>image/svg+xml</dc:format>
        <dc:type
           rdf:resource="http://purl.org/dc/dcmitype/StillImage" />
        <dc:title />
      </cc:Work>
    </rdf:RDF>
  </metadata>
  <g
     id="layer1">
    <g
       transform="translate(-59.996137,70.00002)"
       id="g7308"
       style="display:inline">
      <g
         transform="translate(-127.00375,-554.00002)"
         id="g4169">
        <path
           d="m 198.49998,491.5 -12.00009,0 0,-2 12.00009,0"
           inkscape:connector-curvature="0"
           id="path4171"
           style="fill:url(#linearGradient4183);fill-opacity:1;stroke:url(#linearGradient4185);stroke-width:0.99999976;stroke-linecap:butt;stroke-linejoin:round;stroke-miterlimit:0;stroke-dashoffset:0;stroke-opacity:1" />
        <path
           d="m -197.49989,-489.5 -12.00009,0 0,-2 12.00009,0"
           inkscape:connector-curvature="0"
           transform="scale(-1,-1)"
           id="path4173"
           style="fill:url(#linearGradient4187);fill-opacity:1;stroke:url(#linearGradient4189);stroke-width:0.99999976;stroke-linecap:butt;stroke-linejoin:round;stroke-miterlimit:0;stroke-dashoffset:0;stroke-opacity:1" />
      </g>
      <text
         xml:space="preserve"
         style="font-style:normal;font-weight:normal;font-size:10.74552822px;line-height:125%;font-family:sans-serif;letter-spacing:0px;word-spacing:0px;fill:#3b3b3b;fill-opacity:1;stroke:none;stroke-width:1px;stroke-linecap:butt;stroke-linejoin:miter;stroke-opacity:1;"
         x="73.99614"
         y="-77.183632"
         id="text4167"
         sodipodi:linespacing="125%"><tspan
           sodipodi:role="line"
           id="tspan4169"
           x="73.99614"
           y="-77.183632"
           style="font-style:normal;font-variant:normal;font-weight:bold;font-stretch:normal;font-family:'Droid Sans';-inkscape-font-specification:'Droid Sans Bold';fill:#3b3b3b;fill-opacity:1;" /><tspan
           sodipodi:role="line"
           x="73.99614"
           y="-62.002953"
           id="tspan4171"
           style="font-style:normal;font-variant:normal;font-weight:bold;font-stretch:normal;font-size:12.5px;font-family:'Droid Sans';-inkscape-font-specification:'Droid Sans Bold';fill:#3b3b3b;fill-opacity:1;">y</tspan></text>
      <text
         xml:space="preserve"
         style="font-style:normal;font-weight:normal;font-size:12.5px;line-height:125%;font-family:sans-serif;letter-spacing:0px;word-spacing:0px;fill:#3b3b3b;fill-opacity:1;stroke:none;stroke-width:1px;stroke-linecap:butt;stroke-linejoin:miter;stroke-opacity:1;"
         x="73.971237"
         y="-51.82209"
         id="text4192"
         sodipodi:linespacing="125%"><tspan
           sodipodi:role="line"
           id="tspan4194"
           x="73.971237"
           y="-51.82209"
           style="font-style:normal;font-variant:normal;font-weight:bold;font-stretch:normal;font-family:'Droid Sans';-inkscape-font-specification:'Droid Sans Bold';fill:#3b3b3b;fill-opacity:1;">a</tspan></text>
      <g
         id="g4215"
         transform="translate(-127.00375,-540.00002)">
        <path
           style="fill:url(#linearGradient4221);fill-opacity:1;stroke:url(#linearGradient4223);stroke-width:0.99999976;stroke-linecap:butt;stroke-linejoin:round;stroke-miterlimit:0;stroke-dashoffset:0;stroke-opacity:1"
           id="path4217"
           inkscape:connector-curvature="0"
           d="m 198.49998,491.5 -12.00009,0 0,-2 12.00009,0" />
        <path
           style="fill:url(#linearGradient4225);fill-opacity:1;stroke:url(#linearGradient4227);stroke-width:0.99999976;stroke-linecap:butt;stroke-linejoin:round;stroke-miterlimit:0;stroke-dashoffset:0;stroke-opacity:1"
           id="path4219"
           transform="scale(-1,-1)"
           inkscape:connector-curvature="0"
           d="m -197.49989,-489.5 -12.00009,0 0,-2 12.00009,0" />
      </g>
    </g>
  </g>
</svg>
