<?xml version="1.0" encoding="UTF-8" standalone="no"?>
<svg
   xmlns:dc="http://purl.org/dc/elements/1.1/"
   xmlns:cc="http://creativecommons.org/ns#"
   xmlns:rdf="http://www.w3.org/1999/02/22-rdf-syntax-ns#"
   xmlns:svg="http://www.w3.org/2000/svg"
   xmlns="http://www.w3.org/2000/svg"
   xmlns:xlink="http://www.w3.org/1999/xlink"
   xmlns:sodipodi="http://sodipodi.sourceforge.net/DTD/sodipodi-0.dtd"
   xmlns:inkscape="http://www.inkscape.org/namespaces/inkscape"
   version="1.1"
   width="24"
   height="24"
   id="svg4403"
   inkscape:version="0.91 r"
   sodipodi:docname="edit-clone-unlink.svg">
  <sodipodi:namedview
     pagecolor="#ffffff"
     bordercolor="#666666"
     borderopacity="1"
     objecttolerance="10"
     gridtolerance="10"
     guidetolerance="10"
     inkscape:pageopacity="0"
     inkscape:pageshadow="2"
     inkscape:window-width="740"
     inkscape:window-height="480"
     id="namedview93"
     showgrid="false"
     inkscape:zoom="11.156743"
     inkscape:cx="-21.13379"
     inkscape:cy="12"
     inkscape:window-x="75"
     inkscape:window-y="34"
     inkscape:window-maximized="0"
     inkscape:current-layer="g4474" />
  <defs
     id="defs4405">
    <radialGradient
       cx="24.837126"
       cy="36.421127"
       r="15.644737"
       fx="24.837126"
       fy="36.421127"
       id="radialGradient4123"
       xlink:href="#linearGradient8662"
       gradientUnits="userSpaceOnUse"
       gradientTransform="matrix(1,0,0,0.536723,0,16.87306)" />
    <linearGradient
       id="linearGradient8662">
      <stop
         id="stop8664"
         style="stop-color:#000000;stop-opacity:1"
         offset="0" />
      <stop
         id="stop8666"
         style="stop-color:#000000;stop-opacity:0"
         offset="1" />
    </linearGradient>
    <linearGradient
       x1="25.46862"
       y1="32.841259"
       x2="25.46862"
       y2="2.7235911"
       id="linearGradient4125"
       xlink:href="#linearGradient3242-7"
       gradientUnits="userSpaceOnUse"
       gradientTransform="matrix(0.27961814,0,0,-0.26116043,-25.742503,15.954055)" />
    <linearGradient
       id="linearGradient3242-7">
      <stop
         id="stop3244-5"
         style="stop-color:#eef87e;stop-opacity:1"
         offset="0" />
      <stop
         id="stop3246-9"
         style="stop-color:#cde34f;stop-opacity:1"
         offset="0.26238" />
      <stop
         id="stop3248-7"
         style="stop-color:#93b723;stop-opacity:1"
         offset="0.66093999" />
      <stop
         id="stop3250-8"
         style="stop-color:#5a7e0d;stop-opacity:1"
         offset="1" />
    </linearGradient>
    <linearGradient
       x1="36.246174"
       y1="2.9291136"
       x2="36.246174"
       y2="42.788223"
       id="linearGradient4128"
       xlink:href="#linearGradient4121"
       gradientUnits="userSpaceOnUse"
       gradientTransform="matrix(0.27961814,0,0,-0.26116043,-25.742503,15.954055)" />
    <linearGradient
       id="linearGradient4121">
      <stop
         id="stop4123"
         style="stop-color:#3f7010;stop-opacity:1"
         offset="0" />
      <stop
         id="stop4125"
         style="stop-color:#84a718;stop-opacity:1"
         offset="1" />
    </linearGradient>
    <linearGradient
       x1="20.796995"
       y1="20.64884"
       x2="37.473785"
       y2="20.64884"
       id="linearGradient4130"
       xlink:href="#linearGradient4087"
       gradientUnits="userSpaceOnUse"
       gradientTransform="matrix(0,0.3060607,0.32769183,0,-25.243999,1.8249842)" />
    <linearGradient
       id="linearGradient4087">
      <stop
         id="stop4089"
         style="stop-color:#ffffff;stop-opacity:1"
         offset="0" />
      <stop
         id="stop4091"
         style="stop-color:#ffffff;stop-opacity:0.23529412"
         offset="0.51153916" />
      <stop
         id="stop4093"
         style="stop-color:#ffffff;stop-opacity:0.15686275"
         offset="0.58522105" />
      <stop
         id="stop4095"
         style="stop-color:#ffffff;stop-opacity:0.39215687"
         offset="1" />
    </linearGradient>
    <linearGradient
       x1="25.132275"
       y1="0.98520643"
       x2="25.132275"
       y2="47.013336"
       id="linearGradient3275"
       xlink:href="#linearGradient3600-2"
       gradientUnits="userSpaceOnUse"
       gradientTransform="matrix(0.31428714,0,0,0.3259265,0.457108,-0.32223804)" />
    <linearGradient
       id="linearGradient3600-2">
      <stop
         id="stop3602-5"
         style="stop-color:#f4f4f4;stop-opacity:1"
         offset="0" />
      <stop
         id="stop3604-4"
         style="stop-color:#dbdbdb;stop-opacity:1"
         offset="1" />
    </linearGradient>
    <linearGradient
       x1="-51.786404"
       y1="50.786446"
       x2="-51.786404"
       y2="2.9062471"
       id="linearGradient3277"
       xlink:href="#linearGradient3104-7"
       gradientUnits="userSpaceOnUse"
       gradientTransform="matrix(0.25378586,0,0,0.30501865,19.128979,-0.68547704)" />
    <linearGradient
       id="linearGradient3104-7">
      <stop
         id="stop3106-4"
         style="stop-color:#a0a0a0;stop-opacity:1"
         offset="0" />
      <stop
         id="stop3108-4"
         style="stop-color:#bebebe;stop-opacity:1"
         offset="1" />
    </linearGradient>
    <linearGradient
       x1="23.99999"
       y1="5.5641499"
       x2="23.99999"
       y2="43"
       id="linearGradient3279"
       xlink:href="#linearGradient3977-9"
       gradientUnits="userSpaceOnUse"
       gradientTransform="matrix(0.24324324,0,0,0.35135133,2.1621636,-0.43242804)" />
    <linearGradient
       id="linearGradient3977-9">
      <stop
         id="stop3979-3"
         style="stop-color:#ffffff;stop-opacity:1"
         offset="0" />
      <stop
         id="stop3981-7"
         style="stop-color:#ffffff;stop-opacity:0.23529412"
         offset="0.03626217" />
      <stop
         id="stop3983-4"
         style="stop-color:#ffffff;stop-opacity:0.15686275"
         offset="0.95056331" />
      <stop
         id="stop3985-5"
         style="stop-color:#ffffff;stop-opacity:0.39215687"
         offset="1" />
    </linearGradient>
    <linearGradient
       x1="25.132275"
       y1="0.98520643"
       x2="25.132275"
       y2="47.013336"
       id="linearGradient3275-2"
       xlink:href="#linearGradient3600-2-4"
       gradientUnits="userSpaceOnUse"
       gradientTransform="matrix(0.31428714,0,0,0.3259265,0.457108,-0.32223804)" />
    <linearGradient
       id="linearGradient3600-2-4">
      <stop
         id="stop3602-5-0"
         style="stop-color:#f4f4f4;stop-opacity:1"
         offset="0" />
      <stop
         id="stop3604-4-6"
         style="stop-color:#dbdbdb;stop-opacity:1"
         offset="1" />
    </linearGradient>
    <linearGradient
       x1="-51.786404"
       y1="50.786446"
       x2="-51.786404"
       y2="2.9062471"
       id="linearGradient3277-2"
       xlink:href="#linearGradient3104-7-9"
       gradientUnits="userSpaceOnUse"
       gradientTransform="matrix(0.25378586,0,0,0.30501865,19.128979,-0.68547704)" />
    <linearGradient
       id="linearGradient3104-7-9">
      <stop
         id="stop3106-4-9"
         style="stop-color:#a0a0a0;stop-opacity:1"
         offset="0" />
      <stop
         id="stop3108-4-0"
         style="stop-color:#bebebe;stop-opacity:1"
         offset="1" />
    </linearGradient>
    <linearGradient
       x1="23.99999"
       y1="5.5641499"
       x2="23.99999"
       y2="43"
       id="linearGradient3279-8"
       xlink:href="#linearGradient3977-9-1"
       gradientUnits="userSpaceOnUse"
       gradientTransform="matrix(0.24324324,0,0,0.35135133,2.1621636,-0.43242804)" />
    <linearGradient
       id="linearGradient3977-9-1">
      <stop
         id="stop3979-3-3"
         style="stop-color:#ffffff;stop-opacity:1"
         offset="0" />
      <stop
         id="stop3981-7-1"
         style="stop-color:#ffffff;stop-opacity:0.23529412"
         offset="0.03626217" />
      <stop
         id="stop3983-4-1"
         style="stop-color:#ffffff;stop-opacity:0.15686275"
         offset="0.95056331" />
      <stop
         id="stop3985-5-0"
         style="stop-color:#ffffff;stop-opacity:0.39215687"
         offset="1" />
    </linearGradient>
    <radialGradient
       cx="605.71429"
       cy="486.64789"
       r="117.14286"
       fx="605.71429"
       fy="486.64789"
       id="radialGradient3179-3"
       xlink:href="#linearGradient5060-2-9"
       gradientUnits="userSpaceOnUse"
       gradientTransform="matrix(0.00803239,0,0,0.00617647,15.159196,27.235441)" />
    <linearGradient
       id="linearGradient5060-2-9">
      <stop
         id="stop5062-5-33"
         style="stop-color:#000000;stop-opacity:1"
         offset="0" />
      <stop
         id="stop5064-4-4"
         style="stop-color:#000000;stop-opacity:0"
         offset="1" />
    </linearGradient>
    <radialGradient
       cx="605.71429"
       cy="486.64789"
       r="117.14286"
       fx="605.71429"
       fy="486.64789"
       id="radialGradient3177-6"
       xlink:href="#linearGradient5060-2-9"
       gradientUnits="userSpaceOnUse"
       gradientTransform="matrix(-0.00803239,0,0,0.00617647,14.840804,27.235441)" />
    <linearGradient
       x1="302.85715"
       y1="366.64789"
       x2="302.85715"
       y2="609.50507"
       id="linearGradient4163"
       xlink:href="#linearGradient5048-9-5"
       gradientUnits="userSpaceOnUse"
       gradientTransform="matrix(0.02071006,0,0,0.00617647,7.514793,27.235428)" />
    <linearGradient
       id="linearGradient5048-9-5">
      <stop
         id="stop5050-3-6"
         style="stop-color:#000000;stop-opacity:0"
         offset="0" />
      <stop
         id="stop5056-7-1"
         style="stop-color:#000000;stop-opacity:1"
         offset="0.5" />
      <stop
         id="stop5052-4-7"
         style="stop-color:#000000;stop-opacity:0"
         offset="1" />
    </linearGradient>
    <radialGradient
       cx="605.71429"
       cy="486.64789"
       r="117.14286"
       fx="605.71429"
       fy="486.64789"
       id="radialGradient3179-3-2"
       xlink:href="#linearGradient5060-2-9-1"
       gradientUnits="userSpaceOnUse"
       gradientTransform="matrix(0.00803239,0,0,0.00617647,9.159196,23.235441)" />
    <linearGradient
       id="linearGradient5060-2-9-1">
      <stop
         id="stop5062-5-33-7"
         style="stop-color:#000000;stop-opacity:1"
         offset="0" />
      <stop
         id="stop5064-4-4-9"
         style="stop-color:#000000;stop-opacity:0"
         offset="1" />
    </linearGradient>
    <radialGradient
       cx="605.71429"
       cy="486.64789"
       r="117.14286"
       fx="605.71429"
       fy="486.64789"
       id="radialGradient3177-6-5"
       xlink:href="#linearGradient5060-2-9-1"
       gradientUnits="userSpaceOnUse"
       gradientTransform="matrix(-0.00803239,0,0,0.00617647,8.840804,23.235441)" />
    <linearGradient
       id="linearGradient5048-9-5-8">
      <stop
         id="stop5050-3-6-9"
         style="stop-color:#000000;stop-opacity:0"
         offset="0" />
      <stop
         id="stop5056-7-1-5"
         style="stop-color:#000000;stop-opacity:1"
         offset="0.5" />
      <stop
         id="stop5052-4-7-5"
         style="stop-color:#000000;stop-opacity:0"
         offset="1" />
    </linearGradient>
    <linearGradient
       x1="302.85715"
       y1="366.64789"
       x2="302.85715"
       y2="609.50507"
       id="linearGradient4401"
       xlink:href="#linearGradient5048-9-5-8"
       gradientUnits="userSpaceOnUse"
       gradientTransform="matrix(0.02071006,0,0,0.00617647,1.514793,23.235428)" />
    <radialGradient
       gradientTransform="matrix(0,0.52544994,-0.5716256,0,46.193389,-21.123812)"
       gradientUnits="userSpaceOnUse"
       xlink:href="#linearGradient3242-7-3-8-0-4-58-06"
       id="radialGradient3900-3"
       fy="48.216358"
       fx="65.297462"
       r="31.000002"
       cy="48.216358"
       cx="65.297462" />
    <linearGradient
       id="linearGradient3242-7-3-8-0-4-58-06">
      <stop
         id="stop3244-5-8-5-6-4-3-8"
         style="stop-color:#cdf87e;stop-opacity:1"
         offset="0" />
      <stop
         id="stop3246-9-5-1-5-3-0-7"
         style="stop-color:#a2e34f;stop-opacity:1"
         offset="0.26238" />
      <stop
         id="stop3248-7-2-0-7-5-35-9"
         style="stop-color:#68b723;stop-opacity:1"
         offset="0.66093999" />
      <stop
         id="stop3250-8-2-8-5-6-40-4"
         style="stop-color:#1d7e0d;stop-opacity:1"
         offset="1" />
    </linearGradient>
    <linearGradient
       gradientTransform="matrix(0.2817955,0,0,0.2800956,12.55509,11.925253)"
       gradientUnits="userSpaceOnUse"
       xlink:href="#linearGradient4154"
       id="linearGradient3030"
       y2="35.62291"
       x2="24.138529"
       y1="10.631441"
       x1="24.138529" />
    <linearGradient
       id="linearGradient4154">
      <stop
         offset="0"
         style="stop-color:#ffffff;stop-opacity:1"
         id="stop4156" />
      <stop
         offset="0.00000002"
         style="stop-color:#ffffff;stop-opacity:0.23529412"
         id="stop4158" />
      <stop
         offset="1"
         style="stop-color:#ffffff;stop-opacity:0.15686275"
         id="stop4160" />
      <stop
         offset="1"
         style="stop-color:#ffffff;stop-opacity:0.39215687"
         id="stop4162" />
    </linearGradient>
    <linearGradient
       gradientTransform="matrix(0.21878982,0,0,0.29372944,49.846199,20.669915)"
       gradientUnits="userSpaceOnUse"
       xlink:href="#linearGradient4333"
       id="linearGradient3030-1"
       y2="24.912279"
       x2="24.138529"
       y1="21.34207"
       x1="24.138529" />
    <linearGradient
       id="linearGradient4333">
      <stop
         id="stop4335"
         style="stop-color:#ffffff;stop-opacity:1"
         offset="0" />
      <stop
         id="stop4337"
         style="stop-color:#ffffff;stop-opacity:0.23529412"
         offset="0.00000019" />
      <stop
         id="stop4339"
         style="stop-color:#ffffff;stop-opacity:0.15686275"
         offset="1" />
      <stop
         id="stop4341"
         style="stop-color:#ffffff;stop-opacity:0.39215687"
         offset="1" />
    </linearGradient>
    <radialGradient
       inkscape:collect="always"
       xlink:href="#linearGradient3242-7-3-8-0-4-58-06"
       id="radialGradient4276"
       cx="17.910366"
       cy="21.367203"
       fx="17.910366"
       fy="21.367203"
       r="3.9999998"
       gradientTransform="matrix(0.02731919,2.2630845,-2.1133647,0.02551179,62.577761,-16.394207)"
       gradientUnits="userSpaceOnUse" />
  </defs>
  <metadata
     id="metadata4408">
    <rdf:RDF>
      <cc:Work
         rdf:about="">
        <dc:format>image/svg+xml</dc:format>
        <dc:type
           rdf:resource="http://purl.org/dc/dcmitype/StillImage" />
        <dc:title></dc:title>
      </cc:Work>
    </rdf:RDF>
  </metadata>
  <g
     transform="translate(0,-8)"
     id="layer1">
    <rect
       width="10"
       height="1.5"
       x="3.9999998"
       y="25.500017"
       id="rect2879-0-2"
       style="opacity:0.15;fill:url(#linearGradient4401);fill-opacity:1;fill-rule:nonzero;stroke:none;stroke-width:1;marker:none;visibility:visible;display:inline;overflow:visible" />
    <path
       d="M 4,25.500081 C 4,25.500081 4,27 4,27 3.586352,27.0029 3,26.663944 3,26.249943 3,25.835944 3.4616,25.500081 4,25.500081 z"
       id="path2881-6-1"
       style="opacity:0.15;fill:url(#radialGradient3177-6-5);fill-opacity:1;fill-rule:nonzero;stroke:none;stroke-width:1;marker:none;visibility:visible;display:inline;overflow:visible" />
    <path
       d="m 14,25.500081 c 0,0 0,1.499919 0,1.499919 0.413648,0.0029 1,-0.336056 1,-0.750057 0,-0.413999 -0.461602,-0.749862 -1,-0.749862 z"
       id="path2883-8-5"
       style="opacity:0.15;fill:url(#radialGradient3179-3-2);fill-opacity:1;fill-rule:nonzero;stroke:none;stroke-width:1;marker:none;visibility:visible;display:inline;overflow:visible" />
    <rect
       width="10"
       height="1.5"
       x="10"
       y="29.500019"
       id="rect2879-0"
       style="opacity:0.15;fill:url(#linearGradient4163);fill-opacity:1;fill-rule:nonzero;stroke:none;stroke-width:1;marker:none;visibility:visible;display:inline;overflow:visible" />
    <path
       d="M 10,29.500081 C 10,29.500081 10,31 10,31 9.586352,31.0029 9,30.663944 9,30.249943 9,29.835944 9.4616,29.500081 10,29.500081 z"
       id="path2881-6"
       style="opacity:0.15;fill:url(#radialGradient3177-6);fill-opacity:1;fill-rule:nonzero;stroke:none;stroke-width:1;marker:none;visibility:visible;display:inline;overflow:visible" />
    <path
       d="m 20,29.500081 c 0,0 0,1.499919 0,1.499919 0.413648,0.0029 1,-0.336056 1,-0.750057 0,-0.413999 -0.461602,-0.749862 -1,-0.749862 z"
       id="path2883-8"
       style="opacity:0.15;fill:url(#radialGradient3179-3);fill-opacity:1;fill-rule:nonzero;stroke:none;stroke-width:1;marker:none;visibility:visible;display:inline;overflow:visible" />
    <g
       transform="translate(25.209655,4.9032433)"
       id="layer1-0-3">
      <g
         transform="translate(-24.209656,5.0967697)"
         id="g3271-4">
        <path
           d="m 2.4999621,0.49997396 c 2.5206756,0 11.0000629,9.54e-4 11.0000629,9.54e-4 l 1.3e-5,14.99909804 c 0,0 -7.3333841,0 -11.0000759,0 0,-5.000017 0,-10.000035 0,-15.00005204 z"
           id="path4160-7-0"
           style="fill:url(#linearGradient3275-2);fill-opacity:1;stroke:url(#linearGradient3277-2);stroke-width:0.99992192;stroke-linecap:butt;stroke-linejoin:round;stroke-miterlimit:4;stroke-opacity:1;stroke-dasharray:none;stroke-dashoffset:0;display:inline" />
        <path
           d="m 12.5,14.5 -9.0000001,0 0,-13 L 12.5,1.5 z"
           id="rect6741-1-8-3"
           style="fill:none;stroke:url(#linearGradient3279-8);stroke-width:1;stroke-linecap:round;stroke-linejoin:miter;stroke-miterlimit:4;stroke-opacity:1;stroke-dasharray:none;stroke-dashoffset:0" />
      </g>
    </g>
    <path
       d="m 8,12.999133 c 1.604056,0 7,8.67e-4 7,8.67e-4 l 9e-6,13 c 0,0 -4.666672,0 -7.000009,0 0,-4.33361 0,-8.667219 0,-13.000829 z"
       id="path4160-3-9-6-0"
       style="opacity:0.05;fill:#000000;fill-opacity:1;stroke:none;display:inline" />
    <g
       transform="translate(31.209655,8.9032433)"
       id="layer1-0">
      <g
         transform="translate(-24.209656,5.0967697)"
         id="g3271">
        <path
           d="m 2.4999621,0.49997396 c 2.5206756,0 11.0000629,9.54e-4 11.0000629,9.54e-4 l 1.3e-5,14.99909804 c 0,0 -7.3333841,0 -11.0000759,0 0,-5.000017 0,-10.000035 0,-15.00005204 z"
           id="path4160-7"
           style="fill:url(#linearGradient3275);fill-opacity:1;stroke:url(#linearGradient3277);stroke-width:0.99992192;stroke-linecap:butt;stroke-linejoin:round;stroke-miterlimit:4;stroke-opacity:1;stroke-dasharray:none;stroke-dashoffset:0;display:inline" />
        <path
           d="m 12.5,14.5 -9.0000001,0 0,-13 L 12.5,1.5 z"
           id="rect6741-1-8"
           style="fill:none;stroke:url(#linearGradient3279);stroke-width:1;stroke-linecap:round;stroke-linejoin:miter;stroke-miterlimit:4;stroke-opacity:1;stroke-dasharray:none;stroke-dashoffset:0" />
      </g>
    </g>
    <rect
       style="opacity:1;fill:url(#radialGradient4276);fill-opacity:1;stroke:none;stroke-width:0.26666701;stroke-linecap:round;stroke-linejoin:round;stroke-miterlimit:4;stroke-dasharray:none;stroke-dashoffset:0;stroke-opacity:1"
       id="rect4703"
       width="7.9999995"
       height="4"
       x="13.999999"
       y="25.999962" />
    <path
       inkscape:connector-curvature="0"
       style="color:#000000;display:inline;overflow:visible;visibility:visible;fill:#3b3b3b;fill-opacity:1;fill-rule:nonzero;stroke:none;stroke-width:0.5;stroke-linecap:round;stroke-linejoin:round;stroke-miterlimit:4;stroke-dasharray:none;stroke-opacity:1;marker:none;enable-background:accumulate"
       d="m 18,19 c -1.656862,0 -3,1.343137 -3,3 l 0,3 -2,0 0,6 10,0 0,-6 -2,0 0,-3 c 0,-1.656863 -1.343137,-3 -3,-3 z m 0,1 c 1.10457,0 2,0.89543 2,2 l 0,3 -4,0 0,-3 c 0,-1.10457 0.895431,-2 2,-2 z m -4,6 8,0 0,4 -8,0 0,-4 z"
       id="rect3044" />
    <g
       transform="translate(-36.772354,0.49608438)"
       id="g4474">
      <path
         inkscape:connector-curvature="0"
         d="m 55.918729,26.422024 1.927197,-0.0076 0,2.097351 -1.927197,0.0076 m -2.32924,0 -1.941034,-0.0076 0,-2.097351 1.941034,0.0076"
         id="path2272-2"
         style="display:inline;opacity:0.5;fill:none;stroke:url(#linearGradient3030-1);stroke-width:0.90233362;stroke-linecap:butt;stroke-linejoin:miter;stroke-miterlimit:4;stroke-dasharray:none;stroke-opacity:1" />
    </g>
    <rect
       y="25.999962"
       x="13.999999"
       height="4"
       width="7.9999995"
       id="rect4278"
       style="opacity:0.5;fill:none;fill-opacity:1;stroke:#0f5a00;stroke-width:1;stroke-linecap:round;stroke-linejoin:round;stroke-miterlimit:4;stroke-dasharray:none;stroke-dashoffset:0;stroke-opacity:1" />
  </g>
</svg>
