<?xml version="1.0" encoding="UTF-8" standalone="no"?>
<!-- Created with Inkscape (http://www.inkscape.org/) -->

<svg
   xmlns:dc="http://purl.org/dc/elements/1.1/"
   xmlns:cc="http://creativecommons.org/ns#"
   xmlns:rdf="http://www.w3.org/1999/02/22-rdf-syntax-ns#"
   xmlns:svg="http://www.w3.org/2000/svg"
   xmlns="http://www.w3.org/2000/svg"
   xmlns:xlink="http://www.w3.org/1999/xlink"
   xmlns:sodipodi="http://sodipodi.sourceforge.net/DTD/sodipodi-0.dtd"
   xmlns:inkscape="http://www.inkscape.org/namespaces/inkscape"
   width="24"
   height="24"
   id="svg3836"
   version="1.1"
   inkscape:version="0.91 r"
   sodipodi:docname="gtk-refresh.svg">
  <defs
     id="defs3838">
    <linearGradient
       inkscape:collect="always"
       xlink:href="#linearGradient4117-06"
       id="linearGradient3813-7"
       gradientUnits="userSpaceOnUse"
       gradientTransform="matrix(-0.35815118,0,0,0.36151064,40.554124,26.424859)"
       x1="82.177589"
       y1="5.4797769"
       x2="82.177589"
       y2="45.824497" />
    <linearGradient
       id="linearGradient4117-06">
      <stop
         id="stop4119-0"
         style="stop-color:#ffffff;stop-opacity:1;"
         offset="0" />
      <stop
         offset="0.26923078"
         style="stop-color:#ffffff;stop-opacity:0.23529412;"
         id="stop4121-85" />
      <stop
         id="stop4123-3"
         style="stop-color:#ffffff;stop-opacity:0.15686275;"
         offset="0.76923078" />
      <stop
         id="stop4125-9"
         style="stop-color:#ffffff;stop-opacity:0.39215687;"
         offset="1" />
    </linearGradient>
    <linearGradient
       y2="11.169608"
       x2="79.07415"
       y1="43.238335"
       x1="79.07415"
       gradientTransform="matrix(-0.40432987,0,0,0.40190532,43.854129,25.167554)"
       gradientUnits="userSpaceOnUse"
       id="linearGradient3832-8"
       xlink:href="#linearGradient4117-3-5"
       inkscape:collect="always" />
    <linearGradient
       id="linearGradient4117-3-5">
      <stop
         id="stop4119-3-1"
         style="stop-color:#ffffff;stop-opacity:1;"
         offset="0" />
      <stop
         offset="0.26923078"
         style="stop-color:#ffffff;stop-opacity:0.23529412;"
         id="stop4121-8-0" />
      <stop
         id="stop4123-0-8"
         style="stop-color:#ffffff;stop-opacity:0.15686275;"
         offset="0.76923078" />
      <stop
         id="stop4125-5-7"
         style="stop-color:#ffffff;stop-opacity:0.39215687;"
         offset="1" />
    </linearGradient>
    <radialGradient
       inkscape:collect="always"
       xlink:href="#linearGradient2867-449-88-871-390-598-476-591-434-148-57-177-641-289-620-227-114-444-680-744-4-1"
       id="radialGradient3944-1-8"
       gradientUnits="userSpaceOnUse"
       gradientTransform="matrix(-1.3335199e-8,1.3112189,1.5625598,1.5891353e-8,3.4663675,11.728815)"
       cx="13.138569"
       cy="5.2348208"
       fx="13.138569"
       fy="5.2348208"
       r="13.931416" />
    <linearGradient
       id="linearGradient3846-6-1">
      <stop
         id="stop3848-5-9"
         style="stop-color:#fff3cb;stop-opacity:1"
         offset="0" />
      <stop
         id="stop3850-7-9"
         style="stop-color:#fdde76;stop-opacity:1"
         offset="0.26238" />
      <stop
         id="stop3852-8-7"
         style="stop-color:#f9c440;stop-opacity:1"
         offset="0.66093999" />
      <stop
         id="stop3854-5-82"
         style="stop-color:#e48b20;stop-opacity:1"
         offset="1" />
    </linearGradient>
    <linearGradient
       id="linearGradient3856-2-3">
      <stop
         id="stop3858-7-4"
         style="stop-color:#b67926;stop-opacity:1"
         offset="0" />
      <stop
         id="stop3860-3-9"
         style="stop-color:#eab41a;stop-opacity:1"
         offset="1" />
    </linearGradient>
    <radialGradient
       r="20.396999"
       gradientTransform="matrix(0,1.5835582,-2.0902688,0,24.340178,-36.357109)"
       cx="23.896"
       cy="3.99"
       gradientUnits="userSpaceOnUse"
       id="radialGradient3013">
      <stop
         offset="0"
         style="stop-color:#ffffff;"
         id="stop3244" />
      <stop
         offset="0.26238"
         style="stop-color:#dddddd;"
         id="stop3246" />
      <stop
         offset="0.66094"
         style="stop-color:#abacae;"
         id="stop3248" />
      <stop
         offset="1"
         style="stop-color:#89898b;"
         id="stop3250" />
    </radialGradient>
    <linearGradient
       x1="18.379"
       y1="44.98"
       gradientTransform="matrix(0.66350462,0,0,0.66350472,0.07588745,0.0758879)"
       x2="18.379"
       gradientUnits="userSpaceOnUse"
       y2="3.0816"
       id="linearGradient3015">
      <stop
         offset="0"
         style="stop-color:#505050;"
         id="stop2492" />
      <stop
         offset="1"
         style="stop-color:#aaaaaa;"
         id="stop2494" />
    </linearGradient>
    <linearGradient
       id="linearGradient4117-0">
      <stop
         id="stop4119-2"
         style="stop-color:#ffffff;stop-opacity:1;"
         offset="0" />
      <stop
         offset="0.26923078"
         style="stop-color:#ffffff;stop-opacity:0.23529412;"
         id="stop4121-9" />
      <stop
         id="stop4123-4"
         style="stop-color:#ffffff;stop-opacity:0.15686275;"
         offset="0.76923078" />
      <stop
         id="stop4125-3"
         style="stop-color:#ffffff;stop-opacity:0.39215687;"
         offset="1" />
    </linearGradient>
    <linearGradient
       y2="45.824497"
       x2="82.177589"
       y1="5.4797769"
       x1="82.177589"
       gradientTransform="matrix(-0.28023408,0,0,0.28023408,34.409273,28.561493)"
       gradientUnits="userSpaceOnUse"
       id="linearGradient4044"
       xlink:href="#linearGradient4117-0-5"
       inkscape:collect="always" />
    <linearGradient
       id="linearGradient4117-0-5">
      <stop
         id="stop4119-2-8"
         style="stop-color:#ffffff;stop-opacity:1;"
         offset="0" />
      <stop
         offset="0.26923078"
         style="stop-color:#ffffff;stop-opacity:0.23529412;"
         id="stop4121-9-2" />
      <stop
         id="stop4123-4-6"
         style="stop-color:#ffffff;stop-opacity:0.15686275;"
         offset="0.76923078" />
      <stop
         id="stop4125-3-0"
         style="stop-color:#ffffff;stop-opacity:0.39215687;"
         offset="1" />
    </linearGradient>
    <radialGradient
       r="20.396999"
       gradientTransform="matrix(0,1.5835582,-2.0902688,0,24.340178,-36.357109)"
       cx="23.896"
       cy="3.99"
       gradientUnits="userSpaceOnUse"
       id="radialGradient3013-9">
      <stop
         offset="0"
         style="stop-color:#ffffff;"
         id="stop3244-1" />
      <stop
         offset="0.26238"
         style="stop-color:#dddddd;"
         id="stop3246-0" />
      <stop
         offset="0.66094"
         style="stop-color:#abacae;"
         id="stop3248-7" />
      <stop
         offset="1"
         style="stop-color:#89898b;"
         id="stop3250-5" />
    </radialGradient>
    <linearGradient
       x1="18.379"
       y1="44.98"
       gradientTransform="matrix(0.66350462,0,0,0.66350472,0.07588745,0.0758879)"
       x2="18.379"
       gradientUnits="userSpaceOnUse"
       y2="3.0816"
       id="linearGradient3015-7">
      <stop
         offset="0"
         style="stop-color:#505050;"
         id="stop2492-0" />
      <stop
         offset="1"
         style="stop-color:#aaaaaa;"
         id="stop2494-4" />
    </linearGradient>
    <linearGradient
       id="linearGradient8838">
      <stop
         id="stop8840"
         style="stop-color:#000000;stop-opacity:1"
         offset="0" />
      <stop
         id="stop8842"
         style="stop-color:#000000;stop-opacity:0"
         offset="1" />
    </linearGradient>
    <radialGradient
       cx="16.202444"
       cy="-19.005346"
       r="19.99999"
       fx="16.202444"
       fy="-19.005346"
       id="radialGradient4075-5"
       xlink:href="#linearGradient2867-449-88-871-390-598-476-591-434-148-57-177-641-289-620-227-114-444-680-744-4-1"
       gradientUnits="userSpaceOnUse"
       gradientTransform="matrix(0,1.7934073,1.8222509,0,22.712308,-4.2458105)" />
    <linearGradient
       id="linearGradient2867-449-88-871-390-598-476-591-434-148-57-177-641-289-620-227-114-444-680-744-4-1">
      <stop
         id="stop5430-5-0"
         style="stop-color:#737373;stop-opacity:1"
         offset="0" />
      <stop
         id="stop5432-2-0"
         style="stop-color:#636363;stop-opacity:1"
         offset="0.26238" />
      <stop
         id="stop5434-9-6"
         style="stop-color:#4b4b4b;stop-opacity:1"
         offset="0.704952" />
      <stop
         id="stop5436-2-7"
         style="stop-color:#3f3f3f;stop-opacity:1"
         offset="1" />
    </linearGradient>
  </defs>
  <sodipodi:namedview
     id="base"
     pagecolor="#ffffff"
     bordercolor="#666666"
     borderopacity="1.0"
     inkscape:pageopacity="0.0"
     inkscape:pageshadow="2"
     inkscape:zoom="34.187838"
     inkscape:cx="1.9924722"
     inkscape:cy="13.00693"
     inkscape:current-layer="layer1"
     showgrid="true"
     inkscape:grid-bbox="true"
     inkscape:document-units="px"
     inkscape:window-width="453"
     inkscape:window-height="430"
     inkscape:window-x="825"
     inkscape:window-y="347"
     inkscape:window-maximized="0" />
  <metadata
     id="metadata3841">
    <rdf:RDF>
      <cc:Work
         rdf:about="">
        <dc:format>image/svg+xml</dc:format>
        <dc:type
           rdf:resource="http://purl.org/dc/dcmitype/StillImage" />
        <dc:title></dc:title>
      </cc:Work>
    </rdf:RDF>
  </metadata>
  <g
     id="layer1"
     inkscape:label="Layer 1"
     inkscape:groupmode="layer"
     transform="translate(0,-24)">
    <path
       inkscape:connector-curvature="0"
       style="color:#000000;display:inline;overflow:visible;visibility:visible;fill:none;stroke:url(#linearGradient4044);stroke-width:0.40257525;stroke-linecap:butt;stroke-linejoin:round;stroke-miterlimit:4;stroke-dasharray:none;stroke-dashoffset:0;stroke-opacity:1;marker:none;enable-background:accumulate"
       d="m 12.25,30.315329 c 2.998745,0 5.434767,2.436062 5.434767,5.434766 0,2.998744 -2.436062,5.434765 -5.434767,5.434765 -2.9987433,0 -5.4347656,-2.436061 -5.4347656,-5.434765 0,-2.998744 2.4360622,-5.434766 5.4347656,-5.434766 z"
       id="path2555-8-9-6" />
    <path
       inkscape:connector-curvature="0"
       style="color:#000000;display:inline;overflow:visible;visibility:visible;fill:url(#radialGradient3944-1-8);fill-opacity:1;fill-rule:nonzero;stroke:#3d3d3d;stroke-width:0.99441463;stroke-linecap:butt;stroke-linejoin:round;stroke-miterlimit:4;stroke-dasharray:none;stroke-dashoffset:0;stroke-opacity:1;marker:none;enable-background:accumulate"
       d="m 20.100217,27.497207 0,6.84378 -6.843778,0 2.352548,-2.352549 C 14.717413,31.193831 13.536568,30.71781 12.25,30.71781 c -2.7761723,0 -5.0321907,2.255981 -5.0321907,5.03219 0,2.776172 2.2559809,5.032191 5.0321907,5.032191 1.906483,0 3.562194,-1.063685 4.415747,-2.629321 l 2.327387,2.327389 C 17.50439,42.60967 15.043447,44.002793 12.25,44.002793 c -4.5532424,0 -8.2527927,-3.699613 -8.2527927,-8.252793 0,-4.553243 3.6996111,-8.252793 8.2527927,-8.252793 2.172791,0 4.16056,0.838837 5.636053,2.214165 l 2.214164,-2.214165 z"
       id="path2555-8-3" />
    <path
       style="color:#000000;display:inline;overflow:visible;visibility:visible;opacity:0.2;fill:none;stroke:url(#linearGradient3832-8);stroke-width:1.03007829;stroke-linecap:butt;stroke-linejoin:round;stroke-miterlimit:4;stroke-dasharray:none;stroke-dashoffset:0;stroke-opacity:1;marker:none;enable-background:accumulate"
       d="m 19.568347,33.346633 -3.855603,0.02597 c 0.61605,-0.871252 0.517567,-0.631742 1.069335,-1.549317 0.212025,-0.457475 -1.456512,-1.350749 -1.456512,-1.350749 -2.149213,-1.480819 -5.5996507,-0.822831 -7.4155909,1.056346 -1.8858216,1.800442 -2.2448538,5.385459 -0.7388938,7.510979 1.425382,2.183081 4.9019327,3.493225 7.2882577,2.389625 0.982943,-0.432403 1.543997,-0.635707 2.270723,-1.756333 l 1.206661,1.195687"
       id="path3611-2"
       inkscape:connector-curvature="0"
       sodipodi:nodetypes="ccccccccc" />
    <path
       style="color:#000000;display:inline;overflow:visible;visibility:visible;opacity:0.3;fill:none;stroke:url(#linearGradient3813-7);stroke-width:0.91946292;stroke-linecap:butt;stroke-linejoin:round;stroke-miterlimit:4;stroke-dasharray:none;stroke-dashoffset:0;stroke-opacity:1;marker:none;enable-background:accumulate"
       d="m 17.964811,40.104219 c -1.558489,2.137537 -4.330023,3.283656 -6.924225,2.8112 -2.8926343,-0.448101 -5.3542337,-2.843128 -5.9074657,-5.743275 -0.58446,-2.715715 0.5408761,-5.698431 2.7649102,-7.335667 1.2398771,-0.941512 2.7840595,-1.459168 4.3356325,-1.453999 1.857635,-0.01843 4.014316,0.962228 5.3681,2.230255 0.381133,0.152369 0.819011,-0.193085 1.073726,-0.385486 l 0.487491,-0.626782 0,4.204641"
       id="path3611"
       inkscape:connector-curvature="0"
       sodipodi:nodetypes="ccccccccc" />
  </g>
</svg>
