<?xml version="1.0" encoding="UTF-8" standalone="no"?>
<!-- Created with Inkscape (http://www.inkscape.org/) -->

<svg
   xmlns:dc="http://purl.org/dc/elements/1.1/"
   xmlns:cc="http://creativecommons.org/ns#"
   xmlns:rdf="http://www.w3.org/1999/02/22-rdf-syntax-ns#"
   xmlns:svg="http://www.w3.org/2000/svg"
   xmlns="http://www.w3.org/2000/svg"
   xmlns:xlink="http://www.w3.org/1999/xlink"
   xmlns:sodipodi="http://sodipodi.sourceforge.net/DTD/sodipodi-0.dtd"
   xmlns:inkscape="http://www.inkscape.org/namespaces/inkscape"
   version="1.1"
   width="22"
   height="22"
   id="svg3792"
   inkscape:version="0.91 r"
   sodipodi:docname="media-playback-stop.svg">
  <sodipodi:namedview
     pagecolor="#ffffff"
     bordercolor="#666666"
     borderopacity="1"
     objecttolerance="10"
     gridtolerance="10"
     guidetolerance="10"
     inkscape:pageopacity="0"
     inkscape:pageshadow="2"
     inkscape:window-width="640"
     inkscape:window-height="480"
     id="namedview54"
     showgrid="true"
     inkscape:zoom="40.863636"
     inkscape:cx="2.2391545"
     inkscape:cy="11"
     inkscape:current-layer="svg3792">
    <inkscape:grid
       type="xygrid"
       id="grid4182" />
  </sodipodi:namedview>
  <defs
     id="defs3794">
    <radialGradient
       cx="21.385109"
       cy="-19.005346"
       r="19.99999"
       fx="21.385109"
       fy="-19.005346"
       id="radialGradient3008"
       xlink:href="#linearGradient2867-449-88-871-390-598-476-591-434-148-57-177-641-289-620-227-114-444-680-744-4"
       gradientUnits="userSpaceOnUse"
       gradientTransform="matrix(0,1.5000006,-1.5241254,0,-16.959842,-23.077676)" />
    <linearGradient
       id="linearGradient2867-449-88-871-390-598-476-591-434-148-57-177-641-289-620-227-114-444-680-744-4">
      <stop
         id="stop5430-5"
         style="stop-color:#737373;stop-opacity:1"
         offset="0" />
      <stop
         id="stop5432-2"
         style="stop-color:#636363;stop-opacity:1"
         offset="0.26238" />
      <stop
         id="stop5434-9"
         style="stop-color:#4b4b4b;stop-opacity:1"
         offset="0.704952" />
      <stop
         id="stop5436-2"
         style="stop-color:#3f3f3f;stop-opacity:1"
         offset="1" />
    </linearGradient>
    <linearGradient
       x1="21.875"
       y1="48.000977"
       x2="21.875"
       y2="40"
       id="linearGradient3680"
       xlink:href="#linearGradient2804"
       gradientUnits="userSpaceOnUse" />
    <linearGradient
       id="linearGradient2804">
      <stop
         id="stop2806"
         style="stop-color:#000000;stop-opacity:0"
         offset="0" />
      <stop
         id="stop2812"
         style="stop-color:#000000;stop-opacity:1"
         offset="0.5" />
      <stop
         id="stop2808"
         style="stop-color:#000000;stop-opacity:0"
         offset="1" />
    </linearGradient>
    <radialGradient
       cx="1"
       cy="44"
       r="5"
       fx="1"
       fy="44"
       id="radialGradient3282"
       xlink:href="#linearGradient2781"
       gradientUnits="userSpaceOnUse"
       gradientTransform="matrix(2,0,0,0.8,36,8.8)" />
    <linearGradient
       id="linearGradient2781">
      <stop
         id="stop2783"
         style="stop-color:#000000;stop-opacity:1"
         offset="0" />
      <stop
         id="stop2785"
         style="stop-color:#000000;stop-opacity:0"
         offset="1" />
    </linearGradient>
    <radialGradient
       cx="1"
       cy="44"
       r="5"
       fx="1"
       fy="44"
       id="radialGradient3280"
       xlink:href="#linearGradient2781"
       gradientUnits="userSpaceOnUse"
       gradientTransform="matrix(2,0,0,0.8,-13,-79.2)" />
    <linearGradient
       id="linearGradient2490">
      <stop
         id="stop2492"
         style="stop-color:#791235;stop-opacity:1"
         offset="0" />
      <stop
         id="stop2494"
         style="stop-color:#dd3b27;stop-opacity:1"
         offset="1" />
    </linearGradient>
    <linearGradient
       x1="-33.650978"
       y1="43.419788"
       x2="-33.650978"
       y2="-0.20339131"
       id="linearGradient2852"
       xlink:href="#linearGradient2490"
       gradientUnits="userSpaceOnUse"
       gradientTransform="matrix(0.44438111,0,0,0.45132102,23.797532,26.962388)" />
    <linearGradient
       id="linearGradient3242">
      <stop
         id="stop3244"
         style="stop-color:#f8b17e;stop-opacity:1"
         offset="0" />
      <stop
         id="stop3246"
         style="stop-color:#e35d4f;stop-opacity:1"
         offset="0.26238" />
      <stop
         id="stop3248"
         style="stop-color:#c6262e;stop-opacity:1"
         offset="0.66093999" />
      <stop
         id="stop3250"
         style="stop-color:#690b54;stop-opacity:1"
         offset="1" />
    </linearGradient>
    <radialGradient
       cx="21.978981"
       cy="5.0000005"
       r="20"
       fx="21.978981"
       fy="5.0000005"
       id="radialGradient3630"
       xlink:href="#linearGradient3242"
       gradientUnits="userSpaceOnUse"
       gradientTransform="matrix(0,1.445352,-3.4659019,0,29.620733,-7.1798768)" />
    <linearGradient
       id="linearGradient2782">
      <stop
         id="stop2784"
         style="stop-color:#ffffff;stop-opacity:1"
         offset="0" />
      <stop
         id="stop2786"
         style="stop-color:#ffffff;stop-opacity:0"
         offset="1" />
    </linearGradient>
    <linearGradient
       x1="-35.217045"
       y1="1.4762254"
       x2="-35.217045"
       y2="41.689045"
       id="linearGradient2847"
       xlink:href="#linearGradient2782"
       gradientUnits="userSpaceOnUse"
       gradientTransform="matrix(0.42727125,0,0,0.43399769,23.360961,27.343857)" />
    <radialGradient
       cx="21.385109"
       cy="-19.005346"
       r="19.99999"
       fx="21.385109"
       fy="-19.005346"
       id="radialGradient3062"
       xlink:href="#linearGradient2867-449-88-871-390-598-476-591-434-148-57-177-641-289-620-227-114-444-680-744-4"
       gradientUnits="userSpaceOnUse"
       gradientTransform="matrix(0,1.2100188,-1.2954586,0,-13.514762,-23.425573)" />
    <linearGradient
       id="linearGradient2490-7">
      <stop
         id="stop2492-3"
         style="stop-color:#791235;stop-opacity:1"
         offset="0" />
      <stop
         id="stop2494-2"
         style="stop-color:#dd3b27;stop-opacity:1"
         offset="1" />
    </linearGradient>
    <linearGradient
       x1="-33.650978"
       y1="43.419788"
       x2="-33.650978"
       y2="-0.20339131"
       id="linearGradient2852-6"
       xlink:href="#linearGradient2490-7"
       gradientUnits="userSpaceOnUse"
       gradientTransform="matrix(0.44438111,0,0,0.45132102,22.797532,27.962388)" />
    <linearGradient
       id="linearGradient3242-5">
      <stop
         id="stop3244-1"
         style="stop-color:#f8b17e;stop-opacity:1"
         offset="0" />
      <stop
         id="stop3246-6"
         style="stop-color:#e35d4f;stop-opacity:1"
         offset="0.26238" />
      <stop
         id="stop3248-4"
         style="stop-color:#c6262e;stop-opacity:1"
         offset="0.66093999" />
      <stop
         id="stop3250-7"
         style="stop-color:#690b54;stop-opacity:1"
         offset="1" />
    </linearGradient>
    <radialGradient
       cx="21.978981"
       cy="5.0000005"
       r="20"
       fx="21.978981"
       fy="5.0000005"
       id="radialGradient3630-0"
       xlink:href="#linearGradient3242-5"
       gradientUnits="userSpaceOnUse"
       gradientTransform="matrix(0,1.445352,-3.4659019,0,28.620733,-6.1798772)" />
    <linearGradient
       id="linearGradient2782-9">
      <stop
         id="stop2784-9"
         style="stop-color:#ffffff;stop-opacity:1"
         offset="0" />
      <stop
         id="stop2786-9"
         style="stop-color:#ffffff;stop-opacity:0"
         offset="1" />
    </linearGradient>
    <linearGradient
       x1="-35.217045"
       y1="1.4762254"
       x2="-35.217045"
       y2="41.689045"
       id="linearGradient2847-7"
       xlink:href="#linearGradient2782-9"
       gradientUnits="userSpaceOnUse"
       gradientTransform="matrix(0.42727125,0,0,0.43399769,22.360961,28.343857)" />
    <radialGradient
       xlink:href="#linearGradient2867-449-88-871-390-598-476-591-434-148-57-177-641-289-620-227-114-444-680-744-4"
       id="radialGradient4328"
       gradientUnits="userSpaceOnUse"
       gradientTransform="matrix(1.2517494e-7,3.0000001,-3.0999999,1.3e-7,1.3373739,-32.20089)"
       cx="12"
       cy="3"
       fx="12"
       fy="3"
       r="8" />
    <clipPath
       clipPathUnits="userSpaceOnUse"
       id="clipPath4354">
      <path
         inkscape:connector-curvature="0"
         id="path4356"
         d="M 10,2 C 9.446,2 9,2.446 9,3 L 9,9 3,9 C 2.446,9 2,9.446 2,10 l 0,4 c 0,0.554 0.446,1 1,1 l 6,0 0,6 c 0,0.554 0.446,1 1,1 l 4,0 c 0.554,0 1,-0.446 1,-1 l 0,-6 6,0 c 0.554,0 1,-0.446 1,-1 l 0,-4 C 22,9.446 21.554,9 21,9 L 15,9 15,3 C 15,2.446 14.554,2 14,2 l -4,0 z"
         style="fill:url(#radialGradient4358);fill-opacity:1;fill-rule:evenodd;stroke:none;stroke-width:1px;stroke-linecap:butt;stroke-linejoin:miter;stroke-opacity:1" />
    </clipPath>
    <clipPath
       clipPathUnits="userSpaceOnUse"
       id="clipPath4346">
      <path
         inkscape:connector-curvature="0"
         id="path4348"
         d="M 10,2 C 9.446,2 9,2.446 9,3 L 9,9 3,9 C 2.446,9 2,9.446 2,10 l 0,4 c 0,0.554 0.446,1 1,1 l 6,0 0,6 c 0,0.554 0.446,1 1,1 l 4,0 c 0.554,0 1,-0.446 1,-1 l 0,-6 6,0 c 0.554,0 1,-0.446 1,-1 l 0,-4 C 22,9.446 21.554,9 21,9 L 15,9 15,3 C 15,2.446 14.554,2 14,2 l -4,0 z"
         style="fill:url(#radialGradient4350);fill-opacity:1;fill-rule:evenodd;stroke:none;stroke-width:1px;stroke-linecap:butt;stroke-linejoin:miter;stroke-opacity:1" />
    </clipPath>
  </defs>
  <metadata
     id="metadata3797">
    <rdf:RDF>
      <cc:Work
         rdf:about="">
        <dc:format>image/svg+xml</dc:format>
        <dc:type
           rdf:resource="http://purl.org/dc/dcmitype/StillImage" />
        <dc:title />
      </cc:Work>
    </rdf:RDF>
  </metadata>
  <path
     d="m 19.174894,3.3008109 c 0.224073,-0.00558 0.430849,0.1906786 0.424984,0.4033395 l 0,16.1335766 c 0.0059,0.212661 -0.202593,0.429936 -0.424984,0.40334 -0.35999,-0.07449 -15.9816758,0.16407 -16.1494026,0 -0.2240733,0.0056 -0.4308576,-0.190679 -0.4249843,-0.40334 l 0,-16.1335767 C 2.5904159,3.5219665 2.7321378,3.3426286 2.9192453,3.3008109 c 0.017683,-0.00108 0.03544,-0.00108 0.053123,0 0.017683,-0.00108 0.03544,-0.00108 0.053123,0"
     inkscape:connector-curvature="0"
     id="path3845"
     style="color:#000000;display:inline;overflow:visible;visibility:visible;opacity:0.35;fill:#ffffff;fill-opacity:1;fill-rule:nonzero;stroke:none;stroke-width:1;marker:none;enable-background:accumulate" />
  <path
     d="m 19.174894,2.4508106 c 0.224073,-0.00558 0.430849,0.1906786 0.424984,0.4033395 l 0,16.1335769 c 0.0059,0.212661 -0.202593,0.429936 -0.424984,0.40334 -0.35999,-0.07449 -15.9816758,0.16407 -16.1494026,0 -0.2240733,0.0056 -0.4308576,-0.190679 -0.4249843,-0.40334 l 0,-16.133577 C 2.5904159,2.6719662 2.7321378,2.4926283 2.9192453,2.4508105 c 0.017683,-0.00108 0.03544,-0.00108 0.053123,1e-7 0.017683,-0.00108 0.03544,-0.00108 0.053123,0"
     inkscape:connector-curvature="0"
     id="path3797"
     style="color:#000000;display:inline;overflow:visible;visibility:visible;fill:url(#radialGradient3062);fill-opacity:1;fill-rule:nonzero;stroke:none;stroke-width:1;marker:none;enable-background:accumulate" />
  <path
     d="m 19.173447,2.8765531 -16.1468939,0 0,16.1468939 16.1468939,0 z"
     inkscape:connector-curvature="0"
     id="path2645"
     style="color:#000000;display:inline;overflow:visible;visibility:visible;opacity:1;fill:none;stroke:#3d3d3d;stroke-width:0.85310608;stroke-linecap:round;stroke-linejoin:round;stroke-miterlimit:4;stroke-dasharray:none;stroke-dashoffset:0;stroke-opacity:1;marker:none;enable-background:accumulate" />
  <path
     d="m 18.327432,3.7225677 -14.4548643,0 0,14.4548653 14.4548643,0 z"
     inkscape:connector-curvature="0"
     id="path2647"
     style="display:inline;overflow:visible;visibility:visible;opacity:0.1;fill:none;stroke:#ffffff;stroke-width:0.84513533;stroke-linecap:round;stroke-linejoin:miter;stroke-miterlimit:4;stroke-dasharray:none;stroke-dashoffset:0;stroke-opacity:1;marker:none" />
</svg>
