<?xml version="1.0" encoding="UTF-8" standalone="no"?>
<!-- Created with Inkscape (http://www.inkscape.org/) -->

<svg
   xmlns:dc="http://purl.org/dc/elements/1.1/"
   xmlns:cc="http://creativecommons.org/ns#"
   xmlns:rdf="http://www.w3.org/1999/02/22-rdf-syntax-ns#"
   xmlns:svg="http://www.w3.org/2000/svg"
   xmlns="http://www.w3.org/2000/svg"
   xmlns:xlink="http://www.w3.org/1999/xlink"
   xmlns:sodipodi="http://sodipodi.sourceforge.net/DTD/sodipodi-0.dtd"
   xmlns:inkscape="http://www.inkscape.org/namespaces/inkscape"
   width="96"
   height="96"
   id="svg2"
   version="1.1"
   inkscape:version="0.91 r13725"
   sodipodi:docname="birdie.svg">
  <defs
     id="defs4">
    <linearGradient
       id="linearGradient3419">
      <stop
         offset="0"
         style="stop-color:#295e99;stop-opacity:1"
         id="stop3421" />
      <stop
         id="stop4627"
         style="stop-color:#3b9fe8;stop-opacity:1"
         offset="0.42469543" />
      <stop
         offset="1"
         style="stop-color:#7dd3eb;stop-opacity:1"
         id="stop3423" />
    </linearGradient>
    <linearGradient
       inkscape:collect="always"
       id="linearGradient4064">
      <stop
         style="stop-color:#f7f3f7;stop-opacity:1"
         offset="0"
         id="stop4066" />
      <stop
         id="stop4068"
         offset="0.53470206"
         style="stop-color:#eae3ec;stop-opacity:1" />
      <stop
         style="stop-color:#d6ccdb;stop-opacity:1"
         offset="1"
         id="stop4070" />
    </linearGradient>
    <linearGradient
       id="linearGradient5088"
       inkscape:collect="always">
      <stop
         id="stop5090"
         offset="0"
         style="stop-color:#f7f3f7;stop-opacity:1" />
      <stop
         style="stop-color:#f7eff7;stop-opacity:1"
         offset="0.59999996"
         id="stop5094" />
      <stop
         id="stop5092"
         offset="1"
         style="stop-color:#cec3ce;stop-opacity:1" />
    </linearGradient>
    <linearGradient
       inkscape:collect="always"
       id="linearGradient5074">
      <stop
         style="stop-color:#f7efff;stop-opacity:1"
         offset="0"
         id="stop5076" />
      <stop
         style="stop-color:#c6bac6;stop-opacity:1"
         offset="1"
         id="stop5078" />
    </linearGradient>
    <linearGradient
       id="linearGradient4313">
      <stop
         id="stop4315"
         offset="0"
         style="stop-color:#145287;stop-opacity:0.9137255" />
      <stop
         id="stop4317"
         offset="1"
         style="stop-color:#2c75a6;stop-opacity:0.99607843" />
    </linearGradient>
    <inkscape:perspective
       sodipodi:type="inkscape:persp3d"
       inkscape:vp_x="0 : 48 : 1"
       inkscape:vp_y="0 : 1000 : 0"
       inkscape:vp_z="96 : 48 : 1"
       inkscape:persp3d-origin="48 : 32 : 1"
       id="perspective3054" />
    <linearGradient
       inkscape:collect="always"
       id="linearGradient3558">
      <stop
         style="stop-color:#ded3d6;stop-opacity:1"
         offset="0"
         id="stop3560" />
      <stop
         style="stop-color:#efebef;stop-opacity:1"
         offset="1"
         id="stop3562" />
    </linearGradient>
    <linearGradient
       id="linearGradient3076"
       inkscape:collect="always">
      <stop
         id="stop3078"
         offset="0"
         style="stop-color:#ffe7f7;stop-opacity:1" />
      <stop
         id="stop3080"
         offset="1"
         style="stop-color:#ffc3ef;stop-opacity:1" />
    </linearGradient>
    <linearGradient
       inkscape:collect="always"
       id="linearGradient3048">
      <stop
         style="stop-color:#c16d16;stop-opacity:1"
         offset="0"
         id="stop3050" />
      <stop
         style="stop-color:#ff8e31;stop-opacity:1"
         offset="1"
         id="stop3052" />
    </linearGradient>
    <linearGradient
       inkscape:collect="always"
       id="linearGradient3119">
      <stop
         style="stop-color:#92948f;stop-opacity:0"
         offset="0"
         id="stop3121" />
      <stop
         id="stop3123"
         offset="0.4283945"
         style="stop-color:#9b9e98;stop-opacity:1" />
      <stop
         style="stop-color:#939690;stop-opacity:0"
         offset="1"
         id="stop3125" />
    </linearGradient>
    <linearGradient
       id="linearGradient3073"
       inkscape:collect="always">
      <stop
         id="stop3075"
         offset="0"
         style="stop-color:#ffffff;stop-opacity:0" />
      <stop
         style="stop-color:#ffffff;stop-opacity:1"
         offset="0.45872402"
         id="stop3085" />
      <stop
         id="stop3083"
         offset="1"
         style="stop-color:#ffffff;stop-opacity:0" />
    </linearGradient>
    <linearGradient
       inkscape:collect="always"
       id="linearGradient3047">
      <stop
         style="stop-color:#000000;stop-opacity:1"
         offset="0"
         id="stop3049" />
      <stop
         id="stop3055"
         offset="0.06123874"
         style="stop-color:#1a1a1a;stop-opacity:1" />
      <stop
         style="stop-color:#333333;stop-opacity:1"
         offset="0.16480456"
         id="stop3057" />
      <stop
         id="stop3059"
         offset="0.55385184"
         style="stop-color:#4d4d4d;stop-opacity:1" />
      <stop
         style="stop-color:#999999;stop-opacity:1"
         offset="1"
         id="stop3051" />
    </linearGradient>
    <linearGradient
       id="linearGradient3041"
       inkscape:collect="always">
      <stop
         id="stop3043"
         offset="0"
         style="stop-color:#1a1a1a;stop-opacity:1" />
      <stop
         id="stop3045"
         offset="1"
         style="stop-color:#808080;stop-opacity:1" />
    </linearGradient>
    <linearGradient
       inkscape:collect="always"
       id="linearGradient3029">
      <stop
         style="stop-color:#333333;stop-opacity:1"
         offset="0"
         id="stop3031" />
      <stop
         style="stop-color:#e0e0dd;stop-opacity:0;"
         offset="1"
         id="stop3033" />
    </linearGradient>
    <linearGradient
       inkscape:collect="always"
       xlink:href="#linearGradient3029"
       id="linearGradient3035"
       x1="35.355339"
       y1="1030.3622"
       x2="35.355339"
       y2="975.33282"
       gradientUnits="userSpaceOnUse"
       gradientTransform="matrix(1.1638085,0,0,1.1638085,-7.862809,-164.23642)" />
    <linearGradient
       inkscape:collect="always"
       xlink:href="#linearGradient3041"
       id="linearGradient3039"
       gradientUnits="userSpaceOnUse"
       x1="35.355339"
       y1="1030.3622"
       x2="35.355339"
       y2="975.33282"
       gradientTransform="matrix(1.1218695,0,0,1.1218695,-5.8497348,-122.18782)" />
    <linearGradient
       inkscape:collect="always"
       xlink:href="#linearGradient3047"
       id="linearGradient3053"
       x1="40"
       y1="1043.4336"
       x2="39.285713"
       y2="972.33325"
       gradientUnits="userSpaceOnUse" />
    <linearGradient
       inkscape:collect="always"
       xlink:href="#linearGradient3073"
       id="linearGradient3113"
       gradientUnits="userSpaceOnUse"
       gradientTransform="translate(0,-956.36218)"
       x1="14.869445"
       y1="978.90387"
       x2="24.52651"
       y2="969.24683" />
    <linearGradient
       inkscape:collect="always"
       xlink:href="#linearGradient3073"
       id="linearGradient3115"
       gradientUnits="userSpaceOnUse"
       gradientTransform="matrix(-1,0,0,1,96,-956.36218)"
       x1="15.152279"
       y1="978.62103"
       x2="26.263966"
       y2="967.50934" />
    <linearGradient
       inkscape:collect="always"
       xlink:href="#linearGradient3119"
       id="linearGradient3117"
       gradientUnits="userSpaceOnUse"
       gradientTransform="translate(0,-956.36218)"
       x1="13.131983"
       y1="980.64136"
       x2="25.549681"
       y2="967.86646" />
    <linearGradient
       inkscape:collect="always"
       xlink:href="#linearGradient3119"
       id="linearGradient3129"
       gradientUnits="userSpaceOnUse"
       gradientTransform="matrix(-1,0,0,1,96,0)"
       x1="13.131983"
       y1="980.64136"
       x2="25.549681"
       y2="967.86646" />
    <linearGradient
       inkscape:collect="always"
       xlink:href="#linearGradient3048"
       id="linearGradient3054"
       x1="49.267925"
       y1="996.57349"
       x2="49.267925"
       y2="1045.8627"
       gradientUnits="userSpaceOnUse" />
    <linearGradient
       inkscape:collect="always"
       xlink:href="#linearGradient3048"
       id="linearGradient3058"
       x1="115.80308"
       y1="985.47241"
       x2="115.80308"
       y2="1033.5543"
       gradientUnits="userSpaceOnUse" />
    <linearGradient
       inkscape:collect="always"
       xlink:href="#linearGradient3076"
       id="linearGradient3055"
       gradientUnits="userSpaceOnUse"
       x1="115.80308"
       y1="985.47241"
       x2="115.80308"
       y2="1025.3639"
       gradientTransform="matrix(1.4144782,0,0,1.4144782,-119.78686,-419.05496)" />
    <linearGradient
       inkscape:collect="always"
       xlink:href="#linearGradient3076"
       id="linearGradient3086"
       gradientUnits="userSpaceOnUse"
       gradientTransform="matrix(1.4144782,0,0,1.4144782,-119.78686,-417.12598)"
       x1="115.80308"
       y1="985.47241"
       x2="115.80308"
       y2="1025.3639" />
    <linearGradient
       inkscape:collect="always"
       xlink:href="#linearGradient3076"
       id="linearGradient3091"
       gradientUnits="userSpaceOnUse"
       gradientTransform="matrix(1.4144782,0,0,1.4144782,-119.78686,-418.126)"
       x1="115.80308"
       y1="985.47241"
       x2="115.80308"
       y2="1025.3639" />
    <linearGradient
       inkscape:collect="always"
       xlink:href="#linearGradient3076"
       id="linearGradient3093"
       gradientUnits="userSpaceOnUse"
       gradientTransform="matrix(1.4144782,0,0,1.4144782,-119.78686,-1375.4171)"
       x1="115.80308"
       y1="985.47241"
       x2="115.80308"
       y2="1025.3639" />
    <linearGradient
       inkscape:collect="always"
       xlink:href="#linearGradient3558"
       id="linearGradient3564"
       x1="93.242035"
       y1="1027.2615"
       x2="93.242035"
       y2="980.7262"
       gradientUnits="userSpaceOnUse" />
    <linearGradient
       inkscape:collect="always"
       xlink:href="#linearGradient3558"
       id="linearGradient4350"
       gradientUnits="userSpaceOnUse"
       x1="93.242035"
       y1="1027.2615"
       x2="93.242035"
       y2="980.7262" />
    <linearGradient
       x1="48"
       y1="20.220806"
       x2="48"
       y2="138.66119"
       id="linearGradient3613"
       xlink:href="#linearGradient3737"
       gradientUnits="userSpaceOnUse" />
    <linearGradient
       id="linearGradient3737">
      <stop
         id="stop3739"
         style="stop-color:#ffffff;stop-opacity:1"
         offset="0" />
      <stop
         id="stop3741"
         style="stop-color:#ffffff;stop-opacity:0"
         offset="1" />
    </linearGradient>
    <clipPath
       id="clipPath4355">
      <rect
         width="84"
         height="80"
         rx="6"
         ry="6"
         x="6"
         y="6"
         id="rect4357"
         style="fill:#ffffff;fill-opacity:1;fill-rule:nonzero;stroke:none" />
    </clipPath>
    <filter
       x="-0.192"
       y="-0.192"
       width="1.3839999"
       height="1.3839999"
       color-interpolation-filters="sRGB"
       id="filter3794">
      <feGaussianBlur
         id="feGaussianBlur3796"
         stdDeviation="5.28" />
    </filter>
    <linearGradient
       y2="138.66119"
       x2="48"
       y1="20.220806"
       x1="48"
       gradientUnits="userSpaceOnUse"
       id="linearGradient3155"
       xlink:href="#linearGradient3737"
       inkscape:collect="always" />
    <linearGradient
       x1="48"
       y1="20.220806"
       x2="48"
       y2="138.66119"
       id="linearGradient3613-9"
       xlink:href="#linearGradient3737-7"
       gradientUnits="userSpaceOnUse" />
    <linearGradient
       id="linearGradient3737-7">
      <stop
         id="stop3739-5"
         style="stop-color:#ffffff;stop-opacity:1"
         offset="0" />
      <stop
         id="stop3741-8"
         style="stop-color:#ffffff;stop-opacity:0"
         offset="1" />
    </linearGradient>
    <clipPath
       id="clipPath4355-8">
      <rect
         width="84"
         height="80"
         rx="6"
         ry="6"
         x="6"
         y="6"
         id="rect4357-5"
         style="fill:#ffffff;fill-opacity:1;fill-rule:nonzero;stroke:none" />
    </clipPath>
    <filter
       x="-0.192"
       y="-0.192"
       width="1.3839999"
       height="1.3839999"
       color-interpolation-filters="sRGB"
       id="filter3794-7">
      <feGaussianBlur
         id="feGaussianBlur3796-7"
         stdDeviation="5.28" />
    </filter>
    <linearGradient
       x1="32.251034"
       y1="6.1317081"
       x2="32.251034"
       y2="90.238609"
       id="linearGradient3026"
       xlink:href="#ButtonShadow-0"
       gradientUnits="userSpaceOnUse"
       gradientTransform="matrix(1.0238095,0,0,1.0119048,-1.1428571,-98.071429)" />
    <linearGradient
       x1="45.447727"
       y1="92.539597"
       x2="45.447727"
       y2="7.0165396"
       id="ButtonShadow-0"
       gradientUnits="userSpaceOnUse"
       gradientTransform="matrix(1.0058652,0,0,0.994169,100,0)">
      <stop
         id="stop3750-8"
         style="stop-color:#000000;stop-opacity:1"
         offset="0" />
      <stop
         id="stop3752-5"
         style="stop-color:#000000;stop-opacity:0.58823532"
         offset="1" />
    </linearGradient>
    <linearGradient
       x1="32.251034"
       y1="6.1317081"
       x2="32.251034"
       y2="90.238609"
       id="linearGradient3780"
       xlink:href="#ButtonShadow-0"
       gradientUnits="userSpaceOnUse"
       gradientTransform="matrix(1.0238095,0,0,1.0119048,-1.1428571,-98.071429)" />
    <linearGradient
       x1="45.447727"
       y1="92.539597"
       x2="45.447727"
       y2="7.0165396"
       id="linearGradient3180"
       gradientUnits="userSpaceOnUse"
       gradientTransform="matrix(1.0058652,0,0,0.994169,100,0)">
      <stop
         id="stop3182"
         style="stop-color:#000000;stop-opacity:1"
         offset="0" />
      <stop
         id="stop3184"
         style="stop-color:#000000;stop-opacity:0.58823532"
         offset="1" />
    </linearGradient>
    <linearGradient
       x1="32.251034"
       y1="6.1317081"
       x2="32.251034"
       y2="90.238609"
       id="linearGradient3772"
       xlink:href="#ButtonShadow-0"
       gradientUnits="userSpaceOnUse"
       gradientTransform="matrix(1.0238095,0,0,1.0119048,-1.1428571,-98.071429)" />
    <linearGradient
       x1="45.447727"
       y1="92.539597"
       x2="45.447727"
       y2="7.0165396"
       id="linearGradient3187"
       gradientUnits="userSpaceOnUse"
       gradientTransform="matrix(1.0058652,0,0,0.994169,100,0)">
      <stop
         id="stop3189"
         style="stop-color:#000000;stop-opacity:1"
         offset="0" />
      <stop
         id="stop3191"
         style="stop-color:#000000;stop-opacity:0.58823532"
         offset="1" />
    </linearGradient>
    <linearGradient
       x1="32.251034"
       y1="6.1317081"
       x2="32.251034"
       y2="90.238609"
       id="linearGradient3725"
       xlink:href="#ButtonShadow-0"
       gradientUnits="userSpaceOnUse"
       gradientTransform="matrix(1.0238095,0,0,1.0119048,-1.1428571,-98.071429)" />
    <linearGradient
       x1="45.447727"
       y1="92.539597"
       x2="45.447727"
       y2="7.0165396"
       id="linearGradient3194"
       gradientUnits="userSpaceOnUse"
       gradientTransform="matrix(1.0058652,0,0,0.994169,100,0)">
      <stop
         id="stop3196"
         style="stop-color:#000000;stop-opacity:1"
         offset="0" />
      <stop
         id="stop3198"
         style="stop-color:#000000;stop-opacity:0.58823532"
         offset="1" />
    </linearGradient>
    <linearGradient
       x1="32.251034"
       y1="6.1317081"
       x2="32.251034"
       y2="90.238609"
       id="linearGradient3721"
       xlink:href="#ButtonShadow-0"
       gradientUnits="userSpaceOnUse"
       gradientTransform="translate(0,-97)" />
    <linearGradient
       x1="45.447727"
       y1="92.539597"
       x2="45.447727"
       y2="7.0165396"
       id="linearGradient3201"
       gradientUnits="userSpaceOnUse"
       gradientTransform="matrix(1.0058652,0,0,0.994169,100,0)">
      <stop
         id="stop3203"
         style="stop-color:#000000;stop-opacity:1"
         offset="0" />
      <stop
         id="stop3205"
         style="stop-color:#000000;stop-opacity:0.58823532"
         offset="1" />
    </linearGradient>
    <linearGradient
       x1="48"
       y1="20.220806"
       x2="48"
       y2="138.66119"
       id="linearGradient3613-2"
       xlink:href="#linearGradient3737-1"
       gradientUnits="userSpaceOnUse" />
    <linearGradient
       id="linearGradient3737-1">
      <stop
         id="stop3739-3"
         style="stop-color:#ffffff;stop-opacity:1"
         offset="0" />
      <stop
         id="stop3741-7"
         style="stop-color:#ffffff;stop-opacity:0"
         offset="1" />
    </linearGradient>
    <clipPath
       id="clipPath4355-0">
      <rect
         width="84"
         height="80"
         rx="6"
         ry="6"
         x="6"
         y="6"
         id="rect4357-3"
         style="fill:#ffffff;fill-opacity:1;fill-rule:nonzero;stroke:none" />
    </clipPath>
    <filter
       x="-0.192"
       y="-0.192"
       width="1.3839999"
       height="1.3839999"
       color-interpolation-filters="sRGB"
       id="filter3794-73">
      <feGaussianBlur
         id="feGaussianBlur3796-0"
         stdDeviation="5.28" />
    </filter>
    <linearGradient
       x1="32.251034"
       y1="6.1317081"
       x2="32.251034"
       y2="90.238609"
       id="linearGradient3026-1"
       xlink:href="#ButtonShadow-0-5"
       gradientUnits="userSpaceOnUse"
       gradientTransform="matrix(1.0238095,0,0,1.0119048,-1.1428571,-98.071429)" />
    <linearGradient
       x1="45.447727"
       y1="92.539597"
       x2="45.447727"
       y2="7.0165396"
       id="ButtonShadow-0-5"
       gradientUnits="userSpaceOnUse"
       gradientTransform="matrix(1.0058652,0,0,0.994169,100,0)">
      <stop
         id="stop3750-8-2"
         style="stop-color:#000000;stop-opacity:1"
         offset="0" />
      <stop
         id="stop3752-5-7"
         style="stop-color:#000000;stop-opacity:0.58823532"
         offset="1" />
    </linearGradient>
    <linearGradient
       x1="32.251034"
       y1="6.1317081"
       x2="32.251034"
       y2="90.238609"
       id="linearGradient3780-7"
       xlink:href="#ButtonShadow-0-5"
       gradientUnits="userSpaceOnUse"
       gradientTransform="matrix(1.0238095,0,0,1.0119048,-1.1428571,-98.071429)" />
    <linearGradient
       x1="45.447727"
       y1="92.539597"
       x2="45.447727"
       y2="7.0165396"
       id="linearGradient3241"
       gradientUnits="userSpaceOnUse"
       gradientTransform="matrix(1.0058652,0,0,0.994169,100,0)">
      <stop
         id="stop3243"
         style="stop-color:#000000;stop-opacity:1"
         offset="0" />
      <stop
         id="stop3245"
         style="stop-color:#000000;stop-opacity:0.58823532"
         offset="1" />
    </linearGradient>
    <linearGradient
       x1="32.251034"
       y1="6.1317081"
       x2="32.251034"
       y2="90.238609"
       id="linearGradient3772-5"
       xlink:href="#ButtonShadow-0-5"
       gradientUnits="userSpaceOnUse"
       gradientTransform="matrix(1.0238095,0,0,1.0119048,-1.1428571,-98.071429)" />
    <linearGradient
       x1="45.447727"
       y1="92.539597"
       x2="45.447727"
       y2="7.0165396"
       id="linearGradient3248"
       gradientUnits="userSpaceOnUse"
       gradientTransform="matrix(1.0058652,0,0,0.994169,100,0)">
      <stop
         id="stop3250"
         style="stop-color:#000000;stop-opacity:1"
         offset="0" />
      <stop
         id="stop3252"
         style="stop-color:#000000;stop-opacity:0.58823532"
         offset="1" />
    </linearGradient>
    <linearGradient
       x1="32.251034"
       y1="6.1317081"
       x2="32.251034"
       y2="90.238609"
       id="linearGradient3725-9"
       xlink:href="#ButtonShadow-0-5"
       gradientUnits="userSpaceOnUse"
       gradientTransform="matrix(1.0238095,0,0,1.0119048,-1.1428571,-98.071429)" />
    <linearGradient
       x1="45.447727"
       y1="92.539597"
       x2="45.447727"
       y2="7.0165396"
       id="linearGradient3255"
       gradientUnits="userSpaceOnUse"
       gradientTransform="matrix(1.0058652,0,0,0.994169,100,0)">
      <stop
         id="stop3257"
         style="stop-color:#000000;stop-opacity:1"
         offset="0" />
      <stop
         id="stop3259"
         style="stop-color:#000000;stop-opacity:0.58823532"
         offset="1" />
    </linearGradient>
    <linearGradient
       x1="32.251034"
       y1="6.1317081"
       x2="32.251034"
       y2="90.238609"
       id="linearGradient3721-0"
       xlink:href="#ButtonShadow-0-5"
       gradientUnits="userSpaceOnUse"
       gradientTransform="translate(0,-97)" />
    <linearGradient
       x1="45.447727"
       y1="92.539597"
       x2="45.447727"
       y2="7.0165396"
       id="linearGradient3262"
       gradientUnits="userSpaceOnUse"
       gradientTransform="matrix(1.0058652,0,0,0.994169,100,0)">
      <stop
         id="stop3264"
         style="stop-color:#000000;stop-opacity:1"
         offset="0" />
      <stop
         id="stop3266"
         style="stop-color:#000000;stop-opacity:0.58823532"
         offset="1" />
    </linearGradient>
    <linearGradient
       inkscape:collect="always"
       xlink:href="#linearGradient4384"
       id="linearGradient3280"
       gradientUnits="userSpaceOnUse"
       spreadMethod="reflect"
       x1="48"
       y1="82"
       x2="112.12357"
       y2="82.454597"
       gradientTransform="translate(-102.19033,953.17606)" />
    <linearGradient
       id="linearGradient4384">
      <stop
         id="stop4386"
         style="stop-color:#ffffff;stop-opacity:1"
         offset="0" />
      <stop
         id="stop4388"
         style="stop-color:#ffffff;stop-opacity:0"
         offset="1" />
    </linearGradient>
    <linearGradient
       inkscape:collect="always"
       xlink:href="#linearGradient4384"
       id="linearGradient3284"
       gradientUnits="userSpaceOnUse"
       gradientTransform="matrix(1,0,0,-1,-102.19033,1045.176)"
       x1="48"
       y1="88"
       x2="48"
       y2="-40" />
    <linearGradient
       id="linearGradient3386">
      <stop
         id="stop3388"
         style="stop-color:#ffffff;stop-opacity:1"
         offset="0" />
      <stop
         id="stop3390"
         style="stop-color:#ffffff;stop-opacity:0"
         offset="1" />
    </linearGradient>
    <clipPath
       id="clipPath4165">
      <rect
         width="84"
         height="84"
         rx="6"
         ry="6"
         x="6"
         y="6"
         id="rect4167"
         style="fill:#ff2a2a;fill-opacity:1;fill-rule:nonzero;stroke:none" />
    </clipPath>
    <radialGradient
       cx="24.821428"
       cy="26.357143"
       r="8.0357141"
       fx="24.821428"
       fy="26.357143"
       id="radialGradient4393"
       xlink:href="#linearGradient3853"
       gradientUnits="userSpaceOnUse" />
    <linearGradient
       id="linearGradient3853">
      <stop
         id="stop3855"
         style="stop-color:#e88d01;stop-opacity:0.18431373"
         offset="0" />
      <stop
         id="stop3863"
         style="stop-color:#e58907;stop-opacity:0.4108527"
         offset="0.5" />
      <stop
         id="stop4397"
         style="stop-color:#e48a0a;stop-opacity:0.68217057"
         offset="0.75" />
      <stop
         id="stop3859"
         style="stop-color:#e4870a;stop-opacity:1"
         offset="1" />
    </linearGradient>
    <radialGradient
       cx="43.392857"
       cy="30.464287"
       r="4.1071429"
       fx="43.392857"
       fy="30.464287"
       id="radialGradient4045"
       xlink:href="#linearGradient3853"
       gradientUnits="userSpaceOnUse" />
    <linearGradient
       id="linearGradient3401">
      <stop
         id="stop3403"
         style="stop-color:#e88d01;stop-opacity:0.18431373"
         offset="0" />
      <stop
         id="stop3405"
         style="stop-color:#e58907;stop-opacity:0.4108527"
         offset="0.5" />
      <stop
         id="stop3407"
         style="stop-color:#e48a0a;stop-opacity:0.68217057"
         offset="0.75" />
      <stop
         id="stop3409"
         style="stop-color:#e4870a;stop-opacity:1"
         offset="1" />
    </linearGradient>
    <radialGradient
       cx="53.542297"
       cy="24.639818"
       r="2.1428571"
       fx="53.542297"
       fy="24.639818"
       id="radialGradient4047"
       xlink:href="#linearGradient3698"
       gradientUnits="userSpaceOnUse" />
    <linearGradient
       id="linearGradient3698">
      <stop
         id="stop3700"
         style="stop-color:#f0a801;stop-opacity:0.18604651"
         offset="0" />
      <stop
         id="stop3711"
         style="stop-color:#f0a801;stop-opacity:0.35658914"
         offset="0.5" />
      <stop
         id="stop4395"
         style="stop-color:#e8a301;stop-opacity:0.83720928"
         offset="0.75" />
      <stop
         id="stop3703"
         style="stop-color:#e09201;stop-opacity:1"
         offset="1" />
    </linearGradient>
    <radialGradient
       cx="62.678574"
       cy="37.607143"
       r="5.3571429"
       fx="62.678574"
       fy="37.607143"
       id="radialGradient4049"
       xlink:href="#linearGradient3698"
       gradientUnits="userSpaceOnUse" />
    <linearGradient
       id="linearGradient3418">
      <stop
         id="stop3420"
         style="stop-color:#f0a801;stop-opacity:0.18604651"
         offset="0" />
      <stop
         id="stop3422"
         style="stop-color:#f0a801;stop-opacity:0.35658914"
         offset="0.5" />
      <stop
         id="stop3424"
         style="stop-color:#e8a301;stop-opacity:0.83720928"
         offset="0.75" />
      <stop
         id="stop3426"
         style="stop-color:#e09201;stop-opacity:1"
         offset="1" />
    </linearGradient>
    <radialGradient
       cx="30.529381"
       cy="62.282928"
       r="6.6071429"
       fx="30.529381"
       fy="62.282928"
       id="radialGradient4051"
       xlink:href="#linearGradient3698"
       gradientUnits="userSpaceOnUse" />
    <linearGradient
       id="linearGradient3429">
      <stop
         id="stop3431"
         style="stop-color:#f0a801;stop-opacity:0.18604651"
         offset="0" />
      <stop
         id="stop3433"
         style="stop-color:#f0a801;stop-opacity:0.35658914"
         offset="0.5" />
      <stop
         id="stop3435"
         style="stop-color:#e8a301;stop-opacity:0.83720928"
         offset="0.75" />
      <stop
         id="stop3437"
         style="stop-color:#e09201;stop-opacity:1"
         offset="1" />
    </linearGradient>
    <radialGradient
       cx="65.730751"
       cy="71.637032"
       r="8.2142859"
       fx="65.730751"
       fy="71.637032"
       id="radialGradient4053"
       xlink:href="#linearGradient3853"
       gradientUnits="userSpaceOnUse" />
    <linearGradient
       id="linearGradient3440">
      <stop
         id="stop3442"
         style="stop-color:#e88d01;stop-opacity:0.18431373"
         offset="0" />
      <stop
         id="stop3444"
         style="stop-color:#e58907;stop-opacity:0.4108527"
         offset="0.5" />
      <stop
         id="stop3446"
         style="stop-color:#e48a0a;stop-opacity:0.68217057"
         offset="0.75" />
      <stop
         id="stop3448"
         style="stop-color:#e4870a;stop-opacity:1"
         offset="1" />
    </linearGradient>
    <radialGradient
       cx="48.795593"
       cy="56.425529"
       r="3.3928571"
       fx="48.795593"
       fy="56.425529"
       id="radialGradient4055"
       xlink:href="#linearGradient3698"
       gradientUnits="userSpaceOnUse" />
    <linearGradient
       id="linearGradient3451">
      <stop
         id="stop3453"
         style="stop-color:#f0a801;stop-opacity:0.18604651"
         offset="0" />
      <stop
         id="stop3455"
         style="stop-color:#f0a801;stop-opacity:0.35658914"
         offset="0.5" />
      <stop
         id="stop3457"
         style="stop-color:#e8a301;stop-opacity:0.83720928"
         offset="0.75" />
      <stop
         id="stop3459"
         style="stop-color:#e09201;stop-opacity:1"
         offset="1" />
    </linearGradient>
    <radialGradient
       cx="12.211246"
       cy="77.45517"
       r="7.8571429"
       fx="12.211246"
       fy="77.45517"
       id="radialGradient4125"
       xlink:href="#linearGradient3853"
       gradientUnits="userSpaceOnUse" />
    <linearGradient
       id="linearGradient3462">
      <stop
         id="stop3464"
         style="stop-color:#e88d01;stop-opacity:0.18431373"
         offset="0" />
      <stop
         id="stop3466"
         style="stop-color:#e58907;stop-opacity:0.4108527"
         offset="0.5" />
      <stop
         id="stop3468"
         style="stop-color:#e48a0a;stop-opacity:0.68217057"
         offset="0.75" />
      <stop
         id="stop3470"
         style="stop-color:#e4870a;stop-opacity:1"
         offset="1" />
    </linearGradient>
    <radialGradient
       cx="33.899441"
       cy="87.035973"
       r="4.1071429"
       fx="33.899441"
       fy="87.035973"
       id="radialGradient4059"
       xlink:href="#linearGradient3698"
       gradientUnits="userSpaceOnUse" />
    <linearGradient
       id="linearGradient3473">
      <stop
         id="stop3475"
         style="stop-color:#f0a801;stop-opacity:0.18604651"
         offset="0" />
      <stop
         id="stop3477"
         style="stop-color:#f0a801;stop-opacity:0.35658914"
         offset="0.5" />
      <stop
         id="stop3479"
         style="stop-color:#e8a301;stop-opacity:0.83720928"
         offset="0.75" />
      <stop
         id="stop3481"
         style="stop-color:#e09201;stop-opacity:1"
         offset="1" />
    </linearGradient>
    <radialGradient
       cx="50.863728"
       cy="86.75354"
       r="5.3571429"
       fx="50.863728"
       fy="86.75354"
       id="radialGradient4061"
       xlink:href="#linearGradient3698"
       gradientUnits="userSpaceOnUse" />
    <linearGradient
       id="linearGradient3484">
      <stop
         id="stop3486"
         style="stop-color:#f0a801;stop-opacity:0.18604651"
         offset="0" />
      <stop
         id="stop3488"
         style="stop-color:#f0a801;stop-opacity:0.35658914"
         offset="0.5" />
      <stop
         id="stop3490"
         style="stop-color:#e8a301;stop-opacity:0.83720928"
         offset="0.75" />
      <stop
         id="stop3492"
         style="stop-color:#e09201;stop-opacity:1"
         offset="1" />
    </linearGradient>
    <radialGradient
       cx="73.392853"
       cy="13.678572"
       r="3.5714285"
       fx="73.392853"
       fy="13.678572"
       id="radialGradient4063"
       xlink:href="#linearGradient3853"
       gradientUnits="userSpaceOnUse" />
    <linearGradient
       id="linearGradient3495">
      <stop
         id="stop3497"
         style="stop-color:#e88d01;stop-opacity:0.18431373"
         offset="0" />
      <stop
         id="stop3499"
         style="stop-color:#e58907;stop-opacity:0.4108527"
         offset="0.5" />
      <stop
         id="stop3501"
         style="stop-color:#e48a0a;stop-opacity:0.68217057"
         offset="0.75" />
      <stop
         id="stop3503"
         style="stop-color:#e4870a;stop-opacity:1"
         offset="1" />
    </linearGradient>
    <radialGradient
       cx="80.714287"
       cy="25.642857"
       r="9.2857141"
       fx="80.714287"
       fy="25.642857"
       id="radialGradient4065"
       xlink:href="#linearGradient3698"
       gradientUnits="userSpaceOnUse" />
    <linearGradient
       id="linearGradient3506">
      <stop
         id="stop3508"
         style="stop-color:#f0a801;stop-opacity:0.18604651"
         offset="0" />
      <stop
         id="stop3510"
         style="stop-color:#f0a801;stop-opacity:0.35658914"
         offset="0.5" />
      <stop
         id="stop3512"
         style="stop-color:#e8a301;stop-opacity:0.83720928"
         offset="0.75" />
      <stop
         id="stop3514"
         style="stop-color:#e09201;stop-opacity:1"
         offset="1" />
    </linearGradient>
    <radialGradient
       cx="78.237083"
       cy="79.565102"
       r="2.1428571"
       fx="78.237083"
       fy="79.565102"
       id="radialGradient4105"
       xlink:href="#linearGradient3853"
       gradientUnits="userSpaceOnUse" />
    <linearGradient
       id="linearGradient3517">
      <stop
         id="stop3519"
         style="stop-color:#e88d01;stop-opacity:0.18431373"
         offset="0" />
      <stop
         id="stop3521"
         style="stop-color:#e58907;stop-opacity:0.4108527"
         offset="0.5" />
      <stop
         id="stop3523"
         style="stop-color:#e48a0a;stop-opacity:0.68217057"
         offset="0.75" />
      <stop
         id="stop3525"
         style="stop-color:#e4870a;stop-opacity:1"
         offset="1" />
    </linearGradient>
    <radialGradient
       cx="82.597511"
       cy="69.737335"
       r="4.8214288"
       fx="82.597511"
       fy="69.737335"
       id="radialGradient4102"
       xlink:href="#linearGradient3698"
       gradientUnits="userSpaceOnUse" />
    <linearGradient
       id="linearGradient3528">
      <stop
         id="stop3530"
         style="stop-color:#f0a801;stop-opacity:0.18604651"
         offset="0" />
      <stop
         id="stop3532"
         style="stop-color:#f0a801;stop-opacity:0.35658914"
         offset="0.5" />
      <stop
         id="stop3534"
         style="stop-color:#e8a301;stop-opacity:0.83720928"
         offset="0.75" />
      <stop
         id="stop3536"
         style="stop-color:#e09201;stop-opacity:1"
         offset="1" />
    </linearGradient>
    <radialGradient
       cx="12.649444"
       cy="34.282673"
       r="3.2142856"
       fx="12.649444"
       fy="34.282673"
       id="radialGradient4121"
       xlink:href="#linearGradient3698"
       gradientUnits="userSpaceOnUse" />
    <linearGradient
       id="linearGradient3539">
      <stop
         id="stop3541"
         style="stop-color:#f0a801;stop-opacity:0.18604651"
         offset="0" />
      <stop
         id="stop3543"
         style="stop-color:#f0a801;stop-opacity:0.35658914"
         offset="0.5" />
      <stop
         id="stop3545"
         style="stop-color:#e8a301;stop-opacity:0.83720928"
         offset="0.75" />
      <stop
         id="stop3547"
         style="stop-color:#e09201;stop-opacity:1"
         offset="1" />
    </linearGradient>
    <radialGradient
       cx="34.68845"
       cy="5.0425529"
       r="6.0714288"
       fx="34.68845"
       fy="5.0425529"
       id="radialGradient4073"
       xlink:href="#linearGradient3698"
       gradientUnits="userSpaceOnUse" />
    <linearGradient
       id="linearGradient3550">
      <stop
         id="stop3552"
         style="stop-color:#f0a801;stop-opacity:0.18604651"
         offset="0" />
      <stop
         id="stop3554"
         style="stop-color:#f0a801;stop-opacity:0.35658914"
         offset="0.5" />
      <stop
         id="stop3556"
         style="stop-color:#e8a301;stop-opacity:0.83720928"
         offset="0.75" />
      <stop
         id="stop3558"
         style="stop-color:#e09201;stop-opacity:1"
         offset="1" />
    </linearGradient>
    <radialGradient
       cx="3.0230496"
       cy="17.705017"
       r="7.1428571"
       fx="3.0230496"
       fy="17.705017"
       id="radialGradient4119"
       xlink:href="#linearGradient3698"
       gradientUnits="userSpaceOnUse"
       gradientTransform="matrix(1,0,0,0.97500003,0,0.37767813)" />
    <linearGradient
       id="linearGradient3561">
      <stop
         id="stop3563"
         style="stop-color:#f0a801;stop-opacity:0.18604651"
         offset="0" />
      <stop
         id="stop3565"
         style="stop-color:#f0a801;stop-opacity:0.35658914"
         offset="0.5" />
      <stop
         id="stop3567"
         style="stop-color:#e8a301;stop-opacity:0.83720928"
         offset="0.75" />
      <stop
         id="stop3569"
         style="stop-color:#e09201;stop-opacity:1"
         offset="1" />
    </linearGradient>
    <radialGradient
       cx="60.238728"
       cy="7.8686676"
       r="2.7678571"
       fx="60.238728"
       fy="7.8686676"
       id="radialGradient4077"
       xlink:href="#linearGradient3698"
       gradientUnits="userSpaceOnUse" />
    <linearGradient
       id="linearGradient3572">
      <stop
         id="stop3574"
         style="stop-color:#f0a801;stop-opacity:0.18604651"
         offset="0" />
      <stop
         id="stop3576"
         style="stop-color:#f0a801;stop-opacity:0.35658914"
         offset="0.5" />
      <stop
         id="stop3578"
         style="stop-color:#e8a301;stop-opacity:0.83720928"
         offset="0.75" />
      <stop
         id="stop3580"
         style="stop-color:#e09201;stop-opacity:1"
         offset="1" />
    </linearGradient>
    <radialGradient
       inkscape:collect="always"
       xlink:href="#linearGradient3737-0"
       id="radialGradient3327"
       gradientUnits="userSpaceOnUse"
       gradientTransform="matrix(1.1573129,0,0,0.99590774,-109.74135,953.37319)"
       cx="48"
       cy="90.171875"
       fx="48"
       fy="90.171875"
       r="42" />
    <linearGradient
       id="linearGradient3737-0">
      <stop
         id="stop3739-3-7"
         style="stop-color:#ffffff;stop-opacity:1"
         offset="0" />
      <stop
         id="stop3741-0"
         style="stop-color:#ffffff;stop-opacity:0"
         offset="1" />
    </linearGradient>
    <linearGradient
       inkscape:collect="always"
       xlink:href="#linearGradient3737-0"
       id="linearGradient3330"
       gradientUnits="userSpaceOnUse"
       x1="36.357143"
       y1="6"
       x2="36.357143"
       y2="63.893143"
       gradientTransform="translate(-102.19033,953.17606)" />
    <linearGradient
       id="linearGradient3587">
      <stop
         id="stop3589"
         style="stop-color:#ffffff;stop-opacity:1"
         offset="0" />
      <stop
         id="stop3591"
         style="stop-color:#ffffff;stop-opacity:0"
         offset="1" />
    </linearGradient>
    <linearGradient
       inkscape:collect="always"
       xlink:href="#linearGradient2841"
       id="linearGradient3333"
       gradientUnits="userSpaceOnUse"
       x1="48"
       y1="90"
       x2="48"
       y2="5.9877172"
       gradientTransform="translate(-30.101695,23.186441)" />
    <linearGradient
       id="linearGradient2841">
      <stop
         id="stop2843"
         style="stop-color:#f0bf39;stop-opacity:1"
         offset="0" />
      <stop
         id="stop2845"
         style="stop-color:#f8e699;stop-opacity:1"
         offset="1" />
    </linearGradient>
    <linearGradient
       y2="5.9877172"
       x2="48"
       y1="90"
       x1="48"
       gradientTransform="translate(-102.19033,953.17606)"
       gradientUnits="userSpaceOnUse"
       id="linearGradient3639"
       xlink:href="#linearGradient2841"
       inkscape:collect="always" />
    <linearGradient
       x1="90"
       y1="88"
       x2="48"
       y2="88"
       id="linearGradient3890"
       xlink:href="#linearGradient3892"
       gradientUnits="userSpaceOnUse"
       spreadMethod="reflect" />
    <linearGradient
       id="linearGradient3892">
      <stop
         id="stop3894"
         style="stop-color:#000000;stop-opacity:0.47058824"
         offset="0" />
      <stop
         id="stop3896"
         style="stop-color:#000000;stop-opacity:0.39215687"
         offset="0.11780351" />
      <stop
         id="stop3898"
         style="stop-color:#000000;stop-opacity:0.29411766"
         offset="0.23809524" />
      <stop
         id="stop3900"
         style="stop-color:#000000;stop-opacity:0.15686275"
         offset="1" />
    </linearGradient>
    <linearGradient
       x1="6"
       y1="115"
       x2="24"
       y2="115"
       id="linearGradient3884"
       xlink:href="#linearGradient3864"
       gradientUnits="userSpaceOnUse"
       gradientTransform="matrix(-1,0,0,1,96,-30)" />
    <linearGradient
       id="linearGradient3864">
      <stop
         id="stop3866"
         style="stop-color:#ffffff;stop-opacity:0.07843138"
         offset="0" />
      <stop
         id="stop3872"
         style="stop-color:#ffffff;stop-opacity:0.3137255"
         offset="0.25" />
      <stop
         id="stop3874"
         style="stop-color:#ffffff;stop-opacity:0"
         offset="0.60000002" />
      <stop
         id="stop3868"
         style="stop-color:#ffffff;stop-opacity:0"
         offset="1" />
    </linearGradient>
    <linearGradient
       x1="6"
       y1="115"
       x2="24"
       y2="115"
       id="linearGradient3886"
       xlink:href="#linearGradient3864"
       gradientUnits="userSpaceOnUse"
       gradientTransform="translate(0,-30)" />
    <linearGradient
       id="linearGradient3664">
      <stop
         id="stop3666"
         style="stop-color:#ffffff;stop-opacity:0.07843138"
         offset="0" />
      <stop
         id="stop3668"
         style="stop-color:#ffffff;stop-opacity:0.3137255"
         offset="0.25" />
      <stop
         id="stop3670"
         style="stop-color:#ffffff;stop-opacity:0"
         offset="0.60000002" />
      <stop
         id="stop3672"
         style="stop-color:#ffffff;stop-opacity:0"
         offset="1" />
    </linearGradient>
    <linearGradient
       x1="90"
       y1="88"
       x2="48"
       y2="88"
       id="linearGradient3855"
       xlink:href="#linearGradient4482"
       gradientUnits="userSpaceOnUse"
       gradientTransform="translate(0,40)"
       spreadMethod="reflect" />
    <linearGradient
       id="linearGradient4482">
      <stop
         id="stop4484"
         style="stop-color:#ffffff;stop-opacity:0.12977099"
         offset="0" />
      <stop
         id="stop4486"
         style="stop-color:#424242;stop-opacity:0.28244275"
         offset="0.11780351" />
      <stop
         id="stop4488"
         style="stop-color:#2f2f2f;stop-opacity:0.30534351"
         offset="0.23809524" />
      <stop
         id="stop4490"
         style="stop-color:#000000;stop-opacity:0.35114503"
         offset="1" />
    </linearGradient>
    <linearGradient
       id="linearGradient4384-0">
      <stop
         id="stop4386-0"
         style="stop-color:#ffffff;stop-opacity:1"
         offset="0" />
      <stop
         id="stop4388-9"
         style="stop-color:#ffffff;stop-opacity:0"
         offset="1" />
    </linearGradient>
    <linearGradient
       x1="90"
       y1="88"
       x2="48"
       y2="88"
       id="linearGradient3890-1"
       xlink:href="#linearGradient3892-8"
       gradientUnits="userSpaceOnUse"
       spreadMethod="reflect" />
    <linearGradient
       id="linearGradient3892-8">
      <stop
         id="stop3894-9"
         style="stop-color:#000000;stop-opacity:0.47058824"
         offset="0" />
      <stop
         id="stop3896-2"
         style="stop-color:#000000;stop-opacity:0.39215687"
         offset="0.11780351" />
      <stop
         id="stop3898-6"
         style="stop-color:#000000;stop-opacity:0.29411766"
         offset="0.23809524" />
      <stop
         id="stop3900-7"
         style="stop-color:#000000;stop-opacity:0.15686275"
         offset="1" />
    </linearGradient>
    <linearGradient
       x1="6"
       y1="115"
       x2="24"
       y2="115"
       id="linearGradient3884-9"
       xlink:href="#linearGradient3864-6"
       gradientUnits="userSpaceOnUse"
       gradientTransform="matrix(-1,0,0,1,96,-30)" />
    <linearGradient
       id="linearGradient3864-6">
      <stop
         id="stop3866-1"
         style="stop-color:#ffffff;stop-opacity:0.07843138"
         offset="0" />
      <stop
         id="stop3872-2"
         style="stop-color:#ffffff;stop-opacity:0.3137255"
         offset="0.25" />
      <stop
         id="stop3874-1"
         style="stop-color:#ffffff;stop-opacity:0"
         offset="0.60000002" />
      <stop
         id="stop3868-8"
         style="stop-color:#ffffff;stop-opacity:0"
         offset="1" />
    </linearGradient>
    <linearGradient
       x1="6"
       y1="115"
       x2="24"
       y2="115"
       id="linearGradient3886-2"
       xlink:href="#linearGradient3864-6"
       gradientUnits="userSpaceOnUse"
       gradientTransform="translate(0,-30)" />
    <linearGradient
       id="linearGradient3664-6">
      <stop
         id="stop3666-5"
         style="stop-color:#ffffff;stop-opacity:0.07843138"
         offset="0" />
      <stop
         id="stop3668-8"
         style="stop-color:#ffffff;stop-opacity:0.3137255"
         offset="0.25" />
      <stop
         id="stop3670-6"
         style="stop-color:#ffffff;stop-opacity:0"
         offset="0.60000002" />
      <stop
         id="stop3672-6"
         style="stop-color:#ffffff;stop-opacity:0"
         offset="1" />
    </linearGradient>
    <linearGradient
       x1="90"
       y1="88"
       x2="48"
       y2="88"
       id="linearGradient3855-3"
       xlink:href="#linearGradient4482-0"
       gradientUnits="userSpaceOnUse"
       gradientTransform="translate(0,40)"
       spreadMethod="reflect" />
    <linearGradient
       id="linearGradient4482-0">
      <stop
         id="stop4484-5"
         style="stop-color:#ffffff;stop-opacity:0.12977099"
         offset="0" />
      <stop
         id="stop4486-2"
         style="stop-color:#424242;stop-opacity:0.28244275"
         offset="0.11780351" />
      <stop
         id="stop4488-6"
         style="stop-color:#2f2f2f;stop-opacity:0.30534351"
         offset="0.23809524" />
      <stop
         id="stop4490-7"
         style="stop-color:#000000;stop-opacity:0.35114503"
         offset="1" />
    </linearGradient>
    <linearGradient
       id="linearGradient4384-3">
      <stop
         id="stop4386-9"
         style="stop-color:#ffffff;stop-opacity:1"
         offset="0" />
      <stop
         id="stop4388-3"
         style="stop-color:#ffffff;stop-opacity:0"
         offset="1" />
    </linearGradient>
    <linearGradient
       inkscape:collect="always"
       xlink:href="#linearGradient4313"
       id="linearGradient4311"
       gradientUnits="userSpaceOnUse"
       x1="53.796227"
       y1="1045.9352"
       x2="53.796227"
       y2="961.96027" />
    <linearGradient
       inkscape:collect="always"
       xlink:href="#linearGradient5074"
       id="linearGradient5082"
       x1="-45.1819"
       y1="78.503319"
       x2="-45.1819"
       y2="17.144928"
       gradientUnits="userSpaceOnUse" />
    <radialGradient
       inkscape:collect="always"
       xlink:href="#linearGradient5088"
       id="radialGradient5100"
       cx="-25.282049"
       cy="42.46944"
       fx="-25.282049"
       fy="42.46944"
       r="31.154718"
       gradientUnits="userSpaceOnUse"
       gradientTransform="matrix(0.8944843,-0.8944843,0.85762902,0.85762807,-53.469583,-21.188036)" />
    <radialGradient
       inkscape:collect="always"
       xlink:href="#linearGradient5088"
       id="radialGradient4054"
       gradientUnits="userSpaceOnUse"
       gradientTransform="matrix(0.8944843,-0.8944843,0.85762902,0.85762807,-53.469583,-21.188036)"
       cx="-25.282049"
       cy="42.46944"
       fx="-25.282049"
       fy="42.46944"
       r="31.154718" />
    <linearGradient
       inkscape:collect="always"
       xlink:href="#linearGradient4064"
       id="linearGradient4072"
       x1="-43.617359"
       y1="22.105106"
       x2="-43.617359"
       y2="73.565315"
       gradientUnits="userSpaceOnUse" />
    <linearGradient
       x1="48"
       y1="20.220806"
       x2="48"
       y2="138.66119"
       id="linearGradient3613-8"
       xlink:href="#linearGradient3737-2"
       gradientUnits="userSpaceOnUse" />
    <linearGradient
       id="linearGradient3737-2">
      <stop
         id="stop3739-0"
         style="stop-color:#ffffff;stop-opacity:1"
         offset="0" />
      <stop
         id="stop3741-06"
         style="stop-color:#ffffff;stop-opacity:0"
         offset="1" />
    </linearGradient>
    <clipPath
       id="clipPath4355-07">
      <rect
         width="84"
         height="80"
         rx="6"
         ry="6"
         x="6"
         y="6"
         id="rect4357-0"
         style="fill:#ffffff;fill-opacity:1;fill-rule:nonzero;stroke:none" />
    </clipPath>
    <filter
       x="-0.192"
       y="-0.192"
       width="1.3839999"
       height="1.3839999"
       color-interpolation-filters="sRGB"
       id="filter3794-2">
      <feGaussianBlur
         id="feGaussianBlur3796-1"
         stdDeviation="5.28" />
    </filter>
    <linearGradient
       x1="8"
       y1="1033.3622"
       x2="50"
       y2="1033.3622"
       id="linearGradient3870"
       xlink:href="#linearGradient3843"
       gradientUnits="userSpaceOnUse"
       gradientTransform="translate(-2,-956.3622)"
       spreadMethod="reflect" />
    <linearGradient
       id="linearGradient3843">
      <stop
         id="stop3845"
         style="stop-color:#523823;stop-opacity:1"
         offset="0" />
      <stop
         id="stop3847"
         style="stop-color:#79563a;stop-opacity:1"
         offset="0.11780351" />
      <stop
         id="stop3849"
         style="stop-color:#875c38;stop-opacity:1"
         offset="0.23809524" />
      <stop
         id="stop3851"
         style="stop-color:#a66e40;stop-opacity:1"
         offset="1" />
    </linearGradient>
    <linearGradient
       x1="32.251034"
       y1="6.1317081"
       x2="32.251034"
       y2="90.238609"
       id="linearGradient3026-9"
       xlink:href="#ButtonShadow-0-8"
       gradientUnits="userSpaceOnUse"
       gradientTransform="matrix(1.0238095,0,0,1.0119048,-1.1428571,-98.071429)" />
    <linearGradient
       x1="45.447727"
       y1="92.539597"
       x2="45.447727"
       y2="7.0165396"
       id="ButtonShadow-0-8"
       gradientUnits="userSpaceOnUse"
       gradientTransform="matrix(1.0058652,0,0,0.994169,100,0)">
      <stop
         id="stop3750-8-4"
         style="stop-color:#000000;stop-opacity:1"
         offset="0" />
      <stop
         id="stop3752-5-1"
         style="stop-color:#000000;stop-opacity:0.58823532"
         offset="1" />
    </linearGradient>
    <linearGradient
       x1="32.251034"
       y1="6.1317081"
       x2="32.251034"
       y2="90.238609"
       id="linearGradient3780-8"
       xlink:href="#ButtonShadow-0-8"
       gradientUnits="userSpaceOnUse"
       gradientTransform="matrix(1.0238095,0,0,1.0119048,-1.1428571,-98.071429)" />
    <linearGradient
       x1="45.447727"
       y1="92.539597"
       x2="45.447727"
       y2="7.0165396"
       id="linearGradient3073-3"
       gradientUnits="userSpaceOnUse"
       gradientTransform="matrix(1.0058652,0,0,0.994169,100,0)">
      <stop
         id="stop3075-9"
         style="stop-color:#000000;stop-opacity:1"
         offset="0" />
      <stop
         id="stop3077"
         style="stop-color:#000000;stop-opacity:0.58823532"
         offset="1" />
    </linearGradient>
    <linearGradient
       x1="32.251034"
       y1="6.1317081"
       x2="32.251034"
       y2="90.238609"
       id="linearGradient3772-2"
       xlink:href="#ButtonShadow-0-8"
       gradientUnits="userSpaceOnUse"
       gradientTransform="matrix(1.0238095,0,0,1.0119048,-1.1428571,-98.071429)" />
    <linearGradient
       x1="45.447727"
       y1="92.539597"
       x2="45.447727"
       y2="7.0165396"
       id="linearGradient3080"
       gradientUnits="userSpaceOnUse"
       gradientTransform="matrix(1.0058652,0,0,0.994169,100,0)">
      <stop
         id="stop3082"
         style="stop-color:#000000;stop-opacity:1"
         offset="0" />
      <stop
         id="stop3084"
         style="stop-color:#000000;stop-opacity:0.58823532"
         offset="1" />
    </linearGradient>
    <linearGradient
       x1="32.251034"
       y1="6.1317081"
       x2="32.251034"
       y2="90.238609"
       id="linearGradient3725-8"
       xlink:href="#ButtonShadow-0-8"
       gradientUnits="userSpaceOnUse"
       gradientTransform="matrix(1.0238095,0,0,1.0119048,-1.1428571,-98.071429)" />
    <linearGradient
       x1="45.447727"
       y1="92.539597"
       x2="45.447727"
       y2="7.0165396"
       id="linearGradient3087"
       gradientUnits="userSpaceOnUse"
       gradientTransform="matrix(1.0058652,0,0,0.994169,100,0)">
      <stop
         id="stop3089"
         style="stop-color:#000000;stop-opacity:1"
         offset="0" />
      <stop
         id="stop3091"
         style="stop-color:#000000;stop-opacity:0.58823532"
         offset="1" />
    </linearGradient>
    <linearGradient
       x1="32.251034"
       y1="6.1317081"
       x2="32.251034"
       y2="90.238609"
       id="linearGradient3721-5"
       xlink:href="#ButtonShadow-0-8"
       gradientUnits="userSpaceOnUse"
       gradientTransform="translate(0,-97)" />
    <linearGradient
       x1="45.447727"
       y1="92.539597"
       x2="45.447727"
       y2="7.0165396"
       id="linearGradient3094"
       gradientUnits="userSpaceOnUse"
       gradientTransform="matrix(1.0058652,0,0,0.994169,100,0)">
      <stop
         id="stop3096"
         style="stop-color:#000000;stop-opacity:1"
         offset="0" />
      <stop
         id="stop3098"
         style="stop-color:#000000;stop-opacity:0.58823532"
         offset="1" />
    </linearGradient>
    <linearGradient
       y2="90.238609"
       x2="32.251034"
       y1="6.1317081"
       x1="32.251034"
       gradientTransform="translate(0,-97)"
       gradientUnits="userSpaceOnUse"
       id="linearGradient3113-4"
       xlink:href="#ButtonShadow-0-8"
       inkscape:collect="always" />
    <linearGradient
       x1="48"
       y1="20.220806"
       x2="48"
       y2="138.66119"
       id="linearGradient3613-4"
       xlink:href="#linearGradient3737-8"
       gradientUnits="userSpaceOnUse" />
    <linearGradient
       id="linearGradient3737-8">
      <stop
         id="stop3739-50"
         style="stop-color:#ffffff;stop-opacity:1"
         offset="0" />
      <stop
         id="stop3741-5"
         style="stop-color:#ffffff;stop-opacity:0"
         offset="1" />
    </linearGradient>
    <clipPath
       id="clipPath4355-7">
      <rect
         width="84"
         height="80"
         rx="6"
         ry="6"
         x="6"
         y="6"
         id="rect4357-35"
         style="fill:#ffffff;fill-opacity:1;fill-rule:nonzero;stroke:none" />
    </clipPath>
    <filter
       x="-0.192"
       y="-0.192"
       width="1.3839999"
       height="1.3839999"
       color-interpolation-filters="sRGB"
       id="filter3794-5">
      <feGaussianBlur
         id="feGaussianBlur3796-75"
         stdDeviation="5.28" />
    </filter>
    <linearGradient
       x1="48"
       y1="90"
       x2="48"
       y2="5.9877172"
       id="linearGradient3617"
       xlink:href="#linearGradient3843-5"
       gradientUnits="userSpaceOnUse" />
    <linearGradient
       id="linearGradient3843-5">
      <stop
         id="stop3845-0"
         style="stop-color:#65216c;stop-opacity:1"
         offset="0" />
      <stop
         id="stop3847-4"
         style="stop-color:#982ea4;stop-opacity:1"
         offset="1" />
    </linearGradient>
    <radialGradient
       cx="48"
       cy="87.792389"
       r="42"
       fx="48"
       fy="87.792389"
       id="radialGradient4375"
       xlink:href="#linearGradient4367"
       gradientUnits="userSpaceOnUse"
       gradientTransform="matrix(1,-6.7114942e-8,8.4282233e-8,1.2557894,109.99999,-24.505592)" />
    <linearGradient
       id="linearGradient4367">
      <stop
         id="stop4369"
         style="stop-color:#ffffff;stop-opacity:0.71755725"
         offset="0" />
      <stop
         id="stop4371"
         style="stop-color:#ffffff;stop-opacity:1"
         offset="1" />
    </linearGradient>
    <linearGradient
       x1="48"
       y1="88"
       x2="48"
       y2="-40"
       id="linearGradient4390"
       xlink:href="#linearGradient4384-9"
       gradientUnits="userSpaceOnUse"
       gradientTransform="matrix(1,0,0,-1,0,92)" />
    <linearGradient
       id="linearGradient4384-9">
      <stop
         id="stop4386-98"
         style="stop-color:#ffffff;stop-opacity:1"
         offset="0" />
      <stop
         id="stop4388-7"
         style="stop-color:#ffffff;stop-opacity:0"
         offset="1" />
    </linearGradient>
    <linearGradient
       x1="48"
       y1="82"
       x2="112.12357"
       y2="82.454597"
       id="linearGradient4429"
       xlink:href="#linearGradient4384-9"
       gradientUnits="userSpaceOnUse"
       spreadMethod="reflect" />
    <linearGradient
       id="linearGradient3146">
      <stop
         id="stop3148"
         style="stop-color:#ffffff;stop-opacity:1"
         offset="0" />
      <stop
         id="stop3150"
         style="stop-color:#ffffff;stop-opacity:0"
         offset="1" />
    </linearGradient>
    <linearGradient
       x1="8"
       y1="1033.3622"
       x2="50"
       y2="1033.3622"
       id="linearGradient3870-1"
       xlink:href="#linearGradient3843-59"
       gradientUnits="userSpaceOnUse"
       gradientTransform="translate(-2,-956.3622)"
       spreadMethod="reflect" />
    <linearGradient
       id="linearGradient3843-59">
      <stop
         id="stop3845-3"
         style="stop-color:#523823;stop-opacity:1"
         offset="0" />
      <stop
         id="stop3847-6"
         style="stop-color:#79563a;stop-opacity:1"
         offset="0.11780351" />
      <stop
         id="stop3849-8"
         style="stop-color:#875c38;stop-opacity:1"
         offset="0.23809524" />
      <stop
         id="stop3851-3"
         style="stop-color:#a66e40;stop-opacity:1"
         offset="1" />
    </linearGradient>
    <linearGradient
       x1="32.251034"
       y1="6.1317081"
       x2="32.251034"
       y2="90.238609"
       id="linearGradient3026-2"
       xlink:href="#ButtonShadow-0-1"
       gradientUnits="userSpaceOnUse"
       gradientTransform="matrix(1.0238095,0,0,1.0119048,-1.1428571,-98.071429)" />
    <linearGradient
       x1="45.447727"
       y1="92.539597"
       x2="45.447727"
       y2="7.0165396"
       id="ButtonShadow-0-1"
       gradientUnits="userSpaceOnUse"
       gradientTransform="matrix(1.0058652,0,0,0.994169,100,0)">
      <stop
         id="stop3750-8-3"
         style="stop-color:#000000;stop-opacity:1"
         offset="0" />
      <stop
         id="stop3752-5-5"
         style="stop-color:#000000;stop-opacity:0.58823532"
         offset="1" />
    </linearGradient>
    <linearGradient
       x1="32.251034"
       y1="6.1317081"
       x2="32.251034"
       y2="90.238609"
       id="linearGradient3780-0"
       xlink:href="#ButtonShadow-0-1"
       gradientUnits="userSpaceOnUse"
       gradientTransform="matrix(1.0238095,0,0,1.0119048,-1.1428571,-98.071429)" />
    <linearGradient
       x1="45.447727"
       y1="92.539597"
       x2="45.447727"
       y2="7.0165396"
       id="linearGradient3163"
       gradientUnits="userSpaceOnUse"
       gradientTransform="matrix(1.0058652,0,0,0.994169,100,0)">
      <stop
         id="stop3165"
         style="stop-color:#000000;stop-opacity:1"
         offset="0" />
      <stop
         id="stop3167"
         style="stop-color:#000000;stop-opacity:0.58823532"
         offset="1" />
    </linearGradient>
    <linearGradient
       x1="32.251034"
       y1="6.1317081"
       x2="32.251034"
       y2="90.238609"
       id="linearGradient3772-6"
       xlink:href="#ButtonShadow-0-1"
       gradientUnits="userSpaceOnUse"
       gradientTransform="matrix(1.0238095,0,0,1.0119048,-1.1428571,-98.071429)" />
    <linearGradient
       x1="45.447727"
       y1="92.539597"
       x2="45.447727"
       y2="7.0165396"
       id="linearGradient3170"
       gradientUnits="userSpaceOnUse"
       gradientTransform="matrix(1.0058652,0,0,0.994169,100,0)">
      <stop
         id="stop3172"
         style="stop-color:#000000;stop-opacity:1"
         offset="0" />
      <stop
         id="stop3174"
         style="stop-color:#000000;stop-opacity:0.58823532"
         offset="1" />
    </linearGradient>
    <linearGradient
       x1="32.251034"
       y1="6.1317081"
       x2="32.251034"
       y2="90.238609"
       id="linearGradient3725-5"
       xlink:href="#ButtonShadow-0-1"
       gradientUnits="userSpaceOnUse"
       gradientTransform="matrix(1.0238095,0,0,1.0119048,-1.1428571,-98.071429)" />
    <linearGradient
       x1="45.447727"
       y1="92.539597"
       x2="45.447727"
       y2="7.0165396"
       id="linearGradient3177"
       gradientUnits="userSpaceOnUse"
       gradientTransform="matrix(1.0058652,0,0,0.994169,100,0)">
      <stop
         id="stop3179"
         style="stop-color:#000000;stop-opacity:1"
         offset="0" />
      <stop
         id="stop3181"
         style="stop-color:#000000;stop-opacity:0.58823532"
         offset="1" />
    </linearGradient>
    <linearGradient
       x1="32.251034"
       y1="6.1317081"
       x2="32.251034"
       y2="90.238609"
       id="linearGradient3721-8"
       xlink:href="#ButtonShadow-0-1"
       gradientUnits="userSpaceOnUse"
       gradientTransform="translate(0,-97)" />
    <linearGradient
       x1="45.447727"
       y1="92.539597"
       x2="45.447727"
       y2="7.0165396"
       id="linearGradient3184"
       gradientUnits="userSpaceOnUse"
       gradientTransform="matrix(1.0058652,0,0,0.994169,100,0)">
      <stop
         id="stop3186"
         style="stop-color:#000000;stop-opacity:1"
         offset="0" />
      <stop
         id="stop3188"
         style="stop-color:#000000;stop-opacity:0.58823532"
         offset="1" />
    </linearGradient>
    <linearGradient
       y2="90.238609"
       x2="32.251034"
       y1="6.1317081"
       x1="32.251034"
       gradientTransform="translate(0,-97)"
       gradientUnits="userSpaceOnUse"
       id="linearGradient3209"
       xlink:href="#ButtonShadow-0-1"
       inkscape:collect="always" />
    <linearGradient
       inkscape:collect="always"
       xlink:href="#linearGradient3419"
       id="linearGradient3573"
       x1="21.538923"
       y1="1042.5565"
       x2="21.538923"
       y2="964.31427"
       gradientUnits="userSpaceOnUse" />
    <linearGradient
       inkscape:collect="always"
       xlink:href="#linearGradient4384-9"
       id="linearGradient3577"
       gradientUnits="userSpaceOnUse"
       spreadMethod="reflect"
       x1="48"
       y1="82"
       x2="112.12357"
       y2="82.454597"
       gradientTransform="translate(116.44663,956.16908)" />
    <linearGradient
       inkscape:collect="always"
       xlink:href="#linearGradient4384-9"
       id="linearGradient3580"
       gradientUnits="userSpaceOnUse"
       gradientTransform="matrix(1,0,0,-1,116.44663,1048.1691)"
       x1="48"
       y1="88"
       x2="48"
       y2="-40" />
    <radialGradient
       inkscape:collect="always"
       xlink:href="#linearGradient4367"
       id="radialGradient3583"
       gradientUnits="userSpaceOnUse"
       gradientTransform="matrix(1,-6.7114942e-8,8.4282233e-8,1.2557894,226.44662,931.66349)"
       cx="48"
       cy="87.792389"
       fx="48"
       fy="87.792389"
       r="42" />
    <linearGradient
       inkscape:collect="always"
       xlink:href="#linearGradient3843-5"
       id="linearGradient3586"
       gradientUnits="userSpaceOnUse"
       x1="48"
       y1="90"
       x2="48"
       y2="5.9877172"
       gradientTransform="translate(116.44663,956.16908)" />
    <linearGradient
       inkscape:collect="always"
       xlink:href="#linearGradient3737-8"
       id="linearGradient3589"
       gradientUnits="userSpaceOnUse"
       x1="48"
       y1="20.220806"
       x2="48"
       y2="138.66119" />
  </defs>
  <sodipodi:namedview
     id="base"
     pagecolor="#ffffff"
     bordercolor="#666666"
     borderopacity="1.0"
     inkscape:pageopacity="0.0"
     inkscape:pageshadow="2"
     inkscape:zoom="0.97595465"
     inkscape:cx="-126.69138"
     inkscape:cy="135.13371"
     inkscape:document-units="px"
     inkscape:current-layer="layer1"
     showgrid="false"
     inkscape:window-width="1366"
     inkscape:window-height="704"
     inkscape:window-x="0"
     inkscape:window-y="27"
     inkscape:window-maximized="1"
     showguides="false"
     inkscape:guide-bbox="true">
    <sodipodi:guide
       orientation="0,1"
       position="119.88262,67.241854"
       id="guide4442" />
    <sodipodi:guide
       orientation="0,1"
       position="113.02642,56.513209"
       id="guide4444" />
    <sodipodi:guide
       orientation="0,1"
       position="6.916305,25.615944"
       id="guide4450" />
    <sodipodi:guide
       orientation="0,1"
       position="-30.290854,63.431482"
       id="guide4454" />
    <sodipodi:guide
       orientation="0,1"
       position="54.701888,16.483019"
       id="guide5072" />
    <sodipodi:guide
       orientation="0,1"
       position="141.28302,43.109435"
       id="guide5102" />
    <sodipodi:guide
       orientation="0,1"
       position="112.30189,49.449058"
       id="guide5113" />
    <sodipodi:guide
       orientation="0,1"
       position="99.261784,73.77392"
       id="guide4056" />
  </sodipodi:namedview>
  <metadata
     id="metadata7">
    <rdf:RDF>
      <cc:Work
         rdf:about="">
        <dc:format>image/svg+xml</dc:format>
        <dc:type
           rdf:resource="http://purl.org/dc/dcmitype/StillImage" />
        <dc:title />
      </cc:Work>
    </rdf:RDF>
  </metadata>
  <g
     inkscape:label="Layer 1"
     inkscape:groupmode="layer"
     id="layer1"
     transform="translate(0,-956.36218)">
    <rect
       style="opacity:0.05;fill:#000000;fill-opacity:1;stroke:none"
       id="rect3826"
       width="89"
       height="89"
       x="3.5"
       y="960.86218"
       rx="10.595235"
       ry="10.595235" />
    <g
       id="g3041">
      <rect
         style="opacity:0.05;fill:#000000;fill-opacity:1;stroke:none"
         id="rect3824"
         width="88"
         height="88"
         x="4"
         y="961.36218"
         rx="10.476188"
         ry="10.476188" />
      <rect
         ry="10.357141"
         rx="10.357141"
         y="961.86218"
         x="4.5"
         height="87"
         width="87"
         id="rect3822"
         style="opacity:0.05;fill:#000000;fill-opacity:1;stroke:none" />
      <rect
         style="opacity:0.1;fill:#000000;fill-opacity:1;stroke:none"
         id="rect3820"
         width="86"
         height="86"
         x="5"
         y="962.36218"
         rx="10.238094"
         ry="10.238094" />
      <rect
         ry="10.119047"
         rx="10.119047"
         y="962.86218"
         x="5.5"
         height="85"
         width="85"
         id="rect3818"
         style="opacity:0.1;fill:#000000;fill-opacity:1;stroke:none" />
      <rect
         style="opacity:0.3;fill:#000000;fill-opacity:1;stroke:none"
         id="rect3131"
         width="84"
         height="84"
         x="6"
         y="963.36218"
         rx="10"
         ry="10" />
    </g>
    <rect
       ry="10"
       rx="10"
       y="962.36218"
       x="6"
       height="84"
       width="84"
       id="rect3036"
       style="fill:url(#linearGradient4311);fill-opacity:1;stroke:none" />
    <rect
       style="fill:url(#linearGradient3573);fill-opacity:1;stroke:none"
       id="rect3034"
       width="82"
       height="82"
       x="7"
       y="963.36218"
       rx="9.7619047"
       ry="9.7619047" />
    <g
       id="g3474">
      <g
         style="font-style:normal;font-variant:normal;font-weight:normal;font-stretch:normal;font-size:40px;line-height:125%;font-family:Cantarell;-inkscape-font-specification:Cantarell;letter-spacing:0px;word-spacing:0px;opacity:0.05;fill:#000000;fill-opacity:1;stroke:none"
         id="g3470"
         transform="matrix(1.5021447,0,0,1.5021447,-17.140367,-498.42711)">
        <path
           d="m 47.344908,994.51767 c -1.159999,-0.48 -2.640002,-0.88 -4.32,-0.88 -5.799994,0 -9.68,4.48001 -9.68,10.76003 0,6.2 3.960005,10.04 9.16,10.04 1.479998,0 3.240002,-0.36 4.92,-1.2 0.959999,1.84 2.840002,3.04 5.16,3.04 3.039997,0 9,-2.2 9,-13.4 0,-8.20002 -2.520014,-17.76003 -16.84,-17.76003 -15.479985,0 -19.6,10.96001 -19.6,20.24003 0,14.48 11.240005,17.04 16.64,17.04 3.119997,0 5.720002,-0.8 7.8,-1.88 l 0.72,-0.36 -1.96,-3.72 -0.72,0.32 c -1.439999,0.72 -3.200002,1.24 -5.32,1.24 -6.239994,0 -12.28,-4.52 -12.28,-13.32 0,-5.84002 2.680011,-14.80003 13.88,-14.80003 10.19999,0 12.76,6.12001 12.76,13.40003 0,7.16 -2.640001,8.76 -3.68,8.76 -1.479999,0 -1.72,-1.28 -1.72,-3.72 l 0,-14.80003 -3.56,0 -0.36,1 m -3.88,3.12 c 1.199999,0 2.320001,0.28 3.16,0.6 l 0,11.36003 c -1.079999,0.52 -2.160001,0.72 -3.08,0.72 -3.159997,0 -5.6,-2.16 -5.6,-6.36 0,-4.12002 2.320003,-6.32003 5.52,-6.32003"
           style="font-weight:bold;-inkscape-font-specification:'Cantarell Bold';fill:#000000"
           id="path3472"
           inkscape:connector-curvature="0" />
      </g>
      <g
         transform="matrix(1.5021447,0,0,1.5021447,-17.140367,-499.42711)"
         id="g3466"
         style="font-style:normal;font-variant:normal;font-weight:normal;font-stretch:normal;font-size:40px;line-height:125%;font-family:Cantarell;-inkscape-font-specification:Cantarell;letter-spacing:0px;word-spacing:0px;opacity:0.05;fill:#000000;fill-opacity:1;stroke:none">
        <path
           inkscape:connector-curvature="0"
           id="path3468"
           style="font-weight:bold;-inkscape-font-specification:'Cantarell Bold';fill:#000000"
           d="m 47.344908,994.51767 c -1.159999,-0.48 -2.640002,-0.88 -4.32,-0.88 -5.799994,0 -9.68,4.48001 -9.68,10.76003 0,6.2 3.960005,10.04 9.16,10.04 1.479998,0 3.240002,-0.36 4.92,-1.2 0.959999,1.84 2.840002,3.04 5.16,3.04 3.039997,0 9,-2.2 9,-13.4 0,-8.20002 -2.520014,-17.76003 -16.84,-17.76003 -15.479985,0 -19.6,10.96001 -19.6,20.24003 0,14.48 11.240005,17.04 16.64,17.04 3.119997,0 5.720002,-0.8 7.8,-1.88 l 0.72,-0.36 -1.96,-3.72 -0.72,0.32 c -1.439999,0.72 -3.200002,1.24 -5.32,1.24 -6.239994,0 -12.28,-4.52 -12.28,-13.32 0,-5.84002 2.680011,-14.80003 13.88,-14.80003 10.19999,0 12.76,6.12001 12.76,13.40003 0,7.16 -2.640001,8.76 -3.68,8.76 -1.479999,0 -1.72,-1.28 -1.72,-3.72 l 0,-14.80003 -3.56,0 -0.36,1 m -3.88,3.12 c 1.199999,0 2.320001,0.28 3.16,0.6 l 0,11.36003 c -1.079999,0.52 -2.160001,0.72 -3.08,0.72 -3.159997,0 -5.6,-2.16 -5.6,-6.36 0,-4.12002 2.320003,-6.32003 5.52,-6.32003" />
      </g>
      <g
         style="font-style:normal;font-variant:normal;font-weight:normal;font-stretch:normal;font-size:40px;line-height:125%;font-family:Cantarell;-inkscape-font-specification:Cantarell;letter-spacing:0px;word-spacing:0px;opacity:0.05;fill:#000000;fill-opacity:1;stroke:none"
         id="g3462"
         transform="matrix(1.5021447,0,0,1.5021447,-17.140367,-500.42711)">
        <path
           d="m 47.344908,994.51767 c -1.159999,-0.48 -2.640002,-0.88 -4.32,-0.88 -5.799994,0 -9.68,4.48001 -9.68,10.76003 0,6.2 3.960005,10.04 9.16,10.04 1.479998,0 3.240002,-0.36 4.92,-1.2 0.959999,1.84 2.840002,3.04 5.16,3.04 3.039997,0 9,-2.2 9,-13.4 0,-8.20002 -2.520014,-17.76003 -16.84,-17.76003 -15.479985,0 -19.6,10.96001 -19.6,20.24003 0,14.48 11.240005,17.04 16.64,17.04 3.119997,0 5.720002,-0.8 7.8,-1.88 l 0.72,-0.36 -1.96,-3.72 -0.72,0.32 c -1.439999,0.72 -3.200002,1.24 -5.32,1.24 -6.239994,0 -12.28,-4.52 -12.28,-13.32 0,-5.84002 2.680011,-14.80003 13.88,-14.80003 10.19999,0 12.76,6.12001 12.76,13.40003 0,7.16 -2.640001,8.76 -3.68,8.76 -1.479999,0 -1.72,-1.28 -1.72,-3.72 l 0,-14.80003 -3.56,0 -0.36,1 m -3.88,3.12 c 1.199999,0 2.320001,0.28 3.16,0.6 l 0,11.36003 c -1.079999,0.52 -2.160001,0.72 -3.08,0.72 -3.159997,0 -5.6,-2.16 -5.6,-6.36 0,-4.12002 2.320003,-6.32003 5.52,-6.32003"
           style="font-weight:bold;-inkscape-font-specification:'Cantarell Bold';fill:#000000"
           id="path3464"
           inkscape:connector-curvature="0" />
      </g>
      <g
         transform="matrix(1.5021447,0,0,1.5021447,-17.140367,-501.42711)"
         id="g3458"
         style="font-style:normal;font-variant:normal;font-weight:normal;font-stretch:normal;font-size:40px;line-height:125%;font-family:Cantarell;-inkscape-font-specification:Cantarell;letter-spacing:0px;word-spacing:0px;opacity:0.05;fill:#000000;fill-opacity:1;stroke:none">
        <path
           inkscape:connector-curvature="0"
           id="path3460"
           style="font-weight:bold;-inkscape-font-specification:'Cantarell Bold';fill:#000000"
           d="m 47.344908,994.51767 c -1.159999,-0.48 -2.640002,-0.88 -4.32,-0.88 -5.799994,0 -9.68,4.48001 -9.68,10.76003 0,6.2 3.960005,10.04 9.16,10.04 1.479998,0 3.240002,-0.36 4.92,-1.2 0.959999,1.84 2.840002,3.04 5.16,3.04 3.039997,0 9,-2.2 9,-13.4 0,-8.20002 -2.520014,-17.76003 -16.84,-17.76003 -15.479985,0 -19.6,10.96001 -19.6,20.24003 0,14.48 11.240005,17.04 16.64,17.04 3.119997,0 5.720002,-0.8 7.8,-1.88 l 0.72,-0.36 -1.96,-3.72 -0.72,0.32 c -1.439999,0.72 -3.200002,1.24 -5.32,1.24 -6.239994,0 -12.28,-4.52 -12.28,-13.32 0,-5.84002 2.680011,-14.80003 13.88,-14.80003 10.19999,0 12.76,6.12001 12.76,13.40003 0,7.16 -2.640001,8.76 -3.68,8.76 -1.479999,0 -1.72,-1.28 -1.72,-3.72 l 0,-14.80003 -3.56,0 -0.36,1 m -3.88,3.12 c 1.199999,0 2.320001,0.28 3.16,0.6 l 0,11.36003 c -1.079999,0.52 -2.160001,0.72 -3.08,0.72 -3.159997,0 -5.6,-2.16 -5.6,-6.36 0,-4.12002 2.320003,-6.32003 5.52,-6.32003" />
      </g>
      <g
         style="font-style:normal;font-variant:normal;font-weight:normal;font-stretch:normal;font-size:40px;line-height:125%;font-family:Cantarell;-inkscape-font-specification:Cantarell;letter-spacing:0px;word-spacing:0px;opacity:0.05;fill:#000000;fill-opacity:1;stroke:none"
         id="g3454"
         transform="matrix(1.5021447,0,0,1.5021447,-17.140367,-502.42711)">
        <path
           d="m 47.344908,994.51767 c -1.159999,-0.48 -2.640002,-0.88 -4.32,-0.88 -5.799994,0 -9.68,4.48001 -9.68,10.76003 0,6.2 3.960005,10.04 9.16,10.04 1.479998,0 3.240002,-0.36 4.92,-1.2 0.959999,1.84 2.840002,3.04 5.16,3.04 3.039997,0 9,-2.2 9,-13.4 0,-8.20002 -2.520014,-17.76003 -16.84,-17.76003 -15.479985,0 -19.6,10.96001 -19.6,20.24003 0,14.48 11.240005,17.04 16.64,17.04 3.119997,0 5.720002,-0.8 7.8,-1.88 l 0.72,-0.36 -1.96,-3.72 -0.72,0.32 c -1.439999,0.72 -3.200002,1.24 -5.32,1.24 -6.239994,0 -12.28,-4.52 -12.28,-13.32 0,-5.84002 2.680011,-14.80003 13.88,-14.80003 10.19999,0 12.76,6.12001 12.76,13.40003 0,7.16 -2.640001,8.76 -3.68,8.76 -1.479999,0 -1.72,-1.28 -1.72,-3.72 l 0,-14.80003 -3.56,0 -0.36,1 m -3.88,3.12 c 1.199999,0 2.320001,0.28 3.16,0.6 l 0,11.36003 c -1.079999,0.52 -2.160001,0.72 -3.08,0.72 -3.159997,0 -5.6,-2.16 -5.6,-6.36 0,-4.12002 2.320003,-6.32003 5.52,-6.32003"
           style="font-weight:bold;-inkscape-font-specification:'Cantarell Bold';fill:#000000"
           id="path3456"
           inkscape:connector-curvature="0" />
      </g>
      <g
         transform="matrix(1.5021447,0,0,1.5021447,-17.140367,-503.42711)"
         id="text3425"
         style="font-style:normal;font-variant:normal;font-weight:normal;font-stretch:normal;font-size:40px;line-height:125%;font-family:Cantarell;-inkscape-font-specification:Cantarell;letter-spacing:0px;word-spacing:0px;fill:#ffffff;fill-opacity:1;stroke:none">
        <path
           inkscape:connector-curvature="0"
           id="path3430"
           style="font-weight:bold;-inkscape-font-specification:'Cantarell Bold';fill:#ffffff"
           d="m 47.344908,994.51767 c -1.159999,-0.48 -2.640002,-0.88 -4.32,-0.88 -5.799994,0 -9.68,4.48001 -9.68,10.76003 0,6.2 3.960005,10.04 9.16,10.04 1.479998,0 3.240002,-0.36 4.92,-1.2 0.959999,1.84 2.840002,3.04 5.16,3.04 3.039997,0 9,-2.2 9,-13.4 0,-8.20002 -2.520014,-17.76003 -16.84,-17.76003 -15.479985,0 -19.6,10.96001 -19.6,20.24003 0,14.48 11.240005,17.04 16.64,17.04 3.119997,0 5.720002,-0.8 7.8,-1.88 l 0.72,-0.36 -1.96,-3.72 -0.72,0.32 c -1.439999,0.72 -3.200002,1.24 -5.32,1.24 -6.239994,0 -12.28,-4.52 -12.28,-13.32 0,-5.84002 2.680011,-14.80003 13.88,-14.80003 10.19999,0 12.76,6.12001 12.76,13.40003 0,7.16 -2.640001,8.76 -3.68,8.76 -1.479999,0 -1.72,-1.28 -1.72,-3.72 l 0,-14.80003 -3.56,0 -0.36,1 m -3.88,3.12 c 1.199999,0 2.320001,0.28 3.16,0.6 l 0,11.36003 c -1.079999,0.52 -2.160001,0.72 -3.08,0.72 -3.159997,0 -5.6,-2.16 -5.6,-6.36 0,-4.12002 2.320003,-6.32003 5.52,-6.32003" />
      </g>
    </g>
    <g
       id="g5306"
       transform="translate(152.87548,0)">
      <path
         sodipodi:nodetypes="ssccccccsscccssscss"
         inkscape:connector-curvature="0"
         id="rect4608"
         d="m 33.702384,972.36218 c -5.473782,0 -9.880585,4.4068 -9.880585,9.88059 l 0,33.47003 c 6.2e-4,0.055 0.0021,0.1092 0.0032,0.1638 0.0032,0.3254 0.02126,0.6468 0.05523,0.9638 0.290187,5.0678 2.429263,9.8532 6.011892,13.4493 3.869345,3.8692 9.106432,6.0725 14.48747,6.0725 l 4.203505,-4e-4 13.713103,0 c 5.47468,0 9.881996,-4.4073 9.881996,-9.8819 0,-5.4747 -4.407316,-9.8821 -9.881996,-9.8821 l -18.71372,0 4.3e-5,-9.177 16.258421,0 c 5.473782,0 9.880585,-4.4068 9.880585,-9.88058 0,-5.47379 -4.406803,-9.88058 -9.880585,-9.88058 l -16.258421,0 0,-5.41687 c 0,-5.47379 -4.406087,-9.88059 -9.879869,-9.88059 z"
         style="opacity:0.1;fill:#000000;fill-opacity:1;stroke:none" />
      <path
         inkscape:connector-curvature="0"
         id="rect4596"
         d="m 33.702384,976.36208 c -3.206472,0 -5.787794,2.58131 -5.787794,5.78778 l 0,33.70824 c 0,0.2417 0.01902,0.4784 0.04754,0.7121 0.225872,4.0779 1.943598,7.9304 4.826101,10.8238 2.954884,2.9441 6.907731,4.6711 11.075586,4.8389 0.205284,0.022 0.413539,0.035 0.624807,0.035 l 17.889579,0 c 3.206471,0 5.787793,-2.5813 5.787793,-5.7878 0,-3.2064 -2.581322,-5.7878 -5.787793,-5.7878 l -1.980799,0 -15.796015,0 a 5.0683556,5.0683556 0 0 1 -3.631101,-1.4808 5.0683556,5.0683556 0 0 1 -1.473019,-3.346 l -0.0075,-0.01 0,-0.2035 a 5.0683556,5.0683556 0 0 1 0,-0.156 l 0,-12.1706 20.257593,0 c 3.206471,0 5.787783,-2.5813 5.787783,-5.78781 0,-3.20646 -2.581312,-5.78778 -5.787783,-5.78778 l -20.257593,0 0,-9.60258 c 0,-3.20646 -2.581322,-5.78777 -5.787794,-5.78777 z"
         style="opacity:1;fill:#ffffff;fill-opacity:1;stroke:none" />
    </g>
    <g
       id="g5298"
       transform="translate(255.84566,0)">
      <path
         sodipodi:nodetypes="ssccccscsccccccsccsscccscccsc"
         inkscape:connector-curvature="0"
         id="path4629"
         d="m -132.76816,972.36433 c -5.4737,0 -9.88052,4.40683 -9.88052,9.88053 l 0,33.46944 c 7.2e-4,0.055 0.003,0.1085 0.004,0.1631 0.004,0.3253 0.0217,0.6467 0.0557,0.9637 0.29018,5.0678 2.4279,9.8532 6.01048,13.4492 3.86928,3.8692 9.10676,6.0719 14.48772,6.0719 l 4.20408,0 11.74644,0 c 0.0525,0 0.1032,-0.01 0.15549,-0.01 l 17.774201,0 0,-28.054 c -7.26e-4,-0.055 -8.38e-4,-0.1086 -0.002,-0.1633 -0.0036,-0.3253 -0.02166,-0.6466 -0.05567,-0.9636 -0.290188,-5.0677 -2.429823,-9.85316 -6.012398,-13.44918 -3.869289,-3.86917 -9.104843,-6.07191 -14.485803,-6.07191 l -4.20408,0 -9.917,0 0,-5.4077 c 0,-5.4737 -4.40683,-9.88053 -9.88053,-9.88053 z m 24.28955,35.05117 0.50872,0 0,9.1779 -14.29193,0 c -0.0395,0 -0.0777,0.01 -0.1171,0.01 l -0.50871,0 0,-9.178 14.29192,0 c 0.0395,0 0.0777,-0.01 0.1171,-0.01 z"
         style="opacity:1;fill:#ffffff;fill-opacity:1;stroke:none" />
      <path
         sodipodi:nodetypes="ccsscccsccsccccscscccscccccccccscccccccc"
         inkscape:connector-curvature="0"
         id="path4631"
         d="m -132.82479,976.39455 0,0.002 c -3.20642,0 -5.7878,2.58138 -5.7878,5.78779 l 0,33.70746 c 0,0.2415 0.0195,0.4785 0.048,0.7121 0.22587,4.0779 1.94358,7.9318 4.82605,10.8251 2.80718,2.7969 6.51724,4.4772 10.4545,4.7838 0.37745,0.077 0.7702,0.1171 1.171,0.1171 l 18.29059,0 11.575595,0 0,-24.1072 c 0,-0.2416 -0.01951,-0.4785 -0.04799,-0.7122 -0.225868,-4.0778 -1.943577,-7.9298 -4.826043,-10.82307 -2.806252,-2.79605 -6.514862,-4.47646 -10.450672,-4.78381 -10e-4,-1.1e-4 -0.003,-0.002 -0.004,-0.002 -0.37744,-0.0769 -0.76827,-0.1171 -1.16907,-0.1171 l -18.29251,0 0,-9.60217 c 0,-3.20643 -2.58138,-5.7878 -5.7878,-5.7878 z m 5.7878,26.96565 1.73538,0 c 0.18338,0.018 0.36862,0.029 0.5567,0.029 l 1.9811,0 13.8312,0 c 1.36001,-0.014 2.66745,0.5193 3.63009,1.4801 0.89016,0.8932 1.41475,2.0861 1.47238,3.3459 l 0.008,0.01 0,0.2035 c 8.1e-4,0.052 8.1e-4,0.1035 0,0.1555 l 0,12.1707 -1.73922,0 c -0.18215,-0.017 -0.36608,-0.026 -0.55286,-0.026 l -1.9811,0 -13.82928,0 c -1.36051,0.014 -2.66934,-0.5206 -3.63201,-1.4821 -0.88994,-0.8933 -1.41491,-2.0862 -1.47238,-3.346 l -0.008,-0.01 0,-0.2035 c -8e-4,-0.052 -8e-4,-0.1037 0,-0.1555 z"
         style="opacity:1;fill:#ffcc00;fill-opacity:1;stroke:none" />
      <path
         inkscape:connector-curvature="0"
         id="path4657"
         d="m -132.82426,976.39538 0,0.002 c -3.20641,0 -5.78906,2.5807 -5.78906,5.78711 l 0,2 c 0,-3.20641 2.58265,-5.78711 5.78906,-5.78711 l 0,-0.002 c 3.20642,0 5.78711,2.58068 5.78711,5.78711 l 0,-2 c 0,-3.20643 -2.58069,-5.78711 -5.78711,-5.78711 z m 5.78711,15.38868 0,2 18.29297,0 c 0.4008,0 0.79053,0.0403 1.16797,0.11718 0.001,0 0.003,0.002 0.004,0.002 3.9358,0.30735 7.644917,1.9891 10.451169,4.78515 2.882466,2.89321 4.600304,6.74441 4.826172,10.82221 0.02848,0.2337 0.04883,0.4713 0.04883,0.7129 l 0,-2 c 0,-0.2416 -0.02035,-0.4792 -0.04883,-0.7129 -0.225868,-4.0778 -1.943706,-7.92894 -4.826172,-10.82221 -2.806252,-2.79605 -6.515369,-4.4778 -10.451169,-4.78515 -0.001,-1.1e-4 -0.003,-0.002 -0.004,-0.002 -0.37744,-0.0769 -0.76717,-0.11718 -1.16797,-0.11718 l -18.29297,0 z m 0,24.10744 0,1.6406 c -7.9e-4,0.052 -7.9e-4,0.1023 0,0.1543 l 0,0.2051 0.008,0.01 c 0.0575,1.2598 0.58271,2.4524 1.47265,3.3457 0.96268,0.9615 2.27035,1.4965 3.63086,1.4825 l 13.83008,0 1.98047,0 c 0.18678,0 0.37058,0.01 0.55273,0.025 l 1.74024,0 0,-2 -1.74024,0 c -0.18215,-0.017 -0.36595,-0.025 -0.55273,-0.025 l -1.98047,0 -13.83008,0 c -1.36051,0.014 -2.66818,-0.521 -3.63086,-1.4825 -0.88994,-0.8933 -1.41518,-2.0859 -1.47265,-3.3457 l -0.008,-0.01 z"
         style="opacity:0.1;fill:#000000;fill-opacity:1;stroke:none" />
      <path
         inkscape:connector-curvature="0"
         id="path4662"
         d="m -132.82426,976.39538 0,0.002 c -3.20641,0 -5.78906,2.5807 -5.78906,5.78711 l 0,1 c 0,-3.20641 2.58265,-5.78711 5.78906,-5.78711 l 0,-0.002 c 3.20642,0 5.78711,2.58069 5.78711,5.78711 l 0,-1 c 0,-3.20643 -2.58069,-5.78711 -5.78711,-5.78711 z m 5.78711,15.38868 0,1 18.29297,0 c 0.4008,0 0.79053,0.0403 1.16797,0.11718 0.001,0 0.003,0.002 0.004,0.002 3.9358,0.30735 7.644917,1.9891 10.451169,4.78515 2.882466,2.89321 4.600304,6.74441 4.826172,10.82221 0.02848,0.2337 0.04883,0.4713 0.04883,0.7129 l 0,-1 c 0,-0.2416 -0.02035,-0.4792 -0.04883,-0.7129 -0.225868,-4.0778 -1.943706,-7.92894 -4.826172,-10.82221 -2.806252,-2.79605 -6.515369,-4.4778 -10.451169,-4.78515 -0.001,-1.1e-4 -0.003,-0.002 -0.004,-0.002 -0.37744,-0.0769 -0.76717,-0.11718 -1.16797,-0.11718 l -18.29297,0 z m 0,24.10744 0,1 0.008,0.01 c 0.0575,1.2598 0.58271,2.4524 1.47265,3.3457 0.96268,0.9615 2.27035,1.4965 3.63086,1.4825 l 13.83008,0 1.98047,0 c 0.18678,0 0.37058,0.01 0.55273,0.025 l 1.74024,0 0,-1 -1.74024,0 c -0.18215,-0.017 -0.36595,-0.025 -0.55273,-0.025 l -1.98047,0 -13.83008,0 c -1.36051,0.014 -2.66818,-0.521 -3.63086,-1.4825 -0.88994,-0.8933 -1.41518,-2.0859 -1.47265,-3.3457 l -0.008,-0.01 z"
         style="opacity:0.1;fill:#000000;fill-opacity:1;stroke:none" />
    </g>
  </g>
</svg>
