<?xml version="1.0" encoding="UTF-8" standalone="no"?>
<!-- Created with Inkscape (http://www.inkscape.org/) -->

<svg
   xmlns:dc="http://purl.org/dc/elements/1.1/"
   xmlns:cc="http://creativecommons.org/ns#"
   xmlns:rdf="http://www.w3.org/1999/02/22-rdf-syntax-ns#"
   xmlns:svg="http://www.w3.org/2000/svg"
   xmlns="http://www.w3.org/2000/svg"
   xmlns:xlink="http://www.w3.org/1999/xlink"
   xmlns:sodipodi="http://sodipodi.sourceforge.net/DTD/sodipodi-0.dtd"
   xmlns:inkscape="http://www.inkscape.org/namespaces/inkscape"
   width="96"
   height="96"
   id="svg2"
   version="1.1"
   inkscape:version="0.91 r13725"
   sodipodi:docname="cheese.svg">
  <defs
     id="defs4">
    <inkscape:perspective
       sodipodi:type="inkscape:persp3d"
       inkscape:vp_x="0 : 48 : 1"
       inkscape:vp_y="0 : 1000 : 0"
       inkscape:vp_z="96 : 48 : 1"
       inkscape:persp3d-origin="48 : 32 : 1"
       id="perspective3054" />
    <linearGradient
       inkscape:collect="always"
       id="linearGradient3558">
      <stop
         style="stop-color:#ded3d6;stop-opacity:1"
         offset="0"
         id="stop3560" />
      <stop
         style="stop-color:#efebef;stop-opacity:1"
         offset="1"
         id="stop3562" />
    </linearGradient>
    <linearGradient
       id="linearGradient3076"
       inkscape:collect="always">
      <stop
         id="stop3078"
         offset="0"
         style="stop-color:#ffe7f7;stop-opacity:1" />
      <stop
         id="stop3080"
         offset="1"
         style="stop-color:#ffc3ef;stop-opacity:1" />
    </linearGradient>
    <linearGradient
       inkscape:collect="always"
       id="linearGradient3048">
      <stop
         style="stop-color:#c16d16;stop-opacity:1"
         offset="0"
         id="stop3050" />
      <stop
         style="stop-color:#ff8e31;stop-opacity:1"
         offset="1"
         id="stop3052" />
    </linearGradient>
    <linearGradient
       inkscape:collect="always"
       id="linearGradient3119">
      <stop
         style="stop-color:#92948f;stop-opacity:0"
         offset="0"
         id="stop3121" />
      <stop
         id="stop3123"
         offset="0.4283945"
         style="stop-color:#9b9e98;stop-opacity:1" />
      <stop
         style="stop-color:#939690;stop-opacity:0"
         offset="1"
         id="stop3125" />
    </linearGradient>
    <linearGradient
       id="linearGradient3073"
       inkscape:collect="always">
      <stop
         id="stop3075"
         offset="0"
         style="stop-color:#ffffff;stop-opacity:0" />
      <stop
         style="stop-color:#ffffff;stop-opacity:1"
         offset="0.45872402"
         id="stop3085" />
      <stop
         id="stop3083"
         offset="1"
         style="stop-color:#ffffff;stop-opacity:0" />
    </linearGradient>
    <linearGradient
       inkscape:collect="always"
       id="linearGradient3047">
      <stop
         style="stop-color:#000000;stop-opacity:1"
         offset="0"
         id="stop3049" />
      <stop
         id="stop3055"
         offset="0.06123874"
         style="stop-color:#1a1a1a;stop-opacity:1" />
      <stop
         style="stop-color:#333333;stop-opacity:1"
         offset="0.16480456"
         id="stop3057" />
      <stop
         id="stop3059"
         offset="0.55385184"
         style="stop-color:#4d4d4d;stop-opacity:1" />
      <stop
         style="stop-color:#999999;stop-opacity:1"
         offset="1"
         id="stop3051" />
    </linearGradient>
    <linearGradient
       id="linearGradient3041"
       inkscape:collect="always">
      <stop
         id="stop3043"
         offset="0"
         style="stop-color:#1a1a1a;stop-opacity:1" />
      <stop
         id="stop3045"
         offset="1"
         style="stop-color:#808080;stop-opacity:1" />
    </linearGradient>
    <linearGradient
       inkscape:collect="always"
       id="linearGradient3029">
      <stop
         style="stop-color:#333333;stop-opacity:1"
         offset="0"
         id="stop3031" />
      <stop
         style="stop-color:#e0e0dd;stop-opacity:0;"
         offset="1"
         id="stop3033" />
    </linearGradient>
    <linearGradient
       inkscape:collect="always"
       xlink:href="#linearGradient3029"
       id="linearGradient3035"
       x1="35.355339"
       y1="1030.3622"
       x2="35.355339"
       y2="975.33282"
       gradientUnits="userSpaceOnUse"
       gradientTransform="matrix(1.1638085,0,0,1.1638085,-7.862809,-164.23642)" />
    <linearGradient
       inkscape:collect="always"
       xlink:href="#linearGradient3041"
       id="linearGradient3039"
       gradientUnits="userSpaceOnUse"
       x1="35.355339"
       y1="1030.3622"
       x2="35.355339"
       y2="975.33282"
       gradientTransform="matrix(1.1218695,0,0,1.1218695,-5.8497348,-122.18782)" />
    <linearGradient
       inkscape:collect="always"
       xlink:href="#linearGradient3047"
       id="linearGradient3053"
       x1="40"
       y1="1043.4336"
       x2="39.285713"
       y2="972.33325"
       gradientUnits="userSpaceOnUse" />
    <linearGradient
       inkscape:collect="always"
       xlink:href="#linearGradient3073"
       id="linearGradient3113"
       gradientUnits="userSpaceOnUse"
       gradientTransform="translate(0,-956.36218)"
       x1="14.869445"
       y1="978.90387"
       x2="24.52651"
       y2="969.24683" />
    <linearGradient
       inkscape:collect="always"
       xlink:href="#linearGradient3073"
       id="linearGradient3115"
       gradientUnits="userSpaceOnUse"
       gradientTransform="matrix(-1,0,0,1,96,-956.36218)"
       x1="15.152279"
       y1="978.62103"
       x2="26.263966"
       y2="967.50934" />
    <linearGradient
       inkscape:collect="always"
       xlink:href="#linearGradient3119"
       id="linearGradient3117"
       gradientUnits="userSpaceOnUse"
       gradientTransform="translate(0,-956.36218)"
       x1="13.131983"
       y1="980.64136"
       x2="25.549681"
       y2="967.86646" />
    <linearGradient
       inkscape:collect="always"
       xlink:href="#linearGradient3119"
       id="linearGradient3129"
       gradientUnits="userSpaceOnUse"
       gradientTransform="matrix(-1,0,0,1,96,0)"
       x1="13.131983"
       y1="980.64136"
       x2="25.549681"
       y2="967.86646" />
    <linearGradient
       inkscape:collect="always"
       xlink:href="#linearGradient3048"
       id="linearGradient3054"
       x1="49.267925"
       y1="996.57349"
       x2="49.267925"
       y2="1045.8627"
       gradientUnits="userSpaceOnUse" />
    <linearGradient
       inkscape:collect="always"
       xlink:href="#linearGradient3048"
       id="linearGradient3058"
       x1="115.80308"
       y1="985.47241"
       x2="115.80308"
       y2="1033.5543"
       gradientUnits="userSpaceOnUse" />
    <linearGradient
       inkscape:collect="always"
       xlink:href="#linearGradient3076"
       id="linearGradient3055"
       gradientUnits="userSpaceOnUse"
       x1="115.80308"
       y1="985.47241"
       x2="115.80308"
       y2="1025.3639"
       gradientTransform="matrix(1.4144782,0,0,1.4144782,-119.78686,-419.05496)" />
    <linearGradient
       inkscape:collect="always"
       xlink:href="#linearGradient3076"
       id="linearGradient3086"
       gradientUnits="userSpaceOnUse"
       gradientTransform="matrix(1.4144782,0,0,1.4144782,-119.78686,-417.12598)"
       x1="115.80308"
       y1="985.47241"
       x2="115.80308"
       y2="1025.3639" />
    <linearGradient
       inkscape:collect="always"
       xlink:href="#linearGradient3076"
       id="linearGradient3091"
       gradientUnits="userSpaceOnUse"
       gradientTransform="matrix(1.4144782,0,0,1.4144782,-119.78686,-418.126)"
       x1="115.80308"
       y1="985.47241"
       x2="115.80308"
       y2="1025.3639" />
    <linearGradient
       inkscape:collect="always"
       xlink:href="#linearGradient3076"
       id="linearGradient3093"
       gradientUnits="userSpaceOnUse"
       gradientTransform="matrix(1.4144782,0,0,1.4144782,-119.78686,-1375.4171)"
       x1="115.80308"
       y1="985.47241"
       x2="115.80308"
       y2="1025.3639" />
    <linearGradient
       inkscape:collect="always"
       xlink:href="#linearGradient3558"
       id="linearGradient3564"
       x1="93.242035"
       y1="1027.2615"
       x2="93.242035"
       y2="980.7262"
       gradientUnits="userSpaceOnUse" />
    <linearGradient
       inkscape:collect="always"
       xlink:href="#linearGradient3558"
       id="linearGradient4350"
       gradientUnits="userSpaceOnUse"
       x1="93.242035"
       y1="1027.2615"
       x2="93.242035"
       y2="980.7262" />
    <linearGradient
       x1="48"
       y1="20.220806"
       x2="48"
       y2="138.66119"
       id="linearGradient3613"
       xlink:href="#linearGradient3737"
       gradientUnits="userSpaceOnUse" />
    <linearGradient
       id="linearGradient3737">
      <stop
         id="stop3739"
         style="stop-color:#ffffff;stop-opacity:1"
         offset="0" />
      <stop
         id="stop3741"
         style="stop-color:#ffffff;stop-opacity:0"
         offset="1" />
    </linearGradient>
    <clipPath
       id="clipPath4355">
      <rect
         width="84"
         height="80"
         rx="6"
         ry="6"
         x="6"
         y="6"
         id="rect4357"
         style="fill:#ffffff;fill-opacity:1;fill-rule:nonzero;stroke:none" />
    </clipPath>
    <filter
       x="-0.192"
       y="-0.192"
       width="1.3839999"
       height="1.3839999"
       color-interpolation-filters="sRGB"
       id="filter3794">
      <feGaussianBlur
         id="feGaussianBlur3796"
         stdDeviation="5.28" />
    </filter>
    <linearGradient
       y2="138.66119"
       x2="48"
       y1="20.220806"
       x1="48"
       gradientUnits="userSpaceOnUse"
       id="linearGradient3155"
       xlink:href="#linearGradient3737"
       inkscape:collect="always" />
    <linearGradient
       x1="48"
       y1="20.220806"
       x2="48"
       y2="138.66119"
       id="linearGradient3613-9"
       xlink:href="#linearGradient3737-7"
       gradientUnits="userSpaceOnUse" />
    <linearGradient
       id="linearGradient3737-7">
      <stop
         id="stop3739-5"
         style="stop-color:#ffffff;stop-opacity:1"
         offset="0" />
      <stop
         id="stop3741-8"
         style="stop-color:#ffffff;stop-opacity:0"
         offset="1" />
    </linearGradient>
    <clipPath
       id="clipPath4355-8">
      <rect
         width="84"
         height="80"
         rx="6"
         ry="6"
         x="6"
         y="6"
         id="rect4357-5"
         style="fill:#ffffff;fill-opacity:1;fill-rule:nonzero;stroke:none" />
    </clipPath>
    <filter
       x="-0.192"
       y="-0.192"
       width="1.3839999"
       height="1.3839999"
       color-interpolation-filters="sRGB"
       id="filter3794-7">
      <feGaussianBlur
         id="feGaussianBlur3796-7"
         stdDeviation="5.28" />
    </filter>
    <linearGradient
       x1="32.251034"
       y1="6.1317081"
       x2="32.251034"
       y2="90.238609"
       id="linearGradient3026"
       xlink:href="#ButtonShadow-0"
       gradientUnits="userSpaceOnUse"
       gradientTransform="matrix(1.0238095,0,0,1.0119048,-1.1428571,-98.071429)" />
    <linearGradient
       x1="45.447727"
       y1="92.539597"
       x2="45.447727"
       y2="7.0165396"
       id="ButtonShadow-0"
       gradientUnits="userSpaceOnUse"
       gradientTransform="matrix(1.0058652,0,0,0.994169,100,0)">
      <stop
         id="stop3750-8"
         style="stop-color:#000000;stop-opacity:1"
         offset="0" />
      <stop
         id="stop3752-5"
         style="stop-color:#000000;stop-opacity:0.58823532"
         offset="1" />
    </linearGradient>
    <linearGradient
       x1="32.251034"
       y1="6.1317081"
       x2="32.251034"
       y2="90.238609"
       id="linearGradient3780"
       xlink:href="#ButtonShadow-0"
       gradientUnits="userSpaceOnUse"
       gradientTransform="matrix(1.0238095,0,0,1.0119048,-1.1428571,-98.071429)" />
    <linearGradient
       x1="45.447727"
       y1="92.539597"
       x2="45.447727"
       y2="7.0165396"
       id="linearGradient3180"
       gradientUnits="userSpaceOnUse"
       gradientTransform="matrix(1.0058652,0,0,0.994169,100,0)">
      <stop
         id="stop3182"
         style="stop-color:#000000;stop-opacity:1"
         offset="0" />
      <stop
         id="stop3184"
         style="stop-color:#000000;stop-opacity:0.58823532"
         offset="1" />
    </linearGradient>
    <linearGradient
       x1="32.251034"
       y1="6.1317081"
       x2="32.251034"
       y2="90.238609"
       id="linearGradient3772"
       xlink:href="#ButtonShadow-0"
       gradientUnits="userSpaceOnUse"
       gradientTransform="matrix(1.0238095,0,0,1.0119048,-1.1428571,-98.071429)" />
    <linearGradient
       x1="45.447727"
       y1="92.539597"
       x2="45.447727"
       y2="7.0165396"
       id="linearGradient3187"
       gradientUnits="userSpaceOnUse"
       gradientTransform="matrix(1.0058652,0,0,0.994169,100,0)">
      <stop
         id="stop3189"
         style="stop-color:#000000;stop-opacity:1"
         offset="0" />
      <stop
         id="stop3191"
         style="stop-color:#000000;stop-opacity:0.58823532"
         offset="1" />
    </linearGradient>
    <linearGradient
       x1="32.251034"
       y1="6.1317081"
       x2="32.251034"
       y2="90.238609"
       id="linearGradient3725"
       xlink:href="#ButtonShadow-0"
       gradientUnits="userSpaceOnUse"
       gradientTransform="matrix(1.0238095,0,0,1.0119048,-1.1428571,-98.071429)" />
    <linearGradient
       x1="45.447727"
       y1="92.539597"
       x2="45.447727"
       y2="7.0165396"
       id="linearGradient3194"
       gradientUnits="userSpaceOnUse"
       gradientTransform="matrix(1.0058652,0,0,0.994169,100,0)">
      <stop
         id="stop3196"
         style="stop-color:#000000;stop-opacity:1"
         offset="0" />
      <stop
         id="stop3198"
         style="stop-color:#000000;stop-opacity:0.58823532"
         offset="1" />
    </linearGradient>
    <linearGradient
       x1="32.251034"
       y1="6.1317081"
       x2="32.251034"
       y2="90.238609"
       id="linearGradient3721"
       xlink:href="#ButtonShadow-0"
       gradientUnits="userSpaceOnUse"
       gradientTransform="translate(0,-97)" />
    <linearGradient
       x1="45.447727"
       y1="92.539597"
       x2="45.447727"
       y2="7.0165396"
       id="linearGradient3201"
       gradientUnits="userSpaceOnUse"
       gradientTransform="matrix(1.0058652,0,0,0.994169,100,0)">
      <stop
         id="stop3203"
         style="stop-color:#000000;stop-opacity:1"
         offset="0" />
      <stop
         id="stop3205"
         style="stop-color:#000000;stop-opacity:0.58823532"
         offset="1" />
    </linearGradient>
    <linearGradient
       x1="48"
       y1="20.220806"
       x2="48"
       y2="138.66119"
       id="linearGradient3613-2"
       xlink:href="#linearGradient3737-1"
       gradientUnits="userSpaceOnUse" />
    <linearGradient
       id="linearGradient3737-1">
      <stop
         id="stop3739-3"
         style="stop-color:#ffffff;stop-opacity:1"
         offset="0" />
      <stop
         id="stop3741-7"
         style="stop-color:#ffffff;stop-opacity:0"
         offset="1" />
    </linearGradient>
    <clipPath
       id="clipPath4355-0">
      <rect
         width="84"
         height="80"
         rx="6"
         ry="6"
         x="6"
         y="6"
         id="rect4357-3"
         style="fill:#ffffff;fill-opacity:1;fill-rule:nonzero;stroke:none" />
    </clipPath>
    <filter
       x="-0.192"
       y="-0.192"
       width="1.3839999"
       height="1.3839999"
       color-interpolation-filters="sRGB"
       id="filter3794-73">
      <feGaussianBlur
         id="feGaussianBlur3796-0"
         stdDeviation="5.28" />
    </filter>
    <linearGradient
       x1="32.251034"
       y1="6.1317081"
       x2="32.251034"
       y2="90.238609"
       id="linearGradient3026-1"
       xlink:href="#ButtonShadow-0-5"
       gradientUnits="userSpaceOnUse"
       gradientTransform="matrix(1.0238095,0,0,1.0119048,-1.1428571,-98.071429)" />
    <linearGradient
       x1="45.447727"
       y1="92.539597"
       x2="45.447727"
       y2="7.0165396"
       id="ButtonShadow-0-5"
       gradientUnits="userSpaceOnUse"
       gradientTransform="matrix(1.0058652,0,0,0.994169,100,0)">
      <stop
         id="stop3750-8-2"
         style="stop-color:#000000;stop-opacity:1"
         offset="0" />
      <stop
         id="stop3752-5-7"
         style="stop-color:#000000;stop-opacity:0.58823532"
         offset="1" />
    </linearGradient>
    <linearGradient
       x1="32.251034"
       y1="6.1317081"
       x2="32.251034"
       y2="90.238609"
       id="linearGradient3780-7"
       xlink:href="#ButtonShadow-0-5"
       gradientUnits="userSpaceOnUse"
       gradientTransform="matrix(1.0238095,0,0,1.0119048,-1.1428571,-98.071429)" />
    <linearGradient
       x1="45.447727"
       y1="92.539597"
       x2="45.447727"
       y2="7.0165396"
       id="linearGradient3241"
       gradientUnits="userSpaceOnUse"
       gradientTransform="matrix(1.0058652,0,0,0.994169,100,0)">
      <stop
         id="stop3243"
         style="stop-color:#000000;stop-opacity:1"
         offset="0" />
      <stop
         id="stop3245"
         style="stop-color:#000000;stop-opacity:0.58823532"
         offset="1" />
    </linearGradient>
    <linearGradient
       x1="32.251034"
       y1="6.1317081"
       x2="32.251034"
       y2="90.238609"
       id="linearGradient3772-5"
       xlink:href="#ButtonShadow-0-5"
       gradientUnits="userSpaceOnUse"
       gradientTransform="matrix(1.0238095,0,0,1.0119048,-1.1428571,-98.071429)" />
    <linearGradient
       x1="45.447727"
       y1="92.539597"
       x2="45.447727"
       y2="7.0165396"
       id="linearGradient3248"
       gradientUnits="userSpaceOnUse"
       gradientTransform="matrix(1.0058652,0,0,0.994169,100,0)">
      <stop
         id="stop3250"
         style="stop-color:#000000;stop-opacity:1"
         offset="0" />
      <stop
         id="stop3252"
         style="stop-color:#000000;stop-opacity:0.58823532"
         offset="1" />
    </linearGradient>
    <linearGradient
       x1="32.251034"
       y1="6.1317081"
       x2="32.251034"
       y2="90.238609"
       id="linearGradient3725-9"
       xlink:href="#ButtonShadow-0-5"
       gradientUnits="userSpaceOnUse"
       gradientTransform="matrix(1.0238095,0,0,1.0119048,-1.1428571,-98.071429)" />
    <linearGradient
       x1="45.447727"
       y1="92.539597"
       x2="45.447727"
       y2="7.0165396"
       id="linearGradient3255"
       gradientUnits="userSpaceOnUse"
       gradientTransform="matrix(1.0058652,0,0,0.994169,100,0)">
      <stop
         id="stop3257"
         style="stop-color:#000000;stop-opacity:1"
         offset="0" />
      <stop
         id="stop3259"
         style="stop-color:#000000;stop-opacity:0.58823532"
         offset="1" />
    </linearGradient>
    <linearGradient
       x1="32.251034"
       y1="6.1317081"
       x2="32.251034"
       y2="90.238609"
       id="linearGradient3721-0"
       xlink:href="#ButtonShadow-0-5"
       gradientUnits="userSpaceOnUse"
       gradientTransform="translate(0,-97)" />
    <linearGradient
       x1="45.447727"
       y1="92.539597"
       x2="45.447727"
       y2="7.0165396"
       id="linearGradient3262"
       gradientUnits="userSpaceOnUse"
       gradientTransform="matrix(1.0058652,0,0,0.994169,100,0)">
      <stop
         id="stop3264"
         style="stop-color:#000000;stop-opacity:1"
         offset="0" />
      <stop
         id="stop3266"
         style="stop-color:#000000;stop-opacity:0.58823532"
         offset="1" />
    </linearGradient>
    <linearGradient
       inkscape:collect="always"
       xlink:href="#linearGradient4384"
       id="linearGradient3280"
       gradientUnits="userSpaceOnUse"
       spreadMethod="reflect"
       x1="48"
       y1="82"
       x2="112.12357"
       y2="82.454597"
       gradientTransform="translate(-102.19033,953.17606)" />
    <linearGradient
       id="linearGradient4384">
      <stop
         id="stop4386"
         style="stop-color:#ffffff;stop-opacity:1"
         offset="0" />
      <stop
         id="stop4388"
         style="stop-color:#ffffff;stop-opacity:0"
         offset="1" />
    </linearGradient>
    <linearGradient
       inkscape:collect="always"
       xlink:href="#linearGradient4384"
       id="linearGradient3284"
       gradientUnits="userSpaceOnUse"
       gradientTransform="matrix(1,0,0,-1,-102.19033,1045.176)"
       x1="48"
       y1="88"
       x2="48"
       y2="-40" />
    <linearGradient
       id="linearGradient3386">
      <stop
         id="stop3388"
         style="stop-color:#ffffff;stop-opacity:1"
         offset="0" />
      <stop
         id="stop3390"
         style="stop-color:#ffffff;stop-opacity:0"
         offset="1" />
    </linearGradient>
    <clipPath
       id="clipPath4165">
      <rect
         width="84"
         height="84"
         rx="6"
         ry="6"
         x="6"
         y="6"
         id="rect4167"
         style="fill:#ff2a2a;fill-opacity:1;fill-rule:nonzero;stroke:none" />
    </clipPath>
    <radialGradient
       cx="24.821428"
       cy="26.357143"
       r="8.0357141"
       fx="24.821428"
       fy="26.357143"
       id="radialGradient4393"
       xlink:href="#linearGradient3853"
       gradientUnits="userSpaceOnUse" />
    <linearGradient
       id="linearGradient3853">
      <stop
         id="stop3855"
         style="stop-color:#e88d01;stop-opacity:0.18431373"
         offset="0" />
      <stop
         id="stop3863"
         style="stop-color:#e58907;stop-opacity:0.4108527"
         offset="0.5" />
      <stop
         id="stop4397"
         style="stop-color:#e48a0a;stop-opacity:0.68217057"
         offset="0.75" />
      <stop
         id="stop3859"
         style="stop-color:#e4870a;stop-opacity:1"
         offset="1" />
    </linearGradient>
    <radialGradient
       cx="43.392857"
       cy="30.464287"
       r="4.1071429"
       fx="43.392857"
       fy="30.464287"
       id="radialGradient4045"
       xlink:href="#linearGradient3853"
       gradientUnits="userSpaceOnUse" />
    <linearGradient
       id="linearGradient3401">
      <stop
         id="stop3403"
         style="stop-color:#e88d01;stop-opacity:0.18431373"
         offset="0" />
      <stop
         id="stop3405"
         style="stop-color:#e58907;stop-opacity:0.4108527"
         offset="0.5" />
      <stop
         id="stop3407"
         style="stop-color:#e48a0a;stop-opacity:0.68217057"
         offset="0.75" />
      <stop
         id="stop3409"
         style="stop-color:#e4870a;stop-opacity:1"
         offset="1" />
    </linearGradient>
    <radialGradient
       cx="53.542297"
       cy="24.639818"
       r="2.1428571"
       fx="53.542297"
       fy="24.639818"
       id="radialGradient4047"
       xlink:href="#linearGradient3698"
       gradientUnits="userSpaceOnUse" />
    <linearGradient
       id="linearGradient3698">
      <stop
         id="stop3700"
         style="stop-color:#f0a801;stop-opacity:0.18604651"
         offset="0" />
      <stop
         id="stop3711"
         style="stop-color:#f0a801;stop-opacity:0.35658914"
         offset="0.5" />
      <stop
         id="stop4395"
         style="stop-color:#e8a301;stop-opacity:0.83720928"
         offset="0.75" />
      <stop
         id="stop3703"
         style="stop-color:#e09201;stop-opacity:1"
         offset="1" />
    </linearGradient>
    <radialGradient
       cx="62.678574"
       cy="37.607143"
       r="5.3571429"
       fx="62.678574"
       fy="37.607143"
       id="radialGradient4049"
       xlink:href="#linearGradient3698"
       gradientUnits="userSpaceOnUse" />
    <linearGradient
       id="linearGradient3418">
      <stop
         id="stop3420"
         style="stop-color:#f0a801;stop-opacity:0.18604651"
         offset="0" />
      <stop
         id="stop3422"
         style="stop-color:#f0a801;stop-opacity:0.35658914"
         offset="0.5" />
      <stop
         id="stop3424"
         style="stop-color:#e8a301;stop-opacity:0.83720928"
         offset="0.75" />
      <stop
         id="stop3426"
         style="stop-color:#e09201;stop-opacity:1"
         offset="1" />
    </linearGradient>
    <radialGradient
       cx="30.529381"
       cy="62.282928"
       r="6.6071429"
       fx="30.529381"
       fy="62.282928"
       id="radialGradient4051"
       xlink:href="#linearGradient3698"
       gradientUnits="userSpaceOnUse" />
    <linearGradient
       id="linearGradient3429">
      <stop
         id="stop3431"
         style="stop-color:#f0a801;stop-opacity:0.18604651"
         offset="0" />
      <stop
         id="stop3433"
         style="stop-color:#f0a801;stop-opacity:0.35658914"
         offset="0.5" />
      <stop
         id="stop3435"
         style="stop-color:#e8a301;stop-opacity:0.83720928"
         offset="0.75" />
      <stop
         id="stop3437"
         style="stop-color:#e09201;stop-opacity:1"
         offset="1" />
    </linearGradient>
    <radialGradient
       cx="65.730751"
       cy="71.637032"
       r="8.2142859"
       fx="65.730751"
       fy="71.637032"
       id="radialGradient4053"
       xlink:href="#linearGradient3853"
       gradientUnits="userSpaceOnUse" />
    <linearGradient
       id="linearGradient3440">
      <stop
         id="stop3442"
         style="stop-color:#e88d01;stop-opacity:0.18431373"
         offset="0" />
      <stop
         id="stop3444"
         style="stop-color:#e58907;stop-opacity:0.4108527"
         offset="0.5" />
      <stop
         id="stop3446"
         style="stop-color:#e48a0a;stop-opacity:0.68217057"
         offset="0.75" />
      <stop
         id="stop3448"
         style="stop-color:#e4870a;stop-opacity:1"
         offset="1" />
    </linearGradient>
    <radialGradient
       cx="48.795593"
       cy="56.425529"
       r="3.3928571"
       fx="48.795593"
       fy="56.425529"
       id="radialGradient4055"
       xlink:href="#linearGradient3698"
       gradientUnits="userSpaceOnUse" />
    <linearGradient
       id="linearGradient3451">
      <stop
         id="stop3453"
         style="stop-color:#f0a801;stop-opacity:0.18604651"
         offset="0" />
      <stop
         id="stop3455"
         style="stop-color:#f0a801;stop-opacity:0.35658914"
         offset="0.5" />
      <stop
         id="stop3457"
         style="stop-color:#e8a301;stop-opacity:0.83720928"
         offset="0.75" />
      <stop
         id="stop3459"
         style="stop-color:#e09201;stop-opacity:1"
         offset="1" />
    </linearGradient>
    <radialGradient
       cx="12.211246"
       cy="77.45517"
       r="7.8571429"
       fx="12.211246"
       fy="77.45517"
       id="radialGradient4125"
       xlink:href="#linearGradient3853"
       gradientUnits="userSpaceOnUse" />
    <linearGradient
       id="linearGradient3462">
      <stop
         id="stop3464"
         style="stop-color:#e88d01;stop-opacity:0.18431373"
         offset="0" />
      <stop
         id="stop3466"
         style="stop-color:#e58907;stop-opacity:0.4108527"
         offset="0.5" />
      <stop
         id="stop3468"
         style="stop-color:#e48a0a;stop-opacity:0.68217057"
         offset="0.75" />
      <stop
         id="stop3470"
         style="stop-color:#e4870a;stop-opacity:1"
         offset="1" />
    </linearGradient>
    <radialGradient
       cx="33.899441"
       cy="87.035973"
       r="4.1071429"
       fx="33.899441"
       fy="87.035973"
       id="radialGradient4059"
       xlink:href="#linearGradient3698"
       gradientUnits="userSpaceOnUse" />
    <linearGradient
       id="linearGradient3473">
      <stop
         id="stop3475"
         style="stop-color:#f0a801;stop-opacity:0.18604651"
         offset="0" />
      <stop
         id="stop3477"
         style="stop-color:#f0a801;stop-opacity:0.35658914"
         offset="0.5" />
      <stop
         id="stop3479"
         style="stop-color:#e8a301;stop-opacity:0.83720928"
         offset="0.75" />
      <stop
         id="stop3481"
         style="stop-color:#e09201;stop-opacity:1"
         offset="1" />
    </linearGradient>
    <radialGradient
       cx="50.863728"
       cy="86.75354"
       r="5.3571429"
       fx="50.863728"
       fy="86.75354"
       id="radialGradient4061"
       xlink:href="#linearGradient3698"
       gradientUnits="userSpaceOnUse" />
    <linearGradient
       id="linearGradient3484">
      <stop
         id="stop3486"
         style="stop-color:#f0a801;stop-opacity:0.18604651"
         offset="0" />
      <stop
         id="stop3488"
         style="stop-color:#f0a801;stop-opacity:0.35658914"
         offset="0.5" />
      <stop
         id="stop3490"
         style="stop-color:#e8a301;stop-opacity:0.83720928"
         offset="0.75" />
      <stop
         id="stop3492"
         style="stop-color:#e09201;stop-opacity:1"
         offset="1" />
    </linearGradient>
    <radialGradient
       cx="73.392853"
       cy="13.678572"
       r="3.5714285"
       fx="73.392853"
       fy="13.678572"
       id="radialGradient4063"
       xlink:href="#linearGradient3853"
       gradientUnits="userSpaceOnUse" />
    <linearGradient
       id="linearGradient3495">
      <stop
         id="stop3497"
         style="stop-color:#e88d01;stop-opacity:0.18431373"
         offset="0" />
      <stop
         id="stop3499"
         style="stop-color:#e58907;stop-opacity:0.4108527"
         offset="0.5" />
      <stop
         id="stop3501"
         style="stop-color:#e48a0a;stop-opacity:0.68217057"
         offset="0.75" />
      <stop
         id="stop3503"
         style="stop-color:#e4870a;stop-opacity:1"
         offset="1" />
    </linearGradient>
    <radialGradient
       cx="80.714287"
       cy="25.642857"
       r="9.2857141"
       fx="80.714287"
       fy="25.642857"
       id="radialGradient4065"
       xlink:href="#linearGradient3698"
       gradientUnits="userSpaceOnUse" />
    <linearGradient
       id="linearGradient3506">
      <stop
         id="stop3508"
         style="stop-color:#f0a801;stop-opacity:0.18604651"
         offset="0" />
      <stop
         id="stop3510"
         style="stop-color:#f0a801;stop-opacity:0.35658914"
         offset="0.5" />
      <stop
         id="stop3512"
         style="stop-color:#e8a301;stop-opacity:0.83720928"
         offset="0.75" />
      <stop
         id="stop3514"
         style="stop-color:#e09201;stop-opacity:1"
         offset="1" />
    </linearGradient>
    <radialGradient
       cx="78.237083"
       cy="79.565102"
       r="2.1428571"
       fx="78.237083"
       fy="79.565102"
       id="radialGradient4105"
       xlink:href="#linearGradient3853"
       gradientUnits="userSpaceOnUse" />
    <linearGradient
       id="linearGradient3517">
      <stop
         id="stop3519"
         style="stop-color:#e88d01;stop-opacity:0.18431373"
         offset="0" />
      <stop
         id="stop3521"
         style="stop-color:#e58907;stop-opacity:0.4108527"
         offset="0.5" />
      <stop
         id="stop3523"
         style="stop-color:#e48a0a;stop-opacity:0.68217057"
         offset="0.75" />
      <stop
         id="stop3525"
         style="stop-color:#e4870a;stop-opacity:1"
         offset="1" />
    </linearGradient>
    <radialGradient
       cx="82.597511"
       cy="69.737335"
       r="4.8214288"
       fx="82.597511"
       fy="69.737335"
       id="radialGradient4102"
       xlink:href="#linearGradient3698"
       gradientUnits="userSpaceOnUse" />
    <linearGradient
       id="linearGradient3528">
      <stop
         id="stop3530"
         style="stop-color:#f0a801;stop-opacity:0.18604651"
         offset="0" />
      <stop
         id="stop3532"
         style="stop-color:#f0a801;stop-opacity:0.35658914"
         offset="0.5" />
      <stop
         id="stop3534"
         style="stop-color:#e8a301;stop-opacity:0.83720928"
         offset="0.75" />
      <stop
         id="stop3536"
         style="stop-color:#e09201;stop-opacity:1"
         offset="1" />
    </linearGradient>
    <radialGradient
       cx="12.649444"
       cy="34.282673"
       r="3.2142856"
       fx="12.649444"
       fy="34.282673"
       id="radialGradient4121"
       xlink:href="#linearGradient3698"
       gradientUnits="userSpaceOnUse" />
    <linearGradient
       id="linearGradient3539">
      <stop
         id="stop3541"
         style="stop-color:#f0a801;stop-opacity:0.18604651"
         offset="0" />
      <stop
         id="stop3543"
         style="stop-color:#f0a801;stop-opacity:0.35658914"
         offset="0.5" />
      <stop
         id="stop3545"
         style="stop-color:#e8a301;stop-opacity:0.83720928"
         offset="0.75" />
      <stop
         id="stop3547"
         style="stop-color:#e09201;stop-opacity:1"
         offset="1" />
    </linearGradient>
    <radialGradient
       cx="34.68845"
       cy="5.0425529"
       r="6.0714288"
       fx="34.68845"
       fy="5.0425529"
       id="radialGradient4073"
       xlink:href="#linearGradient3698"
       gradientUnits="userSpaceOnUse" />
    <linearGradient
       id="linearGradient3550">
      <stop
         id="stop3552"
         style="stop-color:#f0a801;stop-opacity:0.18604651"
         offset="0" />
      <stop
         id="stop3554"
         style="stop-color:#f0a801;stop-opacity:0.35658914"
         offset="0.5" />
      <stop
         id="stop3556"
         style="stop-color:#e8a301;stop-opacity:0.83720928"
         offset="0.75" />
      <stop
         id="stop3558"
         style="stop-color:#e09201;stop-opacity:1"
         offset="1" />
    </linearGradient>
    <radialGradient
       cx="3.0230496"
       cy="17.705017"
       r="7.1428571"
       fx="3.0230496"
       fy="17.705017"
       id="radialGradient4119"
       xlink:href="#linearGradient3698"
       gradientUnits="userSpaceOnUse"
       gradientTransform="matrix(1,0,0,0.97500003,0,0.37767813)" />
    <linearGradient
       id="linearGradient3561">
      <stop
         id="stop3563"
         style="stop-color:#f0a801;stop-opacity:0.18604651"
         offset="0" />
      <stop
         id="stop3565"
         style="stop-color:#f0a801;stop-opacity:0.35658914"
         offset="0.5" />
      <stop
         id="stop3567"
         style="stop-color:#e8a301;stop-opacity:0.83720928"
         offset="0.75" />
      <stop
         id="stop3569"
         style="stop-color:#e09201;stop-opacity:1"
         offset="1" />
    </linearGradient>
    <radialGradient
       cx="60.238728"
       cy="7.8686676"
       r="2.7678571"
       fx="60.238728"
       fy="7.8686676"
       id="radialGradient4077"
       xlink:href="#linearGradient3698"
       gradientUnits="userSpaceOnUse" />
    <linearGradient
       id="linearGradient3572">
      <stop
         id="stop3574"
         style="stop-color:#f0a801;stop-opacity:0.18604651"
         offset="0" />
      <stop
         id="stop3576"
         style="stop-color:#f0a801;stop-opacity:0.35658914"
         offset="0.5" />
      <stop
         id="stop3578"
         style="stop-color:#e8a301;stop-opacity:0.83720928"
         offset="0.75" />
      <stop
         id="stop3580"
         style="stop-color:#e09201;stop-opacity:1"
         offset="1" />
    </linearGradient>
    <radialGradient
       inkscape:collect="always"
       xlink:href="#linearGradient3737-0"
       id="radialGradient3327"
       gradientUnits="userSpaceOnUse"
       gradientTransform="matrix(1.1573129,0,0,0.99590774,-109.74135,953.37319)"
       cx="48"
       cy="90.171875"
       fx="48"
       fy="90.171875"
       r="42" />
    <linearGradient
       id="linearGradient3737-0">
      <stop
         id="stop3739-3-7"
         style="stop-color:#ffffff;stop-opacity:1"
         offset="0" />
      <stop
         id="stop3741-0"
         style="stop-color:#ffffff;stop-opacity:0"
         offset="1" />
    </linearGradient>
    <linearGradient
       inkscape:collect="always"
       xlink:href="#linearGradient3737-0"
       id="linearGradient3330"
       gradientUnits="userSpaceOnUse"
       x1="36.357143"
       y1="6"
       x2="36.357143"
       y2="63.893143"
       gradientTransform="translate(-102.19033,953.17606)" />
    <linearGradient
       id="linearGradient3587">
      <stop
         id="stop3589"
         style="stop-color:#ffffff;stop-opacity:1"
         offset="0" />
      <stop
         id="stop3591"
         style="stop-color:#ffffff;stop-opacity:0"
         offset="1" />
    </linearGradient>
    <linearGradient
       inkscape:collect="always"
       xlink:href="#linearGradient2841"
       id="linearGradient3333"
       gradientUnits="userSpaceOnUse"
       x1="48"
       y1="90"
       x2="48"
       y2="5.9877172"
       gradientTransform="translate(-30.101695,23.186441)" />
    <linearGradient
       id="linearGradient2841">
      <stop
         id="stop2843"
         style="stop-color:#f0bf39;stop-opacity:1"
         offset="0" />
      <stop
         id="stop2845"
         style="stop-color:#f8e699;stop-opacity:1"
         offset="1" />
    </linearGradient>
    <linearGradient
       y2="5.9877172"
       x2="48"
       y1="90"
       x1="48"
       gradientTransform="translate(-102.19033,953.17606)"
       gradientUnits="userSpaceOnUse"
       id="linearGradient3639"
       xlink:href="#linearGradient2841"
       inkscape:collect="always" />
    <linearGradient
       x1="90"
       y1="88"
       x2="48"
       y2="88"
       id="linearGradient3890"
       xlink:href="#linearGradient3892"
       gradientUnits="userSpaceOnUse"
       spreadMethod="reflect" />
    <linearGradient
       id="linearGradient3892">
      <stop
         id="stop3894"
         style="stop-color:#000000;stop-opacity:0.47058824"
         offset="0" />
      <stop
         id="stop3896"
         style="stop-color:#000000;stop-opacity:0.39215687"
         offset="0.11780351" />
      <stop
         id="stop3898"
         style="stop-color:#000000;stop-opacity:0.29411766"
         offset="0.23809524" />
      <stop
         id="stop3900"
         style="stop-color:#000000;stop-opacity:0.15686275"
         offset="1" />
    </linearGradient>
    <linearGradient
       x1="6"
       y1="115"
       x2="24"
       y2="115"
       id="linearGradient3884"
       xlink:href="#linearGradient3864"
       gradientUnits="userSpaceOnUse"
       gradientTransform="matrix(-1,0,0,1,96,-30)" />
    <linearGradient
       id="linearGradient3864">
      <stop
         id="stop3866"
         style="stop-color:#ffffff;stop-opacity:0.07843138"
         offset="0" />
      <stop
         id="stop3872"
         style="stop-color:#ffffff;stop-opacity:0.3137255"
         offset="0.25" />
      <stop
         id="stop3874"
         style="stop-color:#ffffff;stop-opacity:0"
         offset="0.60000002" />
      <stop
         id="stop3868"
         style="stop-color:#ffffff;stop-opacity:0"
         offset="1" />
    </linearGradient>
    <linearGradient
       x1="6"
       y1="115"
       x2="24"
       y2="115"
       id="linearGradient3886"
       xlink:href="#linearGradient3864"
       gradientUnits="userSpaceOnUse"
       gradientTransform="translate(0,-30)" />
    <linearGradient
       id="linearGradient3664">
      <stop
         id="stop3666"
         style="stop-color:#ffffff;stop-opacity:0.07843138"
         offset="0" />
      <stop
         id="stop3668"
         style="stop-color:#ffffff;stop-opacity:0.3137255"
         offset="0.25" />
      <stop
         id="stop3670"
         style="stop-color:#ffffff;stop-opacity:0"
         offset="0.60000002" />
      <stop
         id="stop3672"
         style="stop-color:#ffffff;stop-opacity:0"
         offset="1" />
    </linearGradient>
    <linearGradient
       x1="90"
       y1="88"
       x2="48"
       y2="88"
       id="linearGradient3855"
       xlink:href="#linearGradient4482"
       gradientUnits="userSpaceOnUse"
       gradientTransform="translate(0,40)"
       spreadMethod="reflect" />
    <linearGradient
       id="linearGradient4482">
      <stop
         id="stop4484"
         style="stop-color:#ffffff;stop-opacity:0.12977099"
         offset="0" />
      <stop
         id="stop4486"
         style="stop-color:#424242;stop-opacity:0.28244275"
         offset="0.11780351" />
      <stop
         id="stop4488"
         style="stop-color:#2f2f2f;stop-opacity:0.30534351"
         offset="0.23809524" />
      <stop
         id="stop4490"
         style="stop-color:#000000;stop-opacity:0.35114503"
         offset="1" />
    </linearGradient>
    <linearGradient
       id="linearGradient4384-0">
      <stop
         id="stop4386-0"
         style="stop-color:#ffffff;stop-opacity:1"
         offset="0" />
      <stop
         id="stop4388-9"
         style="stop-color:#ffffff;stop-opacity:0"
         offset="1" />
    </linearGradient>
    <linearGradient
       x1="90"
       y1="88"
       x2="48"
       y2="88"
       id="linearGradient3890-1"
       xlink:href="#linearGradient3892-8"
       gradientUnits="userSpaceOnUse"
       spreadMethod="reflect" />
    <linearGradient
       id="linearGradient3892-8">
      <stop
         id="stop3894-9"
         style="stop-color:#000000;stop-opacity:0.47058824"
         offset="0" />
      <stop
         id="stop3896-2"
         style="stop-color:#000000;stop-opacity:0.39215687"
         offset="0.11780351" />
      <stop
         id="stop3898-6"
         style="stop-color:#000000;stop-opacity:0.29411766"
         offset="0.23809524" />
      <stop
         id="stop3900-7"
         style="stop-color:#000000;stop-opacity:0.15686275"
         offset="1" />
    </linearGradient>
    <linearGradient
       x1="6"
       y1="115"
       x2="24"
       y2="115"
       id="linearGradient3884-9"
       xlink:href="#linearGradient3864-6"
       gradientUnits="userSpaceOnUse"
       gradientTransform="matrix(-1,0,0,1,96,-30)" />
    <linearGradient
       id="linearGradient3864-6">
      <stop
         id="stop3866-1"
         style="stop-color:#ffffff;stop-opacity:0.07843138"
         offset="0" />
      <stop
         id="stop3872-2"
         style="stop-color:#ffffff;stop-opacity:0.3137255"
         offset="0.25" />
      <stop
         id="stop3874-1"
         style="stop-color:#ffffff;stop-opacity:0"
         offset="0.60000002" />
      <stop
         id="stop3868-8"
         style="stop-color:#ffffff;stop-opacity:0"
         offset="1" />
    </linearGradient>
    <linearGradient
       x1="6"
       y1="115"
       x2="24"
       y2="115"
       id="linearGradient3886-2"
       xlink:href="#linearGradient3864-6"
       gradientUnits="userSpaceOnUse"
       gradientTransform="translate(0,-30)" />
    <linearGradient
       id="linearGradient3664-6">
      <stop
         id="stop3666-5"
         style="stop-color:#ffffff;stop-opacity:0.07843138"
         offset="0" />
      <stop
         id="stop3668-8"
         style="stop-color:#ffffff;stop-opacity:0.3137255"
         offset="0.25" />
      <stop
         id="stop3670-6"
         style="stop-color:#ffffff;stop-opacity:0"
         offset="0.60000002" />
      <stop
         id="stop3672-6"
         style="stop-color:#ffffff;stop-opacity:0"
         offset="1" />
    </linearGradient>
    <linearGradient
       x1="90"
       y1="88"
       x2="48"
       y2="88"
       id="linearGradient3855-3"
       xlink:href="#linearGradient4482-0"
       gradientUnits="userSpaceOnUse"
       gradientTransform="translate(0,40)"
       spreadMethod="reflect" />
    <linearGradient
       id="linearGradient4482-0">
      <stop
         id="stop4484-5"
         style="stop-color:#ffffff;stop-opacity:0.12977099"
         offset="0" />
      <stop
         id="stop4486-2"
         style="stop-color:#424242;stop-opacity:0.28244275"
         offset="0.11780351" />
      <stop
         id="stop4488-6"
         style="stop-color:#2f2f2f;stop-opacity:0.30534351"
         offset="0.23809524" />
      <stop
         id="stop4490-7"
         style="stop-color:#000000;stop-opacity:0.35114503"
         offset="1" />
    </linearGradient>
    <linearGradient
       id="linearGradient4384-3">
      <stop
         id="stop4386-9"
         style="stop-color:#ffffff;stop-opacity:1"
         offset="0" />
      <stop
         id="stop4388-3"
         style="stop-color:#ffffff;stop-opacity:0"
         offset="1" />
    </linearGradient>
    <linearGradient
       inkscape:collect="always"
       xlink:href="#linearGradient3059"
       id="linearGradient3066"
       x1="10.341395"
       y1="1022.5382"
       x2="73.940445"
       y2="1005.7335"
       gradientUnits="userSpaceOnUse"
       gradientTransform="translate(-215.80251,-2000.541)" />
    <linearGradient
       inkscape:collect="always"
       id="linearGradient3059">
      <stop
         style="stop-color:#1a1a1a;stop-opacity:1"
         offset="0"
         id="stop3061" />
      <stop
         style="stop-color:#333333;stop-opacity:1"
         offset="1"
         id="stop3064" />
    </linearGradient>
    <linearGradient
       inkscape:collect="always"
       xlink:href="#linearGradient3070"
       id="linearGradient3068"
       x1="90.320015"
       y1="994.79559"
       x2="42.581512"
       y2="994.79559"
       gradientUnits="userSpaceOnUse"
       gradientTransform="translate(-1044.1788,-836.55972)" />
    <linearGradient
       id="linearGradient3070">
      <stop
         id="stop3072"
         offset="0"
         style="stop-color:#989898;stop-opacity:1;" />
      <stop
         id="stop3074"
         offset="1"
         style="stop-color:#f7f3f7;stop-opacity:1" />
    </linearGradient>
    <linearGradient
       inkscape:collect="always"
       xlink:href="#linearGradient4017"
       id="linearGradient8524"
       x1="46.913208"
       y1="1044.4631"
       x2="46.913208"
       y2="962.95367"
       gradientUnits="userSpaceOnUse" />
    <linearGradient
       inkscape:collect="always"
       xlink:href="#linearGradient3933"
       id="linearGradient8528"
       x1="60.043682"
       y1="1044.8384"
       x2="60.043682"
       y2="962.01642"
       gradientUnits="userSpaceOnUse" />
    <linearGradient
       id="linearGradient3970">
      <stop
         id="stop4478"
         stop-opacity="1"
         stop-color="#190c16"
         offset="0" />
      <stop
         id="stop4480"
         stop-opacity="0"
         stop-color="#190c16"
         offset="1" />
    </linearGradient>
    <linearGradient
       id="linearGradient3962">
      <stop
         id="stop4483"
         stop-opacity="1"
         stop-color="#000000"
         offset="0" />
      <stop
         id="stop4485"
         stop-opacity="0"
         stop-color="#000000"
         offset="1" />
    </linearGradient>
    <linearGradient
       id="linearGradient3954">
      <stop
         id="stop4488-4"
         stop-opacity="1"
         stop-color="#3a212c"
         offset="0" />
      <stop
         id="stop4490-6"
         stop-opacity="0"
         stop-color="#000000"
         offset="1" />
    </linearGradient>
    <linearGradient
       id="linearGradient3946">
      <stop
         id="stop4493"
         stop-opacity="1"
         stop-color="#a45282"
         offset="0" />
      <stop
         id="stop4495"
         stop-opacity="1"
         stop-color="#101116"
         offset="0.44282705" />
      <stop
         id="stop4497"
         stop-opacity="0"
         stop-color="#131c5d"
         offset="1" />
    </linearGradient>
    <linearGradient
       id="linearGradient3921">
      <stop
         id="stop4505"
         stop-opacity="1"
         stop-color="#552034"
         offset="0" />
      <stop
         id="stop4507"
         stop-opacity="0"
         stop-color="#000000"
         offset="1" />
    </linearGradient>
    <linearGradient
       id="linearGradient3902">
      <stop
         id="stop4510"
         stop-opacity="1"
         stop-color="#913564"
         offset="0" />
      <stop
         id="stop4512"
         stop-opacity="1"
         stop-color="#000000"
         offset="0.41103563" />
      <stop
         id="stop4514"
         stop-opacity="1"
         stop-color="#020611"
         offset="0.60723656" />
      <stop
         id="stop4516"
         stop-opacity="1"
         stop-color="#162171"
         offset="1" />
    </linearGradient>
    <linearGradient
       id="linearGradient4523">
      <stop
         id="stop4525"
         stop-opacity="1"
         stop-color="#a45282"
         offset="0" />
      <stop
         id="stop4527"
         stop-opacity="0"
         stop-color="#a45282"
         offset="1" />
    </linearGradient>
    <linearGradient
       id="linearGradient3070-1">
      <stop
         id="stop4530"
         stop-opacity="1"
         stop-color="#939393"
         offset="0" />
      <stop
         id="stop4532"
         stop-opacity="1"
         stop-color="#010108"
         offset="1" />
    </linearGradient>
    <linearGradient
       id="linearGradient3062">
      <stop
         id="stop4535"
         stop-opacity="1"
         stop-color="#d5d5d5"
         offset="0" />
      <stop
         id="stop4537"
         stop-opacity="1"
         stop-color="#797a72"
         offset="1" />
    </linearGradient>
    <linearGradient
       id="linearGradient3054-6">
      <stop
         id="stop4540"
         stop-opacity="1"
         stop-color="#b8b8b8"
         offset="0" />
      <stop
         id="stop4542"
         stop-opacity="1"
         stop-color="#ebecf0"
         offset="1" />
    </linearGradient>
    <linearGradient
       id="linearGradient3046">
      <stop
         id="stop4545"
         stop-opacity="1"
         stop-color="#a3a3a3"
         offset="0" />
      <stop
         id="stop4547"
         stop-opacity="1"
         stop-color="#fcfcfc"
         offset="1" />
    </linearGradient>
    <linearGradient
       id="linearGradient4037">
      <stop
         id="stop4550"
         stop-opacity="1"
         stop-color="#826bd3"
         offset="0" />
      <stop
         id="stop4552"
         stop-opacity="1"
         stop-color="#f6f0ff"
         offset="1" />
    </linearGradient>
    <linearGradient
       id="linearGradient4011">
      <stop
         id="stop4555"
         stop-opacity="1"
         stop-color="#bdbec3"
         offset="0" />
      <stop
         id="stop4557"
         stop-opacity="1"
         stop-color="#f5f5f5"
         offset="1" />
    </linearGradient>
    <linearGradient
       id="linearGradient3927">
      <stop
         id="stop4560"
         stop-opacity="1"
         stop-color="#c8c9cb"
         offset="0" />
      <stop
         id="stop4562"
         stop-opacity="1"
         stop-color="#ffffff"
         offset="1" />
    </linearGradient>
    <linearGradient
       id="linearGradient4564">
      <stop
         id="stop4566"
         stop-opacity="1"
         stop-color="#b5492f"
         offset="0" />
      <stop
         id="stop4568"
         stop-opacity="1"
         stop-color="#c6513d"
         offset="1" />
    </linearGradient>
    <linearGradient
       y2="962.12079"
       y1="1046.3013"
       x2="19.697975"
       x1="19.697975"
       id="linearGradient3933"
       gradientUnits="userSpaceOnUse"
       gradientTransform="translate(-102.82445,-0.70005723)">
      <stop
         id="stop4571"
         stop-opacity="1"
         stop-color="#c8c9cb"
         offset="0" />
      <stop
         id="stop4573"
         stop-opacity="1"
         stop-color="#ffffff"
         offset="1" />
    </linearGradient>
    <linearGradient
       y2="965.20648"
       y1="1044.505"
       x2="27.857143"
       x1="27.857143"
       id="linearGradient4017"
       gradientUnits="userSpaceOnUse"
       gradientTransform="translate(-102.8278,-0.70005723)">
      <stop
         id="stop4576"
         stop-opacity="1"
         stop-color="#bdbec3"
         offset="0" />
      <stop
         id="stop4578"
         stop-opacity="1"
         stop-color="#f5f5f5"
         offset="1" />
    </linearGradient>
    <linearGradient
       y2="61.654812"
       y1="31.855312"
       x2="-251.0229"
       x1="-262.89221"
       id="linearGradient4580"
       gradientUnits="userSpaceOnUse">
      <stop
         id="stop4582"
         stop-opacity="1"
         stop-color="#826bd3"
         offset="0" />
      <stop
         id="stop4584"
         stop-opacity="1"
         stop-color="#f6f0ff"
         offset="1" />
    </linearGradient>
    <linearGradient
       y2="47.607143"
       y1="47.607143"
       x2="-236.42857"
       x1="-286.78571"
       id="linearGradient4586"
       gradientUnits="userSpaceOnUse">
      <stop
         id="stop4588"
         stop-opacity="1"
         stop-color="#826bd3"
         offset="0" />
      <stop
         id="stop4590"
         stop-opacity="1"
         stop-color="#f6f0ff"
         offset="1" />
    </linearGradient>
    <linearGradient
       y2="18.388222"
       y1="69.618797"
       x2="-17.187912"
       x1="-17.187912"
       id="linearGradient4592"
       gradientUnits="userSpaceOnUse"
       gradientTransform="matrix(1.0623848,0,0,1.0623848,-38.86446,954.57519)">
      <stop
         id="stop4594"
         stop-opacity="1"
         stop-color="#a3a3a3"
         offset="0" />
      <stop
         id="stop4596"
         stop-opacity="1"
         stop-color="#fcfcfc"
         offset="1" />
    </linearGradient>
    <linearGradient
       y2="29.58696"
       y1="67.763275"
       x2="-13.519369"
       x1="-13.519369"
       id="linearGradient4598"
       gradientUnits="userSpaceOnUse"
       gradientTransform="matrix(1.0237527,0,0,1.0237527,-39.44486,956.27915)">
      <stop
         id="stop4600"
         stop-opacity="1"
         stop-color="#b8b8b8"
         offset="0" />
      <stop
         id="stop4602"
         stop-opacity="1"
         stop-color="#ebecf0"
         offset="1" />
    </linearGradient>
    <linearGradient
       y2="19.006235"
       y1="69.536911"
       x2="-15.103923"
       x1="-15.103923"
       id="linearGradient4604"
       gradientUnits="userSpaceOnUse"
       gradientTransform="matrix(0.83059178,0,0,0.83059178,-42.3473,964.79821)">
      <stop
         id="stop4606"
         stop-opacity="1"
         stop-color="#d5d5d5"
         offset="0" />
      <stop
         id="stop4608"
         stop-opacity="1"
         stop-color="#797a72"
         offset="1" />
    </linearGradient>
    <linearGradient
       y2="18.65921"
       y1="69.903336"
       x2="-14.892859"
       x1="-14.892859"
       id="linearGradient4610"
       gradientUnits="userSpaceOnUse"
       gradientTransform="matrix(0.79195961,0,0,0.79195961,-42.92778,966.50202)">
      <stop
         id="stop4612"
         stop-opacity="1"
         stop-color="#939393"
         offset="0" />
      <stop
         id="stop4614"
         stop-opacity="1"
         stop-color="#010108"
         offset="1" />
    </linearGradient>
    <linearGradient
       y2="31.027645"
       y1="67.423302"
       x2="-11.69113"
       x1="-11.69113"
       id="linearGradient4616"
       gradientUnits="userSpaceOnUse"
       gradientTransform="matrix(0.67645529,0,0,0.67645529,-44.66335,971.59615)">
      <stop
         id="stop4618"
         stop-opacity="1"
         stop-color="#913564"
         offset="0" />
      <stop
         id="stop4620"
         stop-opacity="1"
         stop-color="#000000"
         offset="0.41103563" />
      <stop
         id="stop4622"
         stop-opacity="1"
         stop-color="#020611"
         offset="0.60723656" />
      <stop
         id="stop4624"
         stop-opacity="1"
         stop-color="#162171"
         offset="1" />
    </linearGradient>
    <linearGradient
       y2="31.768047"
       y1="70.01561"
       x2="-15.920073"
       x1="-15.920073"
       id="linearGradient4626"
       gradientUnits="userSpaceOnUse"
       gradientTransform="matrix(0.67157724,0,0,0.67157724,-225.37987,972.51135)">
      <stop
         id="stop4628"
         stop-opacity="1"
         stop-color="#a45282"
         offset="0" />
      <stop
         id="stop4630"
         stop-opacity="1"
         stop-color="#101116"
         offset="0.44282705" />
      <stop
         id="stop4632"
         stop-opacity="0"
         stop-color="#131c5d"
         offset="1" />
    </linearGradient>
    <linearGradient
       y2="39.839066"
       y1="57.875"
       x2="-235.44643"
       x1="-235.44643"
       id="linearGradient4634"
       gradientUnits="userSpaceOnUse">
      <stop
         id="stop4636"
         stop-opacity="1"
         stop-color="#552034"
         offset="0" />
      <stop
         id="stop4638"
         stop-opacity="0"
         stop-color="#000000"
         offset="1" />
    </linearGradient>
    <linearGradient
       y2="27.14151"
       y1="70.033607"
       x2="-14.7849"
       x1="-14.7849"
       id="linearGradient4640"
       gradientUnits="userSpaceOnUse"
       gradientTransform="matrix(0.43737142,0,0,0.43737142,-48.25583,982.14057)">
      <stop
         id="stop4642"
         stop-opacity="0.76158941"
         stop-color="#000000"
         offset="0" />
      <stop
         id="stop4644"
         stop-opacity="0"
         stop-color="#000000"
         offset="1" />
    </linearGradient>
    <linearGradient
       y2="18.347986"
       y1="70.406853"
       x2="-14.743715"
       x1="-14.743715"
       id="linearGradient4646"
       gradientUnits="userSpaceOnUse"
       gradientTransform="matrix(0.37355935,0,0,0.37355935,-49.21467,984.9549)">
      <stop
         id="stop4648"
         stop-opacity="1"
         stop-color="#3a212c"
         offset="0" />
      <stop
         id="stop4650"
         stop-opacity="0"
         stop-color="#000000"
         offset="1" />
    </linearGradient>
    <linearGradient
       y2="18.732513"
       y1="69.961876"
       x2="-14.999325"
       x1="-14.999325"
       id="linearGradient4652"
       gradientUnits="userSpaceOnUse"
       gradientTransform="matrix(0.31418582,0,0,0.31418582,-50.10681,987.57347)">
      <stop
         id="stop4654"
         stop-opacity="1"
         stop-color="#000000"
         offset="0" />
      <stop
         id="stop4656"
         stop-opacity="0"
         stop-color="#000000"
         offset="1" />
    </linearGradient>
    <linearGradient
       y2="16.866121"
       y1="70.365295"
       x2="-15.402743"
       x1="-15.402743"
       id="linearGradient4658"
       gradientUnits="userSpaceOnUse"
       gradientTransform="matrix(0.23711758,0,0,0.23711758,-51.26484,990.97244)">
      <stop
         id="stop4660"
         stop-opacity="1"
         stop-color="#190c16"
         offset="0" />
      <stop
         id="stop4662"
         stop-opacity="0"
         stop-color="#190c16"
         offset="1" />
    </linearGradient>
    <linearGradient
       y2="42.075893"
       y1="23.671644"
       x2="-236.07143"
       x1="-236.07143"
       id="linearGradient4664"
       gradientUnits="userSpaceOnUse"
       gradientTransform="matrix(1,0,0,0.82049552,0,961.49633)">
      <stop
         id="stop4666"
         stop-opacity="1"
         stop-color="#ffffff"
         offset="0" />
      <stop
         id="stop4668"
         stop-opacity="0.10596026"
         stop-color="#ffffff"
         offset="1" />
    </linearGradient>
    <linearGradient
       y2="42.075893"
       y1="23.671644"
       x2="-236.07143"
       x1="-236.07143"
       id="linearGradient4092"
       gradientUnits="userSpaceOnUse"
       gradientTransform="matrix(1,0,0,0.82049552,180.64322,960.79627)">
      <stop
         id="stop4740"
         stop-opacity="1"
         stop-color="#ffffff"
         offset="0" />
      <stop
         id="stop4742"
         stop-opacity="0.10596026"
         stop-color="#ffffff"
         offset="1" />
    </linearGradient>
    <linearGradient
       y2="31.768047"
       y1="70.01561"
       x2="-15.920073"
       x1="-15.920073"
       id="linearGradient4099"
       gradientUnits="userSpaceOnUse"
       gradientTransform="matrix(0.67157724,0,0,0.67157724,-44.73665,971.81129)">
      <stop
         id="stop4745"
         stop-opacity="1"
         stop-color="#a45282"
         offset="0" />
      <stop
         id="stop4747"
         stop-opacity="1"
         stop-color="#101116"
         offset="0.44282705" />
      <stop
         id="stop4749"
         stop-opacity="0"
         stop-color="#131c5d"
         offset="1" />
    </linearGradient>
    <linearGradient
       y2="39.839066"
       y1="57.875"
       x2="-235.44643"
       x1="-235.44643"
       id="linearGradient4103"
       gradientUnits="userSpaceOnUse"
       gradientTransform="translate(180.64322,955.66214)">
      <stop
         id="stop4752"
         stop-opacity="1"
         stop-color="#552034"
         offset="0" />
      <stop
         id="stop4754"
         stop-opacity="0"
         stop-color="#000000"
         offset="1" />
    </linearGradient>
  </defs>
  <sodipodi:namedview
     id="base"
     pagecolor="#ffffff"
     bordercolor="#666666"
     borderopacity="1.0"
     inkscape:pageopacity="0.0"
     inkscape:pageshadow="2"
     inkscape:zoom="1.9519093"
     inkscape:cx="32.417878"
     inkscape:cy="105.32304"
     inkscape:document-units="px"
     inkscape:current-layer="layer1"
     showgrid="false"
     inkscape:window-width="1332"
     inkscape:window-height="714"
     inkscape:window-x="34"
     inkscape:window-y="28"
     inkscape:window-maximized="1"
     showguides="true"
     inkscape:guide-bbox="true" />
  <metadata
     id="metadata7">
    <rdf:RDF>
      <cc:Work
         rdf:about="">
        <dc:format>image/svg+xml</dc:format>
        <dc:type
           rdf:resource="http://purl.org/dc/dcmitype/StillImage" />
        <dc:title />
      </cc:Work>
    </rdf:RDF>
  </metadata>
  <g
     inkscape:label="Layer 1"
     inkscape:groupmode="layer"
     id="layer1"
     transform="translate(0,-956.36218)">
    <rect
       style="opacity:0.05;fill:#000000;fill-opacity:1;stroke:none"
       id="rect3826"
       width="89"
       height="89"
       x="3.5"
       y="960.86218"
       rx="10.595235"
       ry="10.595235" />
    <g
       id="g3041">
      <rect
         style="opacity:0.05;fill:#000000;fill-opacity:1;stroke:none"
         id="rect3824"
         width="88"
         height="88"
         x="4"
         y="961.36218"
         rx="10.476188"
         ry="10.476188" />
      <rect
         ry="10.357141"
         rx="10.357141"
         y="961.86218"
         x="4.5"
         height="87"
         width="87"
         id="rect3822"
         style="opacity:0.05;fill:#000000;fill-opacity:1;stroke:none" />
      <rect
         style="opacity:0.1;fill:#000000;fill-opacity:1;stroke:none"
         id="rect3820"
         width="86"
         height="86"
         x="5"
         y="962.36218"
         rx="10.238094"
         ry="10.238094" />
      <rect
         ry="10.119047"
         rx="10.119047"
         y="962.86218"
         x="5.5"
         height="85"
         width="85"
         id="rect3818"
         style="opacity:0.1;fill:#000000;fill-opacity:1;stroke:none" />
      <rect
         style="opacity:0.3;fill:#000000;fill-opacity:1;stroke:none"
         id="rect3131"
         width="84"
         height="84"
         x="6"
         y="963.36218"
         rx="10"
         ry="10" />
    </g>
    <rect
       ry="10"
       rx="10"
       y="962.36218"
       x="6"
       height="84"
       width="84"
       id="rect3036"
       style="fill:url(#linearGradient8528);fill-opacity:1;stroke:none" />
    <rect
       style="fill:url(#linearGradient8524);fill-opacity:1;stroke:none"
       id="rect3034"
       width="82"
       height="82"
       x="7"
       y="963.36218"
       rx="9.7619047"
       ry="9.7619047" />
    <g
       id="g5358"
       transform="translate(102.8278,1.422555)">
      <path
         id="path4768"
         d="m -26.327801,1007.4301 c 0.0034,10.1844 -5.427943,19.5965 -14.247264,24.6897 -8.819321,5.0931 -19.68615,5.0931 -28.505473,0 -8.81932,-5.0932 -14.250648,-14.5053 -14.247265,-24.6897 -0.0039,-10.18464 5.427306,-19.59734 14.246843,-24.69081 8.819535,-5.09346 19.686782,-5.09346 28.506318,0 8.819536,5.09347 14.25075,14.50617 14.246841,24.69081 z"
         inkscape:connector-curvature="0"
         style="fill:#000000;fill-opacity:0.05;stroke:none;stroke-opacity:0.05" />
      <path
         id="path4770"
         d="m -26.327801,1006.4301 c 0.0034,10.1844 -5.427943,19.5965 -14.247264,24.6897 -8.819321,5.0931 -19.68615,5.0931 -28.505473,0 -8.81932,-5.0932 -14.250648,-14.5053 -14.247265,-24.6897 -0.0039,-10.18464 5.427306,-19.59734 14.246843,-24.69081 8.819535,-5.09346 19.686782,-5.09346 28.506318,0 8.819536,5.09347 14.25075,14.50617 14.246841,24.69081 z"
         inkscape:connector-curvature="0"
         style="fill:#000000;fill-opacity:0.05;stroke:none;stroke-opacity:0.05" />
      <path
         id="path4772"
         d="m -26.327801,1005.4301 c 0.0034,10.1844 -5.427943,19.5965 -14.247264,24.6897 -8.819321,5.0931 -19.68615,5.0931 -28.505473,0 -8.81932,-5.0932 -14.250648,-14.5053 -14.247265,-24.6897 -0.0039,-10.18464 5.427306,-19.59734 14.246843,-24.69081 8.819535,-5.09346 19.686782,-5.09346 28.506318,0 8.819536,5.09347 14.25075,14.50617 14.246841,24.69081 z"
         inkscape:connector-curvature="0"
         style="fill:#000000;fill-opacity:0.07000002;stroke:none;stroke-opacity:0.07000002" />
      <path
         id="path4774"
         d="m -26.327801,1004.4301 c 0.0034,10.1844 -5.427943,19.5965 -14.247264,24.6897 -8.819321,5.0931 -19.68615,5.0931 -28.505473,0 -8.81932,-5.0932 -14.250648,-14.5053 -14.247265,-24.6897 -0.0039,-10.18464 5.427306,-19.59734 14.246843,-24.69081 8.819535,-5.09346 19.686782,-5.09346 28.506318,0 8.819536,5.09347 14.25075,14.50617 14.246841,24.69081 z"
         inkscape:connector-curvature="0"
         style="fill:#000000;fill-opacity:0.07000002;stroke:none;stroke-opacity:0.07000002" />
      <path
         id="path4776"
         d="m -26.327801,1003.4301 c 0.0034,10.1844 -5.427943,19.5965 -14.247264,24.6897 -8.819321,5.0931 -19.68615,5.0931 -28.505473,0 -8.81932,-5.0932 -14.250648,-14.5053 -14.247265,-24.6897 -0.0039,-10.18464 5.427306,-19.59734 14.246843,-24.69081 8.819535,-5.09346 19.686782,-5.09346 28.506318,0 8.819536,5.09347 14.25075,14.50617 14.246841,24.69081 z"
         inkscape:connector-curvature="0"
         style="fill:#000000;fill-opacity:0.1;stroke:none;stroke-opacity:0.1" />
      <path
         id="path4778"
         d="m -26.327801,1002.4301 c 0.0034,10.1844 -5.427943,19.5965 -14.247264,24.6897 -8.819321,5.0931 -19.68615,5.0931 -28.505473,0 -8.81932,-5.0932 -14.250648,-14.5053 -14.247265,-24.6897 -0.0039,-10.18464 5.427306,-19.59734 14.246843,-24.69081 8.819535,-5.09346 19.686782,-5.09346 28.506318,0 8.819536,5.09347 14.25075,14.50617 14.246841,24.69081 z"
         inkscape:connector-curvature="0"
         style="fill:#000000;fill-opacity:0.1;stroke:none;stroke-opacity:0.1" />
      <path
         id="path4780"
         d="m -27.327876,1002.4301 c 0.0033,9.827 -5.237488,18.9089 -13.747359,23.8234 -8.509871,4.9144 -18.995407,4.9144 -27.505281,0 -8.50987,-4.9145 -13.750624,-13.9964 -13.74736,-23.8234 -0.0037,-9.82727 5.236874,-18.9097 13.746954,-23.82445 8.510077,-4.91475 18.996017,-4.91475 27.506095,0 8.510078,4.91475 13.750724,13.99718 13.746951,23.82445 z"
         inkscape:connector-curvature="0"
         style="fill:#000000;fill-opacity:0.3;stroke:none;stroke-opacity:0.3" />
      <path
         id="path4782"
         d="m -26.327801,1001.4301 c 0.0034,10.1844 -5.427943,19.5965 -14.247264,24.6897 -8.819321,5.0931 -19.68615,5.0931 -28.505473,0 -8.81932,-5.0932 -14.250648,-14.5053 -14.247265,-24.6897 -0.0039,-10.18463 5.427306,-19.59733 14.246843,-24.6908 8.819535,-5.09346 19.686782,-5.09346 28.506318,0 8.819536,5.09347 14.25075,14.50617 14.246841,24.6908 z"
         inkscape:connector-curvature="0"
         style="fill:#000000;fill-opacity:0.1;stroke:none;stroke-opacity:0.1" />
      <path
         style="fill:url(#linearGradient4592);fill-opacity:1;stroke:none"
         id="path4784"
         d="m -27.327876,1001.43 c 0.0033,9.827 -5.237488,18.9089 -13.747359,23.8233 -8.509871,4.9144 -18.995407,4.9144 -27.505281,0 -8.50987,-4.9144 -13.750624,-13.9963 -13.74736,-23.8233 -0.0037,-9.82733 5.236874,-18.90976 13.746954,-23.82451 8.510077,-4.91475 18.996017,-4.91475 27.506095,0 8.510078,4.91475 13.750724,13.99718 13.746951,23.82451 z"
         inkscape:connector-curvature="0" />
      <path
         style="fill:url(#linearGradient4598);fill-opacity:1;stroke:none"
         id="path4786"
         d="m -28.327787,1001.4301 c 0.0032,9.4697 -5.047034,18.2213 -13.247457,22.9571 -8.200421,4.7357 -18.304666,4.7357 -26.50509,0 -8.200421,-4.7358 -13.250603,-13.4874 -13.247457,-22.9571 -0.0036,-9.46992 5.046443,-18.22208 13.247065,-22.95812 8.200621,-4.73603 18.305254,-4.73603 26.505875,0 8.200622,4.73604 13.250699,13.4882 13.247064,22.95812 z"
         inkscape:connector-curvature="0" />
      <path
         style="fill:url(#linearGradient4604);fill-opacity:1;stroke:none"
         id="path4788"
         d="m -33.327788,1001.4301 c 0.0026,7.683 -4.094764,14.7834 -10.747936,18.6255 -6.653172,3.8422 -14.850955,3.8422 -21.504129,0 -6.653172,-3.8421 -10.750489,-10.9425 -10.747937,-18.6255 -0.0029,-7.68313 4.094284,-14.78394 10.747619,-18.62638 6.653333,-3.84244 14.851432,-3.84244 21.504765,0 6.653335,3.84244 10.750567,10.94325 10.747618,18.62638 z"
         inkscape:connector-curvature="0" />
      <path
         style="fill:url(#linearGradient4610);fill-opacity:1;stroke:none"
         id="path4790"
         d="m -34.327781,1001.4301 c 0.0025,7.3256 -3.904309,14.0958 -10.248032,17.7592 -6.343722,3.6635 -14.160213,3.6635 -20.503937,0 -6.343721,-3.6634 -10.250466,-10.4336 -10.248032,-17.7592 -0.0028,-7.32578 3.903851,-14.09632 10.247729,-17.76004 6.343876,-3.66372 14.160668,-3.66372 20.504544,0 6.343878,3.66372 10.250541,10.43426 10.247728,17.76004 z"
         inkscape:connector-curvature="0" />
      <path
         id="path4792"
         d="m -35.577781,1001.4301 c 0.0023,6.8789 -3.666241,13.2363 -9.623152,16.6764 -5.95691,3.4401 -13.296785,3.4401 -19.253697,0 -5.956909,-3.4401 -9.625438,-9.7975 -9.623152,-16.6764 -0.0026,-6.87908 3.665812,-13.23679 9.622867,-16.67711 5.957055,-3.44032 13.297213,-3.44032 19.254268,0 5.957055,3.44032 9.625507,9.79803 9.622866,16.67711 z"
         inkscape:connector-curvature="0"
         style="fill:#000000;fill-opacity:1;stroke:none" />
      <path
         style="fill:url(#linearGradient4616);fill-opacity:1;stroke:none"
         id="path4794"
         d="m -37.317628,1001.4301 c 0.0021,6.2572 -3.334881,12.0399 -8.753395,15.1691 -5.418514,3.1292 -12.095,3.1292 -17.513515,0 -5.418514,-3.1292 -8.755475,-8.9119 -8.753396,-15.1691 -0.0024,-6.25734 3.334489,-12.04042 8.753137,-15.1698 5.418645,-3.12938 12.095387,-3.12938 17.514033,0 5.418647,3.12938 8.755538,8.91246 8.753136,15.1698 z"
         inkscape:connector-curvature="0" />
      <path
         id="path4796"
         d="m -54.82553,989.22464 c -6.74081,0 -12.21875,5.47795 -12.21875,12.21876 0,6.7408 5.47794,12.1875 12.21875,12.1875 6.74081,0 12.1875,-5.4467 12.1875,-12.1875 0,-6.74081 -5.44669,-12.21876 -12.1875,-12.21876 z m 0,0.875 c 6.25265,0 11.3125,5.0911 11.3125,11.34376 0,6.2526 -5.05985,11.3125 -11.3125,11.3125 -6.25265,0 -11.3125,-5.0599 -11.3125,-11.3125 0,-6.25266 5.05985,-11.34376 11.3125,-11.34376 z"
         inkscape:connector-curvature="0"
         style="fill:url(#linearGradient4103);fill-opacity:1;stroke:none" />
      <path
         style="fill:url(#linearGradient4640);fill-opacity:1;stroke:none"
         id="path4798"
         d="m -43.506353,1001.4301 c 0.0014,4.0457 -2.156213,7.7846 -5.659627,9.8078 -3.503415,2.0232 -7.820188,2.0232 -11.323603,0 -3.503414,-2.0232 -5.660972,-5.7621 -5.659628,-9.8078 -0.0015,-4.04575 2.15596,-7.78488 5.65946,-9.80823 3.5035,-2.02334 7.820439,-2.02334 11.323939,0 3.5035,2.02335 5.661012,5.76248 5.659459,9.80823 z"
         inkscape:connector-curvature="0" />
      <path
         id="path4800"
         d="m -54.82553,984.03714 c -9.60085,0 -17.375,7.8054 -17.375,17.40626 0,9.6008 7.77415,17.375 17.375,17.375 9.60085,0 17.375,-7.7742 17.375,-17.375 0,-9.60086 -7.774147,-17.40626 -17.374996,-17.40626 z m 4e-6,0.90623 c 9.11185,0 16.499996,7.38813 16.499996,16.50003 0,9.1118 -7.388146,16.5 -16.499996,16.5 -9.111851,0 -16.5,-7.3882 -16.5,-16.5 0,-9.11186 7.388149,-16.50003 16.5,-16.50003 z"
         inkscape:connector-curvature="0"
         style="fill:url(#linearGradient4099);fill-opacity:1;stroke:none" />
      <path
         style="fill:url(#linearGradient4646);fill-opacity:1;stroke:none"
         id="path4802"
         d="m -45.158137,1001.4301 c 0.0012,3.4554 -1.841623,6.6488 -4.833893,8.3769 -2.99227,1.728 -6.67923,1.728 -9.6715,0 -2.99227,-1.7281 -4.835042,-4.9215 -4.833894,-8.3769 -0.0013,-3.45547 1.841408,-6.64907 4.833751,-8.37721 2.992342,-1.72814 6.679444,-1.72814 9.671786,0 2.992343,1.72814 4.835076,4.92174 4.83375,8.37721 z"
         inkscape:connector-curvature="0" />
      <path
         style="fill:url(#linearGradient4652);fill-opacity:0.66129037;stroke:none;stroke-opacity:0.66129037"
         id="path4804"
         d="m -46.695023,1001.4301 c 9.74e-4,2.9062 -1.548915,5.5921 -4.065594,7.0455 -2.516678,1.4533 -5.617632,1.4533 -8.134311,0 -2.516678,-1.4534 -4.06656,-4.1393 -4.065595,-7.0455 -0.0011,-2.90626 1.548734,-5.59226 4.065474,-7.04573 2.51674,-1.45347 5.617813,-1.45347 8.134553,0 2.51674,1.45347 4.066589,4.13947 4.065473,7.04573 z"
         inkscape:connector-curvature="0" />
      <path
         style="fill:url(#linearGradient4658);fill-opacity:1;stroke:none"
         id="path4806"
         d="m -48.689947,1001.4301 c 7.35e-4,2.1934 -1.168974,4.2204 -3.068324,5.3172 -1.89935,1.0969 -4.239655,1.0969 -6.139005,0 -1.899349,-1.0968 -3.069053,-3.1238 -3.068324,-5.3172 -8.3e-4,-2.19336 1.168837,-4.2205 3.068233,-5.31744 1.899396,-1.09694 4.239791,-1.09694 6.139187,0 1.899396,1.09694 3.069075,3.12408 3.068233,5.31744 z"
         inkscape:connector-curvature="0" />
      <path
         id="path4808"
         d="m -52.439948,1001.4301 c 2.86e-4,0.8533 -0.454771,1.6419 -1.193684,2.0686 -0.738912,0.4267 -1.649372,0.4267 -2.388284,0 -0.738913,-0.4267 -1.193968,-1.2153 -1.193684,-2.0686 -3.23e-4,-0.8533 0.454718,-1.6419 1.193648,-2.06865 0.738931,-0.42675 1.649425,-0.42675 2.388356,0 0.73893,0.42675 1.193976,1.21535 1.193648,2.06865 z"
         inkscape:connector-curvature="0"
         style="fill:#37375b;fill-opacity:0.39112902;stroke:none;stroke-opacity:0.39112902" />
      <path
         id="path4810"
         d="m -54.82553,983.97529 c -2.333172,0 -4.915272,0.41635 -6.68304,1.27445 -0.0212,0.009 -0.0414,0.0165 -0.0625,0.0257 -3.099442,1.3463 -5.03571,5.0096 -5.03571,7.5715 0,4.1269 5.27218,5.846 11.78125,5.846 6.50907,0 11.78125,-1.7192 11.78125,-5.846 0,-2.5619 -2.11485,-6.3145 -5.21429,-7.6608 -0.0215,-0.007 -0.041,-0.0183 -0.0625,-0.0257 -2.035623,-0.67963 -4.171292,-1.18518 -6.50446,-1.18518 z"
         inkscape:connector-curvature="0"
         style="fill:url(#linearGradient4092);fill-opacity:1;stroke:none" />
      <path
         id="path4812"
         d="m -54.82553,984.03714 c -2.90114,0 -5.6278,0.70915 -8.03125,1.96873 -1.00729,0.71674 -1.84517,1.68197 -2.46875,2.71877 0.16965,-0.14003 0.35601,-0.273 0.53125,-0.40627 0.83456,-1.13073 1.9131,-2.12033 3.21875,-2.6875 0.0211,-0.009 0.0413,-0.0222 0.0625,-0.0313 1.76777,-0.85813 4.354328,-1.2812 6.6875,-1.2812 2.33317,0 4.46438,0.50785 6.5,1.1875 0.0215,0.007 0.041,0.0241 0.0625,0.0313 1.29556,0.5627 2.41087,1.5488 3.28125,2.6875 0.17652,0.13164 0.36028,0.2678 0.53125,0.40623 -0.664162,-1.04767 -1.536152,-2.00403 -2.5625,-2.71873 -2.3521,-1.192 -4.99573,-1.875 -7.8125,-1.875 z"
         inkscape:connector-curvature="0"
         style="fill:#ffffff;fill-opacity:1;stroke:none" />
    </g>
  </g>
</svg>
