<?xml version="1.0" encoding="UTF-8" standalone="no"?>
<!-- Created with Inkscape (http://www.inkscape.org/) -->

<svg
   xmlns:dc="http://purl.org/dc/elements/1.1/"
   xmlns:cc="http://creativecommons.org/ns#"
   xmlns:rdf="http://www.w3.org/1999/02/22-rdf-syntax-ns#"
   xmlns:svg="http://www.w3.org/2000/svg"
   xmlns="http://www.w3.org/2000/svg"
   xmlns:xlink="http://www.w3.org/1999/xlink"
   xmlns:sodipodi="http://sodipodi.sourceforge.net/DTD/sodipodi-0.dtd"
   xmlns:inkscape="http://www.inkscape.org/namespaces/inkscape"
   width="96"
   height="96"
   id="svg2"
   version="1.1"
   inkscape:version="0.48.4 r9939"
   sodipodi:docname="gparted.svg">
  <defs
     id="defs4">
    <linearGradient
       inkscape:collect="always"
       id="linearGradient3624">
      <stop
         style="stop-color:#000000;stop-opacity:0"
         offset="0"
         id="stop3626" />
      <stop
         id="stop3628"
         offset="0.68860215"
         style="stop-color:#000000;stop-opacity:0" />
      <stop
         id="stop3630"
         offset="0.82410091"
         style="stop-color:#000000;stop-opacity:0.02352941;" />
      <stop
         style="stop-color:#000000;stop-opacity:0.2"
         offset="1"
         id="stop3632" />
    </linearGradient>
    <linearGradient
       id="linearGradient3123"
       inkscape:collect="always">
      <stop
         id="stop3127"
         offset="0"
         style="stop-color:#000000;stop-opacity:0" />
      <stop
         style="stop-color:#000000;stop-opacity:0"
         offset="0.81611693"
         id="stop3133" />
      <stop
         style="stop-color:#000000;stop-opacity:0.02352941;"
         offset="0.90911078"
         id="stop3129" />
      <stop
         id="stop3131"
         offset="1"
         style="stop-color:#000000;stop-opacity:0.2" />
    </linearGradient>
    <linearGradient
       id="linearGradient3168"
       inkscape:collect="always">
      <stop
         id="stop3170"
         offset="0"
         style="stop-color:#ded3de;stop-opacity:1" />
      <stop
         id="stop3172"
         offset="1"
         style="stop-color:#f7efff;stop-opacity:1" />
    </linearGradient>
    <linearGradient
       inkscape:collect="always"
       id="linearGradient3122">
      <stop
         style="stop-color:#000000;stop-opacity:0"
         offset="0"
         id="stop3124" />
      <stop
         id="stop3130"
         offset="0.90911078"
         style="stop-color:#000000;stop-opacity:0.02352941;" />
      <stop
         style="stop-color:#000000;stop-opacity:0.2"
         offset="1"
         id="stop3126" />
    </linearGradient>
    <linearGradient
       inkscape:collect="always"
       id="linearGradient3111">
      <stop
         style="stop-color:#ded3de;stop-opacity:1"
         offset="0"
         id="stop3113" />
      <stop
         style="stop-color:#e7e3ef;stop-opacity:1"
         offset="1"
         id="stop3115" />
    </linearGradient>
    <linearGradient
       inkscape:collect="always"
       id="linearGradient3103">
      <stop
         style="stop-color:#efe3f7;stop-opacity:1"
         offset="0"
         id="stop3105" />
      <stop
         style="stop-color:#fffbff;stop-opacity:1"
         offset="1"
         id="stop3107" />
    </linearGradient>
    <linearGradient
       id="linearGradient4246"
       inkscape:collect="always">
      <stop
         id="stop4248"
         offset="0"
         style="stop-color:#ffffff;stop-opacity:1" />
      <stop
         id="stop4250"
         offset="1"
         style="stop-color:#ffffff;stop-opacity:0" />
    </linearGradient>
    <linearGradient
       inkscape:collect="always"
       id="linearGradient4178">
      <stop
         style="stop-color:#ffb582;stop-opacity:1"
         offset="0"
         id="stop4180" />
      <stop
         style="stop-color:#ff6100;stop-opacity:1"
         offset="1"
         id="stop4182" />
    </linearGradient>
    <linearGradient
       inkscape:collect="always"
       id="linearGradient4152">
      <stop
         style="stop-color:#c6c3d6;stop-opacity:1"
         offset="0"
         id="stop4154" />
      <stop
         style="stop-color:#e2deee;stop-opacity:1"
         offset="1"
         id="stop4156" />
    </linearGradient>
    <linearGradient
       id="linearGradient4146"
       inkscape:collect="always">
      <stop
         id="stop4148"
         offset="0"
         style="stop-color:#ded7e7;stop-opacity:1" />
      <stop
         id="stop4150"
         offset="1"
         style="stop-color:#f3edf7;stop-opacity:1" />
    </linearGradient>
    <linearGradient
       id="linearGradient4130">
      <stop
         id="stop4132"
         offset="0"
         style="stop-color:#000000;stop-opacity:1" />
      <stop
         style="stop-color:#333333;stop-opacity:1"
         offset="0.05052935"
         id="stop4134" />
      <stop
         id="stop4136"
         offset="0.18049203"
         style="stop-color:#000000;stop-opacity:1" />
      <stop
         style="stop-color:#000000;stop-opacity:1"
         offset="0.82271612"
         id="stop4138" />
      <stop
         id="stop4140"
         offset="0.94249851"
         style="stop-color:#333333;stop-opacity:1" />
      <stop
         id="stop4142"
         offset="1"
         style="stop-color:#000000;stop-opacity:1" />
    </linearGradient>
    <linearGradient
       id="linearGradient4293">
      <stop
         style="stop-color:#3b69a4;stop-opacity:1;"
         offset="0"
         id="stop4295" />
      <stop
         id="stop4301"
         offset="0.12751994"
         style="stop-color:#3b69a4;stop-opacity:0" />
      <stop
         style="stop-color:#3b69a4;stop-opacity:0"
         offset="0.88838893"
         id="stop4303" />
      <stop
         style="stop-color:#3b69a4;stop-opacity:1;"
         offset="1"
         id="stop4297" />
    </linearGradient>
    <linearGradient
       id="linearGradient3059">
      <stop
         style="stop-color:#101018;stop-opacity:1"
         offset="0"
         id="stop3061" />
      <stop
         id="stop4042"
         offset="0.05052935"
         style="stop-color:#212442;stop-opacity:1" />
      <stop
         style="stop-color:#100c18;stop-opacity:1"
         offset="0.18049203"
         id="stop4044" />
      <stop
         id="stop3352"
         offset="0.82271612"
         style="stop-color:#100c18;stop-opacity:1" />
      <stop
         style="stop-color:#212442;stop-opacity:1;"
         offset="0.94249851"
         id="stop3354" />
      <stop
         style="stop-color:#101018;stop-opacity:1"
         offset="1"
         id="stop3064" />
    </linearGradient>
    <linearGradient
       inkscape:collect="always"
       id="linearGradient3048">
      <stop
         style="stop-color:#c16d16;stop-opacity:1"
         offset="0"
         id="stop3050" />
      <stop
         style="stop-color:#ff8e31;stop-opacity:1"
         offset="1"
         id="stop3052" />
    </linearGradient>
    <linearGradient
       inkscape:collect="always"
       id="linearGradient3119">
      <stop
         style="stop-color:#92948f;stop-opacity:0"
         offset="0"
         id="stop3121" />
      <stop
         id="stop3123"
         offset="0.4283945"
         style="stop-color:#9b9e98;stop-opacity:1" />
      <stop
         style="stop-color:#939690;stop-opacity:0"
         offset="1"
         id="stop3125" />
    </linearGradient>
    <linearGradient
       id="linearGradient3073"
       inkscape:collect="always">
      <stop
         id="stop3075"
         offset="0"
         style="stop-color:#ffffff;stop-opacity:0" />
      <stop
         style="stop-color:#ffffff;stop-opacity:1"
         offset="0.45872402"
         id="stop3085" />
      <stop
         id="stop3083"
         offset="1"
         style="stop-color:#ffffff;stop-opacity:0" />
    </linearGradient>
    <linearGradient
       inkscape:collect="always"
       id="linearGradient3047">
      <stop
         style="stop-color:#000000;stop-opacity:1"
         offset="0"
         id="stop3049" />
      <stop
         id="stop3055"
         offset="0.06123874"
         style="stop-color:#1a1a1a;stop-opacity:1" />
      <stop
         style="stop-color:#333333;stop-opacity:1"
         offset="0.16480456"
         id="stop3057" />
      <stop
         id="stop3059"
         offset="0.55385184"
         style="stop-color:#4d4d4d;stop-opacity:1" />
      <stop
         style="stop-color:#999999;stop-opacity:1"
         offset="1"
         id="stop3051" />
    </linearGradient>
    <linearGradient
       id="linearGradient3041"
       inkscape:collect="always">
      <stop
         id="stop3043"
         offset="0"
         style="stop-color:#1a1a1a;stop-opacity:1" />
      <stop
         id="stop3045"
         offset="1"
         style="stop-color:#808080;stop-opacity:1" />
    </linearGradient>
    <linearGradient
       inkscape:collect="always"
       id="linearGradient3029">
      <stop
         style="stop-color:#333333;stop-opacity:1"
         offset="0"
         id="stop3031" />
      <stop
         style="stop-color:#e0e0dd;stop-opacity:0;"
         offset="1"
         id="stop3033" />
    </linearGradient>
    <linearGradient
       inkscape:collect="always"
       xlink:href="#linearGradient3029"
       id="linearGradient3035"
       x1="35.355339"
       y1="1030.3622"
       x2="35.355339"
       y2="975.33282"
       gradientUnits="userSpaceOnUse"
       gradientTransform="matrix(1.1638085,0,0,1.1638085,-7.862809,-164.23642)" />
    <linearGradient
       inkscape:collect="always"
       xlink:href="#linearGradient3041"
       id="linearGradient3039"
       gradientUnits="userSpaceOnUse"
       x1="35.355339"
       y1="1030.3622"
       x2="35.355339"
       y2="975.33282"
       gradientTransform="matrix(1.1218695,0,0,1.1218695,-5.8497348,-122.18782)" />
    <linearGradient
       inkscape:collect="always"
       xlink:href="#linearGradient3047"
       id="linearGradient3053"
       x1="40"
       y1="1043.4336"
       x2="39.285713"
       y2="972.33325"
       gradientUnits="userSpaceOnUse" />
    <linearGradient
       inkscape:collect="always"
       xlink:href="#linearGradient3073"
       id="linearGradient3113"
       gradientUnits="userSpaceOnUse"
       gradientTransform="translate(0,-956.36218)"
       x1="14.869445"
       y1="978.90387"
       x2="24.52651"
       y2="969.24683" />
    <linearGradient
       inkscape:collect="always"
       xlink:href="#linearGradient3073"
       id="linearGradient3115"
       gradientUnits="userSpaceOnUse"
       gradientTransform="matrix(-1,0,0,1,96,-956.36218)"
       x1="15.152279"
       y1="978.62103"
       x2="26.263966"
       y2="967.50934" />
    <linearGradient
       inkscape:collect="always"
       xlink:href="#linearGradient3119"
       id="linearGradient3117"
       gradientUnits="userSpaceOnUse"
       gradientTransform="translate(0,-956.36218)"
       x1="13.131983"
       y1="980.64136"
       x2="25.549681"
       y2="967.86646" />
    <linearGradient
       inkscape:collect="always"
       xlink:href="#linearGradient3119"
       id="linearGradient3129"
       gradientUnits="userSpaceOnUse"
       gradientTransform="matrix(-1,0,0,1,96,0)"
       x1="13.131983"
       y1="980.64136"
       x2="25.549681"
       y2="967.86646" />
    <linearGradient
       inkscape:collect="always"
       xlink:href="#linearGradient3048"
       id="linearGradient3054"
       x1="49.267925"
       y1="996.57349"
       x2="49.267925"
       y2="1045.8627"
       gradientUnits="userSpaceOnUse" />
    <linearGradient
       inkscape:collect="always"
       xlink:href="#linearGradient3048"
       id="linearGradient3058"
       x1="115.80308"
       y1="985.47241"
       x2="115.80308"
       y2="1033.5543"
       gradientUnits="userSpaceOnUse" />
    <linearGradient
       inkscape:collect="always"
       xlink:href="#linearGradient4130"
       id="linearGradient4128"
       gradientUnits="userSpaceOnUse"
       x1="7.7721348"
       y1="1046.0226"
       x2="87.516144"
       y2="1046.0226" />
    <linearGradient
       inkscape:collect="always"
       xlink:href="#linearGradient4146"
       id="linearGradient4144"
       gradientUnits="userSpaceOnUse"
       x1="48.543396"
       y1="1030.6263"
       x2="48.543396"
       y2="963.96973"
       gradientTransform="matrix(0.97560976,0,0,0.97560976,0.17073171,25.179566)" />
    <linearGradient
       inkscape:collect="always"
       xlink:href="#linearGradient4152"
       id="linearGradient4158"
       x1="21.011322"
       y1="1036.0603"
       x2="21.011322"
       y2="962.49835"
       gradientUnits="userSpaceOnUse" />
    <radialGradient
       inkscape:collect="always"
       xlink:href="#linearGradient4178"
       id="radialGradient4186"
       cx="-18.219341"
       cy="85.049187"
       fx="-18.219341"
       fy="85.049187"
       r="3.2660329"
       gradientUnits="userSpaceOnUse"
       gradientTransform="matrix(0.72555705,-0.72555705,0.70710569,0.70710787,-65.138933,11.691067)" />
    <linearGradient
       inkscape:collect="always"
       xlink:href="#linearGradient4146"
       id="linearGradient4193"
       gradientUnits="userSpaceOnUse"
       gradientTransform="matrix(0.97560976,0,0,0.97560976,0.17073171,25.179566)"
       x1="48.543396"
       y1="1030.6263"
       x2="48.543396"
       y2="963.96973" />
    <linearGradient
       inkscape:collect="always"
       xlink:href="#linearGradient4146"
       id="linearGradient4197"
       gradientUnits="userSpaceOnUse"
       gradientTransform="matrix(0.97560976,0,0,0.97560976,1.1707317,24.179546)"
       x1="48.543396"
       y1="1030.6263"
       x2="48.543396"
       y2="963.96973" />
    <linearGradient
       inkscape:collect="always"
       xlink:href="#linearGradient4130"
       id="linearGradient4213"
       gradientUnits="userSpaceOnUse"
       x1="7.7721348"
       y1="1046.0226"
       x2="87.516144"
       y2="1046.0226"
       gradientTransform="translate(0,-956.36218)" />
    <linearGradient
       inkscape:collect="always"
       xlink:href="#linearGradient4146"
       id="linearGradient4241"
       gradientUnits="userSpaceOnUse"
       gradientTransform="matrix(0.97560976,0,0,0.97560976,1.1707317,-932.18263)"
       x1="48.543396"
       y1="1030.6263"
       x2="48.543396"
       y2="963.96973" />
    <linearGradient
       inkscape:collect="always"
       xlink:href="#linearGradient4246"
       id="linearGradient4244"
       gradientUnits="userSpaceOnUse"
       gradientTransform="matrix(0.97560976,0,0,0.97560976,1.1707317,-932.18263)"
       x1="67.973091"
       y1="1017.4982"
       x2="48.543396"
       y2="963.96973" />
    <linearGradient
       inkscape:collect="always"
       xlink:href="#linearGradient3103"
       id="linearGradient3109"
       x1="-74.853828"
       y1="60.77335"
       x2="-74.853828"
       y2="17.853825"
       gradientUnits="userSpaceOnUse" />
    <linearGradient
       inkscape:collect="always"
       xlink:href="#linearGradient3111"
       id="linearGradient3118"
       x1="-77.532738"
       y1="16.872141"
       x2="-77.532738"
       y2="65.541496"
       gradientUnits="userSpaceOnUse" />
    <radialGradient
       inkscape:collect="always"
       xlink:href="#linearGradient3122"
       id="radialGradient3128"
       cx="-76.134399"
       cy="41.107231"
       fx="-76.134399"
       fy="41.107231"
       r="29.714495"
       gradientTransform="matrix(0.99371913,-0.00662384,0.0058453,0.81894608,-0.67533138,6.9054636)"
       gradientUnits="userSpaceOnUse" />
    <linearGradient
       inkscape:collect="always"
       xlink:href="#linearGradient3168"
       id="linearGradient3153"
       gradientUnits="userSpaceOnUse"
       x1="-77.532738"
       y1="16.872141"
       x2="-77.532738"
       y2="65.541496" />
    <linearGradient
       inkscape:collect="always"
       xlink:href="#linearGradient3103"
       id="linearGradient3157"
       gradientUnits="userSpaceOnUse"
       x1="-74.853828"
       y1="60.77335"
       x2="-74.853828"
       y2="17.853825" />
    <radialGradient
       inkscape:collect="always"
       xlink:href="#linearGradient3123"
       id="radialGradient3119"
       gradientUnits="userSpaceOnUse"
       gradientTransform="matrix(0.88374741,-0.00609574,0.00519842,0.75365431,115.0593,9.3371746)"
       cx="-76.134399"
       cy="41.107231"
       fx="-76.134399"
       fy="41.107231"
       r="29.714495" />
    <linearGradient
       y2="32.096901"
       x2="23.185186"
       y1="20.903482"
       x1="19.679014"
       gradientUnits="userSpaceOnUse"
       id="linearGradient4141"
       xlink:href="#linearGradient4122"
       inkscape:collect="always" />
    <linearGradient
       y2="32.096901"
       x2="23.185186"
       y1="20.903482"
       x1="19.679014"
       gradientUnits="userSpaceOnUse"
       id="linearGradient4138"
       xlink:href="#linearGradient4122"
       inkscape:collect="always" />
    <linearGradient
       gradientUnits="userSpaceOnUse"
       y2="32.096901"
       x2="23.185186"
       y1="20.903482"
       x1="19.679014"
       id="linearGradient4120"
       xlink:href="#linearGradient4122"
       inkscape:collect="always" />
    <radialGradient
       gradientUnits="userSpaceOnUse"
       gradientTransform="matrix(1,0,0,0.3046875,0,21.044067)"
       r="14"
       fy="30.265625"
       fx="24"
       cy="30.265625"
       cx="24"
       id="radialGradient4098"
       xlink:href="#linearGradient4092"
       inkscape:collect="always" />
    <radialGradient
       r="10.682883"
       fy="23.189171"
       fx="24.690754"
       cy="23.189171"
       cx="24.690754"
       gradientTransform="matrix(0.68596186,-0.9212505,1.444828,0.71285424,-25.655926,33.736687)"
       gradientUnits="userSpaceOnUse"
       id="radialGradient4088"
       xlink:href="#linearGradient4018"
       inkscape:collect="always" />
    <radialGradient
       gradientUnits="userSpaceOnUse"
       gradientTransform="matrix(1,0,0,0.45222929,0,15.220362)"
       r="10.337449"
       fy="27.786009"
       fx="22.518518"
       cy="27.786009"
       cx="22.518518"
       id="radialGradient4068"
       xlink:href="#linearGradient4062"
       inkscape:collect="always" />
    <radialGradient
       gradientUnits="userSpaceOnUse"
       gradientTransform="matrix(1.1542747,-1.6047814,1.4632662,1.2076031,-43.596086,25.552294)"
       r="4.6209285"
       fy="28.457472"
       fx="21.366146"
       cy="28.457472"
       cx="21.366146"
       id="radialGradient4060"
       xlink:href="#linearGradient4054"
       inkscape:collect="always" />
    <radialGradient
       gradientUnits="userSpaceOnUse"
       gradientTransform="matrix(0.52341584,-0.91271001,1.0252793,0.67462715,-12.879236,29.477642)"
       r="6.5349795"
       fy="26.023817"
       fx="25.525513"
       cy="26.023817"
       cx="25.525513"
       id="radialGradient4052"
       xlink:href="#linearGradient4046"
       inkscape:collect="always" />
    <radialGradient
       gradientUnits="userSpaceOnUse"
       gradientTransform="matrix(1,0,0,0.61209071,0,8.753428)"
       r="11.15492"
       fy="22.565657"
       fx="23.570951"
       cy="22.565657"
       cx="23.570951"
       id="radialGradient4044"
       xlink:href="#linearGradient4038"
       inkscape:collect="always" />
    <radialGradient
       gradientUnits="userSpaceOnUse"
       gradientTransform="matrix(0.68596186,-0.9212505,1.444828,0.71285424,-25.655926,33.736687)"
       r="10.682883"
       fy="21.091515"
       fx="21.885324"
       cy="21.091515"
       cx="21.885324"
       id="radialGradient4024"
       xlink:href="#linearGradient4108"
       inkscape:collect="always" />
    <radialGradient
       gradientUnits="userSpaceOnUse"
       gradientTransform="matrix(0.9999996,-3.5854879e-7,9.2353616e-8,0.97058851,4.6991103e-7,0.89935113)"
       r="0.53125"
       fy="30.578125"
       fx="7.6249995"
       cy="30.578125"
       cx="7.6249995"
       id="radialGradient4014"
       xlink:href="#linearGradient4078"
       inkscape:collect="always" />
    <radialGradient
       r="0.53125"
       fy="30.304251"
       fx="7.5191436"
       cy="30.304251"
       cx="7.5191436"
       gradientTransform="matrix(1.389748,0,0,1.348872,-2.91982,-10.63815)"
       gradientUnits="userSpaceOnUse"
       id="radialGradient4006"
       xlink:href="#linearGradient4070"
       inkscape:collect="always" />
    <radialGradient
       gradientUnits="userSpaceOnUse"
       gradientTransform="matrix(1.3511662,-3.7918611e-6,1.1741249e-6,1.5765217,-2.6776781,-17.628922)"
       r="0.53125"
       fy="30.578125"
       fx="7.625"
       cy="30.578125"
       cx="7.625"
       id="radialGradient3915"
       xlink:href="#linearGradient3909"
       inkscape:collect="always" />
    <radialGradient
       r="21.980215"
       fy="16.47991"
       fx="25.251999"
       cy="16.47991"
       cx="25.251999"
       gradientTransform="matrix(0.29978113,-0.25514914,0.16690409,0.42616552,-2.0855839,27.055878)"
       gradientUnits="userSpaceOnUse"
       id="radialGradient3884"
       xlink:href="#linearGradient5740-6"
       inkscape:collect="always" />
    <linearGradient
       id="linearGradient5740-6">
      <stop
         style="stop-color:#d0d0cb;stop-opacity:1;"
         offset="0"
         id="stop5742-3" />
      <stop
         style="stop-color:#babdb6;stop-opacity:1"
         offset="1"
         id="stop5744-8" />
    </linearGradient>
    <linearGradient
       gradientTransform="matrix(1.0029382,0,0,1.0690426,-0.11753,-1.915373)"
       gradientUnits="userSpaceOnUse"
       y2="29.455748"
       x2="20.501734"
       y1="13.796185"
       x1="8.09375"
       id="linearGradient3810"
       xlink:href="#linearGradient3804"
       inkscape:collect="always" />
    <linearGradient
       gradientTransform="translate(0,3.001212)"
       gradientUnits="userSpaceOnUse"
       y2="8.4479914"
       x2="2.3996398"
       y1="37.468567"
       x1="50.505718"
       id="linearGradient3802"
       xlink:href="#linearGradient9641"
       inkscape:collect="always" />
    <linearGradient
       gradientTransform="translate(0,3.001212)"
       gradientUnits="userSpaceOnUse"
       y2="14.982971"
       x2="11.953137"
       y1="33.221653"
       x1="35.722687"
       id="linearGradient3794"
       xlink:href="#linearGradient5690"
       inkscape:collect="always" />
    <linearGradient
       y2="13.979153"
       x2="9.8994951"
       y1="20"
       x1="9.8994951"
       gradientTransform="matrix(2.047911,0,0,2.067521,1.347566,6.673675)"
       gradientUnits="userSpaceOnUse"
       id="linearGradient2961"
       xlink:href="#linearGradient2900"
       inkscape:collect="always" />
    <radialGradient
       r="2"
       fy="17"
       fx="0"
       cy="17"
       cx="0"
       gradientTransform="matrix(4.095822,0,0,3.101282,38.20996,-10.90025)"
       gradientUnits="userSpaceOnUse"
       id="radialGradient2959"
       xlink:href="#linearGradient2886"
       inkscape:collect="always" />
    <radialGradient
       r="2"
       fy="17"
       fx="0"
       cy="17"
       cx="0"
       gradientTransform="matrix(4.095822,0,0,3.101282,-9.53921,-94.5433)"
       gradientUnits="userSpaceOnUse"
       id="radialGradient2957"
       xlink:href="#linearGradient2886"
       inkscape:collect="always" />
    <linearGradient
       y2="36.37693"
       x2="20.329321"
       y1="33.06237"
       x1="15.335379"
       gradientTransform="matrix(0.459833,0,-0.391165,1.370105,40.62503,-13.29892)"
       gradientUnits="userSpaceOnUse"
       id="linearGradient2955"
       xlink:href="#linearGradient2909"
       inkscape:collect="always" />
    <linearGradient
       y2="36.37693"
       x2="20.329321"
       y1="33.06237"
       x1="15.335379"
       gradientTransform="matrix(1,0,0,1.42294,-0.875,-15.04578)"
       gradientUnits="userSpaceOnUse"
       id="linearGradient2953"
       xlink:href="#linearGradient2909"
       inkscape:collect="always" />
    <linearGradient
       y2="36.37693"
       x2="20.329321"
       y1="33.06237"
       x1="15.335379"
       gradientTransform="matrix(1,0,0,1.42294,10.5,-14.95703)"
       gradientUnits="userSpaceOnUse"
       id="linearGradient2951"
       xlink:href="#linearGradient2909"
       inkscape:collect="always" />
    <linearGradient
       y2="34.045513"
       x2="12.5"
       y1="43.1875"
       x1="12.5"
       gradientUnits="userSpaceOnUse"
       id="linearGradient2949"
       xlink:href="#linearGradient2967"
       inkscape:collect="always" />
    <linearGradient
       y2="35.500015"
       x2="-2.8138931"
       y1="43.573235"
       x1="53.812813"
       gradientTransform="translate(0,50)"
       gradientUnits="userSpaceOnUse"
       id="linearGradient2947"
       xlink:href="#linearGradient2899"
       inkscape:collect="always" />
    <radialGradient
       r="21.980215"
       fy="16.47991"
       fx="25.251999"
       cy="16.47991"
       cx="25.251999"
       gradientTransform="matrix(1.032991,-0.596398,0.575121,0.99614,-12.23456,11.55448)"
       gradientUnits="userSpaceOnUse"
       id="radialGradient2945"
       xlink:href="#linearGradient5740"
       inkscape:collect="always" />
    <radialGradient
       r="0.53125"
       fy="30.304251"
       fx="7.5191436"
       cy="30.304251"
       cx="7.5191436"
       gradientTransform="matrix(1.389748,0,0,1.348872,-2.91982,-10.63815)"
       gradientUnits="userSpaceOnUse"
       id="radialGradient2941"
       xlink:href="#linearGradient9613"
       inkscape:collect="always" />
    <linearGradient
       y2="14.997767"
       x2="24.998737"
       y1="35.354588"
       x1="24.748737"
       gradientTransform="matrix(1,0,0,0.995556,0,-3.931113)"
       gradientUnits="userSpaceOnUse"
       id="linearGradient2937"
       xlink:href="#linearGradient3468"
       inkscape:collect="always" />
    <radialGradient
       r="0.53125"
       fy="30.573555"
       fx="7.5177727"
       cy="30.573555"
       cx="7.5177727"
       gradientTransform="matrix(1.662477,0,0,1.61358,-4.989175,-18.65647)"
       gradientUnits="userSpaceOnUse"
       id="radialGradient2931"
       xlink:href="#linearGradient8613"
       inkscape:collect="always" />
    <radialGradient
       r="0.53125"
       fy="30.307562"
       fx="7.5336008"
       cy="30.307562"
       cx="7.5336008"
       gradientTransform="matrix(1.569487,0,0,1.523325,-4.288627,-15.92107)"
       gradientUnits="userSpaceOnUse"
       id="radialGradient2929"
       xlink:href="#linearGradient9633"
       inkscape:collect="always" />
    <radialGradient
       r="0.53125"
       fy="30.573555"
       fx="7.5177727"
       cy="30.573555"
       cx="7.5177727"
       gradientTransform="matrix(1.662477,0,0,1.61358,-4.989175,-18.65647)"
       gradientUnits="userSpaceOnUse"
       id="radialGradient2927"
       xlink:href="#linearGradient8613"
       inkscape:collect="always" />
    <linearGradient
       y2="30.359375"
       x2="40.710938"
       y1="30.554688"
       x1="40.617188"
       gradientUnits="userSpaceOnUse"
       id="linearGradient2917"
       xlink:href="#linearGradient8710"
       inkscape:collect="always" />
    <linearGradient
       y2="30.359375"
       x2="40.710938"
       y1="30.554688"
       x1="40.617188"
       gradientTransform="matrix(0.602867,-0.797841,0.797841,0.602867,-41.12611,44.62773)"
       gradientUnits="userSpaceOnUse"
       id="linearGradient2915"
       xlink:href="#linearGradient8710"
       inkscape:collect="always" />
    <linearGradient
       y2="37.995617"
       x2="21.9375"
       y1="39"
       x1="21.9375"
       gradientUnits="userSpaceOnUse"
       id="linearGradient2907"
       xlink:href="#linearGradient2986"
       inkscape:collect="always" />
    <linearGradient
       inkscape:collect="always"
       id="linearGradient2986">
      <stop
         style="stop-color:black;stop-opacity:1;"
         offset="0"
         id="stop2988" />
      <stop
         style="stop-color:black;stop-opacity:0;"
         offset="1"
         id="stop2990" />
    </linearGradient>
    <linearGradient
       inkscape:collect="always"
       id="linearGradient2967">
      <stop
         style="stop-color:white;stop-opacity:1;"
         offset="0"
         id="stop2969" />
      <stop
         style="stop-color:white;stop-opacity:0;"
         offset="1"
         id="stop2971" />
    </linearGradient>
    <linearGradient
       id="linearGradient9641">
      <stop
         style="stop-color:#babdb6;stop-opacity:1"
         offset="0"
         id="stop9643" />
      <stop
         style="stop-color:#555753;stop-opacity:1"
         offset="1"
         id="stop9645" />
    </linearGradient>
    <linearGradient
       id="linearGradient9633">
      <stop
         style="stop-color:#eeeeec;stop-opacity:1"
         offset="0"
         id="stop9635" />
      <stop
         style="stop-color:#888a85;stop-opacity:1"
         offset="1"
         id="stop9639" />
    </linearGradient>
    <linearGradient
       id="linearGradient9613">
      <stop
         style="stop-color:white;stop-opacity:1"
         offset="0"
         id="stop9615" />
      <stop
         id="stop9619"
         offset="0.5"
         style="stop-color:white;stop-opacity:1;" />
      <stop
         style="stop-color:#cccfca;stop-opacity:1"
         offset="1"
         id="stop9617" />
    </linearGradient>
    <linearGradient
       id="linearGradient8710">
      <stop
         style="stop-color:black;stop-opacity:1;"
         offset="0"
         id="stop8712" />
      <stop
         style="stop-color:white;stop-opacity:1;"
         offset="1"
         id="stop8714" />
    </linearGradient>
    <linearGradient
       id="linearGradient8613">
      <stop
         style="stop-color:#babdb6;stop-opacity:1"
         offset="0"
         id="stop8615" />
      <stop
         style="stop-color:#2e3436;stop-opacity:1"
         offset="1"
         id="stop8617" />
    </linearGradient>
    <linearGradient
       id="linearGradient5740">
      <stop
         style="stop-color:#d0d0cb;stop-opacity:1;"
         offset="0"
         id="stop5742" />
      <stop
         style="stop-color:#babdb6;stop-opacity:1"
         offset="1"
         id="stop5744" />
    </linearGradient>
    <linearGradient
       id="linearGradient5690">
      <stop
         style="stop-color:white;stop-opacity:1;"
         offset="0"
         id="stop5692" />
      <stop
         style="stop-color:#555753;stop-opacity:1"
         offset="1"
         id="stop5694" />
    </linearGradient>
    <linearGradient
       id="linearGradient2899">
      <stop
         id="stop2901"
         offset="0"
         style="stop-color:#555753;stop-opacity:1" />
      <stop
         id="stop2903"
         offset="1"
         style="stop-color:#2e3436;stop-opacity:1" />
    </linearGradient>
    <linearGradient
       id="linearGradient3468">
      <stop
         style="stop-color:#fdfdfc;stop-opacity:1"
         offset="0"
         id="stop3470" />
      <stop
         style="stop-color:white;stop-opacity:0.37121212"
         offset="1"
         id="stop3472" />
    </linearGradient>
    <linearGradient
       id="linearGradient2909">
      <stop
         style="stop-color:white;stop-opacity:0;"
         offset="0"
         id="stop2911" />
      <stop
         id="stop2917"
         offset="0.5"
         style="stop-color:white;stop-opacity:1;" />
      <stop
         style="stop-color:white;stop-opacity:0;"
         offset="1"
         id="stop2913" />
    </linearGradient>
    <linearGradient
       id="linearGradient2900">
      <stop
         style="stop-color:black;stop-opacity:0;"
         offset="0"
         id="stop2902" />
      <stop
         id="stop2908"
         offset="0.5"
         style="stop-color:black;stop-opacity:1;" />
      <stop
         style="stop-color:black;stop-opacity:0;"
         offset="1"
         id="stop2904" />
    </linearGradient>
    <linearGradient
       inkscape:collect="always"
       id="linearGradient2886">
      <stop
         style="stop-color:black;stop-opacity:1;"
         offset="0"
         id="stop2888" />
      <stop
         style="stop-color:black;stop-opacity:0;"
         offset="1"
         id="stop2890" />
    </linearGradient>
    <linearGradient
       id="linearGradient3804">
      <stop
         id="stop3806"
         offset="0"
         style="stop-color:#2f302e;stop-opacity:1;" />
      <stop
         id="stop3808"
         offset="1"
         style="stop-color:#555753;stop-opacity:1;" />
    </linearGradient>
    <linearGradient
       id="linearGradient3909"
       inkscape:collect="always">
      <stop
         id="stop3911"
         offset="0"
         style="stop-color:#ffffff;stop-opacity:1;" />
      <stop
         id="stop3913"
         offset="1"
         style="stop-color:#ffffff;stop-opacity:0;" />
    </linearGradient>
    <linearGradient
       id="linearGradient4018"
       inkscape:collect="always">
      <stop
         id="stop4020"
         offset="0"
         style="stop-color:#ffffff;stop-opacity:1;" />
      <stop
         id="stop4022"
         offset="1"
         style="stop-color:#ffffff;stop-opacity:0;" />
    </linearGradient>
    <linearGradient
       id="linearGradient4038"
       inkscape:collect="always">
      <stop
         id="stop4040"
         offset="0"
         style="stop-color:#8ae234;stop-opacity:1" />
      <stop
         id="stop4042-5"
         offset="1"
         style="stop-color:#73d216;stop-opacity:1" />
    </linearGradient>
    <linearGradient
       id="linearGradient4046"
       inkscape:collect="always">
      <stop
         id="stop4048"
         offset="0"
         style="stop-color:#fcaf3e;stop-opacity:1" />
      <stop
         id="stop4050"
         offset="1"
         style="stop-color:#f57900;stop-opacity:1" />
    </linearGradient>
    <linearGradient
       id="linearGradient4054"
       inkscape:collect="always">
      <stop
         id="stop4056"
         offset="0"
         style="stop-color:#ef2929;stop-opacity:1" />
      <stop
         id="stop4058"
         offset="1"
         style="stop-color:#cc0000;stop-opacity:1" />
    </linearGradient>
    <linearGradient
       id="linearGradient4062"
       inkscape:collect="always">
      <stop
         id="stop4064"
         offset="0"
         style="stop-color:#ffffff;stop-opacity:1;" />
      <stop
         id="stop4066"
         offset="1"
         style="stop-color:#ffffff;stop-opacity:0;" />
    </linearGradient>
    <linearGradient
       id="linearGradient4070">
      <stop
         id="stop4072"
         offset="0"
         style="stop-color:white;stop-opacity:1" />
      <stop
         style="stop-color:white;stop-opacity:1;"
         offset="0.5"
         id="stop4074" />
      <stop
         id="stop4076"
         offset="1"
         style="stop-color:#888a85;stop-opacity:1" />
    </linearGradient>
    <linearGradient
       id="linearGradient4078">
      <stop
         id="stop4080"
         offset="0"
         style="stop-color:#d3d7cf;stop-opacity:1" />
      <stop
         style="stop-color:#babdb6;stop-opacity:1"
         offset="0.5"
         id="stop4082" />
      <stop
         id="stop4084"
         offset="1"
         style="stop-color:#eeeeec;stop-opacity:0" />
    </linearGradient>
    <linearGradient
       id="linearGradient4092"
       inkscape:collect="always">
      <stop
         id="stop4094"
         offset="0"
         style="stop-color:#000000;stop-opacity:1;" />
      <stop
         id="stop4096"
         offset="1"
         style="stop-color:#000000;stop-opacity:0;" />
    </linearGradient>
    <linearGradient
       id="linearGradient4108">
      <stop
         style="stop-color:#ffffff;stop-opacity:0;"
         offset="0"
         id="stop4110" />
      <stop
         style="stop-color:#ffffff;stop-opacity:1;"
         offset="1"
         id="stop4112" />
    </linearGradient>
    <linearGradient
       id="linearGradient4122">
      <stop
         style="stop-color:white;stop-opacity:1"
         offset="0"
         id="stop4124" />
      <stop
         id="stop4130"
         offset="0.25"
         style="stop-color:#babdb6;stop-opacity:1" />
      <stop
         style="stop-color:#eeeeec;stop-opacity:1"
         offset="0.375"
         id="stop4132-6" />
      <stop
         id="stop4126"
         offset="0.5"
         style="stop-color:#babdb6;stop-opacity:1" />
      <stop
         style="stop-color:#eeeeec;stop-opacity:1"
         offset="1"
         id="stop4128" />
    </linearGradient>
    <radialGradient
       inkscape:collect="always"
       xlink:href="#linearGradient4018"
       id="radialGradient3506"
       gradientUnits="userSpaceOnUse"
       gradientTransform="matrix(-0.61847706,-1.0203997,-1.3026861,0.78957488,199.005,1007.3446)"
       cx="24.690754"
       cy="23.189171"
       fx="24.690754"
       fy="23.189171"
       r="10.682883" />
    <radialGradient
       inkscape:collect="always"
       xlink:href="#linearGradient4108"
       id="radialGradient3510"
       gradientUnits="userSpaceOnUse"
       gradientTransform="matrix(-1.7179921,-2.6530392,-3.618573,2.0528947,276.22291,1017.8904)"
       cx="21.885324"
       cy="21.091515"
       fx="21.885324"
       fy="21.091515"
       r="10.682883" />
    <radialGradient
       inkscape:collect="always"
       xlink:href="#linearGradient4078"
       id="radialGradient3513"
       gradientUnits="userSpaceOnUse"
       gradientTransform="matrix(-11.696247,-2.1603801e-6,-1.0801912e-6,5.8481305,244.75388,822.9642)"
       cx="7.6249995"
       cy="30.578125"
       fx="7.6249995"
       fy="30.578125"
       r="0.53125" />
    <radialGradient
       inkscape:collect="always"
       xlink:href="#linearGradient4070"
       id="radialGradient3516"
       gradientUnits="userSpaceOnUse"
       gradientTransform="matrix(-21.673136,0,0,-10.836562,320.01653,1331.8764)"
       cx="7.5191436"
       cy="30.304251"
       fx="7.5191436"
       fy="30.304251"
       r="0.53125" />
    <linearGradient
       inkscape:collect="always"
       xlink:href="#linearGradient5690"
       id="linearGradient3519"
       gradientUnits="userSpaceOnUse"
       gradientTransform="matrix(2.0712121,0,0,2.0712121,105.86087,957.26051)"
       x1="35.722687"
       y1="33.221653"
       x2="11.953137"
       y2="14.982971" />
    <radialGradient
       inkscape:collect="always"
       xlink:href="#linearGradient4046"
       id="radialGradient3522"
       gradientUnits="userSpaceOnUse"
       gradientTransform="matrix(-1.1612486,-1.890416,-2.2746811,1.3972959,237.68227,1012.6443)"
       cx="25.525513"
       cy="26.023817"
       fx="25.525513"
       fy="26.023817"
       r="6.5349795" />
    <radialGradient
       inkscape:collect="always"
       xlink:href="#linearGradient4038"
       id="radialGradient3525"
       gradientUnits="userSpaceOnUse"
       gradientTransform="matrix(-2.2185966,0,0,1.2677697,209.10845,969.72006)"
       cx="23.570951"
       cy="22.565657"
       fx="23.570951"
       fy="22.565657"
       r="11.15492" />
    <radialGradient
       inkscape:collect="always"
       xlink:href="#linearGradient4054"
       id="radialGradient3528"
       gradientUnits="userSpaceOnUse"
       gradientTransform="matrix(-2.56087,-3.3238426,-3.2463975,2.5012021,305.83057,1004.5141)"
       cx="21.366146"
       cy="28.457472"
       fx="21.366146"
       fy="28.457472"
       r="4.6209285" />
    <radialGradient
       inkscape:collect="always"
       xlink:href="#linearGradient4062"
       id="radialGradient3531"
       gradientUnits="userSpaceOnUse"
       gradientTransform="matrix(-2.8050411,0,0,1.6028806,218.73534,956.2158)"
       cx="22.518518"
       cy="27.786009"
       fx="22.518518"
       fy="27.786009"
       r="10.337449" />
    <linearGradient
       inkscape:collect="always"
       xlink:href="#linearGradient8710"
       id="linearGradient3534"
       gradientUnits="userSpaceOnUse"
       gradientTransform="matrix(1.2486654,-1.6524979,1.6524979,1.2486654,20.679971,1049.6941)"
       x1="40.617188"
       y1="30.554688"
       x2="40.710938"
       y2="30.359375" />
    <radialGradient
       inkscape:collect="always"
       xlink:href="#linearGradient8613"
       id="radialGradient3537"
       gradientUnits="userSpaceOnUse"
       gradientTransform="matrix(4.8612145,0,0,3.2407918,85.027892,921.54735)"
       cx="7.5177727"
       cy="30.573555"
       fx="7.5177727"
       fy="30.573555"
       r="0.53125" />
    <radialGradient
       inkscape:collect="always"
       xlink:href="#linearGradient9613"
       id="radialGradient3540"
       gradientUnits="userSpaceOnUse"
       gradientTransform="matrix(-7.5663333,0,0,4.9667198,179.32288,868.84145)"
       cx="7.5191436"
       cy="30.304251"
       fx="7.5191436"
       fy="30.304251"
       r="0.53125" />
    <linearGradient
       inkscape:collect="always"
       xlink:href="#linearGradient2986"
       id="linearGradient3543"
       gradientUnits="userSpaceOnUse"
       x1="21.9375"
       y1="39"
       x2="21.9375"
       y2="37.995617"
       gradientTransform="matrix(2.0712121,0,0,2.0712121,105.86086,957.2605)" />
    <linearGradient
       inkscape:collect="always"
       xlink:href="#linearGradient8710"
       id="linearGradient3546"
       gradientUnits="userSpaceOnUse"
       x1="40.617188"
       y1="30.554688"
       x2="40.710938"
       y2="30.359375"
       gradientTransform="matrix(2.0712121,0,0,2.0712121,105.86087,957.26051)" />
    <radialGradient
       inkscape:collect="always"
       xlink:href="#linearGradient8613"
       id="radialGradient3549"
       gradientUnits="userSpaceOnUse"
       gradientTransform="matrix(4.8612145,0,0,3.2407918,153.37789,921.54735)"
       cx="7.5177727"
       cy="30.573555"
       fx="7.5177727"
       fy="30.573555"
       r="0.53125" />
    <radialGradient
       inkscape:collect="always"
       xlink:href="#linearGradient9633"
       id="radialGradient3552"
       gradientUnits="userSpaceOnUse"
       gradientTransform="matrix(-8.5449029,0,0,5.6090783,255.12521,849.38906)"
       cx="7.5336008"
       cy="30.307562"
       fx="7.5336008"
       fy="30.307562"
       r="0.53125" />
    <linearGradient
       inkscape:collect="always"
       xlink:href="#linearGradient3468"
       id="linearGradient3562"
       gradientUnits="userSpaceOnUse"
       gradientTransform="matrix(2.0712121,0,0,2.0620076,105.86087,949.11835)"
       x1="24.748737"
       y1="35.354588"
       x2="24.998737"
       y2="14.997767" />
    <radialGradient
       inkscape:collect="always"
       xlink:href="#linearGradient5740-6"
       id="radialGradient3565"
       gradientUnits="userSpaceOnUse"
       gradientTransform="matrix(0.6209103,-0.52846798,0.34569377,0.88267918,101.54119,1007.0828)"
       cx="25.251999"
       cy="16.47991"
       fx="25.251999"
       fy="16.47991"
       r="21.980215" />
    <radialGradient
       inkscape:collect="always"
       xlink:href="#linearGradient3909"
       id="radialGradient3568"
       gradientUnits="userSpaceOnUse"
       gradientTransform="matrix(13.169647,2.2847269e-5,1.1444047e-5,-9.4990865,27.189684,1304.6804)"
       cx="7.625"
       cy="30.578125"
       fx="7.625"
       fy="30.578125"
       r="0.53125" />
    <radialGradient
       inkscape:collect="always"
       xlink:href="#linearGradient4092"
       id="radialGradient3574"
       gradientUnits="userSpaceOnUse"
       gradientTransform="matrix(2.0712121,0,0,0.63107244,105.86086,994.63109)"
       cx="24"
       cy="30.265625"
       fx="24"
       fy="30.265625"
       r="14" />
    <linearGradient
       inkscape:collect="always"
       xlink:href="#linearGradient4122"
       id="linearGradient3578"
       gradientUnits="userSpaceOnUse"
       x1="19.679014"
       y1="20.903482"
       x2="23.185186"
       y2="32.096901"
       gradientTransform="matrix(2.0018813,0,0,2.018847,107.52482,952.85285)" />
    <linearGradient
       inkscape:collect="always"
       xlink:href="#linearGradient3804"
       id="linearGradient3581"
       gradientUnits="userSpaceOnUse"
       gradientTransform="matrix(2.0772977,0,0,2.214214,105.61743,947.07722)"
       x1="8.09375"
       y1="13.796185"
       x2="20.501734"
       y2="29.455748" />
    <linearGradient
       inkscape:collect="always"
       xlink:href="#linearGradient9641"
       id="linearGradient3584"
       gradientUnits="userSpaceOnUse"
       gradientTransform="matrix(2.0712121,0,0,2.0712121,105.86086,957.2605)"
       x1="50.505718"
       y1="37.468567"
       x2="2.3996398"
       y2="8.4479914" />
    <radialGradient
       inkscape:collect="always"
       xlink:href="#linearGradient5740"
       id="radialGradient3587"
       gradientUnits="userSpaceOnUse"
       gradientTransform="matrix(2.1395435,-1.2352668,1.1911976,2.0632172,80.520499,981.19229)"
       cx="25.251999"
       cy="16.47991"
       fx="25.251999"
       fy="16.47991"
       r="21.980215" />
    <linearGradient
       inkscape:collect="always"
       xlink:href="#linearGradient2899"
       id="linearGradient3600"
       gradientUnits="userSpaceOnUse"
       gradientTransform="translate(0,50)"
       x1="53.812813"
       y1="43.573235"
       x2="-2.8138931"
       y2="35.500015" />
    <linearGradient
       inkscape:collect="always"
       xlink:href="#linearGradient2967"
       id="linearGradient3602"
       gradientUnits="userSpaceOnUse"
       x1="12.5"
       y1="43.1875"
       x2="12.5"
       y2="34.045513" />
    <linearGradient
       inkscape:collect="always"
       xlink:href="#linearGradient2909"
       id="linearGradient3604"
       gradientUnits="userSpaceOnUse"
       gradientTransform="matrix(1,0,0,1.42294,10.5,-14.95703)"
       x1="15.335379"
       y1="33.06237"
       x2="20.329321"
       y2="36.37693" />
    <linearGradient
       inkscape:collect="always"
       xlink:href="#linearGradient2909"
       id="linearGradient3606"
       gradientUnits="userSpaceOnUse"
       gradientTransform="matrix(1,0,0,1.42294,-0.875,-15.04578)"
       x1="15.335379"
       y1="33.06237"
       x2="20.329321"
       y2="36.37693" />
    <linearGradient
       inkscape:collect="always"
       xlink:href="#linearGradient2909"
       id="linearGradient3608"
       gradientUnits="userSpaceOnUse"
       gradientTransform="matrix(0.459833,0,-0.391165,1.370105,40.62503,-13.29892)"
       x1="15.335379"
       y1="33.06237"
       x2="20.329321"
       y2="36.37693" />
    <radialGradient
       inkscape:collect="always"
       xlink:href="#linearGradient2886"
       id="radialGradient3610"
       gradientUnits="userSpaceOnUse"
       gradientTransform="matrix(4.095822,0,0,3.101282,-9.53921,-94.5433)"
       cx="0"
       cy="17"
       fx="0"
       fy="17"
       r="2" />
    <radialGradient
       inkscape:collect="always"
       xlink:href="#linearGradient2886"
       id="radialGradient3612"
       gradientUnits="userSpaceOnUse"
       gradientTransform="matrix(4.095822,0,0,3.101282,38.20996,-10.90025)"
       cx="0"
       cy="17"
       fx="0"
       fy="17"
       r="2" />
    <linearGradient
       inkscape:collect="always"
       xlink:href="#linearGradient2900"
       id="linearGradient3614"
       gradientUnits="userSpaceOnUse"
       gradientTransform="matrix(2.047911,0,0,2.067521,1.347566,6.673675)"
       x1="9.8994951"
       y1="20"
       x2="9.8994951"
       y2="13.979153" />
    <radialGradient
       inkscape:collect="always"
       xlink:href="#linearGradient3624"
       id="radialGradient3622"
       cx="-76.043953"
       cy="44.374146"
       fx="-76.043953"
       fy="44.374146"
       r="29.714495"
       gradientTransform="matrix(1.032134,0,-4.9036595e-7,0.87622157,2.4750487,4.8682784)"
       gradientUnits="userSpaceOnUse" />
  </defs>
  <sodipodi:namedview
     id="base"
     pagecolor="#ffffff"
     bordercolor="#666666"
     borderopacity="1.0"
     inkscape:pageopacity="0.0"
     inkscape:pageshadow="2"
     inkscape:zoom="1.3802083"
     inkscape:cx="187.2879"
     inkscape:cy="18.032935"
     inkscape:document-units="px"
     inkscape:current-layer="layer1"
     showgrid="false"
     inkscape:window-width="1366"
     inkscape:window-height="701"
     inkscape:window-x="0"
     inkscape:window-y="28"
     inkscape:window-maximized="1"
     showguides="true"
     inkscape:guide-bbox="true" />
  <metadata
     id="metadata7">
    <rdf:RDF>
      <cc:Work
         rdf:about="">
        <dc:format>image/svg+xml</dc:format>
        <dc:type
           rdf:resource="http://purl.org/dc/dcmitype/StillImage" />
        <dc:title></dc:title>
      </cc:Work>
    </rdf:RDF>
  </metadata>
  <g
     inkscape:label="Layer 1"
     inkscape:groupmode="layer"
     id="layer1"
     transform="translate(0,-956.36218)">
    <rect
       style="opacity:0.05;fill:#000000;fill-opacity:1;stroke:none"
       id="rect3826"
       width="89"
       height="89"
       x="3.5"
       y="960.86218"
       rx="10.595235"
       ry="10.595235" />
    <g
       id="g3041">
      <rect
         style="opacity:0.05;fill:#000000;fill-opacity:1;stroke:none"
         id="rect3824"
         width="88"
         height="88"
         x="4"
         y="961.36218"
         rx="10.476188"
         ry="10.476188" />
      <rect
         ry="10.357141"
         rx="10.357141"
         y="961.86218"
         x="4.5"
         height="87"
         width="87"
         id="rect3822"
         style="opacity:0.05;fill:#000000;fill-opacity:1;stroke:none" />
      <rect
         style="opacity:0.1;fill:#000000;fill-opacity:1;stroke:none"
         id="rect3820"
         width="86"
         height="86"
         x="5"
         y="962.36218"
         rx="10.238094"
         ry="10.238094" />
      <rect
         ry="10.119047"
         rx="10.119047"
         y="962.86218"
         x="5.5"
         height="85"
         width="85"
         id="rect3818"
         style="opacity:0.1;fill:#000000;fill-opacity:1;stroke:none" />
      <rect
         style="opacity:0.3;fill:#000000;fill-opacity:1;stroke:none"
         id="rect3131"
         width="84"
         height="84"
         x="6"
         y="963.36218"
         rx="10"
         ry="10" />
    </g>
    <rect
       ry="10"
       rx="10"
       y="962.36218"
       x="6"
       height="84"
       width="84"
       id="rect3036"
       style="fill:url(#linearGradient4128);fill-opacity:1;stroke:none" />
    <path
       style="fill:url(#linearGradient4158);fill-opacity:1;stroke:none"
       d="m 16,962.36218 64,0 c 5.54,0 10,4.46 10,10 l 0,54.00002 c 0,5.54 -4.46,10 -10,10 l -64,0 c -5.54,0 -10,-4.46 -10,-10 l 0,-54.00002 c 0,-5.54 4.46,-10 10,-10 z"
       id="rect4125"
       inkscape:connector-curvature="0"
       sodipodi:nodetypes="sssssssss" />
    <path
       style="fill:#4d4d4d;fill-opacity:1;stroke:none"
       d="M 6 74.5 L 6 75.5 C 6 81.04 10.46 85.5 16 85.5 L 80 85.5 C 85.54 85.5 90 81.04 90 75.5 L 90 74.5 C 90 80.04 85.54 84.5 80 84.5 L 16 84.5 C 10.46 84.5 6 80.04 6 74.5 z "
       transform="translate(0,956.36218)"
       id="rect4160" />
    <path
       style="fill:#b5b6c6;fill-opacity:1;stroke:none"
       d="m 17.52381,966.02066 60.95238,0 c 5.27619,0 9.52381,4.24762 9.52381,9.52381 l 0,47.29393 c 0,5.2762 -4.24762,9.5238 -9.52381,9.5238 l -60.95238,0 C 12.24762,1032.3622 8,1028.1146 8,1022.8384 l 0,-47.29393 c 0,-5.27619 4.24762,-9.52381 9.52381,-9.52381 z"
       id="path4200"
       inkscape:connector-curvature="0"
       sodipodi:nodetypes="sssssssss" />
    <path
       sodipodi:nodetypes="sssssssss"
       inkscape:connector-curvature="0"
       id="path4167"
       d="m 17.52381,965.02068 60.95238,0 c 5.27619,0 9.52381,4.24762 9.52381,9.52381 l 0,47.29391 c 0,5.2762 -4.24762,9.5238 -9.52381,9.5238 l -60.95238,0 C 12.24762,1031.3622 8,1027.1146 8,1021.8384 l 0,-47.29391 c 0,-5.27619 4.24762,-9.52381 9.52381,-9.52381 z"
       style="fill:#8c8a9c;fill-opacity:1;stroke:none" />
    <path
       style="fill:url(#linearGradient4197);fill-opacity:1;stroke:none"
       d="m 17.52381,964.04509 60.95238,0 c 5.27619,0 9.52381,4.24762 9.52381,9.52381 l 0,47.2939 c 0,5.2762 -4.24762,9.5238 -9.52381,9.5238 l -60.95238,0 C 12.24762,1030.3866 8,1026.139 8,1020.8628 l 0,-47.2939 c 0,-5.27619 4.24762,-9.52381 9.52381,-9.52381 z"
       id="rect3034"
       inkscape:connector-curvature="0"
       sodipodi:nodetypes="sssssssss" />
    <path
       style="fill:#ffffff;fill-opacity:1;stroke:none"
       d="M 17.512195,964.04509 C 12.236005,964.04509 8,968.28109 8,973.55728 l 0,0.97561 c 0,-5.27619 4.236005,-9.51219 9.512195,-9.51219 l 60.97561,0 c 5.27619,0 9.512195,4.236 9.512195,9.51219 l 0,-0.97561 c 0,-5.27619 -4.236005,-9.51219 -9.512195,-9.51219 l -60.97561,0 z"
       id="path4171"
       inkscape:connector-curvature="0" />
    <path
       sodipodi:type="arc"
       style="fill:url(#radialGradient4186);fill-opacity:1;stroke:none"
       id="path4176"
       sodipodi:cx="-18.66762"
       sodipodi:cy="85.753624"
       sodipodi:rx="3.2660329"
       sodipodi:ry="3.2660329"
       d="m -15.401587,85.753624 c 0,1.80378 -1.462253,3.266033 -3.266033,3.266033 -1.80378,0 -3.266033,-1.462253 -3.266033,-3.266033 0,-1.80378 1.462253,-3.266033 3.266033,-3.266033 1.80378,0 3.266033,1.462253 3.266033,3.266033 z"
       transform="matrix(0.76545462,0,0,0.76545462,91.789216,975.72167)" />
    <path
       style="opacity:1;fill:#5a5563;fill-opacity:1;stroke:none"
       d="m 25.03125,80 1.09375,1.875 43.75,0 L 70.96875,80 z"
       transform="translate(0,956.36218)"
       id="path4202"
       inkscape:connector-curvature="0"
       sodipodi:nodetypes="ccccc" />
    <path
       style="fill:url(#linearGradient4244);fill-opacity:1;stroke:none"
       d="M 17.53125 7.6875 C 12.25506 7.6875 8 11.94256 8 17.21875 L 8 50.53125 C 26.00906 33.752274 55.024067 22.614558 88 21.78125 L 88 17.21875 C 88 11.94256 83.74494 7.6875 78.46875 7.6875 L 17.53125 7.6875 z "
       transform="translate(0,956.36218)"
       id="path4219" />
    <path
       sodipodi:type="arc"
       style="fill:url(#linearGradient3153);fill-opacity:1;stroke:none"
       id="path3093"
       sodipodi:cx="-76.079353"
       sodipodi:cy="40.92572"
       sodipodi:rx="29.714495"
       sodipodi:ry="24.335148"
       d="m -46.364859,40.92572 c 0,13.439931 -13.303632,24.335148 -29.714494,24.335148 -16.410863,0 -29.714497,-10.895217 -29.714497,-24.335148 0,-13.439931 13.303634,-24.335148 29.714497,-24.335148 16.410862,0 29.714494,10.895217 29.714494,24.335148 z"
       transform="matrix(0.99278148,0,0,1.0273207,123.53017,954.96345)" />
    <path
       transform="matrix(0.8893332,0,0,0.92027342,115.65989,959.34444)"
       d="m -46.364859,40.92572 c 0,13.439931 -13.303632,24.335148 -29.714494,24.335148 -16.410863,0 -29.714497,-10.895217 -29.714497,-24.335148 0,-13.439931 13.303634,-24.335148 29.714497,-24.335148 16.410862,0 29.714494,10.895217 29.714494,24.335148 z"
       sodipodi:ry="24.335148"
       sodipodi:rx="29.714495"
       sodipodi:cy="40.92572"
       sodipodi:cx="-76.079353"
       id="path3095"
       style="fill:#8dd547;fill-opacity:1;stroke:none"
       sodipodi:type="arc" />
    <path
       sodipodi:type="arc"
       style="fill:#ff5555;fill-opacity:1;stroke:none"
       id="path3616"
       sodipodi:cx="-76.079353"
       sodipodi:cy="40.92572"
       sodipodi:rx="29.714495"
       sodipodi:ry="24.335148"
       d="m -55.068033,58.133268 a 29.714495,24.335148 0 0 1 -21.01132,7.1276 l 0,-24.335148 z"
       transform="matrix(0.8893332,0,0,0.92027342,115.65989,959.34444)"
       sodipodi:start="0.78539816"
       sodipodi:end="1.5707963" />
    <path
       sodipodi:type="arc"
       style="fill:#ffd42a;fill-opacity:1;stroke:none"
       id="path3140"
       sodipodi:cx="-76.079353"
       sodipodi:cy="40.92572"
       sodipodi:rx="29.714495"
       sodipodi:ry="24.335148"
       d="m -105.79385,40.925719 a 29.714495,24.335148 0 0 1 8.703176,-17.207547 l 21.011321,17.207548 z"
       transform="matrix(0.8893332,0,0,0.92027342,115.65989,959.34444)"
       sodipodi:start="3.1415927"
       sodipodi:end="3.9269908" />
    <path
       sodipodi:end="3.1415927"
       sodipodi:start="1.5707963"
       transform="matrix(0.8893332,0,0,0.92027342,115.65989,959.34444)"
       d="M -76.079353,65.260868 A 29.714495,24.335148 0 0 1 -105.79385,40.925719 l 29.714497,10e-7 z"
       sodipodi:ry="24.335148"
       sodipodi:rx="29.714495"
       sodipodi:cy="40.92572"
       sodipodi:cx="-76.079353"
       id="path3107"
       style="fill:#dddeda;fill-opacity:1;stroke:none"
       sodipodi:type="arc" />
    <path
       style="fill:url(#radialGradient3119);fill-opacity:1;stroke:none"
       d="M 48 18.25 C 33.405275 18.25 21.5625 28.287839 21.5625 40.65625 C 21.5625 53.024661 33.405275 63.03125 48 63.03125 C 62.594725 63.03125 74.4375 53.024661 74.4375 40.65625 C 74.4375 28.287839 62.594725 18.25 48 18.25 z M 48 24.25 C 58.693302 24.25 67.375 31.594129 67.375 40.65625 C 67.375 49.718371 58.693302 57.0625 48 57.0625 C 37.306698 57.0625 28.625 49.718371 28.625 40.65625 C 28.625 31.594129 37.306698 24.25 48 24.25 z "
       id="path3120"
       transform="translate(0,956.36218)" />
    <path
       transform="matrix(0.44736374,0,0,0.46292769,82.035151,980.46089)"
       d="m -46.364859,40.92572 a 29.714495,24.335148 0 1 1 -59.428991,0 29.714495,24.335148 0 1 1 59.428991,0 z"
       sodipodi:ry="24.335148"
       sodipodi:rx="29.714495"
       sodipodi:cy="40.92572"
       sodipodi:cx="-76.079353"
       id="path3136"
       style="opacity:0.1;fill:#000000;fill-opacity:1;stroke:none"
       sodipodi:type="arc" />
    <path
       sodipodi:type="arc"
       style="opacity:0.1;fill:#000000;fill-opacity:1;stroke:none"
       id="path3132"
       sodipodi:cx="-76.079353"
       sodipodi:cy="40.92572"
       sodipodi:rx="29.714495"
       sodipodi:ry="24.335148"
       d="m -46.364859,40.92572 a 29.714495,24.335148 0 1 1 -59.428991,0 29.714495,24.335148 0 1 1 59.428991,0 z"
       transform="matrix(0.44736374,0,0,0.46292769,82.035151,979.36192)" />
    <path
       transform="matrix(0.44736374,0,0,0.46292769,82.035151,978.26294)"
       d="m -46.364859,40.92572 a 29.714495,24.335148 0 1 1 -59.428991,0 29.714495,24.335148 0 1 1 59.428991,0 z"
       sodipodi:ry="24.335148"
       sodipodi:rx="29.714495"
       sodipodi:cy="40.92572"
       sodipodi:cx="-76.079353"
       id="path3134"
       style="opacity:0.1;fill:#000000;fill-opacity:1;stroke:none"
       sodipodi:type="arc" />
    <path
       transform="matrix(0.44736965,0,0,0.4629338,82.035588,977.16269)"
       d="m -46.364859,40.92572 a 29.714495,24.335148 0 1 1 -59.428991,0 29.714495,24.335148 0 1 1 59.428991,0 z"
       sodipodi:ry="24.335148"
       sodipodi:rx="29.714495"
       sodipodi:cy="40.92572"
       sodipodi:cx="-76.079353"
       id="path3101"
       style="fill:url(#linearGradient3157);fill-opacity:1;stroke:none"
       sodipodi:type="arc" />
    <path
       sodipodi:type="arc"
       style="fill:url(#radialGradient3622);fill-opacity:1;stroke:none"
       id="path3618"
       sodipodi:cx="-76.079353"
       sodipodi:cy="40.92572"
       sodipodi:rx="29.714495"
       sodipodi:ry="24.335148"
       d="m -46.364859,40.92572 a 29.714495,24.335148 0 1 1 -59.428991,0 29.714495,24.335148 0 1 1 59.428991,0 z"
       transform="matrix(0.44736965,0,0,0.4629338,82.035588,977.16269)" />
  </g>
</svg>
