<?xml version="1.0" encoding="UTF-8" standalone="no"?>
<svg
   xmlns:dc="http://purl.org/dc/elements/1.1/"
   xmlns:cc="http://creativecommons.org/ns#"
   xmlns:rdf="http://www.w3.org/1999/02/22-rdf-syntax-ns#"
   xmlns:svg="http://www.w3.org/2000/svg"
   xmlns="http://www.w3.org/2000/svg"
   xmlns:xlink="http://www.w3.org/1999/xlink"
   xmlns:sodipodi="http://sodipodi.sourceforge.net/DTD/sodipodi-0.dtd"
   xmlns:inkscape="http://www.inkscape.org/namespaces/inkscape"
   contentScriptType="text/ecmascript"
   contentStyleType="text/css"
   height="96"
   preserveAspectRatio="xMidYMid meet"
   version="1.1"
   viewBox="0 0 96 96"
   width="96"
   zoomAndPan="magnify"
   id="svg2"
   inkscape:version="0.91 r13725"
   sodipodi:docname="shutter.svg">
  <metadata
     id="metadata285">
    <rdf:RDF>
      <cc:Work
         rdf:about="">
        <dc:format>image/svg+xml</dc:format>
        <dc:type
           rdf:resource="http://purl.org/dc/dcmitype/StillImage" />
      </cc:Work>
    </rdf:RDF>
  </metadata>
  <sodipodi:namedview
     pagecolor="#ffffff"
     bordercolor="#666666"
     borderopacity="1"
     objecttolerance="10"
     gridtolerance="10"
     guidetolerance="10"
     inkscape:pageopacity="0"
     inkscape:pageshadow="2"
     inkscape:window-width="1336"
     inkscape:window-height="703"
     id="namedview283"
     showgrid="false"
     inkscape:zoom="4"
     inkscape:cx="94.856375"
     inkscape:cy="36.463114"
     inkscape:window-x="0"
     inkscape:window-y="27"
     inkscape:window-maximized="1"
     inkscape:current-layer="svg2" />
  <defs
     id="defs4">
    <linearGradient
       id="linearGradient3227">
      <stop
         offset="0"
         stop-color="#5c636e"
         stop-opacity="1"
         id="stop7" />
      <stop
         offset="1"
         stop-color="#61626a"
         stop-opacity="1"
         id="stop9" />
    </linearGradient>
    <linearGradient
       id="linearGradient3149">
      <stop
         offset="0"
         stop-color="#d3d6dc"
         stop-opacity="1"
         id="stop12" />
      <stop
         offset="1"
         stop-color="#e8eaec"
         stop-opacity="1"
         id="stop14" />
    </linearGradient>
    <linearGradient
       id="linearGradient4321">
      <stop
         offset="0"
         stop-color="#4b515d"
         stop-opacity="1"
         id="stop17" />
      <stop
         offset="1"
         stop-color="#7d8490"
         stop-opacity="1"
         id="stop19" />
    </linearGradient>
    <linearGradient
       id="linearGradient21">
      <stop
         offset="0"
         stop-color="#ffffff"
         stop-opacity="1"
         id="stop23" />
      <stop
         offset="1"
         stop-color="#f7bb94"
         stop-opacity="1"
         id="stop25" />
    </linearGradient>
    <linearGradient
       id="linearGradient4037">
      <stop
         offset="0"
         stop-color="#826bd3"
         stop-opacity="1"
         id="stop28" />
      <stop
         offset="1"
         stop-color="#f6f0ff"
         stop-opacity="1"
         id="stop30" />
    </linearGradient>
    <linearGradient
       id="linearGradient3927">
      <stop
         offset="0"
         stop-color="#474d5a"
         stop-opacity="1"
         id="stop33" />
      <stop
         offset="1"
         stop-color="#9296a2"
         stop-opacity="1"
         id="stop35" />
    </linearGradient>
    <linearGradient
       id="linearGradient37">
      <stop
         offset="0"
         stop-color="#b5492f"
         stop-opacity="1"
         id="stop39" />
      <stop
         offset="1"
         stop-color="#c6513d"
         stop-opacity="1"
         id="stop41" />
    </linearGradient>
    <linearGradient
       gradientTransform="translate(0.00335007,-956.3622)"
       gradientUnits="userSpaceOnUse"
       id="linearGradient3933"
       x1="19.697975"
       x2="19.697975"
       y1="1046.3013"
       y2="962.12079">
      <stop
         offset="0"
         stop-color="#474d5a"
         stop-opacity="1"
         id="stop44" />
      <stop
         offset="1"
         stop-color="#9296a2"
         stop-opacity="1"
         id="stop46" />
    </linearGradient>
    <linearGradient
       gradientUnits="userSpaceOnUse"
       id="linearGradient48"
       x1="-262.89221"
       x2="-251.0229"
       y1="31.855312"
       y2="61.654812">
      <stop
         offset="0"
         stop-color="#826bd3"
         stop-opacity="1"
         id="stop50" />
      <stop
         offset="1"
         stop-color="#f6f0ff"
         stop-opacity="1"
         id="stop52" />
    </linearGradient>
    <linearGradient
       gradientUnits="userSpaceOnUse"
       id="linearGradient54"
       x1="-286.78571"
       x2="-236.42857"
       y1="47.607143"
       y2="47.607143">
      <stop
         offset="0"
         stop-color="#826bd3"
         stop-opacity="1"
         id="stop56" />
      <stop
         offset="1"
         stop-color="#f6f0ff"
         stop-opacity="1"
         id="stop58" />
    </linearGradient>
    <linearGradient
       id="linearGradient4255">
      <stop
         offset="0"
         stop-color="#a1a1bf"
         stop-opacity="1"
         id="stop61" />
      <stop
         offset="1"
         stop-color="#fcfdfd"
         stop-opacity="1"
         id="stop63" />
    </linearGradient>
    <linearGradient
       gradientTransform="matrix(0.94204942,0,0,0.94204942,875.95049,-94.16928)"
       gradientUnits="userSpaceOnUse"
       id="linearGradient65"
       x1="-833.87506"
       x2="-833.87506"
       y1="98.246292"
       y2="129.12996">
      <stop
         offset="0"
         stop-color="#a1a1bf"
         stop-opacity="1"
         id="stop67" />
      <stop
         offset="1"
         stop-color="#fcfdfd"
         stop-opacity="1"
         id="stop69" />
    </linearGradient>
    <linearGradient
       gradientTransform="translate(7.79e-5,-956.36218)"
       gradientUnits="userSpaceOnUse"
       id="linearGradient4319"
       x1="27.857143"
       x2="27.857143"
       y1="1044.505"
       y2="965.20648">
      <stop
         offset="0"
         stop-color="#4b515d"
         stop-opacity="1"
         id="stop72" />
      <stop
         offset="1"
         stop-color="#7d8490"
         stop-opacity="1"
         id="stop74" />
    </linearGradient>
    <linearGradient
       id="linearGradient3041">
      <stop
         offset="0"
         stop-color="#e75d18"
         stop-opacity="1"
         id="stop77" />
      <stop
         offset="0.12678555"
         stop-color="#bd3f04"
         stop-opacity="1"
         id="stop79" />
      <stop
         offset="0.39222315"
         stop-color="#c14305"
         stop-opacity="1"
         id="stop81" />
      <stop
         offset="1"
         stop-color="#ff7c1a"
         stop-opacity="1"
         id="stop83" />
    </linearGradient>
    <linearGradient
       id="linearGradient3094">
      <stop
         offset="0"
         stop-color="#b53e0a"
         stop-opacity="1"
         id="stop86" />
      <stop
         offset="0.52183461"
         stop-color="#c64302"
         stop-opacity="1"
         id="stop88" />
      <stop
         offset="1"
         stop-color="#f77819"
         stop-opacity="1"
         id="stop90" />
    </linearGradient>
    <linearGradient
       gradientUnits="userSpaceOnUse"
       id="linearGradient92"
       x1="-0.048727959"
       x2="-0.048727959"
       y1="7.9095993"
       y2="-8.333106">
      <stop
         offset="0"
         stop-color="#b53e0a"
         stop-opacity="1"
         id="stop94" />
      <stop
         offset="0.52183461"
         stop-color="#c64302"
         stop-opacity="1"
         id="stop96" />
      <stop
         offset="1"
         stop-color="#f77819"
         stop-opacity="1"
         id="stop98" />
    </linearGradient>
    <linearGradient
       gradientUnits="userSpaceOnUse"
       id="linearGradient100"
       x1="-0.048727959"
       x2="-0.048727959"
       y1="6.6884637"
       y2="-8.333106">
      <stop
         offset="0"
         stop-color="#e75d18"
         stop-opacity="1"
         id="stop102" />
      <stop
         offset="0.12678555"
         stop-color="#bd3f04"
         stop-opacity="1"
         id="stop104" />
      <stop
         offset="0.39222315"
         stop-color="#c14305"
         stop-opacity="1"
         id="stop106" />
      <stop
         offset="1"
         stop-color="#ff7c1a"
         stop-opacity="1"
         id="stop108" />
    </linearGradient>
    <linearGradient
       id="linearGradient3094-0">
      <stop
         offset="0"
         stop-color="#adadad"
         stop-opacity="1"
         id="stop111" />
      <stop
         offset="0.52183461"
         stop-color="#b9b9b9"
         stop-opacity="1"
         id="stop113" />
      <stop
         offset="1"
         stop-color="#cdcdcd"
         stop-opacity="1"
         id="stop115" />
    </linearGradient>
    <linearGradient
       id="linearGradient3041-0">
      <stop
         offset="0"
         stop-color="#efefef"
         stop-opacity="1"
         id="stop118" />
      <stop
         offset="0.12678555"
         stop-color="#e3e3e3"
         stop-opacity="1"
         id="stop120" />
      <stop
         offset="0.39222315"
         stop-color="#e4e4e4"
         stop-opacity="1"
         id="stop122" />
      <stop
         offset="1"
         stop-color="#fbfbfb"
         stop-opacity="1"
         id="stop124" />
    </linearGradient>
    <linearGradient
       gradientUnits="userSpaceOnUse"
       id="linearGradient126"
       x1="-0.048727959"
       x2="-0.048727959"
       y1="7.9095993"
       y2="-8.333106">
      <stop
         offset="0"
         stop-color="#adadad"
         stop-opacity="1"
         id="stop128" />
      <stop
         offset="0.52183461"
         stop-color="#b9b9b9"
         stop-opacity="1"
         id="stop130" />
      <stop
         offset="1"
         stop-color="#cdcdcd"
         stop-opacity="1"
         id="stop132" />
    </linearGradient>
    <linearGradient
       gradientUnits="userSpaceOnUse"
       id="linearGradient134"
       x1="-0.048727959"
       x2="-0.048727959"
       y1="6.6884637"
       y2="-8.333106">
      <stop
         offset="0"
         stop-color="#efefef"
         stop-opacity="1"
         id="stop136" />
      <stop
         offset="0.12678555"
         stop-color="#e3e3e3"
         stop-opacity="1"
         id="stop138" />
      <stop
         offset="0.39222315"
         stop-color="#e4e4e4"
         stop-opacity="1"
         id="stop140" />
      <stop
         offset="1"
         stop-color="#fbfbfb"
         stop-opacity="1"
         id="stop142" />
    </linearGradient>
    <linearGradient
       gradientUnits="userSpaceOnUse"
       id="linearGradient144"
       x1="-57.011528"
       x2="-57.011528"
       y1="1030.6855"
       y2="977.05212">
      <stop
         offset="0"
         stop-color="#d3d6dc"
         stop-opacity="1"
         id="stop146" />
      <stop
         offset="1"
         stop-color="#e8eaec"
         stop-opacity="1"
         id="stop148" />
    </linearGradient>
    <linearGradient
       gradientUnits="userSpaceOnUse"
       id="linearGradient150"
       x1="-57.011528"
       x2="-57.011528"
       y1="1030.6855"
       y2="977.05212">
      <stop
         offset="0"
         stop-color="#d3d6dc"
         stop-opacity="1"
         id="stop152" />
      <stop
         offset="1"
         stop-color="#e8eaec"
         stop-opacity="1"
         id="stop154" />
    </linearGradient>
    <linearGradient
       gradientUnits="userSpaceOnUse"
       id="linearGradient156"
       x1="-57.011528"
       x2="-57.011528"
       y1="1030.6855"
       y2="977.05212">
      <stop
         offset="0"
         stop-color="#d3d6dc"
         stop-opacity="1"
         id="stop158" />
      <stop
         offset="1"
         stop-color="#e8eaec"
         stop-opacity="1"
         id="stop160" />
    </linearGradient>
    <linearGradient
       gradientUnits="userSpaceOnUse"
       id="linearGradient162"
       x1="-57.011528"
       x2="-57.011528"
       y1="1030.6855"
       y2="977.05212">
      <stop
         offset="0"
         stop-color="#d3d6dc"
         stop-opacity="1"
         id="stop164" />
      <stop
         offset="1"
         stop-color="#e8eaec"
         stop-opacity="1"
         id="stop166" />
    </linearGradient>
    <linearGradient
       gradientUnits="userSpaceOnUse"
       id="linearGradient168"
       x1="-57.011528"
       x2="-57.011528"
       y1="1030.6855"
       y2="977.05212">
      <stop
         offset="0"
         stop-color="#d3d6dc"
         stop-opacity="1"
         id="stop170" />
      <stop
         offset="1"
         stop-color="#e8eaec"
         stop-opacity="1"
         id="stop172" />
    </linearGradient>
    <linearGradient
       gradientUnits="userSpaceOnUse"
       id="linearGradient174"
       x1="-57.011528"
       x2="-57.011528"
       y1="1030.6855"
       y2="977.05212">
      <stop
         offset="0"
         stop-color="#d3d6dc"
         stop-opacity="1"
         id="stop176" />
      <stop
         offset="1"
         stop-color="#e8eaec"
         stop-opacity="1"
         id="stop178" />
    </linearGradient>
    <linearGradient
       gradientUnits="userSpaceOnUse"
       id="linearGradient180"
       x1="-57.011528"
       x2="-57.011528"
       y1="1030.6855"
       y2="977.05212">
      <stop
         offset="0"
         stop-color="#d3d6dc"
         stop-opacity="1"
         id="stop182" />
      <stop
         offset="1"
         stop-color="#e8eaec"
         stop-opacity="1"
         id="stop184" />
    </linearGradient>
    <linearGradient
       gradientUnits="userSpaceOnUse"
       id="linearGradient186"
       x1="-57.011528"
       x2="-57.011528"
       y1="1030.6855"
       y2="977.05212">
      <stop
         offset="0"
         stop-color="#d3d6dc"
         stop-opacity="1"
         id="stop188" />
      <stop
         offset="1"
         stop-color="#e8eaec"
         stop-opacity="1"
         id="stop190" />
    </linearGradient>
    <linearGradient
       gradientUnits="userSpaceOnUse"
       id="linearGradient192"
       x1="-57.011528"
       x2="-57.011528"
       y1="1030.6855"
       y2="977.05212">
      <stop
         offset="0"
         stop-color="#d3d6dc"
         stop-opacity="1"
         id="stop194" />
      <stop
         offset="1"
         stop-color="#e8eaec"
         stop-opacity="1"
         id="stop196" />
    </linearGradient>
    <linearGradient
       gradientUnits="userSpaceOnUse"
       id="linearGradient198"
       x1="-57.011528"
       x2="-57.011528"
       y1="1030.6855"
       y2="977.05212">
      <stop
         offset="0"
         stop-color="#d3d6dc"
         stop-opacity="1"
         id="stop200" />
      <stop
         offset="1"
         stop-color="#e8eaec"
         stop-opacity="1"
         id="stop202" />
    </linearGradient>
    <linearGradient
       gradientUnits="userSpaceOnUse"
       id="linearGradient204"
       x1="-57.011528"
       x2="-57.011528"
       y1="1030.6855"
       y2="977.05212">
      <stop
         offset="0"
         stop-color="#d3d6dc"
         stop-opacity="1"
         id="stop206" />
      <stop
         offset="1"
         stop-color="#e8eaec"
         stop-opacity="1"
         id="stop208" />
    </linearGradient>
    <linearGradient
       gradientTransform="translate(85.533482,0)"
       gradientUnits="userSpaceOnUse"
       id="linearGradient3204"
       x1="-57.011528"
       x2="-57.011528"
       y1="1030.6855"
       y2="977.05212">
      <stop
         offset="0"
         stop-color="#d3d6dc"
         stop-opacity="1"
         id="stop211" />
      <stop
         offset="1"
         stop-color="#e8eaec"
         stop-opacity="1"
         id="stop213" />
    </linearGradient>
    <linearGradient
       gradientTransform="translate(85.533482,-956.3622)"
       gradientUnits="userSpaceOnUse"
       id="linearGradient3217"
       x1="-57.011528"
       x2="-57.011528"
       y1="1030.6855"
       y2="977.05212">
      <stop
         offset="0"
         stop-color="#d3d6dc"
         stop-opacity="1"
         id="stop216" />
      <stop
         offset="1"
         stop-color="#e8eaec"
         stop-opacity="1"
         id="stop218" />
    </linearGradient>
    <linearGradient
       gradientUnits="userSpaceOnUse"
       id="linearGradient220"
       x1="-57.011528"
       x2="-57.011528"
       y1="1030.6855"
       y2="977.05212">
      <stop
         offset="0"
         stop-color="#d3d6dc"
         stop-opacity="1"
         id="stop222" />
      <stop
         offset="1"
         stop-color="#e8eaec"
         stop-opacity="1"
         id="stop224" />
    </linearGradient>
    <linearGradient
       gradientUnits="userSpaceOnUse"
       id="linearGradient226"
       x1="-57.011528"
       x2="-57.011528"
       y1="1030.6855"
       y2="977.05212">
      <stop
         offset="0"
         stop-color="#d3d6dc"
         stop-opacity="1"
         id="stop228" />
      <stop
         offset="1"
         stop-color="#e8eaec"
         stop-opacity="1"
         id="stop230" />
    </linearGradient>
    <linearGradient
       gradientUnits="userSpaceOnUse"
       id="linearGradient232"
       x1="-57.011528"
       x2="-57.011528"
       y1="1030.6855"
       y2="977.05212">
      <stop
         offset="0"
         stop-color="#d3d6dc"
         stop-opacity="1"
         id="stop234" />
      <stop
         offset="1"
         stop-color="#e8eaec"
         stop-opacity="1"
         id="stop236" />
    </linearGradient>
    <linearGradient
       gradientUnits="userSpaceOnUse"
       id="linearGradient3233"
       x1="65.613441"
       x2="65.613441"
       y1="1002.8832"
       y2="997.46045"
       gradientTransform="translate(0,-956.3622)">
      <stop
         offset="0"
         stop-color="#5c636e"
         stop-opacity="1"
         id="stop239" />
      <stop
         offset="1"
         stop-color="#61626a"
         stop-opacity="1"
         id="stop241" />
    </linearGradient>
    <linearGradient
       id="linearGradient4917"
       inkscape:collect="always">
      <stop
         id="stop4919"
         offset="0"
         style="stop-color:#aa0088;stop-opacity:1" />
      <stop
         id="stop4921"
         offset="1"
         style="stop-color:#ff0000;stop-opacity:0;" />
    </linearGradient>
    <linearGradient
       id="linearGradient7008"
       inkscape:collect="always">
      <stop
         id="stop7010"
         offset="0"
         style="stop-color:#efefed;stop-opacity:1" />
      <stop
         id="stop7012"
         offset="1"
         style="stop-color:#e4e4e1;stop-opacity:1" />
    </linearGradient>
    <linearGradient
       inkscape:collect="always"
       id="linearGradient5088">
      <stop
         style="stop-color:#f7f3f7;stop-opacity:1"
         offset="0"
         id="stop5090" />
      <stop
         id="stop5094"
         offset="0.59999996"
         style="stop-color:#f7eff7;stop-opacity:1" />
      <stop
         style="stop-color:#cec3ce;stop-opacity:1"
         offset="1"
         id="stop5092" />
    </linearGradient>
    <inkscape:perspective
       id="perspective3054"
       inkscape:persp3d-origin="48 : 32 : 1"
       inkscape:vp_z="96 : 48 : 1"
       inkscape:vp_y="0 : 1000 : 0"
       inkscape:vp_x="0 : 48 : 1"
       sodipodi:type="inkscape:persp3d" />
    <linearGradient
       id="linearGradient3558"
       inkscape:collect="always">
      <stop
         id="stop3560"
         offset="0"
         style="stop-color:#ded3d6;stop-opacity:1" />
      <stop
         id="stop3562"
         offset="1"
         style="stop-color:#efebef;stop-opacity:1" />
    </linearGradient>
    <linearGradient
       inkscape:collect="always"
       id="linearGradient3076">
      <stop
         style="stop-color:#ffe7f7;stop-opacity:1"
         offset="0"
         id="stop3078" />
      <stop
         style="stop-color:#ffc3ef;stop-opacity:1"
         offset="1"
         id="stop3080" />
    </linearGradient>
    <linearGradient
       id="linearGradient3048"
       inkscape:collect="always">
      <stop
         id="stop3050"
         offset="0"
         style="stop-color:#c16d16;stop-opacity:1" />
      <stop
         id="stop3052"
         offset="1"
         style="stop-color:#ff8e31;stop-opacity:1" />
    </linearGradient>
    <linearGradient
       id="linearGradient3119"
       inkscape:collect="always">
      <stop
         id="stop3121"
         offset="0"
         style="stop-color:#92948f;stop-opacity:0" />
      <stop
         style="stop-color:#9b9e98;stop-opacity:1"
         offset="0.4283945"
         id="stop3123" />
      <stop
         id="stop3125"
         offset="1"
         style="stop-color:#939690;stop-opacity:0" />
    </linearGradient>
    <linearGradient
       inkscape:collect="always"
       id="linearGradient3073">
      <stop
         style="stop-color:#ffffff;stop-opacity:0"
         offset="0"
         id="stop3075" />
      <stop
         id="stop3085"
         offset="0.45872402"
         style="stop-color:#ffffff;stop-opacity:1" />
      <stop
         style="stop-color:#ffffff;stop-opacity:0"
         offset="1"
         id="stop3083" />
    </linearGradient>
    <linearGradient
       id="linearGradient3047"
       inkscape:collect="always">
      <stop
         id="stop3049"
         offset="0"
         style="stop-color:#000000;stop-opacity:1" />
      <stop
         style="stop-color:#1a1a1a;stop-opacity:1"
         offset="0.06123874"
         id="stop3055" />
      <stop
         id="stop3057"
         offset="0.16480456"
         style="stop-color:#333333;stop-opacity:1" />
      <stop
         style="stop-color:#4d4d4d;stop-opacity:1"
         offset="0.55385184"
         id="stop3059" />
      <stop
         id="stop3051"
         offset="1"
         style="stop-color:#999999;stop-opacity:1" />
    </linearGradient>
    <linearGradient
       inkscape:collect="always"
       id="linearGradient3041-6">
      <stop
         style="stop-color:#1a1a1a;stop-opacity:1"
         offset="0"
         id="stop3043" />
      <stop
         style="stop-color:#808080;stop-opacity:1"
         offset="1"
         id="stop3045" />
    </linearGradient>
    <linearGradient
       id="linearGradient3029"
       inkscape:collect="always">
      <stop
         id="stop3031"
         offset="0"
         style="stop-color:#333333;stop-opacity:1" />
      <stop
         id="stop3033"
         offset="1"
         style="stop-color:#e0e0dd;stop-opacity:0;" />
    </linearGradient>
    <linearGradient
       gradientTransform="matrix(1.1638085,0,0,1.1638085,-7.862809,-164.23642)"
       gradientUnits="userSpaceOnUse"
       y2="975.33282"
       x2="35.355339"
       y1="1030.3622"
       x1="35.355339"
       id="linearGradient3035"
       xlink:href="#linearGradient3029"
       inkscape:collect="always" />
    <linearGradient
       gradientTransform="matrix(1.1218695,0,0,1.1218695,-5.8497348,-122.18782)"
       y2="975.33282"
       x2="35.355339"
       y1="1030.3622"
       x1="35.355339"
       gradientUnits="userSpaceOnUse"
       id="linearGradient3039"
       xlink:href="#linearGradient3041-6"
       inkscape:collect="always" />
    <linearGradient
       gradientUnits="userSpaceOnUse"
       y2="972.33325"
       x2="39.285713"
       y1="1043.4336"
       x1="40"
       id="linearGradient3053"
       xlink:href="#linearGradient3047"
       inkscape:collect="always" />
    <linearGradient
       y2="969.24683"
       x2="24.52651"
       y1="978.90387"
       x1="14.869445"
       gradientTransform="translate(0,-956.36218)"
       gradientUnits="userSpaceOnUse"
       id="linearGradient3113"
       xlink:href="#linearGradient3073"
       inkscape:collect="always" />
    <linearGradient
       y2="967.50934"
       x2="26.263966"
       y1="978.62103"
       x1="15.152279"
       gradientTransform="matrix(-1,0,0,1,96,-956.36218)"
       gradientUnits="userSpaceOnUse"
       id="linearGradient3115"
       xlink:href="#linearGradient3073"
       inkscape:collect="always" />
    <linearGradient
       y2="967.86646"
       x2="25.549681"
       y1="980.64136"
       x1="13.131983"
       gradientTransform="translate(0,-956.36218)"
       gradientUnits="userSpaceOnUse"
       id="linearGradient3117"
       xlink:href="#linearGradient3119"
       inkscape:collect="always" />
    <linearGradient
       y2="967.86646"
       x2="25.549681"
       y1="980.64136"
       x1="13.131983"
       gradientTransform="matrix(-1,0,0,1,96,0)"
       gradientUnits="userSpaceOnUse"
       id="linearGradient3129"
       xlink:href="#linearGradient3119"
       inkscape:collect="always" />
    <linearGradient
       gradientUnits="userSpaceOnUse"
       y2="1045.8627"
       x2="49.267925"
       y1="996.57349"
       x1="49.267925"
       id="linearGradient3054"
       xlink:href="#linearGradient3048"
       inkscape:collect="always" />
    <linearGradient
       gradientUnits="userSpaceOnUse"
       y2="1033.5543"
       x2="115.80308"
       y1="985.47241"
       x1="115.80308"
       id="linearGradient3058"
       xlink:href="#linearGradient3048"
       inkscape:collect="always" />
    <linearGradient
       gradientTransform="matrix(1.4144782,0,0,1.4144782,-119.78686,-419.05496)"
       y2="1025.3639"
       x2="115.80308"
       y1="985.47241"
       x1="115.80308"
       gradientUnits="userSpaceOnUse"
       id="linearGradient3055"
       xlink:href="#linearGradient3076"
       inkscape:collect="always" />
    <linearGradient
       y2="1025.3639"
       x2="115.80308"
       y1="985.47241"
       x1="115.80308"
       gradientTransform="matrix(1.4144782,0,0,1.4144782,-119.78686,-417.12598)"
       gradientUnits="userSpaceOnUse"
       id="linearGradient3086"
       xlink:href="#linearGradient3076"
       inkscape:collect="always" />
    <linearGradient
       y2="1025.3639"
       x2="115.80308"
       y1="985.47241"
       x1="115.80308"
       gradientTransform="matrix(1.4144782,0,0,1.4144782,-119.78686,-418.126)"
       gradientUnits="userSpaceOnUse"
       id="linearGradient3091"
       xlink:href="#linearGradient3076"
       inkscape:collect="always" />
    <linearGradient
       y2="1025.3639"
       x2="115.80308"
       y1="985.47241"
       x1="115.80308"
       gradientTransform="matrix(1.4144782,0,0,1.4144782,-119.78686,-1375.4171)"
       gradientUnits="userSpaceOnUse"
       id="linearGradient3093"
       xlink:href="#linearGradient3076"
       inkscape:collect="always" />
    <linearGradient
       gradientUnits="userSpaceOnUse"
       y2="980.7262"
       x2="93.242035"
       y1="1027.2615"
       x1="93.242035"
       id="linearGradient3564"
       xlink:href="#linearGradient3558"
       inkscape:collect="always" />
    <linearGradient
       gradientUnits="userSpaceOnUse"
       xlink:href="#linearGradient3737"
       id="linearGradient3613"
       y2="138.66119"
       x2="48"
       y1="20.220806"
       x1="48" />
    <linearGradient
       id="linearGradient3737">
      <stop
         offset="0"
         style="stop-color:#ffffff;stop-opacity:1"
         id="stop3739" />
      <stop
         offset="1"
         style="stop-color:#ffffff;stop-opacity:0"
         id="stop3741" />
    </linearGradient>
    <clipPath
       id="clipPath4355">
      <rect
         style="fill:#ffffff;fill-opacity:1;fill-rule:nonzero;stroke:none"
         id="rect4357"
         y="6"
         x="6"
         ry="6"
         rx="6"
         height="80"
         width="84" />
    </clipPath>
    <filter
       id="filter3794"
       color-interpolation-filters="sRGB"
       height="1.3839999"
       width="1.3839999"
       y="-0.192"
       x="-0.192">
      <feGaussianBlur
         stdDeviation="5.28"
         id="feGaussianBlur3796" />
    </filter>
    <clipPath
       id="clipPath4355-8">
      <rect
         style="fill:#ffffff;fill-opacity:1;fill-rule:nonzero;stroke:none"
         id="rect4357-5"
         y="6"
         x="6"
         ry="6"
         rx="6"
         height="80"
         width="84" />
    </clipPath>
    <filter
       id="filter3794-7"
       color-interpolation-filters="sRGB"
       height="1.3839999"
       width="1.3839999"
       y="-0.192"
       x="-0.192">
      <feGaussianBlur
         stdDeviation="5.28"
         id="feGaussianBlur3796-7" />
    </filter>
    <linearGradient
       gradientTransform="matrix(1.0238095,0,0,1.0119048,-1.1428571,-98.071429)"
       gradientUnits="userSpaceOnUse"
       xlink:href="#ButtonShadow-0"
       id="linearGradient3026"
       y2="90.238609"
       x2="32.251034"
       y1="6.1317081"
       x1="32.251034" />
    <linearGradient
       gradientTransform="matrix(1.0058652,0,0,0.994169,100,0)"
       gradientUnits="userSpaceOnUse"
       id="ButtonShadow-0"
       y2="7.0165396"
       x2="45.447727"
       y1="92.539597"
       x1="45.447727">
      <stop
         offset="0"
         style="stop-color:#000000;stop-opacity:1"
         id="stop3750-8" />
      <stop
         offset="1"
         style="stop-color:#000000;stop-opacity:0.58823532"
         id="stop3752-5" />
    </linearGradient>
    <linearGradient
       gradientTransform="translate(0,-97)"
       gradientUnits="userSpaceOnUse"
       xlink:href="#ButtonShadow-0"
       id="linearGradient3721"
       y2="90.238609"
       x2="32.251034"
       y1="6.1317081"
       x1="32.251034" />
    <clipPath
       id="clipPath4355-0">
      <rect
         style="fill:#ffffff;fill-opacity:1;fill-rule:nonzero;stroke:none"
         id="rect4357-3"
         y="6"
         x="6"
         ry="6"
         rx="6"
         height="80"
         width="84" />
    </clipPath>
    <filter
       id="filter3794-73"
       color-interpolation-filters="sRGB"
       height="1.3839999"
       width="1.3839999"
       y="-0.192"
       x="-0.192">
      <feGaussianBlur
         stdDeviation="5.28"
         id="feGaussianBlur3796-0" />
    </filter>
    <linearGradient
       gradientTransform="translate(-102.19033,953.17606)"
       y2="82.454597"
       x2="112.12357"
       y1="82"
       x1="48"
       spreadMethod="reflect"
       gradientUnits="userSpaceOnUse"
       id="linearGradient3280"
       xlink:href="#linearGradient3737"
       inkscape:collect="always" />
    <linearGradient
       y2="-40"
       x2="48"
       y1="88"
       x1="48"
       gradientTransform="matrix(1,0,0,-1,-102.19033,1045.176)"
       gradientUnits="userSpaceOnUse"
       id="linearGradient3284"
       xlink:href="#linearGradient3737"
       inkscape:collect="always" />
    <clipPath
       id="clipPath4165">
      <rect
         style="fill:#ff2a2a;fill-opacity:1;fill-rule:nonzero;stroke:none"
         id="rect4167"
         y="6"
         x="6"
         ry="6"
         rx="6"
         height="84"
         width="84" />
    </clipPath>
    <radialGradient
       gradientUnits="userSpaceOnUse"
       xlink:href="#linearGradient3853"
       id="radialGradient4393"
       fy="26.357143"
       fx="24.821428"
       r="8.0357141"
       cy="26.357143"
       cx="24.821428" />
    <linearGradient
       id="linearGradient3853">
      <stop
         offset="0"
         style="stop-color:#e88d01;stop-opacity:0.18431373"
         id="stop3855" />
      <stop
         offset="0.5"
         style="stop-color:#e58907;stop-opacity:0.4108527"
         id="stop3863" />
      <stop
         offset="0.75"
         style="stop-color:#e48a0a;stop-opacity:0.68217057"
         id="stop4397" />
      <stop
         offset="1"
         style="stop-color:#e4870a;stop-opacity:1"
         id="stop3859" />
    </linearGradient>
    <radialGradient
       gradientUnits="userSpaceOnUse"
       xlink:href="#linearGradient3853"
       id="radialGradient4045"
       fy="30.464287"
       fx="43.392857"
       r="4.1071429"
       cy="30.464287"
       cx="43.392857" />
    <radialGradient
       gradientUnits="userSpaceOnUse"
       xlink:href="#linearGradient3698"
       id="radialGradient4047"
       fy="24.639818"
       fx="53.542297"
       r="2.1428571"
       cy="24.639818"
       cx="53.542297" />
    <linearGradient
       id="linearGradient3698">
      <stop
         offset="0"
         style="stop-color:#f0a801;stop-opacity:0.18604651"
         id="stop3700" />
      <stop
         offset="0.5"
         style="stop-color:#f0a801;stop-opacity:0.35658914"
         id="stop3711" />
      <stop
         offset="0.75"
         style="stop-color:#e8a301;stop-opacity:0.83720928"
         id="stop4395" />
      <stop
         offset="1"
         style="stop-color:#e09201;stop-opacity:1"
         id="stop3703" />
    </linearGradient>
    <radialGradient
       gradientUnits="userSpaceOnUse"
       xlink:href="#linearGradient3698"
       id="radialGradient4049"
       fy="37.607143"
       fx="62.678574"
       r="5.3571429"
       cy="37.607143"
       cx="62.678574" />
    <radialGradient
       gradientUnits="userSpaceOnUse"
       xlink:href="#linearGradient3698"
       id="radialGradient4051"
       fy="62.282928"
       fx="30.529381"
       r="6.6071429"
       cy="62.282928"
       cx="30.529381" />
    <radialGradient
       gradientUnits="userSpaceOnUse"
       xlink:href="#linearGradient3853"
       id="radialGradient4053"
       fy="71.637032"
       fx="65.730751"
       r="8.2142859"
       cy="71.637032"
       cx="65.730751" />
    <radialGradient
       gradientUnits="userSpaceOnUse"
       xlink:href="#linearGradient3698"
       id="radialGradient4055"
       fy="56.425529"
       fx="48.795593"
       r="3.3928571"
       cy="56.425529"
       cx="48.795593" />
    <radialGradient
       gradientUnits="userSpaceOnUse"
       xlink:href="#linearGradient3853"
       id="radialGradient4125"
       fy="77.45517"
       fx="12.211246"
       r="7.8571429"
       cy="77.45517"
       cx="12.211246" />
    <radialGradient
       gradientUnits="userSpaceOnUse"
       xlink:href="#linearGradient3698"
       id="radialGradient4059"
       fy="87.035973"
       fx="33.899441"
       r="4.1071429"
       cy="87.035973"
       cx="33.899441" />
    <radialGradient
       gradientUnits="userSpaceOnUse"
       xlink:href="#linearGradient3698"
       id="radialGradient4061"
       fy="86.75354"
       fx="50.863728"
       r="5.3571429"
       cy="86.75354"
       cx="50.863728" />
    <radialGradient
       gradientUnits="userSpaceOnUse"
       xlink:href="#linearGradient3853"
       id="radialGradient4063"
       fy="13.678572"
       fx="73.392853"
       r="3.5714285"
       cy="13.678572"
       cx="73.392853" />
    <radialGradient
       gradientUnits="userSpaceOnUse"
       xlink:href="#linearGradient3698"
       id="radialGradient4065"
       fy="25.642857"
       fx="80.714287"
       r="9.2857141"
       cy="25.642857"
       cx="80.714287" />
    <radialGradient
       gradientUnits="userSpaceOnUse"
       xlink:href="#linearGradient3853"
       id="radialGradient4105"
       fy="79.565102"
       fx="78.237083"
       r="2.1428571"
       cy="79.565102"
       cx="78.237083" />
    <radialGradient
       gradientUnits="userSpaceOnUse"
       xlink:href="#linearGradient3698"
       id="radialGradient4102"
       fy="69.737335"
       fx="82.597511"
       r="4.8214288"
       cy="69.737335"
       cx="82.597511" />
    <radialGradient
       gradientUnits="userSpaceOnUse"
       xlink:href="#linearGradient3698"
       id="radialGradient4121"
       fy="34.282673"
       fx="12.649444"
       r="3.2142856"
       cy="34.282673"
       cx="12.649444" />
    <radialGradient
       gradientUnits="userSpaceOnUse"
       xlink:href="#linearGradient3698"
       id="radialGradient4073"
       fy="5.0425529"
       fx="34.68845"
       r="6.0714288"
       cy="5.0425529"
       cx="34.68845" />
    <radialGradient
       gradientTransform="matrix(1,0,0,0.97500003,0,0.37767813)"
       gradientUnits="userSpaceOnUse"
       xlink:href="#linearGradient3698"
       id="radialGradient4119"
       fy="17.705017"
       fx="3.0230496"
       r="7.1428571"
       cy="17.705017"
       cx="3.0230496" />
    <radialGradient
       gradientUnits="userSpaceOnUse"
       xlink:href="#linearGradient3698"
       id="radialGradient4077"
       fy="7.8686676"
       fx="60.238728"
       r="2.7678571"
       cy="7.8686676"
       cx="60.238728" />
    <radialGradient
       r="42"
       fy="90.171875"
       fx="48"
       cy="90.171875"
       cx="48"
       gradientTransform="matrix(1.1573129,0,0,0.99590774,-109.74135,953.37319)"
       gradientUnits="userSpaceOnUse"
       id="radialGradient3327"
       xlink:href="#linearGradient3737"
       inkscape:collect="always" />
    <linearGradient
       gradientTransform="translate(-102.19033,953.17606)"
       y2="63.893143"
       x2="36.357143"
       y1="6"
       x1="36.357143"
       gradientUnits="userSpaceOnUse"
       id="linearGradient3330"
       xlink:href="#linearGradient3737"
       inkscape:collect="always" />
    <linearGradient
       gradientTransform="translate(-30.101695,23.186441)"
       y2="5.9877172"
       x2="48"
       y1="90"
       x1="48"
       gradientUnits="userSpaceOnUse"
       id="linearGradient3333"
       xlink:href="#linearGradient2841"
       inkscape:collect="always" />
    <linearGradient
       id="linearGradient2841">
      <stop
         offset="0"
         style="stop-color:#f0bf39;stop-opacity:1"
         id="stop2843" />
      <stop
         offset="1"
         style="stop-color:#f8e699;stop-opacity:1"
         id="stop2845" />
    </linearGradient>
    <linearGradient
       inkscape:collect="always"
       xlink:href="#linearGradient2841"
       id="linearGradient3639"
       gradientUnits="userSpaceOnUse"
       gradientTransform="translate(-102.19033,953.17606)"
       x1="48"
       y1="90"
       x2="48"
       y2="5.9877172" />
    <linearGradient
       spreadMethod="reflect"
       gradientUnits="userSpaceOnUse"
       xlink:href="#linearGradient3892"
       id="linearGradient3890"
       y2="88"
       x2="48"
       y1="88"
       x1="90" />
    <linearGradient
       id="linearGradient3892">
      <stop
         offset="0"
         style="stop-color:#000000;stop-opacity:0.47058824"
         id="stop3894" />
      <stop
         offset="0.11780351"
         style="stop-color:#000000;stop-opacity:0.39215687"
         id="stop3896" />
      <stop
         offset="0.23809524"
         style="stop-color:#000000;stop-opacity:0.29411766"
         id="stop3898" />
      <stop
         offset="1"
         style="stop-color:#000000;stop-opacity:0.15686275"
         id="stop3900" />
    </linearGradient>
    <linearGradient
       gradientTransform="matrix(-1,0,0,1,96,-30)"
       gradientUnits="userSpaceOnUse"
       xlink:href="#linearGradient3864"
       id="linearGradient3884"
       y2="115"
       x2="24"
       y1="115"
       x1="6" />
    <linearGradient
       id="linearGradient3864">
      <stop
         offset="0"
         style="stop-color:#ffffff;stop-opacity:0.07843138"
         id="stop3866" />
      <stop
         offset="0.25"
         style="stop-color:#ffffff;stop-opacity:0.3137255"
         id="stop3872" />
      <stop
         offset="0.60000002"
         style="stop-color:#ffffff;stop-opacity:0"
         id="stop3874" />
      <stop
         offset="1"
         style="stop-color:#ffffff;stop-opacity:0"
         id="stop3868" />
    </linearGradient>
    <linearGradient
       gradientTransform="translate(0,-30)"
       gradientUnits="userSpaceOnUse"
       xlink:href="#linearGradient3864"
       id="linearGradient3886"
       y2="115"
       x2="24"
       y1="115"
       x1="6" />
    <linearGradient
       spreadMethod="reflect"
       gradientTransform="translate(0,40)"
       gradientUnits="userSpaceOnUse"
       xlink:href="#linearGradient4482"
       id="linearGradient3855"
       y2="88"
       x2="48"
       y1="88"
       x1="90" />
    <linearGradient
       id="linearGradient4482">
      <stop
         offset="0"
         style="stop-color:#ffffff;stop-opacity:0.12977099"
         id="stop4484" />
      <stop
         offset="0.11780351"
         style="stop-color:#424242;stop-opacity:0.28244275"
         id="stop4486" />
      <stop
         offset="0.23809524"
         style="stop-color:#2f2f2f;stop-opacity:0.30534351"
         id="stop4488" />
      <stop
         offset="1"
         style="stop-color:#000000;stop-opacity:0.35114503"
         id="stop4490" />
    </linearGradient>
    <radialGradient
       gradientTransform="matrix(0.8944843,-0.8944843,0.85762902,0.85762807,-53.469583,-21.188036)"
       gradientUnits="userSpaceOnUse"
       r="31.154718"
       fy="42.46944"
       fx="-25.282049"
       cy="42.46944"
       cx="-25.282049"
       id="radialGradient5100"
       xlink:href="#linearGradient5088"
       inkscape:collect="always" />
    <radialGradient
       r="31.154718"
       fy="42.46944"
       fx="-25.282049"
       cy="42.46944"
       cx="-25.282049"
       gradientTransform="matrix(0.8944843,-0.8944843,0.85762902,0.85762807,-53.469583,-21.188036)"
       gradientUnits="userSpaceOnUse"
       id="radialGradient4054"
       xlink:href="#linearGradient5088"
       inkscape:collect="always" />
    <linearGradient
       gradientTransform="translate(-9.22174,956.36218)"
       gradientUnits="userSpaceOnUse"
       y2="18.852095"
       x2="46.1087"
       y1="71.921013"
       x1="46.1087"
       id="linearGradient7014"
       xlink:href="#linearGradient7008"
       inkscape:collect="always" />
    <linearGradient
       y2="18.852095"
       x2="46.1087"
       y1="71.921013"
       x1="46.1087"
       gradientTransform="translate(281.04878,946.22423)"
       gradientUnits="userSpaceOnUse"
       id="linearGradient7024"
       xlink:href="#linearGradient7008"
       inkscape:collect="always" />
    <linearGradient
       y2="18.852095"
       x2="46.1087"
       y1="71.921013"
       x1="46.1087"
       gradientTransform="translate(-13.834242,0.00545)"
       gradientUnits="userSpaceOnUse"
       id="linearGradient7030"
       xlink:href="#linearGradient7008"
       inkscape:collect="always" />
    <linearGradient
       x1="48"
       y1="90"
       x2="48"
       y2="5.9877172"
       id="linearGradient3913"
       xlink:href="#ButtonColor"
       gradientUnits="userSpaceOnUse" />
    <linearGradient
       id="linearGradient6746">
      <stop
         id="stop6748"
         style="stop-color:#19407c;stop-opacity:1"
         offset="0" />
      <stop
         id="stop6750"
         style="stop-color:#4f87dc;stop-opacity:0.50588238"
         offset="0.28121248" />
      <stop
         id="stop6752"
         style="stop-color:#2156a4;stop-opacity:1"
         offset="0.45118788" />
      <stop
         id="stop6754"
         style="stop-color:#1b4789;stop-opacity:1"
         offset="0.58596319" />
      <stop
         id="stop6756"
         style="stop-color:#1f5bb4;stop-opacity:1"
         offset="0.76171201" />
      <stop
         id="stop6758"
         style="stop-color:#9abaeb;stop-opacity:0.98039216"
         offset="1" />
    </linearGradient>
    <linearGradient
       x1="50.420731"
       y1="111.18644"
       x2="68.841461"
       y2="9.1256237"
       id="linearGradient3664-8"
       xlink:href="#linearGradient6746"
       gradientUnits="userSpaceOnUse"
       gradientTransform="matrix(0,0.72413795,-0.72413794,0,94.34483,1.655173)" />
    <linearGradient
       x1="10.31979"
       y1="21"
       x2="10.31979"
       y2="0.99929649"
       id="ButtonColor"
       gradientUnits="userSpaceOnUse">
      <stop
         id="stop3189-6"
         style="stop-color:#2764bf;stop-opacity:1"
         offset="0" />
      <stop
         id="stop3191-5"
         style="stop-color:#71a1e8;stop-opacity:1"
         offset="1" />
    </linearGradient>
    <linearGradient
       x1="48"
       y1="82"
       x2="112.12357"
       y2="82.454597"
       id="linearGradient4429"
       xlink:href="#linearGradient3737"
       gradientUnits="userSpaceOnUse"
       spreadMethod="reflect" />
    <linearGradient
       x1="48"
       y1="88"
       x2="48"
       y2="-40"
       id="linearGradient4390"
       xlink:href="#linearGradient3737"
       gradientUnits="userSpaceOnUse"
       gradientTransform="matrix(1,0,0,-1,0,92)" />
    <radialGradient
       cx="48"
       cy="87.792389"
       r="42"
       fx="48"
       fy="87.792389"
       id="radialGradient4375"
       xlink:href="#linearGradient3737"
       gradientUnits="userSpaceOnUse"
       gradientTransform="matrix(1,-6.7114942e-8,8.4282233e-8,1.2557894,109.99999,-24.505592)" />
    <clipPath
       id="clipPath4355-03">
      <rect
         width="84"
         height="80"
         rx="6"
         ry="6"
         x="6"
         y="6"
         id="rect4357-9"
         style="fill:#ffffff;fill-opacity:1;fill-rule:nonzero;stroke:none" />
    </clipPath>
    <filter
       x="-0.192"
       y="-0.192"
       width="1.3839999"
       height="1.3839999"
       color-interpolation-filters="sRGB"
       id="filter3794-4">
      <feGaussianBlur
         id="feGaussianBlur3796-9"
         stdDeviation="5.28" />
    </filter>
    <filter
       color-interpolation-filters="sRGB"
       id="filter3174">
      <feGaussianBlur
         id="feGaussianBlur3176"
         stdDeviation="1.71" />
    </filter>
    <linearGradient
       x1="45.447727"
       y1="92.539597"
       x2="45.447727"
       y2="7.0165396"
       id="ButtonShadow"
       gradientUnits="userSpaceOnUse"
       gradientTransform="scale(1.0058652,0.994169)">
      <stop
         id="stop3750"
         style="stop-color:#000000;stop-opacity:1"
         offset="0" />
      <stop
         id="stop3752"
         style="stop-color:#000000;stop-opacity:0.58823532"
         offset="1" />
    </linearGradient>
    <radialGradient
       r="42"
       fy="87.792389"
       fx="48"
       cy="87.792389"
       cx="48"
       gradientTransform="matrix(1,-6.7114942e-8,8.4282233e-8,1.2557894,109.99999,-24.505592)"
       gradientUnits="userSpaceOnUse"
       id="radialGradient3758"
       xlink:href="#linearGradient3737"
       inkscape:collect="always" />
    <linearGradient
       gradientTransform="translate(204.04205,1014.2665)"
       y2="82.454597"
       x2="112.12357"
       y1="82"
       x1="48"
       spreadMethod="reflect"
       gradientUnits="userSpaceOnUse"
       id="linearGradient3766"
       xlink:href="#linearGradient3737"
       inkscape:collect="always" />
    <linearGradient
       y2="-40"
       x2="48"
       y1="88"
       x1="48"
       gradientTransform="matrix(1,0,0,-1,204.04205,1106.2665)"
       gradientUnits="userSpaceOnUse"
       id="linearGradient3769"
       xlink:href="#linearGradient3737"
       inkscape:collect="always" />
    <radialGradient
       r="42"
       fy="87.792389"
       fx="48"
       cy="87.792389"
       cx="48"
       gradientTransform="matrix(1,-6.7114942e-8,8.4282233e-8,1.2557894,314.04204,989.76091)"
       gradientUnits="userSpaceOnUse"
       id="radialGradient3772"
       xlink:href="#linearGradient3737"
       inkscape:collect="always" />
    <linearGradient
       y2="9.1256237"
       x2="68.841461"
       y1="111.18644"
       x1="50.420731"
       gradientTransform="matrix(0,0.72413795,-0.72413794,0,298.38688,1015.9217)"
       gradientUnits="userSpaceOnUse"
       id="linearGradient3807"
       xlink:href="#linearGradient6746"
       inkscape:collect="always" />
    <linearGradient
       gradientTransform="translate(204.04205,1014.2665)"
       y2="5.9877172"
       x2="48"
       y1="90"
       x1="48"
       gradientUnits="userSpaceOnUse"
       id="linearGradient3810"
       xlink:href="#ButtonColor"
       inkscape:collect="always" />
    <linearGradient
       gradientUnits="userSpaceOnUse"
       y2="962.68048"
       x2="20.108517"
       y1="1046.0863"
       x1="20.108517"
       id="linearGradient4915"
       xlink:href="#linearGradient3933"
       inkscape:collect="always"
       gradientTransform="translate(119.59322,-956.36218)" />
    <linearGradient
       gradientUnits="userSpaceOnUse"
       y2="977.19629"
       x2="31.763771"
       y1="1043.6527"
       x1="31.763771"
       id="linearGradient4923"
       xlink:href="#linearGradient4917"
       inkscape:collect="always" />
    <linearGradient
       inkscape:collect="always"
       xlink:href="#linearGradient4319"
       id="linearGradient5124"
       gradientUnits="userSpaceOnUse"
       gradientTransform="matrix(0.97619048,0,0,0.97619048,120.73608,-932.44879)"
       x1="20.108517"
       y1="1046.0863"
       x2="20.108517"
       y2="962.68048" />
  </defs>
  <g
     id="g5126"
     transform="translate(-119.59322,0)">
    <rect
       ry="10.595235"
       rx="10.595235"
       y="4.5000024"
       x="123.09322"
       height="89"
       width="89"
       id="rect3826"
       style="opacity:0.05;fill:#000000;fill-opacity:1;stroke:none" />
    <g
       transform="translate(119.59322,-956.36218)"
       id="g3041">
      <rect
         ry="10.476188"
         rx="10.476188"
         y="961.36218"
         x="4"
         height="88"
         width="88"
         id="rect3824"
         style="opacity:0.05;fill:#000000;fill-opacity:1;stroke:none" />
      <rect
         style="opacity:0.05;fill:#000000;fill-opacity:1;stroke:none"
         id="rect3822"
         width="87"
         height="87"
         x="4.5"
         y="961.86218"
         rx="10.357141"
         ry="10.357141" />
      <rect
         ry="10.238094"
         rx="10.238094"
         y="962.36218"
         x="5"
         height="86"
         width="86"
         id="rect3820"
         style="opacity:0.1;fill:#000000;fill-opacity:1;stroke:none" />
      <rect
         style="opacity:0.1;fill:#000000;fill-opacity:1;stroke:none"
         id="rect3818"
         width="85"
         height="85"
         x="5.5"
         y="962.86218"
         rx="10.119047"
         ry="10.119047" />
      <rect
         ry="10"
         rx="10"
         y="963.36218"
         x="6"
         height="84"
         width="84"
         id="rect3131"
         style="opacity:0.3;fill:#000000;fill-opacity:1;stroke:none" />
    </g>
    <rect
       ry="10"
       rx="10"
       y="6.0000024"
       x="125.59322"
       height="84"
       width="84"
       id="rect3034"
       style="fill:url(#linearGradient4915);fill-opacity:1;stroke:none" />
    <rect
       style="fill:url(#linearGradient5124);fill-opacity:1;stroke:none"
       id="rect5120"
       width="82"
       height="82"
       x="126.59322"
       y="7"
       rx="9.7619047"
       ry="9.7619047" />
  </g>
  <rect
     style="fill:#000000;fill-opacity:0.05;fill-rule:nonzero;stroke:none;stroke-opacity:0.05"
     id="rect255"
     y="25.999983"
     x="18.247999"
     width="59.5"
     ry="3.6300712"
     rx="3.7563345"
     height="54" />
  <rect
     style="fill:#000000;fill-opacity:0.05;fill-rule:nonzero;stroke:none;stroke-opacity:0.05"
     id="rect257"
     y="24.999983"
     x="18.247999"
     width="59.5"
     ry="3.6300712"
     rx="3.7563345"
     height="54" />
  <rect
     style="fill:#000000;fill-opacity:0.05;fill-rule:nonzero;stroke:none;stroke-opacity:0.05"
     id="rect259"
     y="23.999983"
     x="18.247999"
     width="59.5"
     ry="3.6300712"
     rx="3.7563345"
     height="54" />
  <rect
     style="fill:#000000;fill-opacity:0.05;fill-rule:nonzero;stroke:none;stroke-opacity:0.05"
     id="rect261"
     y="22.999983"
     x="18.247999"
     width="59.5"
     ry="3.6300712"
     rx="3.7563345"
     height="54" />
  <rect
     style="fill:#000000;fill-opacity:0.05;fill-rule:nonzero;stroke:none;stroke-opacity:0.05"
     id="rect263"
     y="21.999983"
     x="18.247999"
     width="59.5"
     ry="3.6300712"
     rx="3.7563345"
     height="54" />
  <g
     id="g4487"
     transform="translate(0,1.7166138e-5)">
    <rect
       height="54"
       rx="3.6300712"
       ry="3.6300712"
       width="57.5"
       x="19.247768"
       y="20.999983"
       id="rect265"
       style="fill:url(#linearGradient3217);fill-opacity:1;fill-rule:nonzero;stroke:none;stroke-opacity:1" />
    <rect
       height="37.851517"
       rx="3.4863336"
       ry="3.4863336"
       width="48.894958"
       x="23.550289"
       y="33.10783"
       id="rect267"
       style="fill:url(#linearGradient3233);fill-opacity:1;fill-rule:nonzero;stroke:none;stroke-opacity:1" />
    <path
       d="m 27.550289,28.000004 c 4.21e-4,0.714811 -0.380685,1.375504 -0.999659,1.733031 -0.618976,0.357527 -1.381705,0.357527 -2.000681,0 -0.618975,-0.357527 -1.00008,-1.01822 -0.999659,-1.733031 -4.21e-4,-0.714811 0.380684,-1.375505 0.999659,-1.733032 0.618976,-0.357526 1.381705,-0.357526 2.000681,0 0.618974,0.357527 1.00008,1.018221 0.999659,1.733032 z"
       id="path269"
       inkscape:connector-curvature="0"
       style="fill:#6a6b73;fill-opacity:1;fill-rule:nonzero;stroke:none;stroke-opacity:1" />
    <path
       d="m 33.331801,28.000004 c 4.21e-4,0.714811 -0.380685,1.375504 -0.999659,1.733031 -0.618976,0.357527 -1.381705,0.357527 -2.000681,0 -0.618975,-0.357527 -1.00008,-1.01822 -0.999659,-1.733031 -4.21e-4,-0.714811 0.380684,-1.375505 0.999659,-1.733032 0.618976,-0.357526 1.381705,-0.357526 2.000681,0 0.618974,0.357527 1.00008,1.018221 0.999659,1.733032 z"
       id="path271"
       inkscape:connector-curvature="0"
       style="fill:#6a6b73;fill-opacity:1;fill-rule:nonzero;stroke:none;stroke-opacity:1" />
    <path
       d="m 72.445248,28.000004 c 4.21e-4,0.714811 -0.380685,1.375504 -0.999659,1.733031 -0.618976,0.357527 -1.381705,0.357527 -2.000681,0 -0.618975,-0.357527 -1.00008,-1.01822 -0.999659,-1.733031 -4.21e-4,-0.714811 0.380684,-1.375505 0.999659,-1.733032 0.618976,-0.357526 1.381705,-0.357526 2.000681,0 0.618974,0.357527 1.00008,1.018221 0.999659,1.733032 z"
       id="path273"
       inkscape:connector-curvature="0"
       style="fill:#6a6b73;fill-opacity:1;fill-rule:nonzero;stroke:none;stroke-opacity:1" />
    <path
       d="m 22.877232,21 c -2.011059,0 -3.625,1.61394 -3.625,3.625 l 0,1 c 0,-2.01106 1.613941,-3.625 3.625,-3.625 l 50.249998,0 c 2.01106,0 3.625,1.61394 3.625,3.625 l 0,-1 c 0,-2.01106 -1.61394,-3.625 -3.625,-3.625 l -50.250002,0 z"
       id="path275"
       inkscape:connector-curvature="0"
       style="fill:#ffffff;fill-opacity:0.5;fill-rule:nonzero;stroke:none;stroke-opacity:0.5" />
    <path
       d="m 27.033482,33.0938 c -1.931429,0 -3.46875,1.56854 -3.46875,3.5 l 0,1.03124 c 0,-1.93144 1.537321,-3.46874 3.46875,-3.46874 l 41.937498,0 c 1.931425,0 3.46875,1.5373 3.46875,3.46874 l 0,-1.03124 c 0,-1.93146 -1.537325,-3.5 -3.46875,-3.5 l -41.937502,0 z"
       id="path277"
       style="fill:url(#linearGradient3204);fill-opacity:0.5;fill-rule:nonzero;stroke:none;stroke-opacity:0.5"
       inkscape:connector-curvature="0" />
    <path
       d="m 27.033482,33.0938 c -1.931429,0 -3.46875,1.56854 -3.46875,3.5 l 0,30.875 c 0,1.9315 1.537321,3.5 3.46875,3.5 l 2,0 32.874998,-37.875 -34.874998,0 z"
       id="path279"
       inkscape:connector-curvature="0"
       style="fill:#ffffff;fill-opacity:0.15;fill-rule:nonzero;stroke:none;stroke-opacity:0.15" />
    <path
       d="m 23.564732,66.5 0,0.9688 c 0,1.9315 1.537321,3.5 3.46875,3.5 l 41.937498,0 c 1.931425,0 3.46875,-1.5685 3.46875,-3.5 l 0,-0.9688 c 0,1.9315 -1.537325,3.5001 -3.46875,3.5001 l -41.937502,0 c -1.931429,0 -3.46875,-1.5686 -3.46875,-3.5 z"
       id="path281"
       inkscape:connector-curvature="0"
       style="fill:#ffffff;fill-opacity:1;fill-rule:nonzero;stroke:none" />
  </g>
  <g
     style="display:inline;fill:#cccccc;fill-opacity:1"
     id="layer9-0"
     inkscape:label="status"
     transform="matrix(3.7353805,0,0,3.7353805,-532.02297,-1959.7961)" />
  <g
     style="fill:#cccccc;fill-opacity:1"
     id="layer10-5"
     inkscape:label="devices"
     transform="matrix(3.7353805,0,0,3.7353805,-532.02297,-1959.7961)" />
  <g
     style="fill:#cccccc;fill-opacity:1"
     id="layer13-1"
     inkscape:label="places"
     transform="matrix(3.7353805,0,0,3.7353805,-532.02297,-1959.7961)" />
  <g
     style="fill:#cccccc;fill-opacity:1"
     id="layer14-7"
     inkscape:label="mimetypes"
     transform="matrix(3.7353805,0,0,3.7353805,-532.02297,-1959.7961)" />
  <g
     style="display:inline;fill:#cccccc;fill-opacity:1"
     id="layer15-9"
     inkscape:label="emblems"
     transform="matrix(3.7353805,0,0,3.7353805,-532.02297,-1959.7961)" />
  <g
     style="display:inline;fill:#cccccc;fill-opacity:1"
     id="g71291"
     inkscape:label="emotes"
     transform="matrix(3.7353805,0,0,3.7353805,-532.02297,-1959.7961)" />
  <g
     style="display:inline;fill:#cccccc;fill-opacity:1"
     id="g4953-6"
     inkscape:label="categories"
     transform="matrix(3.7353805,0,0,3.7353805,-532.02297,-1959.7961)" />
  <g
     style="display:inline;fill:#cccccc;fill-opacity:1"
     id="layer12-9"
     inkscape:label="actions"
     transform="matrix(3.7353805,0,0,3.7353805,-532.02297,-1959.7961)" />
  <g
     id="layer2"
     style="display:none"
     transform="translate(263.49942,34.7194)">
    <rect
       width="86"
       height="85"
       rx="6"
       ry="6"
       x="5"
       y="7"
       id="rect3745"
       style="opacity:0.9;fill:url(#ButtonShadow);fill-opacity:1;fill-rule:nonzero;stroke:none;filter:url(#filter3174)" />
  </g>
  <g
     id="layer6"
     transform="translate(263.49942,34.7194)" />
  <g
     id="layer9"
     inkscape:label="status"
     style="display:inline;fill:#ffffff"
     transform="matrix(3.5764706,0,0,3.5764706,-86.28139,-2366.0059)" />
  <g
     style="fill:#ffffff"
     id="layer10"
     inkscape:label="devices"
     transform="matrix(3.5764706,0,0,3.5764706,-86.28139,-2366.0059)" />
  <g
     style="fill:#ffffff"
     id="layer13"
     inkscape:label="places"
     transform="matrix(3.5764706,0,0,3.5764706,-86.28139,-2366.0059)" />
  <g
     style="fill:#ffffff"
     id="layer14"
     inkscape:label="mimetypes"
     transform="matrix(3.5764706,0,0,3.5764706,-86.28139,-2366.0059)" />
  <g
     id="layer15"
     inkscape:label="emblems"
     style="display:inline;fill:#ffffff"
     transform="matrix(3.5764706,0,0,3.5764706,-86.28139,-2366.0059)" />
  <g
     id="g71291-9"
     inkscape:label="emotes"
     style="display:inline;fill:#ffffff"
     transform="matrix(3.5764706,0,0,3.5764706,-86.28139,-2366.0059)" />
  <g
     id="g4953"
     inkscape:label="categories"
     style="display:inline;fill:#ffffff"
     transform="matrix(3.5764706,0,0,3.5764706,-86.28139,-2366.0059)" />
  <g
     id="layer12"
     inkscape:label="actions"
     style="display:inline;fill:#ffffff"
     transform="matrix(3.5764706,0,0,3.5764706,-86.28139,-2366.0059)" />
</svg>
