<?xml version="1.0" encoding="UTF-8" standalone="no"?>
<!-- Created with Inkscape (http://www.inkscape.org/) -->

<svg
   xmlns:dc="http://purl.org/dc/elements/1.1/"
   xmlns:cc="http://creativecommons.org/ns#"
   xmlns:rdf="http://www.w3.org/1999/02/22-rdf-syntax-ns#"
   xmlns:svg="http://www.w3.org/2000/svg"
   xmlns="http://www.w3.org/2000/svg"
   xmlns:xlink="http://www.w3.org/1999/xlink"
   xmlns:sodipodi="http://sodipodi.sourceforge.net/DTD/sodipodi-0.dtd"
   xmlns:inkscape="http://www.inkscape.org/namespaces/inkscape"
   width="96"
   height="96"
   id="svg2"
   version="1.1"
   inkscape:version="0.91 r13725"
   sodipodi:docname="software-center.svg">
  <defs
     id="defs4">
    <linearGradient
       inkscape:collect="always"
       id="linearGradient4331">
      <stop
         style="stop-color:#e3e3e3;stop-opacity:1"
         offset="0"
         id="stop4333" />
      <stop
         style="stop-color:#fafafa;stop-opacity:1"
         offset="1"
         id="stop4335" />
    </linearGradient>
    <linearGradient
       inkscape:collect="always"
       id="linearGradient4323">
      <stop
         style="stop-color:#fc5e02;stop-opacity:1"
         offset="0"
         id="stop4325" />
      <stop
         style="stop-color:#e64e0f;stop-opacity:1"
         offset="1"
         id="stop4327" />
    </linearGradient>
    <linearGradient
       inkscape:collect="always"
       id="linearGradient3153">
      <stop
         style="stop-color:#ffffff;stop-opacity:1"
         offset="0"
         id="stop3155" />
      <stop
         id="stop3163"
         offset="0.71368068"
         style="stop-color:#ffffff;stop-opacity:1" />
      <stop
         style="stop-color:#000000;stop-opacity:1"
         offset="1"
         id="stop3157" />
    </linearGradient>
    <linearGradient
       id="linearGradient3090"
       inkscape:collect="always">
      <stop
         id="stop3092"
         offset="0"
         style="stop-color:#f07e47;stop-opacity:1" />
      <stop
         style="stop-color:#ef7438;stop-opacity:1"
         offset="0.17497088"
         id="stop3098" />
      <stop
         style="stop-color:#ee6d2e;stop-opacity:1"
         offset="0.18172497"
         id="stop3096" />
      <stop
         id="stop3094"
         offset="1"
         style="stop-color:#e89b58;stop-opacity:1" />
    </linearGradient>
    <linearGradient
       inkscape:collect="always"
       id="linearGradient3083">
      <stop
         style="stop-color:#f39568;stop-opacity:1"
         offset="0"
         id="stop3086" />
      <stop
         id="stop3102"
         offset="0.13653538"
         style="stop-color:#ef793e;stop-opacity:1" />
      <stop
         id="stop3100"
         offset="0.20874184"
         style="stop-color:#ee7235;stop-opacity:1" />
      <stop
         style="stop-color:#efa274;stop-opacity:1"
         offset="1"
         id="stop3088" />
    </linearGradient>
    <inkscape:perspective
       sodipodi:type="inkscape:persp3d"
       inkscape:vp_x="0 : 48 : 1"
       inkscape:vp_y="0 : 1000 : 0"
       inkscape:vp_z="96 : 48 : 1"
       inkscape:persp3d-origin="48 : 32 : 1"
       id="perspective3054" />
    <linearGradient
       id="linearGradient4357"
       inkscape:collect="always">
      <stop
         id="stop4359"
         offset="0"
         style="stop-color:#ded3d6;stop-opacity:1" />
      <stop
         id="stop4361"
         offset="1"
         style="stop-color:#f7ebef;stop-opacity:1" />
    </linearGradient>
    <linearGradient
       inkscape:collect="always"
       id="linearGradient3558">
      <stop
         style="stop-color:#ded3d6;stop-opacity:1"
         offset="0"
         id="stop3560" />
      <stop
         style="stop-color:#efebef;stop-opacity:1"
         offset="1"
         id="stop3562" />
    </linearGradient>
    <linearGradient
       id="linearGradient3076"
       inkscape:collect="always">
      <stop
         id="stop3078"
         offset="0"
         style="stop-color:#ffe7f7;stop-opacity:1" />
      <stop
         id="stop3080"
         offset="1"
         style="stop-color:#ffc3ef;stop-opacity:1" />
    </linearGradient>
    <linearGradient
       id="linearGradient3070"
       inkscape:collect="always">
      <stop
         id="stop3072"
         offset="0"
         style="stop-color:#943410;stop-opacity:1" />
      <stop
         id="stop3074"
         offset="1"
         style="stop-color:#dc7952;stop-opacity:1" />
    </linearGradient>
    <linearGradient
       inkscape:collect="always"
       id="linearGradient3059">
      <stop
         style="stop-color:#a53810;stop-opacity:1"
         offset="0"
         id="stop3061" />
      <stop
         style="stop-color:#e75911;stop-opacity:1"
         offset="1"
         id="stop3064" />
    </linearGradient>
    <linearGradient
       inkscape:collect="always"
       id="linearGradient3048">
      <stop
         style="stop-color:#c16d16;stop-opacity:1"
         offset="0"
         id="stop3050" />
      <stop
         style="stop-color:#ff8e31;stop-opacity:1"
         offset="1"
         id="stop3052" />
    </linearGradient>
    <linearGradient
       inkscape:collect="always"
       id="linearGradient3119">
      <stop
         style="stop-color:#92948f;stop-opacity:0"
         offset="0"
         id="stop3121" />
      <stop
         id="stop3123"
         offset="0.4283945"
         style="stop-color:#9b9e98;stop-opacity:1" />
      <stop
         style="stop-color:#939690;stop-opacity:0"
         offset="1"
         id="stop3125" />
    </linearGradient>
    <linearGradient
       id="linearGradient3073"
       inkscape:collect="always">
      <stop
         id="stop3075"
         offset="0"
         style="stop-color:#ffffff;stop-opacity:0" />
      <stop
         style="stop-color:#ffffff;stop-opacity:1"
         offset="0.45872402"
         id="stop3085" />
      <stop
         id="stop3083"
         offset="1"
         style="stop-color:#ffffff;stop-opacity:0" />
    </linearGradient>
    <linearGradient
       inkscape:collect="always"
       id="linearGradient3047">
      <stop
         style="stop-color:#000000;stop-opacity:1"
         offset="0"
         id="stop3049" />
      <stop
         id="stop3055"
         offset="0.06123874"
         style="stop-color:#1a1a1a;stop-opacity:1" />
      <stop
         style="stop-color:#333333;stop-opacity:1"
         offset="0.16480456"
         id="stop3057" />
      <stop
         id="stop3059"
         offset="0.55385184"
         style="stop-color:#4d4d4d;stop-opacity:1" />
      <stop
         style="stop-color:#999999;stop-opacity:1"
         offset="1"
         id="stop3051" />
    </linearGradient>
    <linearGradient
       id="linearGradient3041"
       inkscape:collect="always">
      <stop
         id="stop3043"
         offset="0"
         style="stop-color:#1a1a1a;stop-opacity:1" />
      <stop
         id="stop3045"
         offset="1"
         style="stop-color:#808080;stop-opacity:1" />
    </linearGradient>
    <linearGradient
       inkscape:collect="always"
       id="linearGradient3029">
      <stop
         style="stop-color:#333333;stop-opacity:1"
         offset="0"
         id="stop3031" />
      <stop
         style="stop-color:#e0e0dd;stop-opacity:0;"
         offset="1"
         id="stop3033" />
    </linearGradient>
    <linearGradient
       inkscape:collect="always"
       xlink:href="#linearGradient3029"
       id="linearGradient3035"
       x1="35.355339"
       y1="1030.3622"
       x2="35.355339"
       y2="975.33282"
       gradientUnits="userSpaceOnUse"
       gradientTransform="matrix(1.1638085,0,0,1.1638085,-7.862809,-164.23642)" />
    <linearGradient
       inkscape:collect="always"
       xlink:href="#linearGradient3041"
       id="linearGradient3039"
       gradientUnits="userSpaceOnUse"
       x1="35.355339"
       y1="1030.3622"
       x2="35.355339"
       y2="975.33282"
       gradientTransform="matrix(1.1218695,0,0,1.1218695,-5.8497348,-122.18782)" />
    <linearGradient
       inkscape:collect="always"
       xlink:href="#linearGradient3047"
       id="linearGradient3053"
       x1="40"
       y1="1043.4336"
       x2="39.285713"
       y2="972.33325"
       gradientUnits="userSpaceOnUse" />
    <linearGradient
       inkscape:collect="always"
       xlink:href="#linearGradient3073"
       id="linearGradient3113"
       gradientUnits="userSpaceOnUse"
       gradientTransform="translate(0,-956.36218)"
       x1="14.869445"
       y1="978.90387"
       x2="24.52651"
       y2="969.24683" />
    <linearGradient
       inkscape:collect="always"
       xlink:href="#linearGradient3073"
       id="linearGradient3115"
       gradientUnits="userSpaceOnUse"
       gradientTransform="matrix(-1,0,0,1,96,-956.36218)"
       x1="15.152279"
       y1="978.62103"
       x2="26.263966"
       y2="967.50934" />
    <linearGradient
       inkscape:collect="always"
       xlink:href="#linearGradient3119"
       id="linearGradient3117"
       gradientUnits="userSpaceOnUse"
       gradientTransform="translate(0,-956.36218)"
       x1="13.131983"
       y1="980.64136"
       x2="25.549681"
       y2="967.86646" />
    <linearGradient
       inkscape:collect="always"
       xlink:href="#linearGradient3119"
       id="linearGradient3129"
       gradientUnits="userSpaceOnUse"
       gradientTransform="matrix(-1,0,0,1,96,0)"
       x1="13.131983"
       y1="980.64136"
       x2="25.549681"
       y2="967.86646" />
    <linearGradient
       inkscape:collect="always"
       xlink:href="#linearGradient3048"
       id="linearGradient3054"
       x1="49.267925"
       y1="996.57349"
       x2="49.267925"
       y2="1045.8627"
       gradientUnits="userSpaceOnUse" />
    <linearGradient
       inkscape:collect="always"
       xlink:href="#linearGradient3048"
       id="linearGradient3058"
       x1="115.80308"
       y1="985.47241"
       x2="115.80308"
       y2="1033.5543"
       gradientUnits="userSpaceOnUse" />
    <linearGradient
       inkscape:collect="always"
       xlink:href="#linearGradient3076"
       id="linearGradient3055"
       gradientUnits="userSpaceOnUse"
       x1="115.80308"
       y1="985.47241"
       x2="115.80308"
       y2="1025.3639"
       gradientTransform="matrix(1.4144782,0,0,1.4144782,-119.78686,-419.05496)" />
    <linearGradient
       inkscape:collect="always"
       xlink:href="#linearGradient3059"
       id="linearGradient3066"
       x1="22.54203"
       y1="1043.3966"
       x2="22.54203"
       y2="964.45898"
       gradientUnits="userSpaceOnUse" />
    <linearGradient
       inkscape:collect="always"
       xlink:href="#linearGradient3070"
       id="linearGradient3068"
       x1="53.796227"
       y1="1046.0226"
       x2="53.796227"
       y2="962.97437"
       gradientUnits="userSpaceOnUse" />
    <linearGradient
       inkscape:collect="always"
       xlink:href="#linearGradient3076"
       id="linearGradient3086"
       gradientUnits="userSpaceOnUse"
       gradientTransform="matrix(1.4144782,0,0,1.4144782,-119.78686,-417.12598)"
       x1="115.80308"
       y1="985.47241"
       x2="115.80308"
       y2="1025.3639" />
    <linearGradient
       inkscape:collect="always"
       xlink:href="#linearGradient3076"
       id="linearGradient3091"
       gradientUnits="userSpaceOnUse"
       gradientTransform="matrix(1.4144782,0,0,1.4144782,-119.78686,-418.126)"
       x1="115.80308"
       y1="985.47241"
       x2="115.80308"
       y2="1025.3639" />
    <linearGradient
       inkscape:collect="always"
       xlink:href="#linearGradient3076"
       id="linearGradient3093"
       gradientUnits="userSpaceOnUse"
       gradientTransform="matrix(1.4144782,0,0,1.4144782,-119.78686,-1375.4171)"
       x1="115.80308"
       y1="985.47241"
       x2="115.80308"
       y2="1025.3639" />
    <linearGradient
       inkscape:collect="always"
       xlink:href="#linearGradient3558"
       id="linearGradient3564"
       x1="93.242035"
       y1="1027.2615"
       x2="93.242035"
       y2="980.7262"
       gradientUnits="userSpaceOnUse" />
    <linearGradient
       inkscape:collect="always"
       xlink:href="#linearGradient3558"
       id="linearGradient4350"
       gradientUnits="userSpaceOnUse"
       x1="93.242035"
       y1="1027.2615"
       x2="93.242035"
       y2="980.7262" />
    <linearGradient
       inkscape:collect="always"
       xlink:href="#linearGradient4357"
       id="linearGradient4354"
       gradientUnits="userSpaceOnUse"
       x1="93.242035"
       y1="1027.2615"
       x2="93.242035"
       y2="980.7262"
       gradientTransform="translate(-56.571856,0)" />
    <linearGradient
       inkscape:collect="always"
       xlink:href="#linearGradient4357"
       id="linearGradient3067"
       gradientUnits="userSpaceOnUse"
       gradientTransform="translate(106.08939,0)"
       x1="93.242035"
       y1="1027.2615"
       x2="93.242035"
       y2="980.7262" />
    <linearGradient
       inkscape:collect="always"
       xlink:href="#linearGradient3090"
       id="linearGradient3071"
       gradientUnits="userSpaceOnUse"
       x1="22.54203"
       y1="1043.3966"
       x2="22.54203"
       y2="964.45898" />
    <linearGradient
       inkscape:collect="always"
       xlink:href="#linearGradient3083"
       id="linearGradient3074"
       gradientUnits="userSpaceOnUse"
       x1="53.796227"
       y1="1046.2493"
       x2="53.796227"
       y2="962.97437" />
    <radialGradient
       inkscape:collect="always"
       xlink:href="#linearGradient3153"
       id="radialGradient3159"
       cx="54.880909"
       cy="34.52375"
       fx="54.880909"
       fy="34.52375"
       r="22.501422"
       gradientTransform="matrix(1.6150702e-6,-1.2742782,1.2647002,0,4.4956971,76.124529)"
       gradientUnits="userSpaceOnUse" />
    <linearGradient
       x1="229.45"
       y1="436.23"
       gradientTransform="matrix(1.0179,0,0,-1,-4.1429,1381)"
       x2="229.45"
       gradientUnits="userSpaceOnUse"
       xlink:href="#linearGradient4147"
       y2="457"
       id="linearGradient4842" />
    <linearGradient
       id="linearGradient4147">
      <stop
         offset="0"
         id="stop4149" />
      <stop
         offset="1"
         style="stop-opacity:0"
         id="stop4151" />
    </linearGradient>
    <filter
       color-interpolation-filters="sRGB"
       id="filter4848">
      <feGaussianBlur
         stdDeviation="0.18937505"
         id="feGaussianBlur4850" />
    </filter>
    <radialGradient
       r="56"
       gradientTransform="matrix(1,0,0,0.14286,0,116.57)"
       cx="88"
       cy="136"
       gradientUnits="userSpaceOnUse"
       xlink:href="#linearGradient4147"
       id="radialGradient4803" />
    <filter
       color-interpolation-filters="sRGB"
       height="1.7865"
       x="-.056176"
       y="-.39323"
       width="1.1124"
       id="filter7008-1-41">
      <feGaussianBlur
         stdDeviation="2.6215397"
         id="feGaussianBlur7010-9-35" />
    </filter>
    <linearGradient
       x1="232"
       y1="948.36"
       gradientTransform="translate(2.7781e-6,-0.12499)"
       x2="232"
       gradientUnits="userSpaceOnUse"
       xlink:href="#linearGradient5449"
       y2="951.36"
       id="linearGradient4806" />
    <linearGradient
       id="linearGradient5449">
      <stop
         offset="0"
         style="stop-color:#ed5012"
         id="stop5451" />
      <stop
         offset="1"
         style="stop-color:#bc3f0e"
         id="stop5453" />
    </linearGradient>
    <linearGradient
       x1="229.45"
       y1="436.23"
       gradientTransform="translate(0,476.36)"
       x2="229.45"
       gradientUnits="userSpaceOnUse"
       xlink:href="#radialGradient4201"
       y2="469"
       id="linearGradient4808" />
    <radialGradient
       r="145.95"
       gradientTransform="matrix(.5424 0 0 .5424 338.17 67.963)"
       cx="-514.13"
       cy="9.8096"
       gradientUnits="userSpaceOnUse"
       id="radialGradient4201">
      <stop
         offset="0"
         style="stop-color:#ed8246"
         id="stop4203" />
      <stop
         offset=".68272"
         style="stop-color:#ee6d2e"
         id="stop4205" />
      <stop
         offset=".70102"
         style="stop-color:#ef783d"
         id="stop4207" />
      <stop
         offset="1"
         style="stop-color:#f07f48"
         id="stop4209" />
    </radialGradient>
    <linearGradient
       x1="225"
       y1="972.36"
       gradientTransform="translate(0,-64)"
       x2="225"
       gradientUnits="userSpaceOnUse"
       xlink:href="#linearGradient5410"
       y2="976.36"
       id="linearGradient4810" />
    <linearGradient
       id="linearGradient5410">
      <stop
         offset="0"
         style="stop-color:#e55016"
         id="stop5412" />
      <stop
         offset="1"
         style="stop-color:#c44c1c"
         id="stop5414" />
    </linearGradient>
    <linearGradient
       x1="231.84"
       y1="912.3"
       x2="232.16"
       gradientUnits="userSpaceOnUse"
       xlink:href="#linearGradient5428"
       y2="907.33"
       id="linearGradient4812" />
    <linearGradient
       id="linearGradient5428">
      <stop
         offset="0"
         style="stop-color:#ed9666"
         id="stop5430" />
      <stop
         offset="1"
         style="stop-color:#ed9666;stop-opacity:0"
         id="stop5432" />
    </linearGradient>
    <linearGradient
       x1="214.38"
       y1="433.75"
       gradientTransform="translate(0,476.36)"
       x2="214.38"
       gradientUnits="userSpaceOnUse"
       xlink:href="#linearGradient5416"
       y2="436"
       id="linearGradient4814" />
    <linearGradient
       id="linearGradient5416">
      <stop
         offset="0"
         style="stop-color:#d64912"
         id="stop5418" />
      <stop
         offset="1"
         style="stop-color:#d64912;stop-opacity:0"
         id="stop5420" />
    </linearGradient>
    <linearGradient
       x1="215"
       y1="434.5"
       gradientTransform="translate(0,476.36)"
       x2="221"
       gradientUnits="userSpaceOnUse"
       xlink:href="#linearGradient4147"
       y2="434.5"
       id="linearGradient4816" />
    <radialGradient
       r="14.5"
       gradientTransform="matrix(7.7509e-7,1.5172,-1.931,9.8648e-7,1051.6,590.19)"
       cx="213"
       cy="434.26"
       gradientUnits="userSpaceOnUse"
       xlink:href="#linearGradient5404"
       id="radialGradient4822" />
    <linearGradient
       id="linearGradient5404">
      <stop
         offset="0"
         style="stop-color:#e89c59"
         id="stop5406" />
      <stop
         offset="1"
         style="stop-color:#e89c59;stop-opacity:0"
         id="stop5408" />
    </linearGradient>
    <clipPath
       clipPathUnits="userSpaceOnUse"
       id="clipPath5047">
      <rect
         x="56"
         y="56"
         width="64"
         height="8"
         style="opacity:.59633;color:#000000;fill:#f0f"
         id="rect5049" />
    </clipPath>
    <filter
       color-interpolation-filters="sRGB"
       height="1.375"
       x="-.035714"
       y="-.1875"
       width="1.0714"
       id="filter5055">
      <feGaussianBlur
         stdDeviation="0.625"
         id="feGaussianBlur5057" />
    </filter>
    <linearGradient
       x1="232"
       y1="901.11"
       x2="232"
       gradientUnits="userSpaceOnUse"
       xlink:href="#linearGradient5070"
       y2="896.24"
       id="linearGradient5076" />
    <linearGradient
       id="linearGradient5070">
      <stop
         offset="0"
         style="stop-color:#520"
         id="stop5072" />
      <stop
         offset="1"
         style="stop-color:#520;stop-opacity:0"
         id="stop5074" />
    </linearGradient>
    <clipPath
       clipPathUnits="userSpaceOnUse"
       id="clipPath5066">
      <path
         style="fill:#f0f"
         d="m211 901.11h42l-3-2.25 1.125-1.5h-38.25l1.125 1.5z"
         id="path5068" />
    </clipPath>
    <filter
       color-interpolation-filters="sRGB"
       height="1.8352"
       x="-0.087"
       y="-.41760"
       width="1.174"
       id="filter5090">
      <feGaussianBlur
         stdDeviation="0.6525003"
         id="feGaussianBlur5092" />
    </filter>
    <radialGradient
       r="8"
       gradientTransform="matrix(1,0,0,0.125,0,56)"
       cx="72"
       cy="64"
       gradientUnits="userSpaceOnUse"
       xlink:href="#linearGradient5416"
       id="radialGradient4981" />
    <linearGradient
       x1="227"
       y1="431"
       gradientTransform="translate(-1.5625e-8,540.36)"
       x2="227"
       gradientUnits="userSpaceOnUse"
       xlink:href="#linearGradient5436"
       y2="439"
       id="linearGradient4945" />
    <linearGradient
       id="linearGradient5436">
      <stop
         offset="0"
         style="stop-color:#f07e51"
         id="stop5438" />
      <stop
         offset="1"
         style="stop-color:#ec5d24"
         id="stop5440" />
    </linearGradient>
    <linearGradient
       x1="232"
       y1="428"
       gradientTransform="matrix(1.0714,0,0,1,-16.571,540.11)"
       x2="232"
       gradientUnits="userSpaceOnUse"
       xlink:href="#linearGradient5442"
       y2="431"
       id="linearGradient4826" />
    <linearGradient
       id="linearGradient5442">
      <stop
         offset="0"
         style="stop-color:#ef7545"
         id="stop5444" />
      <stop
         offset="1"
         style="stop-color:#eb5114"
         id="stop5446" />
    </linearGradient>
    <linearGradient
       x1="72"
       y1="42"
       x2="72"
       gradientUnits="userSpaceOnUse"
       xlink:href="#linearGradient5416"
       y2="44"
       id="linearGradient4955" />
    <linearGradient
       x1="72"
       y1="42"
       gradientTransform="matrix(0.375,0,0,0.375,211,955.36)"
       x2="72"
       gradientUnits="userSpaceOnUse"
       xlink:href="#linearGradient5416"
       y2="44"
       id="linearGradient4959" />
    <linearGradient
       x1="72"
       y1="64"
       x2="72"
       gradientUnits="userSpaceOnUse"
       xlink:href="#linearGradient5014"
       y2="60"
       id="linearGradient5012" />
    <linearGradient
       id="linearGradient5014">
      <stop
         offset="0"
         style="stop-color:#612d15"
         id="stop5016" />
      <stop
         offset="1"
         style="stop-color:#8a3f1e;stop-opacity:0"
         id="stop5018" />
    </linearGradient>
    <radialGradient
       r="8"
       gradientTransform="matrix(1,0,0,0.125,3.7000001e-6,56)"
       cx="72"
       cy="64"
       gradientUnits="userSpaceOnUse"
       xlink:href="#linearGradient5014"
       id="radialGradient4990" />
    <radialGradient
       r="8.9375"
       gradientTransform="matrix(1,0,0,0.11888,0,57.328)"
       cx="72"
       cy="65.062"
       gradientUnits="userSpaceOnUse"
       xlink:href="#linearGradient4100-5"
       id="radialGradient5007" />
    <linearGradient
       id="linearGradient4100-5">
      <stop
         offset="0"
         style="stop-color:#fff"
         id="stop4102-6" />
      <stop
         offset="1"
         style="stop-color:#fff;stop-opacity:0"
         id="stop4104-89" />
    </linearGradient>
    <linearGradient
       x1="72"
       y1="64"
       gradientTransform="matrix(0.375,0,0,0.375,211,955.36)"
       x2="72"
       gradientUnits="userSpaceOnUse"
       xlink:href="#linearGradient5014"
       y2="60"
       id="linearGradient5030" />
    <radialGradient
       r="8"
       gradientTransform="matrix(0.375,0,0,0.046875,211,976.36)"
       cx="72"
       cy="64"
       gradientUnits="userSpaceOnUse"
       xlink:href="#linearGradient5014"
       id="radialGradient5032" />
    <radialGradient
       r="8.9375"
       gradientTransform="matrix(0.375,0,0,0.04458,211,976.86)"
       cx="72"
       cy="65.062"
       gradientUnits="userSpaceOnUse"
       xlink:href="#linearGradient4100-5"
       id="radialGradient5034" />
    <linearGradient
       x1="232"
       y1="404.5"
       gradientTransform="matrix(1,0,0,0.37499,0,793.49)"
       x2="253"
       gradientUnits="userSpaceOnUse"
       spreadMethod="reflect"
       xlink:href="#linearGradient4100-5"
       y2="404.5"
       id="linearGradient4832" />
    <filter
       color-interpolation-filters="sRGB"
       height="1.24"
       x="-.12"
       y="-.12"
       width="1.24"
       id="filter4909">
      <feGaussianBlur
         stdDeviation="2.4"
         id="feGaussianBlur4911" />
    </filter>
    <linearGradient
       x1="230.88"
       y1="934.11"
       x2="230.88"
       gradientUnits="userSpaceOnUse"
       xlink:href="#linearGradient4865"
       y2="930.36"
       id="linearGradient4871" />
    <linearGradient
       id="linearGradient4865">
      <stop
         offset="0"
         style="stop-color:#e1e1e1"
         id="stop4867" />
      <stop
         offset="1"
         style="stop-color:#fff"
         id="stop4869" />
    </linearGradient>
    <linearGradient
       x1="214.5"
       y1="433.24"
       gradientTransform="translate(-1,475.36)"
       x2="214.5"
       gradientUnits="userSpaceOnUse"
       xlink:href="#radialGradient4931"
       y2="435.59"
       id="linearGradient4836" />
    <radialGradient
       r="145.95"
       gradientTransform="matrix(.5424 0 0 .5424 338.17 67.963)"
       cx="-514.13"
       cy="9.8096"
       gradientUnits="userSpaceOnUse"
       id="radialGradient4931">
      <stop
         offset="0"
         style="stop-color:#ed8347"
         id="stop4933" />
      <stop
         offset="1"
         style="stop-color:#e85913"
         id="stop4935" />
    </radialGradient>
    <linearGradient
       x1="82"
       y1="106"
       gradientTransform="matrix(0.375,0,0,0.375,198.62,891.36)"
       x2="82"
       gradientUnits="userSpaceOnUse"
       xlink:href="#linearGradient8054"
       y2="112"
       id="linearGradient4860" />
    <linearGradient
       id="linearGradient8054">
      <stop
         offset="0"
         style="stop-color:#de4814"
         id="stop8056" />
      <stop
         offset="1"
         style="stop-color:#ff6000"
         id="stop8058" />
    </linearGradient>
    <linearGradient
       x1="214.38"
       y1="433.75"
       gradientTransform="matrix(-1,0,0,1,464,476.36)"
       x2="214.38"
       gradientUnits="userSpaceOnUse"
       xlink:href="#linearGradient5416"
       y2="436"
       id="linearGradient4919" />
    <linearGradient
       x1="215"
       y1="434.5"
       gradientTransform="matrix(-1,0,0,1,464,476.36)"
       x2="221"
       gradientUnits="userSpaceOnUse"
       xlink:href="#linearGradient4147"
       y2="434.5"
       id="linearGradient4921" />
    <linearGradient
       x1="214.5"
       y1="433.24"
       gradientTransform="matrix(-1,0,0,1,465,475.36)"
       x2="214.5"
       gradientUnits="userSpaceOnUse"
       xlink:href="#linearGradient5449"
       y2="435.59"
       id="linearGradient4923" />
    <clipPath
       clipPathUnits="userSpaceOnUse"
       id="clipPath5212">
      <path
         style="fill:#0ff"
         d="m78 29-8 8v3l6-6h24l6 6v-3l-8-8zm-2 13v4h2v-4zm22 0v4h2v-4z"
         id="path5214" />
    </clipPath>
    <filter
       color-interpolation-filters="sRGB"
       id="filter5220">
      <feGaussianBlur
         stdDeviation="1.0566667"
         id="feGaussianBlur5222" />
    </filter>
    <linearGradient
       inkscape:collect="always"
       xlink:href="#linearGradient4323"
       id="linearGradient4329"
       x1="144.42656"
       y1="1017.0068"
       x2="144.42656"
       y2="1013.5597"
       gradientUnits="userSpaceOnUse" />
    <linearGradient
       inkscape:collect="always"
       xlink:href="#linearGradient4331"
       id="linearGradient4337"
       x1="159.62936"
       y1="1018.7746"
       x2="159.62935"
       y2="1011.9687"
       gradientUnits="userSpaceOnUse" />
    <linearGradient
       inkscape:collect="always"
       id="linearGradient3992">
      <stop
         style="stop-color:#f3eeea;stop-opacity:1"
         offset="0"
         id="stop3994" />
      <stop
         style="stop-color:#fefff3;stop-opacity:1"
         offset="1"
         id="stop3996" />
    </linearGradient>
    <linearGradient
       id="linearGradient3071-8"
       inkscape:collect="always">
      <stop
         id="stop3073"
         offset="0"
         style="stop-color:#d0dfda;stop-opacity:1" />
      <stop
         id="stop3076"
         offset="1"
         style="stop-color:#f5f8fd;stop-opacity:1" />
    </linearGradient>
    <linearGradient
       gradientTransform="matrix(1.1638085,0,0,1.1638085,-7.862809,-164.23642)"
       gradientUnits="userSpaceOnUse"
       y2="975.33282"
       x2="35.355339"
       y1="1030.3622"
       x1="35.355339"
       id="linearGradient4454"
       xlink:href="#linearGradient3029"
       inkscape:collect="always" />
    <linearGradient
       gradientTransform="matrix(1.1218695,0,0,1.1218695,-5.8497348,-122.18782)"
       y2="975.33282"
       x2="35.355339"
       y1="1030.3622"
       x1="35.355339"
       gradientUnits="userSpaceOnUse"
       id="linearGradient4456"
       xlink:href="#linearGradient3041"
       inkscape:collect="always" />
    <linearGradient
       gradientUnits="userSpaceOnUse"
       y2="972.33325"
       x2="39.285713"
       y1="1043.4336"
       x1="40"
       id="linearGradient4458"
       xlink:href="#linearGradient3047"
       inkscape:collect="always" />
    <linearGradient
       y2="969.24683"
       x2="24.52651"
       y1="978.90387"
       x1="14.869445"
       gradientTransform="translate(0,-956.36218)"
       gradientUnits="userSpaceOnUse"
       id="linearGradient4460"
       xlink:href="#linearGradient3073"
       inkscape:collect="always" />
    <linearGradient
       y2="967.50934"
       x2="26.263966"
       y1="978.62103"
       x1="15.152279"
       gradientTransform="matrix(-1,0,0,1,96,-956.36218)"
       gradientUnits="userSpaceOnUse"
       id="linearGradient4462"
       xlink:href="#linearGradient3073"
       inkscape:collect="always" />
    <linearGradient
       y2="967.86646"
       x2="25.549681"
       y1="980.64136"
       x1="13.131983"
       gradientTransform="translate(0,-956.36218)"
       gradientUnits="userSpaceOnUse"
       id="linearGradient4464"
       xlink:href="#linearGradient3119"
       inkscape:collect="always" />
    <linearGradient
       y2="967.86646"
       x2="25.549681"
       y1="980.64136"
       x1="13.131983"
       gradientTransform="matrix(-1,0,0,1,96,0)"
       gradientUnits="userSpaceOnUse"
       id="linearGradient4466"
       xlink:href="#linearGradient3119"
       inkscape:collect="always" />
    <linearGradient
       gradientUnits="userSpaceOnUse"
       y2="1045.8627"
       x2="49.267925"
       y1="996.57349"
       x1="49.267925"
       id="linearGradient4468"
       xlink:href="#linearGradient3048"
       inkscape:collect="always" />
    <linearGradient
       gradientUnits="userSpaceOnUse"
       y2="1033.5543"
       x2="115.80308"
       y1="985.47241"
       x1="115.80308"
       id="linearGradient4470"
       xlink:href="#linearGradient3048"
       inkscape:collect="always" />
    <linearGradient
       y2="1025.3639"
       x2="115.80308"
       y1="985.47241"
       x1="115.80308"
       gradientTransform="matrix(1.4144782,0,0,1.4144782,-119.78686,-417.12598)"
       gradientUnits="userSpaceOnUse"
       id="linearGradient4474"
       xlink:href="#linearGradient3076"
       inkscape:collect="always" />
    <linearGradient
       y2="1025.3639"
       x2="115.80308"
       y1="985.47241"
       x1="115.80308"
       gradientTransform="matrix(1.4144782,0,0,1.4144782,-119.78686,-418.126)"
       gradientUnits="userSpaceOnUse"
       id="linearGradient4476"
       xlink:href="#linearGradient3076"
       inkscape:collect="always" />
    <linearGradient
       y2="1025.3639"
       x2="115.80308"
       y1="985.47241"
       x1="115.80308"
       gradientTransform="matrix(1.4144782,0,0,1.4144782,-119.78686,-1375.4171)"
       gradientUnits="userSpaceOnUse"
       id="linearGradient4478"
       xlink:href="#linearGradient3076"
       inkscape:collect="always" />
    <linearGradient
       y2="974.48969"
       x2="60.965946"
       y1="1019.5738"
       x1="60.965946"
       gradientTransform="translate(0.701036,3.1045074)"
       gradientUnits="userSpaceOnUse"
       id="linearGradient3915"
       xlink:href="#linearGradient3071-8"
       inkscape:collect="always" />
    <linearGradient
       y2="978.3313"
       x2="60.965946"
       y1="1019.5738"
       x1="60.965946"
       gradientTransform="translate(188.9977,3.1045086)"
       gradientUnits="userSpaceOnUse"
       id="linearGradient3990"
       xlink:href="#linearGradient3992"
       inkscape:collect="always" />
  </defs>
  <sodipodi:namedview
     id="base"
     pagecolor="#ffffff"
     bordercolor="#666666"
     borderopacity="1.0"
     inkscape:pageopacity="0.0"
     inkscape:pageshadow="2"
     inkscape:zoom="4"
     inkscape:cx="48.150104"
     inkscape:cy="39.572622"
     inkscape:document-units="px"
     inkscape:current-layer="layer1"
     showgrid="false"
     inkscape:window-width="1360"
     inkscape:window-height="713"
     inkscape:window-x="0"
     inkscape:window-y="28"
     inkscape:window-maximized="1"
     showguides="true"
     inkscape:guide-bbox="true" />
  <metadata
     id="metadata7">
    <rdf:RDF>
      <cc:Work
         rdf:about="">
        <dc:format>image/svg+xml</dc:format>
        <dc:type
           rdf:resource="http://purl.org/dc/dcmitype/StillImage" />
        <dc:title />
      </cc:Work>
    </rdf:RDF>
  </metadata>
  <g
     inkscape:label="Layer 1"
     inkscape:groupmode="layer"
     id="layer1"
     transform="translate(0,-956.36218)">
    <rect
       style="opacity:0.05;fill:#000000;fill-opacity:1;stroke:none"
       id="rect3826"
       width="89"
       height="89"
       x="3.5"
       y="960.86218"
       rx="10.595235"
       ry="10.595235" />
    <g
       id="g3041">
      <rect
         style="opacity:0.05;fill:#000000;fill-opacity:1;stroke:none"
         id="rect3824"
         width="88"
         height="88"
         x="4"
         y="961.36218"
         rx="10.476188"
         ry="10.476188" />
      <rect
         ry="10.357141"
         rx="10.357141"
         y="961.86218"
         x="4.5"
         height="87"
         width="87"
         id="rect3822"
         style="opacity:0.05;fill:#000000;fill-opacity:1;stroke:none" />
      <rect
         style="opacity:0.1;fill:#000000;fill-opacity:1;stroke:none"
         id="rect3820"
         width="86"
         height="86"
         x="5"
         y="962.36218"
         rx="10.238094"
         ry="10.238094" />
      <rect
         ry="10.119047"
         rx="10.119047"
         y="962.86218"
         x="5.5"
         height="85"
         width="85"
         id="rect3818"
         style="opacity:0.1;fill:#000000;fill-opacity:1;stroke:none" />
      <rect
         style="opacity:0.3;fill:#000000;fill-opacity:1;stroke:none"
         id="rect3131"
         width="84"
         height="84"
         x="6"
         y="963.36218"
         rx="10"
         ry="10" />
    </g>
    <rect
       ry="10"
       rx="10"
       y="962.36218"
       x="6"
       height="84"
       width="84"
       id="rect3036"
       style="fill:url(#linearGradient3074);fill-opacity:1;stroke:none" />
    <rect
       style="fill:url(#linearGradient3071);fill-opacity:1;stroke:none"
       id="rect3034"
       width="82"
       height="82"
       x="7"
       y="963.36218"
       rx="9.7619047"
       ry="9.7619047" />
    <g
       id="g4339"
       transform="matrix(1.3834586,0,0,1.3834586,-156.40601,-392.77798)">
      <path
         id="rect4292"
         transform="translate(0,956.36218)"
         d="m 143.7207,37.875 -6.23437,16.5 7.5,0 2.64453,-7 2.69726,7 7.64454,0 -6.35547,-16.5 -0.39649,0 -7.25,0 -0.25,0 z m -9.88867,26.169922 -2.58008,6.830078 7.5,0 2.58008,-6.830078 -7.5,0 z m 20.2207,0 2.63086,6.830078 7.64649,0 -2.63086,-6.830078 -7.64649,0 z"
         style="fill:#ffffff;fill-opacity:1"
         inkscape:connector-curvature="0" />
      <rect
         ry="3.5094223"
         rx="3.5094223"
         style="opacity:1;fill:url(#linearGradient4337);fill-opacity:1"
         id="rect4298"
         width="33.25"
         height="7.0188446"
         x="131.125"
         y="1012.063" />
      <rect
         y="1013.4772"
         x="132.625"
         height="4.1904173"
         width="20.657263"
         id="rect4300"
         style="opacity:1;fill:url(#linearGradient4329);fill-opacity:1"
         rx="2.0952086"
         ry="2.0952086" />
      <path
         id="rect4304"
         transform="translate(0,956.36218)"
         d="m 134.7207,57.115234 c -1.16074,0 -2.0957,0.934958 -2.0957,2.095704 0,0.121553 0.0155,0.237738 0.0352,0.353515 0.16762,-0.990595 1.0208,-1.742187 2.06054,-1.742187 l 16.4668,0 c 1.03975,0 1.89293,0.751592 2.06055,1.742187 0.0197,-0.115777 0.0351,-0.231962 0.0351,-0.353515 0,-1.160746 -0.93495,-2.095704 -2.0957,-2.095704 l -16.4668,0 z"
         style="opacity:0.2;fill:#000000;fill-opacity:1"
         inkscape:connector-curvature="0" />
      <path
         id="rect4308"
         transform="translate(0,956.36218)"
         d="m 132.66016,59.564453 c -0.0195,0.115279 -0.0352,0.232517 -0.0352,0.353516 0,1.160745 0.93496,2.09375 2.0957,2.09375 l 16.4668,0 c 1.16075,0 2.0957,-0.933005 2.0957,-2.09375 0,-0.120999 -0.0156,-0.238237 -0.0351,-0.353516 -0.16827,0.98981 -1.02136,1.740235 -2.06055,1.740235 l -16.4668,0 c -1.03919,0 -1.89228,-0.750425 -2.06054,-1.740235 z"
         style="opacity:0.2;fill:#ffffff;fill-opacity:1"
         inkscape:connector-curvature="0" />
    </g>
    <g
       id="g4501">
      <path
         inkscape:connector-curvature="0"
         id="path3165"
         d="m 24.5,962.36218 c -0.003,0.19548 0,0.39773 0,0.59411 0,16.34996 10.521309,29.61159 23.5,29.61159 12.978691,0 23.5,-13.26163 23.5,-29.61159 0,-0.19638 0.003,-0.39863 0,-0.59411 l -1,0 -3.84375,0 -1,0 c 0.0041,0.19791 0.03125,0.39495 0.03125,0.59411 0,1.69767 -0.152421,3.35057 -0.4375,4.94048 -0.0077,0.0536 -0.02327,0.10288 -0.03125,0.15634 -1.685311,11.2915 -8.749477,19.76191 -17.21875,19.76191 -8.469273,0 -15.533439,-8.47041 -17.21875,-19.76191 -0.0098,-0.0528 -0.02176,-0.10341 -0.03125,-0.15634 -0.285079,-1.58991 -0.4375,-3.24281 -0.4375,-4.94048 0,-0.19916 0.02713,-0.3962 0.03125,-0.59411 l -1,0 -3.84375,0 -1,0 z"
         style="opacity:0.1;fill:#000000;fill-opacity:1;stroke:none" />
      <path
         inkscape:connector-curvature="0"
         id="path3114"
         d="m 24.5,962.36218 c -0.003,0.15517 0,0.31286 0,0.46875 0,12.97869 10.521309,23.5 23.5,23.5 12.978691,0 23.5,-10.52131 23.5,-23.5 0,-0.15589 0.003,-0.31358 0,-0.46875 l -1,0 -3.84375,0 -1,0 c 0.0041,0.1571 0.03125,0.31066 0.03125,0.46875 0,9.77323 -7.914269,17.71875 -17.6875,17.71875 -9.773231,0 -17.6875,-7.94552 -17.6875,-17.71875 0,-0.15809 0.02713,-0.31165 0.03125,-0.46875 l -1,0 -3.84375,0 -1,0 z"
         style="fill:#000000;fill-opacity:1;stroke:none;opacity:0.1" />
      <path
         id="path3104"
         transform="translate(0,956.36218)"
         d="M 25.5 6 C 25.4968 6.15654 25.5 6.31144 25.5 6.46875 C 25.5 18.89516 35.573593 28.96875 48 28.96875 C 60.426407 28.96875 70.5 18.89516 70.5 6.46875 C 70.5 6.31144 70.5032 6.15654 70.5 6 L 66.65625 6 C 66.660188 6.1578809 66.6875 6.3099206 66.6875 6.46875 C 66.6875 16.794391 58.325641 25.1875 48 25.1875 C 37.674359 25.1875 29.3125 16.794391 29.3125 6.46875 C 29.3125 6.3099206 29.339812 6.1578809 29.34375 6 L 25.5 6 z "
         style="fill:url(#radialGradient3159);fill-opacity:1;stroke:none" />
      <rect
         y="960.86218"
         x="24.488302"
         height="1.5"
         width="5.856369"
         id="rect3339"
         style="opacity:0.05;fill:#000000;fill-opacity:1;stroke:none" />
      <rect
         style="opacity:0.05;fill:#000000;fill-opacity:1;stroke:none"
         id="rect3346"
         width="5.856369"
         height="1"
         x="24.488302"
         y="961.36218" />
      <rect
         y="961.86218"
         x="24.488302"
         height="0.5"
         width="5.856369"
         id="rect3348"
         style="opacity:0.05;fill:#000000;fill-opacity:1;stroke:none" />
      <g
         transform="translate(41.156662,0)"
         id="g3356">
        <rect
           y="960.86218"
           x="24.488302"
           height="1.5"
           width="5.856369"
           id="rect3350"
           style="opacity:0.05;fill:#000000;fill-opacity:1;stroke:none" />
        <rect
           style="opacity:0.05;fill:#000000;fill-opacity:1;stroke:none"
           id="rect3352"
           width="5.856369"
           height="1"
           x="24.488302"
           y="961.36218" />
        <rect
           y="961.86218"
           x="24.488302"
           height="0.5"
           width="5.856369"
           id="rect3354"
           style="opacity:0.05;fill:#000000;fill-opacity:1;stroke:none" />
      </g>
    </g>
  </g>
</svg>
