<?xml version="1.0" encoding="UTF-8" standalone="no"?>
<!-- Created with Inkscape (http://www.inkscape.org/) -->

<svg
   xmlns:dc="http://purl.org/dc/elements/1.1/"
   xmlns:cc="http://creativecommons.org/ns#"
   xmlns:rdf="http://www.w3.org/1999/02/22-rdf-syntax-ns#"
   xmlns:svg="http://www.w3.org/2000/svg"
   xmlns="http://www.w3.org/2000/svg"
   xmlns:xlink="http://www.w3.org/1999/xlink"
   xmlns:sodipodi="http://sodipodi.sourceforge.net/DTD/sodipodi-0.dtd"
   xmlns:inkscape="http://www.inkscape.org/namespaces/inkscape"
   width="96"
   height="96"
   id="svg2"
   version="1.1"
   inkscape:version="0.48.4 r9939"
   sodipodi:docname="gnome-music.svg">
  <defs
     id="defs4">
    <linearGradient
       id="linearGradient3138"
       inkscape:collect="always">
      <stop
         id="stop3140"
         offset="0"
         style="stop-color:#674bad;stop-opacity:1" />
      <stop
         style="stop-color:#6349a5;stop-opacity:1"
         offset="0.76017398"
         id="stop3142" />
      <stop
         id="stop3144"
         offset="1"
         style="stop-color:#53368d;stop-opacity:1" />
    </linearGradient>
    <linearGradient
       inkscape:collect="always"
       id="linearGradient3100">
      <stop
         style="stop-color:#674bad;stop-opacity:1"
         offset="0"
         id="stop3102" />
      <stop
         id="stop3108"
         offset="0.78494465"
         style="stop-color:#6349a5;stop-opacity:1" />
      <stop
         style="stop-color:#53368d;stop-opacity:1"
         offset="1"
         id="stop3104" />
    </linearGradient>
    <linearGradient
       id="linearGradient3094"
       inkscape:collect="always">
      <stop
         id="stop3096"
         offset="0"
         style="stop-color:#f7efff;stop-opacity:1" />
      <stop
         id="stop3098"
         offset="1"
         style="stop-color:#9479de;stop-opacity:1" />
    </linearGradient>
    <linearGradient
       inkscape:collect="always"
       id="linearGradient3081">
      <stop
         style="stop-color:#efe0ff;stop-opacity:1"
         offset="0"
         id="stop3084" />
      <stop
         style="stop-color:#856ad6;stop-opacity:1"
         offset="1"
         id="stop3086" />
    </linearGradient>
    <linearGradient
       id="linearGradient3076"
       inkscape:collect="always">
      <stop
         id="stop3078"
         offset="0"
         style="stop-color:#ffe7f7;stop-opacity:1" />
      <stop
         id="stop3080"
         offset="1"
         style="stop-color:#ffc3ef;stop-opacity:1" />
    </linearGradient>
    <linearGradient
       id="linearGradient3070"
       inkscape:collect="always">
      <stop
         id="stop3072"
         offset="0"
         style="stop-color:#524184;stop-opacity:1" />
      <stop
         id="stop3074"
         offset="1"
         style="stop-color:#9b74dd;stop-opacity:1" />
    </linearGradient>
    <linearGradient
       inkscape:collect="always"
       id="linearGradient3059">
      <stop
         style="stop-color:#5a4594;stop-opacity:1"
         offset="0"
         id="stop3061" />
      <stop
         style="stop-color:#8461d6;stop-opacity:1"
         offset="1"
         id="stop3064" />
    </linearGradient>
    <linearGradient
       inkscape:collect="always"
       id="linearGradient3048">
      <stop
         style="stop-color:#c16d16;stop-opacity:1"
         offset="0"
         id="stop3050" />
      <stop
         style="stop-color:#ff8e31;stop-opacity:1"
         offset="1"
         id="stop3052" />
    </linearGradient>
    <linearGradient
       inkscape:collect="always"
       id="linearGradient3119">
      <stop
         style="stop-color:#92948f;stop-opacity:0"
         offset="0"
         id="stop3121" />
      <stop
         id="stop3123"
         offset="0.4283945"
         style="stop-color:#9b9e98;stop-opacity:1" />
      <stop
         style="stop-color:#939690;stop-opacity:0"
         offset="1"
         id="stop3125" />
    </linearGradient>
    <linearGradient
       id="linearGradient3073"
       inkscape:collect="always">
      <stop
         id="stop3075"
         offset="0"
         style="stop-color:#ffffff;stop-opacity:0" />
      <stop
         style="stop-color:#ffffff;stop-opacity:1"
         offset="0.45872402"
         id="stop3085" />
      <stop
         id="stop3083"
         offset="1"
         style="stop-color:#ffffff;stop-opacity:0" />
    </linearGradient>
    <linearGradient
       inkscape:collect="always"
       id="linearGradient3047">
      <stop
         style="stop-color:#000000;stop-opacity:1"
         offset="0"
         id="stop3049" />
      <stop
         id="stop3055"
         offset="0.06123874"
         style="stop-color:#1a1a1a;stop-opacity:1" />
      <stop
         style="stop-color:#333333;stop-opacity:1"
         offset="0.16480456"
         id="stop3057" />
      <stop
         id="stop3059"
         offset="0.55385184"
         style="stop-color:#4d4d4d;stop-opacity:1" />
      <stop
         style="stop-color:#999999;stop-opacity:1"
         offset="1"
         id="stop3051" />
    </linearGradient>
    <linearGradient
       id="linearGradient3041"
       inkscape:collect="always">
      <stop
         id="stop3043"
         offset="0"
         style="stop-color:#1a1a1a;stop-opacity:1" />
      <stop
         id="stop3045"
         offset="1"
         style="stop-color:#808080;stop-opacity:1" />
    </linearGradient>
    <linearGradient
       inkscape:collect="always"
       id="linearGradient3029">
      <stop
         style="stop-color:#333333;stop-opacity:1"
         offset="0"
         id="stop3031" />
      <stop
         style="stop-color:#e0e0dd;stop-opacity:0;"
         offset="1"
         id="stop3033" />
    </linearGradient>
    <linearGradient
       inkscape:collect="always"
       xlink:href="#linearGradient3029"
       id="linearGradient3035"
       x1="35.355339"
       y1="1030.3622"
       x2="35.355339"
       y2="975.33282"
       gradientUnits="userSpaceOnUse"
       gradientTransform="matrix(1.1638085,0,0,1.1638085,-7.862809,-164.23642)" />
    <linearGradient
       inkscape:collect="always"
       xlink:href="#linearGradient3041"
       id="linearGradient3039"
       gradientUnits="userSpaceOnUse"
       x1="35.355339"
       y1="1030.3622"
       x2="35.355339"
       y2="975.33282"
       gradientTransform="matrix(1.1218695,0,0,1.1218695,-5.8497348,-122.18782)" />
    <linearGradient
       inkscape:collect="always"
       xlink:href="#linearGradient3047"
       id="linearGradient3053"
       x1="40"
       y1="1043.4336"
       x2="39.285713"
       y2="972.33325"
       gradientUnits="userSpaceOnUse" />
    <linearGradient
       inkscape:collect="always"
       xlink:href="#linearGradient3073"
       id="linearGradient3113"
       gradientUnits="userSpaceOnUse"
       gradientTransform="translate(0,-956.36218)"
       x1="14.869445"
       y1="978.90387"
       x2="24.52651"
       y2="969.24683" />
    <linearGradient
       inkscape:collect="always"
       xlink:href="#linearGradient3073"
       id="linearGradient3115"
       gradientUnits="userSpaceOnUse"
       gradientTransform="matrix(-1,0,0,1,96,-956.36218)"
       x1="15.152279"
       y1="978.62103"
       x2="26.263966"
       y2="967.50934" />
    <linearGradient
       inkscape:collect="always"
       xlink:href="#linearGradient3119"
       id="linearGradient3117"
       gradientUnits="userSpaceOnUse"
       gradientTransform="translate(0,-956.36218)"
       x1="13.131983"
       y1="980.64136"
       x2="25.549681"
       y2="967.86646" />
    <linearGradient
       inkscape:collect="always"
       xlink:href="#linearGradient3119"
       id="linearGradient3129"
       gradientUnits="userSpaceOnUse"
       gradientTransform="matrix(-1,0,0,1,96,0)"
       x1="13.131983"
       y1="980.64136"
       x2="25.549681"
       y2="967.86646" />
    <linearGradient
       inkscape:collect="always"
       xlink:href="#linearGradient3048"
       id="linearGradient3054"
       x1="49.267925"
       y1="996.57349"
       x2="49.267925"
       y2="1045.8627"
       gradientUnits="userSpaceOnUse" />
    <linearGradient
       inkscape:collect="always"
       xlink:href="#linearGradient3048"
       id="linearGradient3058"
       x1="115.80308"
       y1="985.47241"
       x2="115.80308"
       y2="1033.5543"
       gradientUnits="userSpaceOnUse" />
    <linearGradient
       inkscape:collect="always"
       xlink:href="#linearGradient3059"
       id="linearGradient3066"
       x1="22.54203"
       y1="1043.3966"
       x2="22.54203"
       y2="964.45898"
       gradientUnits="userSpaceOnUse" />
    <linearGradient
       inkscape:collect="always"
       xlink:href="#linearGradient3070"
       id="linearGradient3068"
       x1="53.796227"
       y1="1046.0226"
       x2="53.796227"
       y2="962.97437"
       gradientUnits="userSpaceOnUse" />
    <linearGradient
       inkscape:collect="always"
       xlink:href="#linearGradient3076"
       id="linearGradient3086"
       gradientUnits="userSpaceOnUse"
       gradientTransform="matrix(1.4144782,0,0,1.4144782,-119.78686,-417.12598)"
       x1="115.80308"
       y1="985.47241"
       x2="115.80308"
       y2="1025.3639" />
    <linearGradient
       inkscape:collect="always"
       xlink:href="#linearGradient3076"
       id="linearGradient3091"
       gradientUnits="userSpaceOnUse"
       gradientTransform="matrix(1.4144782,0,0,1.4144782,-119.78686,-418.126)"
       x1="115.80308"
       y1="985.47241"
       x2="115.80308"
       y2="1025.3639" />
    <linearGradient
       inkscape:collect="always"
       xlink:href="#linearGradient3076"
       id="linearGradient3093"
       gradientUnits="userSpaceOnUse"
       gradientTransform="matrix(1.4144782,0,0,1.4144782,-119.78686,-1375.4171)"
       x1="115.80308"
       y1="985.47241"
       x2="115.80308"
       y2="1025.3639" />
    <filter
       inkscape:collect="always"
       id="filter3922"
       x="-0.17709341"
       width="1.3541868"
       y="-0.14927732"
       height="1.2985546">
      <feGaussianBlur
         inkscape:collect="always"
         stdDeviation="3.5486726"
         id="feGaussianBlur3924" />
    </filter>
    <linearGradient
       inkscape:collect="always"
       xlink:href="#linearGradient3081"
       id="linearGradient3090"
       x1="-20.649057"
       y1="62.852829"
       x2="-32.603775"
       y2="29.524527"
       gradientUnits="userSpaceOnUse" />
    <linearGradient
       inkscape:collect="always"
       xlink:href="#linearGradient3094"
       id="linearGradient3092"
       x1="-43.055187"
       y1="35.788605"
       x2="-32.545868"
       y2="68.067245"
       gradientUnits="userSpaceOnUse" />
    <radialGradient
       inkscape:collect="always"
       xlink:href="#linearGradient3100"
       id="radialGradient3106"
       cx="-31.392059"
       cy="57.992264"
       fx="-31.392059"
       fy="57.992264"
       r="25.901888"
       gradientUnits="userSpaceOnUse"
       gradientTransform="matrix(0.31344215,-1.1697821,1.1394338,0.30531037,-91.708219,0.33247747)" />
    <linearGradient
       inkscape:collect="always"
       xlink:href="#linearGradient3081"
       id="linearGradient3112"
       gradientUnits="userSpaceOnUse"
       x1="-20.649057"
       y1="62.852829"
       x2="-32.603775"
       y2="29.524527"
       gradientTransform="matrix(-0.99999697,0.00246307,-0.00246307,-0.99999697,-73.952566,1052.4049)" />
    <linearGradient
       inkscape:collect="always"
       xlink:href="#linearGradient3094"
       id="linearGradient3124"
       gradientUnits="userSpaceOnUse"
       x1="-43.055187"
       y1="35.788605"
       x2="-32.545868"
       y2="68.067245" />
    <linearGradient
       inkscape:collect="always"
       xlink:href="#linearGradient3081"
       id="linearGradient3126"
       gradientUnits="userSpaceOnUse"
       x1="-20.649057"
       y1="62.852829"
       x2="-32.603775"
       y2="29.524527" />
    <radialGradient
       inkscape:collect="always"
       xlink:href="#linearGradient3100"
       id="radialGradient3128"
       gradientUnits="userSpaceOnUse"
       gradientTransform="matrix(0.31344215,-1.1697821,1.1394338,0.30531037,-91.708219,0.33247747)"
       cx="-31.392059"
       cy="57.992264"
       fx="-31.392059"
       fy="57.992264"
       r="25.901888" />
    <linearGradient
       inkscape:collect="always"
       xlink:href="#linearGradient3081"
       id="linearGradient3133"
       gradientUnits="userSpaceOnUse"
       x1="-20.649057"
       y1="62.852829"
       x2="-32.603775"
       y2="29.524527"
       gradientTransform="translate(84.811322,956.36218)" />
    <radialGradient
       inkscape:collect="always"
       xlink:href="#linearGradient3138"
       id="radialGradient3136"
       gradientUnits="userSpaceOnUse"
       gradientTransform="matrix(0.31344215,-1.1697821,1.1394338,0.30531037,-91.708219,0.33247747)"
       cx="-31.392059"
       cy="57.992264"
       fx="-31.392059"
       fy="57.992264"
       r="25.901888" />
    <filter
       inkscape:collect="always"
       id="filter3952"
       x="-0.12"
       width="1.24"
       y="-0.12"
       height="1.24">
      <feGaussianBlur
         inkscape:collect="always"
         stdDeviation="2.5901888"
         id="feGaussianBlur3954" />
    </filter>
  </defs>
  <sodipodi:namedview
     id="base"
     pagecolor="#ffffff"
     bordercolor="#666666"
     borderopacity="1.0"
     inkscape:pageopacity="0.0"
     inkscape:pageshadow="2"
     inkscape:zoom="1.3802083"
     inkscape:cx="-86.980719"
     inkscape:cy="78.00962"
     inkscape:document-units="px"
     inkscape:current-layer="layer1"
     showgrid="false"
     inkscape:window-width="1366"
     inkscape:window-height="704"
     inkscape:window-x="0"
     inkscape:window-y="28"
     inkscape:window-maximized="1"
     showguides="true"
     inkscape:guide-bbox="true" />
  <metadata
     id="metadata7">
    <rdf:RDF>
      <cc:Work
         rdf:about="">
        <dc:format>image/svg+xml</dc:format>
        <dc:type
           rdf:resource="http://purl.org/dc/dcmitype/StillImage" />
        <dc:title></dc:title>
      </cc:Work>
    </rdf:RDF>
  </metadata>
  <g
     inkscape:label="Layer 1"
     inkscape:groupmode="layer"
     id="layer1"
     transform="translate(0,-956.36218)">
    <rect
       style="opacity:0.05;fill:#000000;fill-opacity:1;stroke:none"
       id="rect3826"
       width="89"
       height="89"
       x="3.5"
       y="960.86218"
       rx="10.595235"
       ry="10.595235" />
    <g
       id="g3041">
      <rect
         style="opacity:0.05;fill:#000000;fill-opacity:1;stroke:none"
         id="rect3824"
         width="88"
         height="88"
         x="4"
         y="961.36218"
         rx="10.476188"
         ry="10.476188" />
      <rect
         ry="10.357141"
         rx="10.357141"
         y="961.86218"
         x="4.5"
         height="87"
         width="87"
         id="rect3822"
         style="opacity:0.05;fill:#000000;fill-opacity:1;stroke:none" />
      <rect
         style="opacity:0.1;fill:#000000;fill-opacity:1;stroke:none"
         id="rect3820"
         width="86"
         height="86"
         x="5"
         y="962.36218"
         rx="10.238094"
         ry="10.238094" />
      <rect
         ry="10.119047"
         rx="10.119047"
         y="962.86218"
         x="5.5"
         height="85"
         width="85"
         id="rect3818"
         style="opacity:0.1;fill:#000000;fill-opacity:1;stroke:none" />
      <rect
         style="opacity:0.3;fill:#000000;fill-opacity:1;stroke:none"
         id="rect3131"
         width="84"
         height="84"
         x="6"
         y="963.36218"
         rx="10"
         ry="10" />
    </g>
    <rect
       ry="10"
       rx="10"
       y="962.36218"
       x="6"
       height="84"
       width="84"
       id="rect3036"
       style="fill:url(#linearGradient3068);fill-opacity:1;stroke:none" />
    <rect
       style="fill:url(#linearGradient3066);fill-opacity:1;stroke:none"
       id="rect3034"
       width="82"
       height="82"
       x="7"
       y="963.36218"
       rx="9.7619047"
       ry="9.7619047" />
    <path
       transform="matrix(1.0037878,0,0,1.0037878,86.363634,957.81673)"
       d="m -12.31698,48.362263 a 25.901888,25.901888 0 1 1 -51.803776,0 25.901888,25.901888 0 1 1 51.803776,0 z"
       sodipodi:ry="25.901888"
       sodipodi:rx="25.901888"
       sodipodi:cy="48.362263"
       sodipodi:cx="-38.218868"
       id="path3146"
       style="opacity:0.3;fill:#000000;fill-opacity:1;stroke:none;filter:url(#filter3952)"
       sodipodi:type="arc" />
    <path
       sodipodi:type="arc"
       style="fill:url(#linearGradient3124);fill-opacity:1;stroke:none"
       id="path3069"
       sodipodi:cx="-38.218868"
       sodipodi:cy="48.362263"
       sodipodi:rx="25.901888"
       sodipodi:ry="25.901888"
       d="m -12.31698,48.362263 a 25.901888,25.901888 0 1 1 -51.803776,0 25.901888,25.901888 0 1 1 51.803776,0 z"
       transform="matrix(0.96518061,0,0,0.96518061,84.888111,957.68386)" />
    <path
       style="fill:url(#linearGradient3133);fill-opacity:1;stroke:none"
       d="m 52.905072,984.26843 c -5.160154,0 -10.782681,3.72211 -13.175951,7.61576 -2.39327,3.89365 -2.792799,6.97229 -2.792799,12.88421 l 0.0625,0 c -0.005,-0.136 -0.03125,-0.2689 -0.03125,-0.4062 0,-6.07515 4.924868,-11.00002 11,-11.00002 6.075132,0 11,4.92487 11,11.00002 0,0.5528 -0.04628,1.094 -0.125,1.625 -0.188562,4.8418 -1.568161,9.7232 -5.9375,14.2812 -5.56056,5.5606 -15.721001,5.1043 -23.75,0.4688 l 0.03125,0.094 c 4.58239,5.2333 11.31,8.5313 18.8125,8.5313 13.807119,0 25,-11.1929 25,-25 0,-1.1537 -0.06746,-2.2941 -0.21875,-3.4063 -1.644746,-7.66301 -4.63433,-11.67578 -8.96875,-14.34372 -2.147826,-1.16549 -5.746097,-2.34375 -10.90625,-2.34375 z"
       id="path3073"
       inkscape:connector-curvature="0"
       sodipodi:nodetypes="szccsssccccssccs" />
    <path
       sodipodi:type="arc"
       style="opacity:0.2;fill:#ffffff;fill-opacity:1;stroke:none"
       id="path3114"
       sodipodi:cx="-38.218868"
       sodipodi:cy="48.362263"
       sodipodi:rx="25.901888"
       sodipodi:ry="25.901888"
       d="m -12.31698,48.362263 a 25.901888,25.901888 0 1 1 -51.803776,0 25.901888,25.901888 0 1 1 51.803776,0 z"
       transform="matrix(0.42467947,0,0,0.42467947,64.191458,984.82372)" />
    <path
       transform="matrix(0.42467947,0,0,0.42467947,64.191458,983.82372)"
       d="m -12.31698,48.362263 a 25.901888,25.901888 0 1 1 -51.803776,0 25.901888,25.901888 0 1 1 51.803776,0 z"
       sodipodi:ry="25.901888"
       sodipodi:rx="25.901888"
       sodipodi:cy="48.362263"
       sodipodi:cx="-38.218868"
       id="path3071"
       style="fill:url(#radialGradient3136);fill-opacity:1;stroke:none"
       sodipodi:type="arc" />
  </g>
</svg>
