<svg xmlns="http://www.w3.org/2000/svg" width="48" height="48">
<defs>
  <path
     d="M 3.84375 7.125 C 2.823171 7.125 2 7.948173 2 8.96875 L 2 39.03125 C 2 40.05183 2.823171 40.875 3.84375 40.875 L 44.15625 40.875 C 45.176828 40.875 46 40.05183 46 39.03125 L 46 10.78125 C 46 9.7606715 45.176828 8.9375 44.15625 8.9375 L 15.6875 8.9375 L 14.0625 7.125 L 3.84375 7.125 z M 21.90625 13.9375 C 23.984935 13.69645 22.918534 16.106693 24.53125 17.0625 C 25.278011 17.07358 25.994653 17.136652 26.6875 17.3125 C 28.599295 16.777164 28.013587 13.878487 30.5 15.34375 C 32.875262 16.743454 30.39158 17.646626 30.5625 19.40625 C 31.259088 20.036487 31.852 20.747856 32.3125 21.5625 C 33.902583 22.040121 35.361143 20.129539 36.03125 22.71875 C 36.687836 25.255725 34.582946 24.358986 33.40625 25.4375 C 33.40765 25.49934 33.405726 25.562842 33.40625 25.625 C 33.41535 26.602276 33.240414 27.527007 32.9375 28.40625 C 33.750421 29.813642 36.093108 29.534253 34.75 31.8125 C 33.35069 34.186081 32.449202 31.70363 30.6875 31.875 C 30.076013 32.452563 29.418902 32.951288 28.65625 33.34375 C 27.834454 35.035874 30.175833 36.606452 27.4375 37.3125 C 24.626873 38.037188 25.987959 35.405034 24.25 34.375 C 23.484309 34.366 22.771608 34.213239 22.0625 34.03125 C 20.182213 34.585789 20.787562 37.521047 18.3125 36.0625 C 15.937358 34.662797 18.452147 33.759622 18.28125 32 C 17.561814 31.355713 16.907649 30.651735 16.4375 29.8125 C 14.861342 29.374542 13.415033 31.288386 12.75 28.71875 C 12.093414 26.181774 14.229554 27.078515 15.40625 26 C 15.40335 25.92882 15.406787 25.852866 15.40625 25.78125 C 15.39715 24.803973 15.509586 23.879244 15.8125 23 C 14.999578 21.592607 12.719392 21.872 14.0625 19.59375 C 15.461357 17.220944 16.333203 19.732059 18.09375 19.5625 C 18.716767 18.971343 19.375718 18.429285 20.15625 18.03125 C 20.938974 16.349544 18.683059 14.764644 21.40625 14.0625 C 21.60878 14.01028 21.744828 13.956226 21.90625 13.9375 z M 24.375 22.28125 C 22.4124 22.29807 20.826239 23.864918 20.84375 25.75 C 20.86126 27.635084 22.474889 29.14182 24.4375 29.125 C 26.400101 29.10818 27.955011 27.541334 27.9375 25.65625 C 27.91998 23.771168 26.3376 22.26443 24.375 22.28125 z "
     id="path-main" />
</defs>
<acyl-settings>
<linearGradient
     id="linearGradient4321">
    <stop
       style="stop-color:#89F6FB;stop-opacity:1.0;"
       offset="0.5"
       id="stop1" />
    <stop
       style="stop-color:#10A1AA;stop-opacity:1.0;"
       offset="1.0"
       id="stop2" />
  </linearGradient>
<radialGradient
       inkscape:collect="always"
       xlink:href="#linearGradient4321"
       id="acyl_gradient"
       cx="50.0%"
       cy="50.0%"
       fx="50.0%"
       fy="50.0%"
       r="50.0%"
/>
<filter id="filter1111" x="-50%" y="-50%" width="200%" height="200%">
	<feImage
	id="feImage2"
	xlink:href="#1"
	result="result1" />
	<feComposite
	id="feComposite3633"
	in="result1"
	in2="SourceGraphic"
	operator="xor" />
</filter>
	<rect
	style="fill:#1A4B4F;fill-opacity:1.0;filter:url(#filter1111)"
	id="rect2835"
	width="48"
	height="48"
	x="0"
	y="0"
	rx="3.5"
	ry="3.5" />
	<rect
	style="fill:url(#acyl_gradient);filter:url(#filter1111)"
	id="rect2835"
	width="44"
	height="44"
	x="2"
	y="2"
	rx="3.5"
	ry="3.5" />
<defs>
<use id="1" transform="translate(22.5,22.5) scale(0.85) translate(-22.5,-22.5)" style="fill:#000000" xlink:href="#path-main" />
</defs>
	<use id="2" transform="translate(22.5,22.5) scale(0.85) translate(-22.5,-22.5)" style="fill:#1A4B4F;fill-opacity:1.0" xlink:href="#path-main" />
</acyl-settings>
</svg>
