<?xml version="1.0" encoding="UTF-8" standalone="no"?>
<!-- Created with Inkscape (http://www.inkscape.org/) -->

<svg
   xmlns:dc="http://purl.org/dc/elements/1.1/"
   xmlns:cc="http://creativecommons.org/ns#"
   xmlns:rdf="http://www.w3.org/1999/02/22-rdf-syntax-ns#"
   xmlns:svg="http://www.w3.org/2000/svg"
   xmlns="http://www.w3.org/2000/svg"
   xmlns:xlink="http://www.w3.org/1999/xlink"
   xmlns:sodipodi="http://sodipodi.sourceforge.net/DTD/sodipodi-0.dtd"
   xmlns:inkscape="http://www.inkscape.org/namespaces/inkscape"
   version="1.1"
   width="48"
   height="48"
   id="svg4405"
   inkscape:version="0.91 r"
   sodipodi:docname="cs-default-applications.svg">
  <sodipodi:namedview
     pagecolor="#ffffff"
     bordercolor="#666666"
     borderopacity="1"
     objecttolerance="10"
     gridtolerance="10"
     guidetolerance="10"
     inkscape:pageopacity="0"
     inkscape:pageshadow="2"
     inkscape:window-width="1427"
     inkscape:window-height="1033"
     id="namedview125"
     showgrid="true"
     inkscape:zoom="17.875"
     inkscape:cx="13.986014"
     inkscape:cy="24"
     inkscape:window-x="0"
     inkscape:window-y="0"
     inkscape:window-maximized="0"
     inkscape:current-layer="svg4405">
    <inkscape:grid
       type="xygrid"
       id="grid4888" />
  </sodipodi:namedview>
  <defs
     id="defs4407">
    <linearGradient
       id="linearGradient4187">
      <stop
         id="stop4189"
         style="stop-color:#ffffff;stop-opacity:1"
         offset="0" />
      <stop
         id="stop4191"
         style="stop-color:#ffffff;stop-opacity:0.23529412"
         offset="0.02099473" />
      <stop
         id="stop4193"
         style="stop-color:#ffffff;stop-opacity:0.15686275"
         offset="0.97696" />
      <stop
         id="stop4195"
         style="stop-color:#ffffff;stop-opacity:0.39215687"
         offset="1" />
    </linearGradient>
    <linearGradient
       id="linearGradient3851">
      <stop
         id="stop3853"
         style="stop-color:#000000;stop-opacity:0.43200001"
         offset="0" />
      <stop
         id="stop3855"
         style="stop-color:#000000;stop-opacity:0.627451"
         offset="1" />
    </linearGradient>
    <linearGradient
       x1="23.06352"
       y1="12.978221"
       x2="23.06352"
       y2="36.949589"
       id="linearGradient4326"
       xlink:href="#linearGradient4311"
       gradientUnits="userSpaceOnUse"
       gradientTransform="matrix(1,0,0,-1,0,50.012147)" />
    <linearGradient
       id="linearGradient4311">
      <stop
         id="stop4313"
         style="stop-color:#000000;stop-opacity:1"
         offset="0" />
      <stop
         id="stop4315"
         style="stop-color:#000000;stop-opacity:0"
         offset="1" />
    </linearGradient>
    <linearGradient
       x1="23.06352"
       y1="12.978221"
       x2="23.06352"
       y2="36.949589"
       id="linearGradient4320"
       xlink:href="#linearGradient4311"
       gradientUnits="userSpaceOnUse" />
    <linearGradient
       x1="19.927404"
       y1="44.949184"
       x2="19.927404"
       y2="4.9969058"
       id="linearGradient4273"
       xlink:href="#linearGradient3707-319-631-407-324-616"
       gradientUnits="userSpaceOnUse" />
    <linearGradient
       id="linearGradient3707-319-631-407-324-616">
      <stop
         id="stop3246"
         style="stop-color:#505050;stop-opacity:1"
         offset="0" />
      <stop
         id="stop3248"
         style="stop-color:#8e8e8e;stop-opacity:1"
         offset="1" />
    </linearGradient>
    <linearGradient
       x1="23.99999"
       y1="4.999989"
       x2="23.99999"
       y2="43"
       id="linearGradient3473"
       xlink:href="#linearGradient3924-803"
       gradientUnits="userSpaceOnUse"
       gradientTransform="translate(1.17e-5,1.00001)" />
    <linearGradient
       id="linearGradient3924-803">
      <stop
         id="stop3252"
         style="stop-color:#ffffff;stop-opacity:1"
         offset="0" />
      <stop
         id="stop3254"
         style="stop-color:#ffffff;stop-opacity:0.23529412"
         offset="0.06316455" />
      <stop
         id="stop3256"
         style="stop-color:#ffffff;stop-opacity:0.15686275"
         offset="0.95056331" />
      <stop
         id="stop3258"
         style="stop-color:#ffffff;stop-opacity:0.39215687"
         offset="1" />
    </linearGradient>
    <radialGradient
       cx="7.4956832"
       cy="8.4497671"
       r="19.99999"
       fx="7.4956832"
       fy="8.4497671"
       id="radialGradient3476"
       xlink:href="#linearGradient2867-449-88-871-390-598-476-591-434-148-57-177-641"
       gradientUnits="userSpaceOnUse"
       gradientTransform="matrix(1.8930301e-8,2.2770672,-2.4088655,-4.1952268e-8,44.35446,-10.500573)" />
    <linearGradient
       id="linearGradient2867-449-88-871-390-598-476-591-434-148-57-177-641">
      <stop
         id="stop3236"
         style="stop-color:#c7c7c7;stop-opacity:1"
         offset="0" />
      <stop
         id="stop3238"
         style="stop-color:#a6a6a6;stop-opacity:1"
         offset="0.26238" />
      <stop
         id="stop3240"
         style="stop-color:#7b7b7b;stop-opacity:1"
         offset="0.704952" />
      <stop
         id="stop3242"
         style="stop-color:#595959;stop-opacity:1"
         offset="1" />
    </linearGradient>
    <radialGradient
       cx="4.9929786"
       cy="43.5"
       r="2.5"
       fx="4.9929786"
       fy="43.5"
       id="radialGradient3013-896"
       xlink:href="#linearGradient3688-166-749-2-324"
       gradientUnits="userSpaceOnUse"
       gradientTransform="matrix(2.003784,0,0,1.4,27.98813,-17.4)" />
    <linearGradient
       id="linearGradient3688-166-749-2-324">
      <stop
         id="stop3216"
         style="stop-color:#181818;stop-opacity:1"
         offset="0" />
      <stop
         id="stop3218"
         style="stop-color:#181818;stop-opacity:0"
         offset="1" />
    </linearGradient>
    <radialGradient
       cx="4.9929786"
       cy="43.5"
       r="2.5"
       fx="4.9929786"
       fy="43.5"
       id="radialGradient3015-826"
       xlink:href="#linearGradient3688-464-309-8-331"
       gradientUnits="userSpaceOnUse"
       gradientTransform="matrix(2.003784,0,0,1.4,-20.01187,-104.4)" />
    <linearGradient
       id="linearGradient3688-464-309-8-331">
      <stop
         id="stop3222"
         style="stop-color:#181818;stop-opacity:1"
         offset="0" />
      <stop
         id="stop3224"
         style="stop-color:#181818;stop-opacity:0"
         offset="1" />
    </linearGradient>
    <linearGradient
       id="linearGradient3702-501-757-6-946">
      <stop
         id="stop3228"
         style="stop-color:#181818;stop-opacity:0"
         offset="0" />
      <stop
         id="stop3230"
         style="stop-color:#181818;stop-opacity:1"
         offset="0.5" />
      <stop
         id="stop3232"
         style="stop-color:#181818;stop-opacity:0"
         offset="1" />
    </linearGradient>
    <linearGradient
       x1="25.058096"
       y1="47.027729"
       x2="25.058096"
       y2="39.999443"
       id="linearGradient4395"
       xlink:href="#linearGradient3702-501-757-6-946"
       gradientUnits="userSpaceOnUse" />
    <linearGradient
       x1="0.85715157"
       y1="5.7142859"
       x2="0.85715157"
       y2="44.858185"
       id="linearGradient3857"
       xlink:href="#linearGradient3851"
       gradientUnits="userSpaceOnUse"
       gradientTransform="translate(41.285715,0)" />
    <linearGradient
       id="linearGradient3702-501-757-795">
      <stop
         id="stop3100"
         style="stop-color:#181818;stop-opacity:0"
         offset="0" />
      <stop
         id="stop3102"
         style="stop-color:#181818;stop-opacity:1"
         offset="0.5" />
      <stop
         id="stop3104"
         style="stop-color:#181818;stop-opacity:0"
         offset="1" />
    </linearGradient>
    <linearGradient
       x1="25.058096"
       y1="47.027729"
       x2="25.058096"
       y2="39.999443"
       id="linearGradient2877-634-617-908"
       xlink:href="#linearGradient3702-501-757-795"
       gradientUnits="userSpaceOnUse" />
    <linearGradient
       id="linearGradient3688-464-309-604">
      <stop
         id="stop3094"
         style="stop-color:#181818;stop-opacity:1"
         offset="0" />
      <stop
         id="stop3096"
         style="stop-color:#181818;stop-opacity:0"
         offset="1" />
    </linearGradient>
    <radialGradient
       cx="4.9929786"
       cy="43.5"
       r="2.5"
       fx="4.9929786"
       fy="43.5"
       id="radialGradient2875-742-326-419"
       xlink:href="#linearGradient3688-464-309-604"
       gradientUnits="userSpaceOnUse"
       gradientTransform="matrix(2.003784,0,0,1.4,-20.01187,-104.4)" />
    <linearGradient
       id="linearGradient3688-166-749-654">
      <stop
         id="stop3088"
         style="stop-color:#181818;stop-opacity:1"
         offset="0" />
      <stop
         id="stop3090"
         style="stop-color:#181818;stop-opacity:0"
         offset="1" />
    </linearGradient>
    <radialGradient
       cx="4.9929786"
       cy="43.5"
       r="2.5"
       fx="4.9929786"
       fy="43.5"
       id="radialGradient2873-966-168-714"
       xlink:href="#linearGradient3688-166-749-654"
       gradientUnits="userSpaceOnUse"
       gradientTransform="matrix(2.003784,0,0,1.4,27.98813,-17.4)" />
    <linearGradient
       id="linearGradient2867-449-88-871-390-598-476-591-434-148-57-177-8-3-3-6-4-8-8-8-5">
      <stop
         id="stop3750-1-0-7-6-6-1-3-9-3"
         style="stop-color:#919caf;stop-opacity:1"
         offset="0" />
      <stop
         id="stop3752-3-7-4-0-32-8-923-0-7"
         style="stop-color:#68758e;stop-opacity:1"
         offset="0.26238" />
      <stop
         id="stop3754-1-8-5-2-7-6-7-1-9"
         style="stop-color:#485a6c;stop-opacity:1"
         offset="0.704952" />
      <stop
         id="stop3756-1-6-2-6-6-1-96-6-0"
         style="stop-color:#444c5c;stop-opacity:1"
         offset="1" />
    </linearGradient>
    <radialGradient
       cx="6.7304144"
       cy="9.9571075"
       r="12.671875"
       fx="6.2001843"
       fy="9.9571075"
       id="radialGradient4147"
       xlink:href="#linearGradient2867-449-88-871-390-598-476-591-434-148-57-177-8-3-3-6-4-8-8-8-5"
       gradientUnits="userSpaceOnUse"
       gradientTransform="matrix(0,13.393984,-16.443533,0,196.90205,-114.89368)" />
    <linearGradient
       id="linearGradient4270">
      <stop
         id="stop4272"
         style="stop-color:#ffffff;stop-opacity:1"
         offset="0" />
      <stop
         id="stop4274"
         style="stop-color:#ffffff;stop-opacity:0.23529412"
         offset="0.0348749" />
      <stop
         id="stop4276"
         style="stop-color:#ffffff;stop-opacity:0.15686275"
         offset="0.96216321" />
      <stop
         id="stop4278"
         style="stop-color:#ffffff;stop-opacity:0.39215687"
         offset="1" />
    </linearGradient>
    <linearGradient
       x1="23.99999"
       y1="5.9093657"
       x2="23.99999"
       y2="42.091705"
       id="linearGradient3904"
       xlink:href="#linearGradient4270"
       gradientUnits="userSpaceOnUse"
       gradientTransform="matrix(1.4324324,0,0,1.4362832,-2.3783747,-2.4707827)" />
    <linearGradient
       id="linearGradient4213-9">
      <stop
         id="stop4215-4"
         style="stop-color:#000000;stop-opacity:1"
         offset="0" />
      <stop
         id="stop4217-1"
         style="stop-color:#000000;stop-opacity:0"
         offset="1" />
    </linearGradient>
    <linearGradient
       x1="38.856056"
       y1="26.320496"
       x2="38.856056"
       y2="32.521935"
       id="linearGradient4225-5"
       xlink:href="#linearGradient4213-9"
       gradientUnits="userSpaceOnUse"
       gradientTransform="matrix(1,0,0,-1,-81.932439,92.086123)" />
    <linearGradient
       x1="23.99999"
       y1="5.9093657"
       x2="23.99999"
       y2="42.091705"
       id="linearGradient3128"
       xlink:href="#linearGradient4270"
       gradientUnits="userSpaceOnUse"
       gradientTransform="matrix(1.4324324,0,0,1.4362832,-65.293683,-10.453835)" />
    <radialGradient
       cx="6.7304144"
       cy="9.9571075"
       r="12.671875"
       fx="6.2001843"
       fy="9.9571075"
       id="radialGradient3132"
       xlink:href="#linearGradient2867-449-88-871-390-598-476-591-434-148-57-177-8-3-3-6-4-8-8-8-5"
       gradientUnits="userSpaceOnUse"
       gradientTransform="matrix(0,13.393984,-16.443533,0,133.98674,-122.87673)" />
    <linearGradient
       x1="30.212982"
       y1="21.416878"
       x2="30.212982"
       y2="25.361452"
       id="linearGradient3143"
       xlink:href="#linearGradient4311"
       gradientUnits="userSpaceOnUse"
       gradientTransform="matrix(1,0,0,-1,0,50.012147)" />
    <linearGradient
       x1="23.99999"
       y1="6.1111298"
       x2="23.99999"
       y2="41.890972"
       id="linearGradient3153"
       xlink:href="#linearGradient4187"
       gradientUnits="userSpaceOnUse"
       gradientTransform="translate(1.17e-5,1.00001)" />
    <radialGradient
       cx="7.4956832"
       cy="8.4497671"
       r="19.99999"
       fx="7.4956832"
       fy="8.4497671"
       id="radialGradient3156"
       xlink:href="#linearGradient2867-449-88-871-390-598-476-591-434-148-57-177-641"
       gradientUnits="userSpaceOnUse"
       gradientTransform="matrix(1.8930301e-8,2.2770672,-2.4088655,-4.1952268e-8,44.35446,-10.500573)" />
    <linearGradient
       x1="38.856056"
       y1="26.320496"
       x2="38.856056"
       y2="32.521935"
       id="linearGradient3200"
       xlink:href="#linearGradient4213-9"
       gradientUnits="userSpaceOnUse"
       gradientTransform="matrix(1,0,0,-1,-81.932439,92.086123)" />
    <linearGradient
       x1="38.856056"
       y1="26.320496"
       x2="38.856056"
       y2="32.521935"
       id="linearGradient3203"
       xlink:href="#linearGradient4213-9"
       gradientUnits="userSpaceOnUse"
       gradientTransform="matrix(1,0,0,-1,-62.913735,56.026147)" />
    <linearGradient
       x1="25.058096"
       y1="47.027729"
       x2="25.058096"
       y2="39.999443"
       id="linearGradient6647"
       xlink:href="#linearGradient3702-501-757"
       gradientUnits="userSpaceOnUse" />
    <linearGradient
       id="linearGradient3702-501-757">
      <stop
         id="stop2895"
         style="stop-color:#181818;stop-opacity:0"
         offset="0" />
      <stop
         id="stop2897"
         style="stop-color:#181818;stop-opacity:1"
         offset="0.5" />
      <stop
         id="stop2899"
         style="stop-color:#181818;stop-opacity:0"
         offset="1" />
    </linearGradient>
    <linearGradient
       id="linearGradient3688-464-309">
      <stop
         id="stop2889"
         style="stop-color:#181818;stop-opacity:1"
         offset="0" />
      <stop
         id="stop2891"
         style="stop-color:#181818;stop-opacity:0"
         offset="1" />
    </linearGradient>
    <radialGradient
       cx="4.9929786"
       cy="43.5"
       r="2.5"
       fx="4.9929786"
       fy="43.5"
       id="radialGradient3015"
       xlink:href="#linearGradient3688-464-309"
       gradientUnits="userSpaceOnUse"
       gradientTransform="matrix(2.003784,0,0,1.4,-20.01187,-104.4)" />
    <linearGradient
       id="linearGradient3688-166-749">
      <stop
         id="stop2883"
         style="stop-color:#181818;stop-opacity:1"
         offset="0" />
      <stop
         id="stop2885"
         style="stop-color:#181818;stop-opacity:0"
         offset="1" />
    </linearGradient>
    <radialGradient
       cx="4.9929786"
       cy="43.5"
       r="2.5"
       fx="4.9929786"
       fy="43.5"
       id="radialGradient3013"
       xlink:href="#linearGradient3688-166-749"
       gradientUnits="userSpaceOnUse"
       gradientTransform="matrix(2.003784,0,0,1.4,27.98813,-17.4)" />
    <linearGradient
       id="linearGradient2867-449-88-871-390-598-476-591-434-148-57-177-8-3-3-6-4-8-8-8">
      <stop
         id="stop3750-1-0-7-6-6-1-3-9"
         style="stop-color:#ffcd7d;stop-opacity:1"
         offset="0" />
      <stop
         id="stop3752-3-7-4-0-32-8-923-0"
         style="stop-color:#fc8f36;stop-opacity:1"
         offset="0.26238" />
      <stop
         id="stop3754-1-8-5-2-7-6-7-1"
         style="stop-color:#e23a0e;stop-opacity:1"
         offset="0.704952" />
      <stop
         id="stop3756-1-6-2-6-6-1-96-6"
         style="stop-color:#ac441f;stop-opacity:1"
         offset="1" />
    </linearGradient>
    <radialGradient
       cx="6.7304144"
       cy="9.9571075"
       r="12.671875"
       fx="6.2001843"
       fy="9.9571075"
       id="radialGradient5521-1"
       xlink:href="#linearGradient2867-449-88-871-390-598-476-591-434-148-57-177-8-3-3-6-4-8-8-8"
       gradientUnits="userSpaceOnUse"
       gradientTransform="matrix(0,9.4975523,-11.65996,0,73.301041,-57.680402)" />
    <linearGradient
       id="linearGradient3924-1">
      <stop
         id="stop3926-3"
         style="stop-color:#ffffff;stop-opacity:1"
         offset="0" />
      <stop
         id="stop3928-91"
         style="stop-color:#ffffff;stop-opacity:0.23529412"
         offset="0.06316455" />
      <stop
         id="stop3930-6"
         style="stop-color:#ffffff;stop-opacity:0.15686275"
         offset="0.95056331" />
      <stop
         id="stop3932-6"
         style="stop-color:#ffffff;stop-opacity:0.39215687"
         offset="1" />
    </linearGradient>
    <linearGradient
       x1="23.99999"
       y1="4.999989"
       x2="23.99999"
       y2="43"
       id="linearGradient3058"
       xlink:href="#linearGradient3924-1"
       gradientUnits="userSpaceOnUse"
       gradientTransform="translate(4e-6,1.000006)" />
    <linearGradient
       id="linearGradient5803">
      <stop
         id="stop5805"
         style="stop-color:#fff5ef;stop-opacity:1"
         offset="0" />
      <stop
         id="stop5807"
         style="stop-color:#fef8dd;stop-opacity:1"
         offset="1" />
    </linearGradient>
    <linearGradient
       x1="167.98311"
       y1="8.50811"
       x2="167.98311"
       y2="54.780239"
       id="linearGradient5414"
       xlink:href="#linearGradient5803"
       gradientUnits="userSpaceOnUse"
       gradientTransform="matrix(0.71090703,0,0,0.71090703,-91.334988,2.139763)" />
    <radialGradient
       cx="6.7304144"
       cy="9.9571075"
       r="12.671875"
       fx="6.2001843"
       fy="9.9571075"
       id="radialGradient4144"
       xlink:href="#linearGradient2867-449-88-871-390-598-476-591-434-148-57-177-8-3-3-6-4-8-8-8-5"
       gradientUnits="userSpaceOnUse"
       gradientTransform="matrix(0,9.4975523,-11.65996,0,140.93055,-79.160972)" />
  </defs>
  <metadata
     id="metadata4410">
    <rdf:RDF>
      <cc:Work
         rdf:about="">
        <dc:format>image/svg+xml</dc:format>
        <dc:type
           rdf:resource="http://purl.org/dc/dcmitype/StillImage" />
        <dc:title></dc:title>
      </cc:Work>
    </rdf:RDF>
  </metadata>
  <g
     transform="matrix(1.1578952,0,0,0.57142859,-3.789476,19.142856)"
     id="g3712-0"
     style="opacity:0.4">
    <rect
       width="5"
       height="7"
       x="38"
       y="40"
       id="rect2801-4"
       style="fill:url(#radialGradient3013-896);fill-opacity:1;stroke:none" />
    <rect
       width="5"
       height="7"
       x="-10"
       y="-47"
       transform="scale(-1,-1)"
       id="rect3696-8"
       style="fill:url(#radialGradient3015-826);fill-opacity:1;stroke:none" />
    <rect
       width="28"
       height="7.0000005"
       x="10"
       y="40"
       id="rect3700-7"
       style="fill:url(#linearGradient4395);fill-opacity:1;stroke:none" />
  </g>
  <rect
     width="39"
     height="39"
     rx="2"
     ry="2"
     x="4.5000067"
     y="5.5"
     id="rect5505-21"
     style="color:#000000;fill:url(#radialGradient4144);fill-opacity:1;fill-rule:nonzero;stroke:none;stroke-width:0.99999994;marker:none;visibility:visible;display:inline;overflow:visible;enable-background:accumulate" />
  <rect
     width="37"
     height="37"
     rx="1"
     ry="1"
     x="5.5000081"
     y="6.5"
     id="rect6741-1"
     style="opacity:0.3;fill:none;stroke:url(#linearGradient3153);stroke-width:1;stroke-linecap:round;stroke-linejoin:round;stroke-miterlimit:4;stroke-opacity:1;stroke-dasharray:none;stroke-dashoffset:0" />
  <rect
     width="39"
     height="39"
     rx="2"
     ry="2"
     x="4.5000081"
     y="5.5"
     id="rect5505-21-6"
     style="opacity:0.5;color:#000000;fill:none;stroke:#1c2c38;stroke-width:1;stroke-linecap:round;stroke-linejoin:round;stroke-miterlimit:4;stroke-opacity:1;stroke-dasharray:none;stroke-dashoffset:0;marker:none;visibility:visible;display:inline;overflow:visible;enable-background:accumulate" />
  <path
     inkscape:connector-curvature="0"
     style="color:#000000;display:inline;overflow:visible;visibility:visible;opacity:0.15;fill:#000000;fill-opacity:1;fill-rule:nonzero;stroke:none;stroke-width:1.70782518;marker:none;enable-background:accumulate"
     d="m 17.764807,10.525819 c -0.648718,-0.03662 -0.735417,0.676856 -0.666953,1.143348 l 0,9.146783 c -0.397963,-0.08362 -0.932873,-0.03711 -1.381545,0.09528 -1.348093,0.35865 -2.540771,1.597348 -2.429614,3.001288 0.15579,1.31471 1.717136,2.153119 3.001287,1.762661 1.454744,-0.344385 2.286696,-1.608071 2.286696,-3.239486 l 0,-7.241201 c 1.208541,0.638994 2.311565,1.832734 2.286696,3.239484 0.01311,1.016873 -0.264133,2.028007 -0.666953,2.953649 -0.0542,0.111743 0.0558,0.195776 0.142919,0.238198 0.233265,0.06515 0.344557,-0.237131 0.476394,-0.381117 1.403969,-1.88238 1.515384,-4.629568 0,-6.47897 -0.537794,-0.656735 -1.252963,-1.238062 -1.619742,-2.000859 -0.367188,-0.586698 -0.601525,-1.236116 -0.714593,-1.90558 -0.148116,-0.241975 -0.434729,-0.3357 -0.714592,-0.333476 z m 7.622318,9.146783 c -0.361951,0 -0.666953,0.286903 -0.666953,0.666953 l 0,12.386267 c 0,0.380049 0.305002,0.666953 0.666953,0.666953 l 10.861805,0 c 0.361951,0 0.666952,-0.286904 0.666952,-0.666953 l 0,-12.386267 c 0,-0.38005 -0.305001,-0.666953 -0.666952,-0.666953 l -10.861805,0 z m 0.190558,0.90515 0.905151,0 0,0.905151 -0.905151,0 0,-0.905151 z m 2.191417,0 6.097855,0 c 0.2413,0 0.428755,0.223028 0.428755,0.476395 l 0,4.573391 c 0,0.253365 -0.187455,0.428755 -0.428755,0.428755 l -6.097855,0 c -0.241301,0 -0.428755,-0.17539 -0.428755,-0.428755 l 0,-4.573391 c 0,-0.253367 0.187454,-0.476395 0.428755,-0.476395 z m 7.384121,0 0.905151,0 0,0.905151 -0.905151,0 0,-0.905151 z m -9.575538,1.85794 0.905151,0 0,0.90515 -0.905151,0 0,-0.90515 z m 9.575538,0 0.905151,0 0,0.90515 -0.905151,0 0,-0.90515 z m -9.575538,1.8103 0.905151,0 0,0.905151 -0.905151,0 0,-0.905151 z m 9.575538,0 0.905151,0 0,0.905151 -0.905151,0 0,-0.905151 z m -9.575538,1.810301 0.905151,0 0,0.95279 -0.905151,0 0,-0.95279 z m 9.575538,0 0.905151,0 0,0.95279 -0.905151,0 0,-0.95279 z m -7.384121,0.95279 6.097855,0 c 0.2413,0 0.428755,0.17539 0.428755,0.428756 l 0,4.57339 c 0,0.253367 -0.187455,0.476395 -0.428755,0.476395 l -6.097855,0 c -0.241301,0 -0.428755,-0.223028 -0.428755,-0.476395 l 0,-4.57339 c 0,-0.253366 0.187454,-0.428756 0.428755,-0.428756 z m -2.191417,0.905151 0.905151,0 0,0.90515 -0.905151,0 0,-0.90515 z m 9.575538,0 0.905151,0 0,0.90515 -0.905151,0 0,-0.90515 z M 18.622317,28.819384 11,36.63226 l 3.287124,0 -1.476824,3.096567 c -0.538543,1.081004 1.350722,1.713542 1.715021,0.905151 l 1.476824,-2.953648 2.620172,2.477253 0,-11.338199 z m 6.955366,0.905151 0.905151,0 0,0.90515 -0.905151,0 0,-0.90515 z m 9.575538,0 0.905151,0 0,0.90515 -0.905151,0 0,-0.90515 z m -9.575538,1.85794 0.905151,0 0,0.905149 -0.905151,0 0,-0.905149 z m 9.575538,0 0.905151,0 0,0.905149 -0.905151,0 0,-0.905149 z"
     id="rect3032-6" />
  <path
     inkscape:connector-curvature="0"
     style="color:#000000;display:inline;overflow:visible;visibility:visible;fill:#ffffff;fill-opacity:1;fill-rule:nonzero;stroke:none;stroke-width:1;marker:none;enable-background:accumulate"
     d="m 17.806874,9.7635876 c -0.648718,-0.036619 -0.735417,0.6768554 -0.666953,1.1433474 l 0,9.146782 c -0.397963,-0.08362 -0.932873,-0.0371 -1.381545,0.09528 -1.348093,0.35865 -2.540771,1.597349 -2.429614,3.001288 0.15579,1.31471 1.717136,2.15312 3.001287,1.762662 1.454744,-0.344386 2.286696,-1.608071 2.286696,-3.239486 l 0,-7.241203 c 1.208541,0.638994 2.311565,1.832735 2.286696,3.239486 0.01311,1.016872 -0.264133,2.028006 -0.666953,2.953648 -0.0542,0.111744 0.0558,0.195777 0.142919,0.238197 0.233265,0.06515 0.344557,-0.237129 0.476394,-0.381115 1.403969,-1.88238 1.515384,-4.629568 0,-6.478971 -0.537794,-0.656739 -1.252963,-1.238065 -1.619742,-2.000862 -0.367188,-0.586698 -0.601525,-1.236117 -0.714593,-1.90558 C 18.37335,9.8550857 18.086737,9.7613607 17.806874,9.7635845 Z m 7.622318,9.1467814 c -0.361951,0 -0.666953,0.286905 -0.666953,0.666954 l 0,12.386268 c 0,0.380048 0.305002,0.666953 0.666953,0.666953 l 10.861805,0 c 0.361951,0 0.666952,-0.286905 0.666952,-0.666953 l 0,-12.386268 c 0,-0.380049 -0.305001,-0.666954 -0.666952,-0.666954 l -10.861805,0 z m 0.190558,0.905151 0.905151,0 0,0.90515 -0.905151,0 0,-0.90515 z m 9.575538,0 0.905151,0 0,0.90515 -0.905151,0 0,-0.90515 z m -7.384121,0.524034 6.097855,0 c 0.2413,0 0.428755,0.223029 0.428755,0.476395 l 0,3.81116 c 0,0.253366 -0.187455,0.476395 -0.428755,0.476395 l -6.097855,0 c -0.241301,0 -0.428755,-0.223029 -0.428755,-0.476395 l 0,-3.81116 c 0,-0.253366 0.187454,-0.476395 0.428755,-0.476395 z m -2.191417,1.333906 0.905151,0 0,0.905151 -0.905151,0 0,-0.905151 z m 9.575538,0 0.905151,0 0,0.905151 -0.905151,0 0,-0.905151 z m -9.575538,1.810301 0.905151,0 0,0.905151 -0.905151,0 0,-0.905151 z m 9.575538,0 0.905151,0 0,0.905151 -0.905151,0 0,-0.905151 z m -9.575538,1.810301 0.905151,0 0,0.95279 -0.905151,0 0,-0.95279 z m 9.575538,0 0.905151,0 0,0.95279 -0.905151,0 0,-0.95279 z m -7.384121,1.143347 6.097855,0 c 0.2413,0 0.428755,0.223029 0.428755,0.476395 l 0,3.81116 c 0,0.253366 -0.187455,0.476395 -0.428755,0.476395 l -6.097855,0 c -0.241301,0 -0.428755,-0.223029 -0.428755,-0.476395 l 0,-3.81116 c 0,-0.253366 0.187454,-0.476395 0.428755,-0.476395 z m -2.191417,0.714592 0.905151,0 0,0.905151 -0.905151,0 0,-0.905151 z m 9.575538,0 0.905151,0 0,0.905151 -0.905151,0 0,-0.905151 z m -16.530904,0.905151 -7.622317,7.812877 3.287124,0 -1.476824,3.096567 c -0.538543,1.081003 1.350722,1.713541 1.715021,0.905151 l 1.476824,-2.953649 2.620172,2.477254 0,-11.3382 z m 6.955366,0.90515 0.905151,0 0,0.905151 -0.905151,0 0,-0.905151 z m 9.575538,0 0.905151,0 0,0.905151 -0.905151,0 0,-0.905151 z m -9.575538,1.857941 0.905151,0 0,0.90515 -0.905151,0 0,-0.90515 z m 9.575538,0 0.905151,0 0,0.90515 -0.905151,0 0,-0.90515 z"
     id="rect3032" />
</svg>
