<?xml version="1.0" encoding="UTF-8" standalone="no"?>
<!-- Created with Inkscape (http://www.inkscape.org/) -->

<svg
   xmlns:dc="http://purl.org/dc/elements/1.1/"
   xmlns:cc="http://creativecommons.org/ns#"
   xmlns:rdf="http://www.w3.org/1999/02/22-rdf-syntax-ns#"
   xmlns:svg="http://www.w3.org/2000/svg"
   xmlns="http://www.w3.org/2000/svg"
   xmlns:xlink="http://www.w3.org/1999/xlink"
   xmlns:sodipodi="http://sodipodi.sourceforge.net/DTD/sodipodi-0.dtd"
   xmlns:inkscape="http://www.inkscape.org/namespaces/inkscape"
   version="1.0"
   width="48"
   height="48"
   id="svg2453"
   inkscape:version="0.91 r"
   sodipodi:docname="desktop-effects.svg">
  <sodipodi:namedview
     pagecolor="#ffffff"
     bordercolor="#666666"
     borderopacity="1"
     objecttolerance="10"
     gridtolerance="10"
     guidetolerance="10"
     inkscape:pageopacity="0"
     inkscape:pageshadow="2"
     inkscape:window-width="1855"
     inkscape:window-height="1056"
     id="namedview55"
     showgrid="true"
     inkscape:zoom="4.6034078"
     inkscape:cx="-113.45648"
     inkscape:cy="19.803572"
     inkscape:window-x="65"
     inkscape:window-y="24"
     inkscape:window-maximized="1"
     inkscape:current-layer="g4471">
    <inkscape:grid
       type="xygrid"
       id="grid3951" />
  </sodipodi:namedview>
  <metadata
     id="metadata35">
    <rdf:RDF>
      <cc:Work
         rdf:about="">
        <dc:format>image/svg+xml</dc:format>
        <dc:type
           rdf:resource="http://purl.org/dc/dcmitype/StillImage" />
        <dc:title></dc:title>
      </cc:Work>
    </rdf:RDF>
  </metadata>
  <defs
     id="defs2455">
    <radialGradient
       cx="605.71429"
       cy="486.64789"
       r="117.14286"
       fx="605.71429"
       fy="486.64789"
       id="radialGradient19613"
       xlink:href="#linearGradient5060"
       gradientUnits="userSpaceOnUse"
       gradientTransform="matrix(0.02891661,0,0,0.01235294,26.973101,38.470848)" />
    <linearGradient
       id="linearGradient5060">
      <stop
         id="stop5062"
         style="stop-color:#000000;stop-opacity:1"
         offset="0" />
      <stop
         id="stop5064"
         style="stop-color:#000000;stop-opacity:0"
         offset="1" />
    </linearGradient>
    <radialGradient
       cx="605.71429"
       cy="486.64789"
       r="117.14286"
       fx="605.71429"
       fy="486.64789"
       id="radialGradient19616"
       xlink:href="#linearGradient5060"
       gradientUnits="userSpaceOnUse"
       gradientTransform="matrix(-0.0289166,0,0,0.01235294,21.026894,38.470848)" />
    <linearGradient
       id="linearGradient5048">
      <stop
         id="stop5050"
         style="stop-color:#000000;stop-opacity:0"
         offset="0" />
      <stop
         id="stop5056"
         style="stop-color:#000000;stop-opacity:1"
         offset="0.5" />
      <stop
         id="stop5052"
         style="stop-color:#000000;stop-opacity:0"
         offset="1" />
    </linearGradient>
    <linearGradient
       x1="302.85715"
       y1="366.64789"
       x2="302.85715"
       y2="609.50507"
       id="linearGradient19619"
       xlink:href="#linearGradient5048"
       gradientUnits="userSpaceOnUse"
       gradientTransform="matrix(0.08449704,0,0,0.01235294,-6.5396456,38.470822)" />
    <linearGradient
       id="linearGradient3680-6-6-6-3-7-1-8-8">
      <stop
         id="stop3682-4-6-1-3-7-7-4-0"
         style="stop-color:#dcdcdc;stop-opacity:1"
         offset="0" />
      <stop
         id="stop3684-8-5-8-0-2-6-8-4"
         style="stop-color:#ffffff;stop-opacity:1"
         offset="1" />
    </linearGradient>
    <linearGradient
       y2="13.000008"
       x2="20"
       y1="26.000008"
       x1="20"
       gradientTransform="matrix(1.326882,0,0,1.326882,9.2598082,6.2451596)"
       gradientUnits="userSpaceOnUse"
       id="linearGradient3127-4-4"
       xlink:href="#linearGradient3680-6-6-6-3-7-1-8-8"
       inkscape:collect="always" />
    <linearGradient
       id="linearGradient2867-449-88-871-390-598-476-591-434-148-57-177-8-3-3-6-4-8-8-8-5-7">
      <stop
         id="stop3750-1-0-7-6-6-1-3-9-3-9"
         style="stop-color:#505050;stop-opacity:1"
         offset="0" />
      <stop
         id="stop3752-3-7-4-0-32-8-923-0-7-0"
         style="stop-color:#2b2b2b;stop-opacity:1"
         offset="0.26238" />
      <stop
         id="stop3754-1-8-5-2-7-6-7-1-9-1"
         style="stop-color:#0a0a0a;stop-opacity:1"
         offset="0.704952" />
      <stop
         id="stop3756-1-6-2-6-6-1-96-6-0-1"
         style="stop-color:#000000;stop-opacity:1"
         offset="1" />
    </linearGradient>
    <linearGradient
       id="linearGradient3462">
      <stop
         offset="0"
         style="stop-color:#ffffff;stop-opacity:1"
         id="stop3464" />
      <stop
         offset="0.03457849"
         style="stop-color:#ffffff;stop-opacity:0.23529412"
         id="stop3466" />
      <stop
         offset="0.96375686"
         style="stop-color:#ffffff;stop-opacity:0.15686275"
         id="stop3468" />
      <stop
         offset="1"
         style="stop-color:#ffffff;stop-opacity:0.39215687"
         id="stop3470" />
    </linearGradient>
    <linearGradient
       inkscape:collect="always"
       xlink:href="#linearGradient3680-6-6-6-3-7-1-8-8"
       id="linearGradient3324"
       gradientUnits="userSpaceOnUse"
       gradientTransform="matrix(1.326882,0,0,1.326882,9.2598082,6.2451596)"
       x1="20"
       y1="26.000008"
       x2="20"
       y2="13.000008" />
    <linearGradient
       inkscape:collect="always"
       xlink:href="#linearGradient3680-6-6-6-3-7-1-8-8"
       id="linearGradient3339"
       gradientUnits="userSpaceOnUse"
       gradientTransform="matrix(1.326882,0,0,1.326882,9.2598082,6.2451596)"
       x1="20"
       y1="26.000008"
       x2="20"
       y2="13.000008" />
    <linearGradient
       inkscape:collect="always"
       xlink:href="#linearGradient3462"
       id="linearGradient3345"
       gradientUnits="userSpaceOnUse"
       gradientTransform="matrix(1.1621621,0,0,0.91891888,-3.8918941,4.4459492)"
       x1="40.290417"
       y1="5.4143372"
       x2="40.290417"
       y2="42.437775" />
    <radialGradient
       inkscape:collect="always"
       xlink:href="#linearGradient2867-449-88-871-390-598-476-591-434-148-57-177"
       id="radialGradient3348"
       gradientUnits="userSpaceOnUse"
       gradientTransform="matrix(3.1507285e-8,3.5511714,-3.5511715,3.1507286e-8,56.719485,-24.187307)"
       cx="9.0638561"
       cy="10.340105"
       fx="9.0638561"
       fy="10.340105"
       r="12.671875" />
    <linearGradient
       inkscape:collect="always"
       xlink:href="#linearGradient3680-6-6-6-3-7-1-8-8"
       id="linearGradient3352"
       gradientUnits="userSpaceOnUse"
       gradientTransform="matrix(1.326882,0,0,1.326882,9.2598082,6.2451596)"
       x1="20"
       y1="26.000008"
       x2="20"
       y2="13.000008" />
    <linearGradient
       inkscape:collect="always"
       xlink:href="#linearGradient3680-6-6-6-3-7-1-8-8"
       id="linearGradient3378"
       gradientUnits="userSpaceOnUse"
       gradientTransform="matrix(0.94777285,0,0,0.9730468,24.899863,25.579784)"
       x1="20"
       y1="26.000008"
       x2="20"
       y2="13.000008" />
    <linearGradient
       x1="54.596001"
       y1="42.034893"
       x2="54.596001"
       y2="9.693037"
       id="linearGradient3024-0"
       xlink:href="#linearGradient3680-6-6-6-3-7-4-4"
       gradientUnits="userSpaceOnUse"
       gradientTransform="matrix(0.98042811,0,0,0.98042811,-37.50467,2.701201)" />
    <linearGradient
       id="linearGradient3680-6-6-6-3-7-4-4">
      <stop
         id="stop3682-4-6-1-3-7-5-0"
         style="stop-color:#dcdcdc;stop-opacity:1"
         offset="0" />
      <stop
         id="stop3684-8-5-8-0-2-3-6"
         style="stop-color:#ffffff;stop-opacity:1"
         offset="1" />
    </linearGradient>
    <radialGradient
       r="19.99999"
       fy="8.4308119"
       fx="9.4238949"
       cy="8.4308119"
       cx="9.4238949"
       gradientTransform="matrix(2.1537372e-8,2.5055178,-2.7406131,-4.6161198e-8,47.241358,64.515127)"
       gradientUnits="userSpaceOnUse"
       id="radialGradient2874"
       xlink:href="#linearGradient2867-449-88-871-390-598-476-591-434-148-57-177"
       inkscape:collect="always" />
    <linearGradient
       id="linearGradient2867-449-88-871-390-598-476-591-434-148-57-177">
      <stop
         id="stop3750"
         style="stop-color:#90dbec;stop-opacity:1;"
         offset="0" />
      <stop
         id="stop3752"
         style="stop-color:#55c1ec;stop-opacity:1;"
         offset="0.26238" />
      <stop
         id="stop3754"
         style="stop-color:#3689e6;stop-opacity:1;"
         offset="0.704952" />
      <stop
         id="stop3756"
         style="stop-color:#2b63a0;stop-opacity:1;"
         offset="1" />
    </linearGradient>
    <linearGradient
       y2="3.8990016"
       x2="24"
       y1="44"
       x1="24"
       gradientTransform="matrix(1.1085471,0,0,1.0721131,-2.5214394,77.846639)"
       gradientUnits="userSpaceOnUse"
       id="linearGradient2876"
       xlink:href="#linearGradient3707-319-631-407-324"
       inkscape:collect="always" />
    <linearGradient
       id="linearGradient3707-319-631-407-324">
      <stop
         id="stop3760"
         style="stop-color:#185f9a;stop-opacity:1;"
         offset="0" />
      <stop
         id="stop3762"
         style="stop-color:#599ec9;stop-opacity:1;"
         offset="1" />
    </linearGradient>
    <radialGradient
       r="19.99999"
       fy="8.4308119"
       fx="9.4238949"
       cy="8.4308119"
       cx="9.4238949"
       gradientTransform="matrix(2.1537372e-8,2.5055178,-2.7406131,-4.6161198e-8,-9.5248748,-20.277081)"
       gradientUnits="userSpaceOnUse"
       id="radialGradient3984"
       xlink:href="#linearGradient2867-449-88-871-390-598-476-591-434-148-57-177"
       inkscape:collect="always" />
    <linearGradient
       y2="3.8990016"
       x2="24"
       y1="44"
       x1="24"
       gradientTransform="matrix(1.1085471,0,0,1.0721131,-59.287673,-6.945569)"
       gradientUnits="userSpaceOnUse"
       id="linearGradient3986"
       xlink:href="#linearGradient3707-319-631-407-324"
       inkscape:collect="always" />
    <radialGradient
       r="19.99999"
       fy="8.4497671"
       fx="7.4956832"
       cy="8.4497671"
       cx="7.4956832"
       gradientTransform="matrix(0,1.5226695,-2.6041615,-6.425061e-8,79.647259,76.958573)"
       gradientUnits="userSpaceOnUse"
       id="radialGradient3119"
       xlink:href="#linearGradient4157-401-351-3-5-9"
       inkscape:collect="always" />
    <linearGradient
       id="linearGradient4157-401-351-3-5-9">
      <stop
         id="stop3790-0-0-6"
         style="stop-color:#505050;stop-opacity:1"
         offset="0" />
      <stop
         id="stop3792-0-2-5"
         style="stop-color:#141414;stop-opacity:1"
         offset="1" />
    </linearGradient>
    <linearGradient
       y2="44.000256"
       x2="16.142857"
       y1="4.000001"
       x1="16.142857"
       gradientTransform="matrix(0.84600005,0,0,0.66209757,37.338614,85.006885)"
       gradientUnits="userSpaceOnUse"
       id="linearGradient3121"
       xlink:href="#linearGradient3610-302-5-8-5"
       inkscape:collect="always" />
    <linearGradient
       id="linearGradient3610-302-5-8-5">
      <stop
         id="stop3796-3-0-6"
         style="stop-color:#323232;stop-opacity:1"
         offset="0" />
      <stop
         id="stop3798-8-6-0"
         style="stop-color:#000000;stop-opacity:1"
         offset="1" />
    </linearGradient>
    <linearGradient
       x1="33.497383"
       y1="8.0590115"
       x2="39.020798"
       y2="3.0796025"
       id="linearGradient3034-5-1"
       xlink:href="#linearGradient8589-4-3-1-8"
       gradientUnits="userSpaceOnUse"
       gradientTransform="matrix(1.2680217,0,0,1.3557621,-7.0906231,8.9619326)" />
    <linearGradient
       id="linearGradient8589-4-3-1-8">
      <stop
         id="stop8591-7-2-8-8"
         style="stop-color:#fefefe;stop-opacity:1"
         offset="0" />
      <stop
         id="stop8593-2-4-0-3"
         style="stop-color:#cbcbcb;stop-opacity:1"
         offset="1" />
    </linearGradient>
    <linearGradient
       inkscape:collect="always"
       xlink:href="#linearGradient3826"
       id="linearGradient3832"
       x1="54.600815"
       y1="110.92059"
       x2="54.62849"
       y2="115.84853"
       gradientUnits="userSpaceOnUse"
       gradientTransform="matrix(0.35389769,0,0,0.35389769,1.4994735,0.42261168)" />
    <linearGradient
       inkscape:collect="always"
       id="linearGradient3826">
      <stop
         style="stop-color:#f7f7f7;stop-opacity:1;"
         offset="0"
         id="stop3828" />
      <stop
         style="stop-color:#f7f7f7;stop-opacity:0;"
         offset="1"
         id="stop3830" />
    </linearGradient>
    <linearGradient
       x1="62.952984"
       y1="23.890965"
       x2="2.4973762"
       y2="23.890968"
       id="linearGradient3555-3-3"
       xlink:href="#linearGradient3793-7-8"
       gradientUnits="userSpaceOnUse"
       gradientTransform="matrix(-0.5572773,0,0,0.5517612,-7.1404144,13.903892)" />
    <linearGradient
       id="linearGradient3793-7-8">
      <stop
         id="stop2756-0-0"
         style="stop-color:#8cab2a;stop-opacity:0"
         offset="0" />
      <stop
         id="stop3797-2-9"
         style="stop-color:#b1c948;stop-opacity:1"
         offset="0.39199844" />
      <stop
         id="stop3799-7-5"
         style="stop-color:#d7e866;stop-opacity:1"
         offset="1" />
    </linearGradient>
    <linearGradient
       x1="40.808029"
       y1="38.088909"
       x2="40.808029"
       y2="26.149443"
       id="linearGradient3557-2-6"
       xlink:href="#linearGradient3480-0-1"
       gradientUnits="userSpaceOnUse"
       gradientTransform="matrix(0,-1.095875,1.1068307,0,-71.165689,71.806498)" />
    <linearGradient
       id="linearGradient3480-0-1">
      <stop
         id="stop3482-8-3"
         style="stop-color:#548820;stop-opacity:1"
         offset="0" />
      <stop
         id="stop3484-4-5"
         style="stop-color:#548820;stop-opacity:0"
         offset="1" />
    </linearGradient>
    <linearGradient
       x1="10.432508"
       y1="26.022909"
       x2="-7.3289967"
       y2="26.022909"
       id="linearGradient3559-0-5"
       xlink:href="#linearGradient4222-0-6"
       gradientUnits="userSpaceOnUse"
       gradientTransform="matrix(0.6272101,0,0,0.5877029,-35.729537,11.387754)" />
    <linearGradient
       id="linearGradient4222-0-6">
      <stop
         id="stop4224-2-0"
         style="stop-color:#ffffff;stop-opacity:1"
         offset="0" />
      <stop
         id="stop4226-8-6"
         style="stop-color:#ffffff;stop-opacity:0"
         offset="1" />
    </linearGradient>
    <linearGradient
       inkscape:collect="always"
       xlink:href="#linearGradient4011-9-90"
       id="linearGradient11346"
       gradientUnits="userSpaceOnUse"
       gradientTransform="matrix(0.0810811,0,0,0.08108111,20.058769,20.229856)"
       x1="71.204407"
       y1="6.2375584"
       x2="71.204407"
       y2="44.340794" />
    <linearGradient
       id="linearGradient4011-9-90">
      <stop
         id="stop4013-5-3"
         style="stop-color:#ffffff;stop-opacity:1;"
         offset="0" />
      <stop
         offset="0.507761"
         style="stop-color:#ffffff;stop-opacity:0.23529412;"
         id="stop4015-1-8" />
      <stop
         id="stop4017-7-37"
         style="stop-color:#ffffff;stop-opacity:0.15686275;"
         offset="0.83456558" />
      <stop
         id="stop4019-1-6"
         style="stop-color:#ffffff;stop-opacity:0.39215687;"
         offset="1" />
    </linearGradient>
    <linearGradient
       inkscape:collect="always"
       xlink:href="#linearGradient4215-7"
       id="linearGradient11342"
       gradientUnits="userSpaceOnUse"
       gradientTransform="matrix(0.09803922,0,0,0.09803922,22.737745,18.952536)"
       x1="38.976662"
       y1="59.967686"
       x2="38.976662"
       y2="8.0928917" />
    <linearGradient
       id="linearGradient4215-7">
      <stop
         style="stop-color:#dcdcdc;stop-opacity:1;"
         offset="0"
         id="stop4217-3" />
      <stop
         style="stop-color:#f0f0f0;stop-opacity:1;"
         offset="1"
         id="stop4219-2" />
    </linearGradient>
    <linearGradient
       inkscape:collect="always"
       xlink:href="#linearGradient4223-4"
       id="linearGradient11344"
       gradientUnits="userSpaceOnUse"
       gradientTransform="matrix(0.09803922,0,0,0.09803922,22.737745,18.952536)"
       x1="21.346498"
       y1="59.968513"
       x2="21.346498"
       y2="7.8025136" />
    <linearGradient
       id="linearGradient4223-4">
      <stop
         style="stop-color:#464646;stop-opacity:1;"
         offset="0"
         id="stop4225-4" />
      <stop
         style="stop-color:#6f6f6f;stop-opacity:1;"
         offset="1"
         id="stop4227-77" />
    </linearGradient>
    <linearGradient
       inkscape:collect="always"
       xlink:href="#linearGradient3837-4"
       id="linearGradient11340"
       gradientUnits="userSpaceOnUse"
       gradientTransform="matrix(0.13043478,0,0,0.39130435,-0.86643473,-50.885866)"
       x1="165.45238"
       y1="191.05556"
       x2="189.54762"
       y2="191.05556" />
    <linearGradient
       id="linearGradient3837-4">
      <stop
         style="stop-color:#000000;stop-opacity:1;"
         offset="0"
         id="stop3839-9" />
      <stop
         style="stop-color:#000000;stop-opacity:0;"
         offset="1"
         id="stop3841-5" />
    </linearGradient>
    <linearGradient
       inkscape:collect="always"
       xlink:href="#linearGradient4168-1"
       id="linearGradient11336"
       gradientUnits="userSpaceOnUse"
       gradientTransform="matrix(0.21739131,0,0,0.09243698,91.706126,-1.5283529)"
       x1="-536.36218"
       y1="264"
       x2="-512.36218"
       y2="263.99997" />
    <linearGradient
       id="linearGradient4168-1">
      <stop
         id="stop4170-7"
         offset="0"
         style="stop-color:#55c1ec;stop-opacity:1;" />
      <stop
         id="stop4172-4"
         offset="1"
         style="stop-color:#3689e6;stop-opacity:1;" />
    </linearGradient>
    <linearGradient
       inkscape:collect="always"
       xlink:href="#linearGradient4174-5"
       id="linearGradient11338"
       gradientUnits="userSpaceOnUse"
       gradientTransform="matrix(0.21739131,0,0,0.47826088,-60.872623,-67.277173)"
       x1="189.4996"
       y1="185.67543"
       x2="165.4996"
       y2="185.67543" />
    <linearGradient
       id="linearGradient4174-5">
      <stop
         id="stop4176-5"
         offset="0"
         style="stop-color:#1e80a8;stop-opacity:1;" />
      <stop
         id="stop4178-6"
         offset="1"
         style="stop-color:#2e91d4;stop-opacity:1;" />
    </linearGradient>
    <linearGradient
       inkscape:collect="always"
       xlink:href="#linearGradient3801-1"
       id="linearGradient11334"
       gradientUnits="userSpaceOnUse"
       gradientTransform="matrix(0.30434783,0,0,0.56521741,-65.021655,-74.543475)"
       x1="165.5"
       y1="188.5"
       x2="177.49998"
       y2="188.5" />
    <linearGradient
       id="linearGradient3801-1">
      <stop
         id="stop3803-8"
         offset="0"
         style="stop-color:#ffffff;stop-opacity:1;" />
      <stop
         id="stop3805-39"
         offset="1"
         style="stop-color:#ffffff;stop-opacity:0;" />
    </linearGradient>
    <linearGradient
       y2="188.5"
       x2="177.49998"
       y1="188.5"
       x1="165.5"
       gradientTransform="matrix(0.30434783,0,0,0.56521741,-76.307369,-83.668475)"
       gradientUnits="userSpaceOnUse"
       id="linearGradient3230"
       xlink:href="#linearGradient3801-1"
       inkscape:collect="always" />
    <radialGradient
       inkscape:collect="always"
       xlink:href="#linearGradient4751-5-4-1-2-9-1-2-3-365-589-154-4-7-64-3-8-6-5-3-8"
       id="radialGradient3943"
       gradientUnits="userSpaceOnUse"
       gradientTransform="matrix(0,7.9565035,-9.7680435,0,130.43348,-78.297185)"
       cx="7.3118296"
       cy="10.097507"
       fx="7.3118296"
       fy="10.097507"
       r="12.671875" />
    <linearGradient
       id="linearGradient4751-5-4-1-2-9-1-2-3-365-589-154-4-7-64-3-8-6-5-3-8">
      <stop
         id="stop9737-3-0-8-1-8-3-3-0-4"
         style="stop-color:#ffffff;stop-opacity:1"
         offset="0" />
      <stop
         id="stop9739-4-8-0-7-48-9-7-7-4"
         style="stop-color:#ebebeb;stop-opacity:1"
         offset="1" />
    </linearGradient>
    <linearGradient
       inkscape:collect="always"
       xlink:href="#linearGradient27416-1-2-2"
       id="linearGradient3951-3"
       gradientUnits="userSpaceOnUse"
       gradientTransform="matrix(0.56277032,0,0,0.63311667,5.9913518,3.0259797)"
       x1="30.271185"
       y1="10.028973"
       x2="30.271185"
       y2="55.052982" />
    <linearGradient
       id="linearGradient27416-1-2-2">
      <stop
         offset="0"
         style="stop-color:#55c1ec;stop-opacity:1"
         id="stop27420-2-0-2" />
      <stop
         offset="1"
         style="stop-color:#3689e6;stop-opacity:1"
         id="stop27422-3-5-1" />
    </linearGradient>
    <radialGradient
       cx="4.9929786"
       cy="43.5"
       r="2.5"
       fx="4.9929786"
       fy="43.5"
       id="radialGradient3013"
       xlink:href="#linearGradient3688-166-749"
       gradientUnits="userSpaceOnUse"
       gradientTransform="matrix(2.003784,0,0,1.4,27.98813,-17.4)" />
    <linearGradient
       id="linearGradient3688-166-749">
      <stop
         id="stop2883"
         style="stop-color:#181818;stop-opacity:1"
         offset="0" />
      <stop
         id="stop2885"
         style="stop-color:#181818;stop-opacity:0"
         offset="1" />
    </linearGradient>
    <radialGradient
       cx="4.9929786"
       cy="43.5"
       r="2.5"
       fx="4.9929786"
       fy="43.5"
       id="radialGradient3015"
       xlink:href="#linearGradient3688-464-309"
       gradientUnits="userSpaceOnUse"
       gradientTransform="matrix(2.003784,0,0,1.4,-20.01187,-104.4)" />
    <linearGradient
       id="linearGradient3688-464-309">
      <stop
         id="stop2889"
         style="stop-color:#181818;stop-opacity:1"
         offset="0" />
      <stop
         id="stop2891"
         style="stop-color:#181818;stop-opacity:0"
         offset="1" />
    </linearGradient>
    <linearGradient
       x1="25.058096"
       y1="47.027729"
       x2="25.058096"
       y2="39.999443"
       id="linearGradient3656"
       xlink:href="#linearGradient3702-501-757"
       gradientUnits="userSpaceOnUse" />
    <linearGradient
       id="linearGradient3702-501-757">
      <stop
         id="stop2895"
         style="stop-color:#181818;stop-opacity:0"
         offset="0" />
      <stop
         id="stop2897"
         style="stop-color:#181818;stop-opacity:1"
         offset="0.5" />
      <stop
         id="stop2899"
         style="stop-color:#181818;stop-opacity:0"
         offset="1" />
    </linearGradient>
    <radialGradient
       cx="7.4956832"
       cy="8.4497671"
       r="19.99999"
       fx="7.4956832"
       fy="8.4497671"
       id="radialGradient3056"
       xlink:href="#linearGradient2867-449-88-871-390-598-476-591-434-148-57-177-9"
       gradientUnits="userSpaceOnUse"
       gradientTransform="matrix(1.9428467e-8,2.33699,-2.4722567,-4.3056275e-8,-1.3241815,-8.7383707)" />
    <linearGradient
       id="linearGradient2867-449-88-871-390-598-476-591-434-148-57-177-9">
      <stop
         id="stop3750-6"
         style="stop-color:#90dbec;stop-opacity:1"
         offset="0" />
      <stop
         id="stop3752-3"
         style="stop-color:#55c1ec;stop-opacity:1"
         offset="0.26238" />
      <stop
         id="stop3754-6"
         style="stop-color:#3689e6;stop-opacity:1"
         offset="0.704952" />
      <stop
         id="stop3756-9"
         style="stop-color:#2b63a0;stop-opacity:1"
         offset="1" />
    </linearGradient>
    <linearGradient
       x1="23.99999"
       y1="4.999989"
       x2="23.99999"
       y2="43"
       id="linearGradient3053"
       xlink:href="#linearGradient3924"
       gradientUnits="userSpaceOnUse"
       gradientTransform="translate(-46.214282,3.6964383)" />
    <linearGradient
       id="linearGradient3924">
      <stop
         id="stop3926"
         style="stop-color:#ffffff;stop-opacity:1"
         offset="0" />
      <stop
         id="stop3928"
         style="stop-color:#ffffff;stop-opacity:0.23529412"
         offset="0.06316455" />
      <stop
         id="stop3930"
         style="stop-color:#ffffff;stop-opacity:0.15686275"
         offset="0.95056331" />
      <stop
         id="stop3932"
         style="stop-color:#ffffff;stop-opacity:0.39215687"
         offset="1" />
    </linearGradient>
    <linearGradient
       y2="39.999443"
       x2="25.058096"
       y1="47.027729"
       x1="25.058096"
       gradientUnits="userSpaceOnUse"
       id="linearGradient3101"
       xlink:href="#linearGradient3702-501-757"
       inkscape:collect="always" />
    <linearGradient
       id="linearGradient4634-9">
      <stop
         id="stop4636-6"
         style="stop-color:#000000;stop-opacity:1"
         offset="0" />
      <stop
         id="stop4642-9"
         style="stop-color:#a5a5a5;stop-opacity:1"
         offset="0.30000001" />
      <stop
         id="stop4644-2"
         style="stop-color:#4c4c4c;stop-opacity:1"
         offset="0.60000002" />
      <stop
         id="stop4638-4"
         style="stop-color:#000000;stop-opacity:1"
         offset="1" />
    </linearGradient>
    <linearGradient
       id="linearGradient4654-9">
      <stop
         id="stop4656-1"
         style="stop-color:#a5a5a5;stop-opacity:1"
         offset="0" />
      <stop
         id="stop4658-0"
         style="stop-color:#ffffff;stop-opacity:1"
         offset="0.30000001" />
      <stop
         id="stop4660-4"
         style="stop-color:#a5a5a5;stop-opacity:1"
         offset="0.60000002" />
      <stop
         id="stop4662-5"
         style="stop-color:#636363;stop-opacity:1"
         offset="1" />
    </linearGradient>
    <linearGradient
       id="linearGradient3321">
      <stop
         id="stop3323"
         style="stop-color:#a5a5a5;stop-opacity:1"
         offset="0" />
      <stop
         id="stop3325"
         style="stop-color:#ffffff;stop-opacity:1"
         offset="0.30000001" />
      <stop
         id="stop3327"
         style="stop-color:#a5a5a5;stop-opacity:1"
         offset="0.60000002" />
      <stop
         id="stop3329"
         style="stop-color:#636363;stop-opacity:1"
         offset="1" />
    </linearGradient>
    <linearGradient
       id="linearGradient4672-3">
      <stop
         id="stop4674-6"
         style="stop-color:#000000;stop-opacity:1"
         offset="0" />
      <stop
         id="stop4676-8"
         style="stop-color:#000000;stop-opacity:0"
         offset="1" />
    </linearGradient>
    <radialGradient
       inkscape:collect="always"
       xlink:href="#linearGradient4215-5"
       id="radialGradient3117-5"
       gradientUnits="userSpaceOnUse"
       cx="32"
       cy="32"
       fx="32"
       fy="32"
       r="8"
       gradientTransform="translate(22.045451,11.482953)" />
    <linearGradient
       id="linearGradient4215-5">
      <stop
         id="stop4217-8"
         style="stop-color:#ffb800;stop-opacity:1"
         offset="0" />
      <stop
         id="stop4219-2-6"
         style="stop-color:#ffb800;stop-opacity:0"
         offset="1" />
    </linearGradient>
    <radialGradient
       inkscape:collect="always"
       xlink:href="#linearGradient4223-7"
       id="radialGradient3119-26"
       gradientUnits="userSpaceOnUse"
       cx="29.094891"
       cy="31.601685"
       fx="29.094891"
       fy="31.601685"
       r="7.2449093"
       gradientTransform="matrix(0.8660254,0.5,-0.5,0.8660254,44.702908,1.6211747)" />
    <linearGradient
       id="linearGradient4223-7">
      <stop
         id="stop4225-1"
         style="stop-color:#ffe375;stop-opacity:1"
         offset="0" />
      <stop
         id="stop4227-8"
         style="stop-color:#ffa600;stop-opacity:1"
         offset="1" />
    </linearGradient>
    <radialGradient
       inkscape:collect="always"
       xlink:href="#linearGradient4215-5"
       id="radialGradient3113-3"
       gradientUnits="userSpaceOnUse"
       cx="32"
       cy="32"
       fx="32"
       fy="32"
       r="8" />
    <linearGradient
       id="linearGradient3344">
      <stop
         id="stop3346"
         style="stop-color:#ffb800;stop-opacity:1"
         offset="0" />
      <stop
         id="stop3348"
         style="stop-color:#ffb800;stop-opacity:0"
         offset="1" />
    </linearGradient>
    <radialGradient
       inkscape:collect="always"
       xlink:href="#linearGradient4223-7"
       id="radialGradient3115-8"
       gradientUnits="userSpaceOnUse"
       cx="29.094891"
       cy="31.601685"
       fx="29.094891"
       fy="31.601685"
       r="7.2449093" />
    <linearGradient
       id="linearGradient3351">
      <stop
         id="stop3353"
         style="stop-color:#ffe375;stop-opacity:1"
         offset="0" />
      <stop
         id="stop3355"
         style="stop-color:#ffa600;stop-opacity:1"
         offset="1" />
    </linearGradient>
    <radialGradient
       inkscape:collect="always"
       xlink:href="#linearGradient4215-5"
       id="radialGradient3109-9"
       gradientUnits="userSpaceOnUse"
       cx="32"
       cy="32"
       fx="32"
       fy="32"
       r="8" />
    <linearGradient
       id="linearGradient3358">
      <stop
         id="stop3360"
         style="stop-color:#ffb800;stop-opacity:1"
         offset="0" />
      <stop
         id="stop3362"
         style="stop-color:#ffb800;stop-opacity:0"
         offset="1" />
    </linearGradient>
    <radialGradient
       inkscape:collect="always"
       xlink:href="#linearGradient4223-7"
       id="radialGradient3111-1"
       gradientUnits="userSpaceOnUse"
       cx="29.094891"
       cy="31.601685"
       fx="29.094891"
       fy="31.601685"
       r="7.2449093" />
    <linearGradient
       id="linearGradient3365">
      <stop
         id="stop3367"
         style="stop-color:#ffe375;stop-opacity:1"
         offset="0" />
      <stop
         id="stop3369"
         style="stop-color:#ffa600;stop-opacity:1"
         offset="1" />
    </linearGradient>
    <radialGradient
       inkscape:collect="always"
       xlink:href="#linearGradient4215-5"
       id="radialGradient3105-7"
       gradientUnits="userSpaceOnUse"
       cx="32"
       cy="32"
       fx="32"
       fy="32"
       r="8" />
    <linearGradient
       id="linearGradient3372">
      <stop
         id="stop3374"
         style="stop-color:#ffb800;stop-opacity:1"
         offset="0" />
      <stop
         id="stop3376"
         style="stop-color:#ffb800;stop-opacity:0"
         offset="1" />
    </linearGradient>
    <radialGradient
       inkscape:collect="always"
       xlink:href="#linearGradient4223-7"
       id="radialGradient3107-4"
       gradientUnits="userSpaceOnUse"
       cx="29.094891"
       cy="31.601685"
       fx="29.094891"
       fy="31.601685"
       r="7.2449093" />
    <linearGradient
       id="linearGradient3379">
      <stop
         id="stop3381"
         style="stop-color:#ffe375;stop-opacity:1"
         offset="0" />
      <stop
         id="stop3383"
         style="stop-color:#ffa600;stop-opacity:1"
         offset="1" />
    </linearGradient>
    <radialGradient
       r="7.2449093"
       fy="31.601685"
       fx="29.094891"
       cy="31.601685"
       cx="29.094891"
       gradientUnits="userSpaceOnUse"
       id="radialGradient3412"
       xlink:href="#linearGradient4223-7"
       inkscape:collect="always" />
  </defs>
  <g
     id="g3257"
     style="opacity:0.4">
    <rect
       width="40.799999"
       height="2.9999998"
       x="3.5999999"
       y="43"
       id="rect2879"
       style="fill:url(#linearGradient19619);fill-opacity:1;fill-rule:nonzero;stroke:none;stroke-width:1;marker:none;visibility:visible;display:inline;overflow:visible" />
    <path
       d="m 3.6,43.00013 c 0,0 0,2.999835 0,2.999835 C 2.1108662,46.005612 0,45.327854 0,44.499854 0,43.671856 1.6617608,43.000131 3.6,43.00013 z"
       inkscape:connector-curvature="0"
       id="path2881"
       style="fill:url(#radialGradient19616);fill-opacity:1;fill-rule:nonzero;stroke:none;stroke-width:1;marker:none;visibility:visible;display:inline;overflow:visible" />
    <path
       d="m 44.4,43.00013 c 0,0 0,2.999835 0,2.999835 1.489133,0.0056 3.6,-0.672111 3.6,-1.500111 0,-0.827998 -1.661761,-1.499723 -3.6,-1.499724 z"
       inkscape:connector-curvature="0"
       id="path2883"
       style="fill:url(#radialGradient19613);fill-opacity:1;fill-rule:nonzero;stroke:none;stroke-width:1;marker:none;visibility:visible;display:inline;overflow:visible" />
  </g>
  <rect
     width="45"
     height="36"
     rx="1.5"
     ry="1.5"
     x="1.4999995"
     y="8.4999981"
     id="rect5505-21-3-8-5-2"
     style="opacity:0.90000000000000002;color:#000000;fill:url(#radialGradient3348);fill-opacity:1;fill-rule:nonzero;stroke:none;stroke-width:0.99999994000000003;marker:none;visibility:visible;display:inline;overflow:visible;enable-background:accumulate" />
  <rect
     width="45"
     height="36"
     rx="1.5"
     ry="1.5"
     x="1.4999995"
     y="8.5"
     id="rect5505-21-3-8-9-1-1"
     style="opacity:0.4;color:#000000;fill:none;stroke:#000000;stroke-width:1;stroke-linecap:round;stroke-linejoin:round;stroke-miterlimit:4;stroke-opacity:1;stroke-dasharray:none;stroke-dashoffset:0;marker:none;visibility:visible;display:inline;overflow:visible;enable-background:accumulate" />
  <path
     style="opacity:0.7;fill:#ffffff;fill-opacity:0.58823529;stroke:#ffffff;stroke-width:1;stroke-linecap:round;stroke-linejoin:round;stroke-miterlimit:4;stroke-opacity:1;stroke-dasharray:none"
     d="m 5,41.5 38.194886,0 -2.182565,-4.6432 -33.8297558,0 z"
     id="path4306"
     inkscape:connector-curvature="0"
     sodipodi:nodetypes="ccccc" />
  <path
     d="m 39.470545,39.29549 -4.381029,0 c -0.302286,0 -0.545642,0.065 -0.545642,0.14567 l 0,1.16961 c 0,0.0807 0.243356,0.14567 0.545642,0.14567 l 4.381029,0 c 0.302282,0 0.545643,-0.065 0.545643,-0.14567 l 0,-1.16961 c 0,-0.0807 -0.243361,-0.14567 -0.545643,-0.14567 z m -17.460516,0 -4.381032,0 c -0.302286,0 -0.545642,0.065 -0.545642,0.14567 l 0,1.16961 c 0,0.0807 0.243356,0.14567 0.545642,0.14567 l 4.381032,0 c 0.302286,0 0.545641,-0.065 0.545641,-0.14567 l 0,-1.16961 c 0,-0.0807 -0.243355,-0.14567 -0.545641,-0.14567 z m -8.730259,0 -4.3810341,0 c -0.3022844,0 -0.5456411,0.065 -0.5456411,0.14567 l 0,1.16961 c 0,0.0807 0.2433567,0.14567 0.5456411,0.14567 l 4.3810341,0 c 0.302285,0 0.545641,-0.065 0.545641,-0.14567 l 0,-1.16961 c 0,-0.0807 -0.243356,-0.14567 -0.545641,-0.14567 z m 17.460519,0 -4.381034,0 c -0.302284,0 -0.54564,0.065 -0.54564,0.14567 l 0,1.16961 c 0,0.0807 0.243356,0.14567 0.54564,0.14567 l 4.381034,0 c 0.302285,0 0.545641,-0.065 0.545641,-0.14567 l 0,-1.16961 c 0,-0.0807 -0.243356,-0.14567 -0.545641,-0.14567 z"
     style="opacity:0.26521738;color:#000000;fill:url(#linearGradient3832);fill-opacity:1;fill-rule:nonzero;stroke:none;stroke-width:1.09209728;marker:none;visibility:visible;display:inline;overflow:visible;enable-background:accumulate"
     id="path3816"
     inkscape:connector-curvature="0" />
  <path
     inkscape:connector-curvature="0"
     id="rect3038-44-1"
     style="color:#000000;fill:#f7f7f7;fill-opacity:1;fill-rule:nonzero;stroke:#185f9a;stroke-width:1;stroke-linecap:butt;stroke-linejoin:miter;stroke-miterlimit:4;stroke-opacity:0.5676923;stroke-dasharray:none;stroke-dashoffset:0;marker:none;visibility:visible;display:inline;overflow:visible;enable-background:accumulate"
     d="m 39.383348,33.36595 -4.381031,0 c -0.302285,0 -0.545641,0.25886 -0.545641,0.58039 l 0,4.66012 c 0,0.32154 0.243356,0.58039 0.545641,0.58039 l 4.381031,0 c 0.302282,0 0.545643,-0.25885 0.545643,-0.58039 l 0,-4.66012 c 0,-0.32153 -0.243361,-0.58039 -0.545643,-0.58039 z m -17.460518,0 -4.381032,0 c -0.302286,0 -0.545642,0.25886 -0.545642,0.58039 l 0,4.66012 c 0,0.32154 0.243356,0.58039 0.545642,0.58039 l 4.381032,0 c 0.302286,0 0.545642,-0.25885 0.545642,-0.58039 l 0,-4.66012 c 0,-0.32153 -0.243356,-0.58039 -0.545642,-0.58039 z m -8.730259,0 -4.3810336,0 c -0.3022851,0 -0.5456411,0.25886 -0.5456411,0.58039 l 0,4.66012 c 0,0.32154 0.243356,0.58039 0.5456411,0.58039 l 4.3810336,0 c 0.302285,0 0.545641,-0.25885 0.545641,-0.58039 l 0,-4.66012 c 0,-0.32153 -0.243356,-0.58039 -0.545641,-0.58039 z m 17.460519,0 -4.381033,0 c -0.302285,0 -0.545641,0.25886 -0.545641,0.58039 l 0,4.66012 c 0,0.32154 0.243356,0.58039 0.545641,0.58039 l 4.381033,0 c 0.302286,0 0.545642,-0.25885 0.545642,-0.58039 l 0,-4.66012 c 0,-0.32153 -0.243356,-0.58039 -0.545642,-0.58039 z" />
  <rect
     width="43"
     height="34"
     rx="0.75"
     ry="0.75"
     x="2.5"
     y="9.5"
     id="rect6741-5-0-2-3"
     style="opacity:0.3;fill:none;stroke:url(#linearGradient3345);stroke-width:1;stroke-linecap:round;stroke-linejoin:round;stroke-miterlimit:4;stroke-opacity:1;stroke-dasharray:none;stroke-dashoffset:0" />
  <g
     transform="matrix(0.58234091,0,0,0.58234091,7.3047776,12.751772)"
     id="g4201"
     style="fill:#ffcc00;display:inline;enable-background:new">
    <path
       d="m 40,32 a 8,8 0 1 1 -16,0 8,8 0 1 1 16,0 z"
       transform="translate(-1,-1)"
       id="path4203"
       style="color:#000000;fill:url(#radialGradient3105-7);fill-opacity:1;fill-rule:nonzero;stroke:none;stroke-width:1;marker:none;visibility:visible;display:inline;overflow:visible;enable-background:accumulate"
       inkscape:connector-curvature="0" />
    <path
       d="m 23.90625,22.633975 2.383468,8.216066 -6.186993,5.931209 8.186993,-2.467107 5.991532,6.270632 -2.52743,-8.270632 6.330955,-5.907893 -8.330955,2.443791 -5.84757,-6.216066 z"
       inkscape:connector-curvature="0"
       transform="matrix(0.8660254,0.5,-0.5,0.8660254,21.657457,-10.861778)"
       id="path4205"
       style="opacity:0.1;color:#000000;fill:#ffcc00;fill-opacity:1;fill-rule:nonzero;stroke:none;stroke-width:1;marker:none;visibility:visible;display:inline;overflow:visible;enable-background:accumulate" />
    <path
       d="m 33.777741,39.712619 -5.216804,-6.034048 -7.576981,2.605964 6.074408,-5.15034 -2.646323,-7.643445 5.163457,6.064847 7.630327,-2.636762 -6.025795,5.354295 2.597711,7.439489 z"
       inkscape:connector-curvature="0"
       transform="matrix(0.8660254,0.5,-0.5,0.8660254,21.657457,-10.861778)"
       id="path4207"
       style="opacity:0.2;color:#000000;fill:#ffcc00;fill-opacity:1;fill-rule:nonzero;stroke:none;stroke-width:1;marker:none;visibility:visible;display:inline;overflow:visible;enable-background:accumulate" />
    <path
       d="m 33.277741,38.846594 -4.529283,-5.952006 -6.898477,2.889947 5.952006,-4.529283 -2.889946,-6.898477 4.529282,5.952006 6.898477,-2.889946 -5.952006,4.529282 z"
       transform="matrix(0.8660254,0.5,-0.5,0.8660254,21.657457,-10.861778)"
       id="path4209"
       style="color:#000000;fill:url(#radialGradient3412);fill-opacity:1;fill-rule:nonzero;stroke:none;stroke-width:1;marker:none;visibility:visible;display:inline;overflow:visible;enable-background:accumulate"
       inkscape:connector-curvature="0" />
  </g>
  <g
     transform="matrix(0.38570168,0,0,0.38570168,29.126058,9.4552193)"
     id="g4345"
     style="fill:#ffcc00;display:inline;enable-background:new">
    <path
       d="m 40,32 a 8,8 0 1 1 -16,0 8,8 0 1 1 16,0 z"
       transform="translate(-1,-1)"
       id="path4347"
       style="color:#000000;fill:url(#radialGradient3109-9);fill-opacity:1;fill-rule:nonzero;stroke:none;stroke-width:1;marker:none;visibility:visible;display:inline;overflow:visible;enable-background:accumulate"
       inkscape:connector-curvature="0" />
    <path
       d="m 23.90625,22.633975 2.383468,8.216066 -6.186993,5.931209 8.186993,-2.467107 5.991532,6.270632 -2.52743,-8.270632 6.330955,-5.907893 -8.330955,2.443791 -5.84757,-6.216066 z"
       inkscape:connector-curvature="0"
       transform="matrix(0.8660254,0.5,-0.5,0.8660254,21.657457,-10.861778)"
       id="path4349"
       style="opacity:0.1;color:#000000;fill:#ffcc00;fill-opacity:1;fill-rule:nonzero;stroke:none;stroke-width:1;marker:none;visibility:visible;display:inline;overflow:visible;enable-background:accumulate" />
    <path
       d="m 33.777741,39.712619 -5.216804,-6.034048 -7.576981,2.605964 6.074408,-5.15034 -2.646323,-7.643445 5.163457,6.064847 7.630327,-2.636762 -6.025795,5.354295 2.597711,7.439489 z"
       inkscape:connector-curvature="0"
       transform="matrix(0.8660254,0.5,-0.5,0.8660254,21.657457,-10.861778)"
       id="path4351"
       style="opacity:0.2;color:#000000;fill:#ffcc00;fill-opacity:1;fill-rule:nonzero;stroke:none;stroke-width:1;marker:none;visibility:visible;display:inline;overflow:visible;enable-background:accumulate" />
    <path
       d="m 33.277741,38.846594 -4.529283,-5.952006 -6.898477,2.889947 5.952006,-4.529283 -2.889946,-6.898477 4.529282,5.952006 6.898477,-2.889946 -5.952006,4.529282 z"
       transform="matrix(0.8660254,0.5,-0.5,0.8660254,21.657457,-10.861778)"
       id="path4353"
       style="color:#000000;fill:url(#radialGradient3111-1);fill-opacity:1;fill-rule:nonzero;stroke:none;stroke-width:1;marker:none;visibility:visible;display:inline;overflow:visible;enable-background:accumulate"
       inkscape:connector-curvature="0" />
  </g>
  <g
     transform="matrix(0.94824755,0,0,0.94824755,-12.606253,-8.0652957)"
     id="g4387"
     style="fill:#ffcc00;display:inline;enable-background:new">
    <path
       d="m 40,32 a 8,8 0 1 1 -16,0 8,8 0 1 1 16,0 z"
       transform="translate(-1,-1)"
       id="path4389"
       style="color:#000000;fill:url(#radialGradient3113-3);fill-opacity:1;fill-rule:nonzero;stroke:none;stroke-width:1;marker:none;visibility:visible;display:inline;overflow:visible;enable-background:accumulate"
       inkscape:connector-curvature="0" />
    <path
       d="m 23.90625,22.633975 2.383468,8.216066 -6.186993,5.931209 8.186993,-2.467107 5.991532,6.270632 -2.52743,-8.270632 6.330955,-5.907893 -8.330955,2.443791 -5.84757,-6.216066 z"
       inkscape:connector-curvature="0"
       transform="matrix(0.8660254,0.5,-0.5,0.8660254,21.657457,-10.861778)"
       id="path4391"
       style="opacity:0.1;color:#000000;fill:#ffcc00;fill-opacity:1;fill-rule:nonzero;stroke:none;stroke-width:1;marker:none;visibility:visible;display:inline;overflow:visible;enable-background:accumulate" />
    <path
       d="m 33.777741,39.712619 -5.216804,-6.034048 -7.576981,2.605964 6.074408,-5.15034 -2.646323,-7.643445 5.163457,6.064847 7.630327,-2.636762 -6.025795,5.354295 2.597711,7.439489 z"
       inkscape:connector-curvature="0"
       transform="matrix(0.8660254,0.5,-0.5,0.8660254,21.657457,-10.861778)"
       id="path4393"
       style="opacity:0.2;color:#000000;fill:#ffcc00;fill-opacity:1;fill-rule:nonzero;stroke:none;stroke-width:1;marker:none;visibility:visible;display:inline;overflow:visible;enable-background:accumulate" />
    <path
       d="m 33.277741,38.846594 -4.529283,-5.952006 -6.898477,2.889947 5.952006,-4.529283 -2.889946,-6.898477 4.529282,5.952006 6.898477,-2.889946 -5.952006,4.529282 z"
       transform="matrix(0.8660254,0.5,-0.5,0.8660254,21.657457,-10.861778)"
       id="path4395"
       style="color:#000000;fill:url(#radialGradient3115-8);fill-opacity:1;fill-rule:nonzero;stroke:none;stroke-width:1;marker:none;visibility:visible;display:inline;overflow:visible;enable-background:accumulate"
       inkscape:connector-curvature="0" />
  </g>
  <g
     transform="matrix(0.45245623,0,0,0.45245623,5.4932729,-5.7460087)"
     id="g4471"
     style="fill:#ffcc00;display:inline;enable-background:new">
    <path
       d="m 62.045451,43.482953 a 8,8 0 0 1 -16,0 8,8 0 1 1 16,0 z"
       id="path4473"
       style="color:#000000;display:inline;overflow:visible;visibility:visible;fill:url(#radialGradient3117-5);fill-opacity:1;fill-rule:nonzero;stroke:none;stroke-width:1;marker:none;enable-background:accumulate"
       inkscape:connector-curvature="0" />
    <path
       d="m 54.08934,33.175897 -2.043889,8.307056 -8.323697,2.043081 8.323697,1.956919 2.053503,8.426293 1.946497,-8.426293 8.436715,-1.950908 -8.436714,-2.049092 -1.956112,-8.307056 z"
       inkscape:connector-curvature="0"
       id="path4475"
       style="color:#000000;display:inline;overflow:visible;visibility:visible;opacity:0.1;fill:#ffcc00;fill-opacity:1;fill-rule:nonzero;stroke:none;stroke-width:1;marker:none;enable-background:accumulate" />
    <path
       d="m 54.09898,52.902182 -1.50086,-7.834041 -7.86484,-1.531659 7.835761,-1.423122 1.52994,-7.942579 1.439261,7.83404 7.926438,1.531661 -7.895639,1.624058 -1.470061,7.741642 z"
       inkscape:connector-curvature="0"
       id="path4477"
       style="color:#000000;display:inline;overflow:visible;visibility:visible;opacity:0.2;fill:#ffcc00;fill-opacity:1;fill-rule:nonzero;stroke:none;stroke-width:1;marker:none;enable-background:accumulate" />
    <path
       d="m 54.09898,51.902182 -0.946471,-7.41923 -7.41923,-0.946471 7.41923,-0.946471 0.946472,-7.419229 0.94647,7.419229 7.41923,0.946472 -7.41923,0.946471 z"
       id="path4479"
       style="color:#000000;display:inline;overflow:visible;visibility:visible;fill:url(#radialGradient3119-26);fill-opacity:1;fill-rule:nonzero;stroke:none;stroke-width:1;marker:none;enable-background:accumulate"
       inkscape:connector-curvature="0" />
  </g>
</svg>
