<?xml version="1.0" encoding="UTF-8" standalone="no"?>
<svg
   xmlns:dc="http://purl.org/dc/elements/1.1/"
   xmlns:cc="http://creativecommons.org/ns#"
   xmlns:rdf="http://www.w3.org/1999/02/22-rdf-syntax-ns#"
   xmlns:svg="http://www.w3.org/2000/svg"
   xmlns="http://www.w3.org/2000/svg"
   xmlns:xlink="http://www.w3.org/1999/xlink"
   xmlns:sodipodi="http://sodipodi.sourceforge.net/DTD/sodipodi-0.dtd"
   xmlns:inkscape="http://www.inkscape.org/namespaces/inkscape"
   version="1.1"
   width="48"
   height="48"
   id="svg4296"
   inkscape:version="0.91 r"
   sodipodi:docname="gksu-root-terminal.svg">
  <sodipodi:namedview
     pagecolor="#ffffff"
     bordercolor="#666666"
     borderopacity="1"
     objecttolerance="10"
     gridtolerance="10"
     guidetolerance="10"
     inkscape:pageopacity="0"
     inkscape:pageshadow="2"
     inkscape:window-width="1009"
     inkscape:window-height="480"
     id="namedview4864"
     showgrid="false"
     inkscape:zoom="4.9166667"
     inkscape:cx="45.711864"
     inkscape:cy="24"
     inkscape:window-x="75"
     inkscape:window-y="34"
     inkscape:window-maximized="0"
     inkscape:current-layer="svg4296" />
  <defs
     id="defs4298">
    <linearGradient
       id="linearGradient3895">
      <stop
         id="stop3897"
         style="stop-color:#ffffff;stop-opacity:1"
         offset="0" />
      <stop
         id="stop3899"
         style="stop-color:#ffffff;stop-opacity:0.23529412"
         offset="0.05263157" />
      <stop
         id="stop3901"
         style="stop-color:#ffffff;stop-opacity:0.15686275"
         offset="0.95056331" />
      <stop
         id="stop3903"
         style="stop-color:#ffffff;stop-opacity:0.39215687"
         offset="1" />
    </linearGradient>
    <linearGradient
       x1="20"
       y1="26.000008"
       x2="20"
       y2="13.000008"
       id="linearGradient4183"
       xlink:href="#linearGradient3680-6-6-6-3"
       gradientUnits="userSpaceOnUse"
       gradientTransform="translate(0,0.9999922)" />
    <linearGradient
       id="linearGradient3680-6-6-6-3">
      <stop
         id="stop3682-4-6-1-3"
         style="stop-color:#dcdcdc;stop-opacity:1"
         offset="0" />
      <stop
         id="stop3684-8-5-8-0"
         style="stop-color:#ffffff;stop-opacity:1"
         offset="1" />
    </linearGradient>
    <linearGradient
       x1="23.99999"
       y1="4.999989"
       x2="23.99999"
       y2="43"
       id="linearGradient3982"
       xlink:href="#linearGradient3924-1"
       gradientUnits="userSpaceOnUse"
       gradientTransform="translate(4e-6,1.0000062)" />
    <linearGradient
       id="linearGradient3924-1">
      <stop
         id="stop3926-3"
         style="stop-color:#ffffff;stop-opacity:1"
         offset="0" />
      <stop
         id="stop3928-91"
         style="stop-color:#ffffff;stop-opacity:0.23529412"
         offset="0.06316455" />
      <stop
         id="stop3930-6"
         style="stop-color:#ffffff;stop-opacity:0.15686275"
         offset="0.95056331" />
      <stop
         id="stop3932-6"
         style="stop-color:#ffffff;stop-opacity:0.39215687"
         offset="1" />
    </linearGradient>
    <radialGradient
       cx="4.9929786"
       cy="43.5"
       r="2.5"
       fx="4.9929786"
       fy="43.5"
       id="radialGradient3963"
       xlink:href="#linearGradient3688-166-749"
       gradientUnits="userSpaceOnUse"
       gradientTransform="matrix(2.003784,0,0,1.4,27.98813,-17.4)" />
    <linearGradient
       id="linearGradient3688-166-749">
      <stop
         id="stop2883"
         style="stop-color:#181818;stop-opacity:1"
         offset="0" />
      <stop
         id="stop2885"
         style="stop-color:#181818;stop-opacity:0"
         offset="1" />
    </linearGradient>
    <radialGradient
       cx="4.9929786"
       cy="43.5"
       r="2.5"
       fx="4.9929786"
       fy="43.5"
       id="radialGradient3965"
       xlink:href="#linearGradient3688-464-309"
       gradientUnits="userSpaceOnUse"
       gradientTransform="matrix(2.003784,0,0,1.4,-20.01187,-104.4)" />
    <linearGradient
       id="linearGradient3688-464-309">
      <stop
         id="stop2889"
         style="stop-color:#181818;stop-opacity:1"
         offset="0" />
      <stop
         id="stop2891"
         style="stop-color:#181818;stop-opacity:0"
         offset="1" />
    </linearGradient>
    <linearGradient
       x1="25.058096"
       y1="47.027729"
       x2="25.058096"
       y2="39.999443"
       id="linearGradient3967"
       xlink:href="#linearGradient3702-501-757"
       gradientUnits="userSpaceOnUse" />
    <linearGradient
       id="linearGradient3702-501-757">
      <stop
         id="stop2895"
         style="stop-color:#181818;stop-opacity:0"
         offset="0" />
      <stop
         id="stop2897"
         style="stop-color:#181818;stop-opacity:1"
         offset="0.5" />
      <stop
         id="stop2899"
         style="stop-color:#181818;stop-opacity:0"
         offset="1" />
    </linearGradient>
    <linearGradient
       x1="20"
       y1="26.000008"
       x2="20"
       y2="13.000008"
       id="linearGradient3018"
       xlink:href="#linearGradient3680-6-6-6-3"
       gradientUnits="userSpaceOnUse"
       gradientTransform="translate(0,0.9999922)" />
    <linearGradient
       x1="23.99999"
       y1="4.9999938"
       x2="23.99999"
       y2="43"
       id="linearGradient3024"
       xlink:href="#linearGradient3895"
       gradientUnits="userSpaceOnUse"
       gradientTransform="translate(4e-6,1.0000062)" />
    <radialGradient
       cx="4.9929786"
       cy="43.5"
       r="2.5"
       fx="4.9929786"
       fy="43.5"
       id="radialGradient3038"
       xlink:href="#linearGradient3688-166-749"
       gradientUnits="userSpaceOnUse"
       gradientTransform="matrix(2.003784,0,0,1.4,27.98813,-17.4)" />
    <radialGradient
       cx="4.9929786"
       cy="43.5"
       r="2.5"
       fx="4.9929786"
       fy="43.5"
       id="radialGradient3040"
       xlink:href="#linearGradient3688-464-309"
       gradientUnits="userSpaceOnUse"
       gradientTransform="matrix(2.003784,0,0,1.4,-20.01187,-104.4)" />
    <linearGradient
       x1="25.058096"
       y1="47.027729"
       x2="25.058096"
       y2="39.999443"
       id="linearGradient3042"
       xlink:href="#linearGradient3702-501-757"
       gradientUnits="userSpaceOnUse" />
    <radialGradient
       cx="6.7304144"
       cy="9.9571075"
       r="12.671875"
       fx="6.2001843"
       fy="9.9571075"
       id="radialGradient3031"
       xlink:href="#linearGradient2867-449-88-871-390-598-476-591-434-148-57-177-8-3-3-6-4-8-8-8"
       gradientUnits="userSpaceOnUse"
       gradientTransform="matrix(0,9.4975523,-11.65996,0,140.93055,-79.160978)" />
    <linearGradient
       id="linearGradient2867-449-88-871-390-598-476-591-434-148-57-177-8-3-3-6-4-8-8-8">
      <stop
         id="stop3750-1-0-7-6-6-1-3-9"
         style="stop-color:#ffcd7d;stop-opacity:1"
         offset="0" />
      <stop
         id="stop3752-3-7-4-0-32-8-923-0"
         style="stop-color:#fc8f36;stop-opacity:1"
         offset="0.26238" />
      <stop
         id="stop3754-1-8-5-2-7-6-7-1"
         style="stop-color:#e23a0e;stop-opacity:1"
         offset="0.704952" />
      <stop
         id="stop3756-1-6-2-6-6-1-96-6"
         style="stop-color:#ac441f;stop-opacity:1"
         offset="1" />
    </linearGradient>
    <radialGradient
       cx="7.1183534"
       cy="9.9571075"
       r="12.671875"
       fx="7.1183534"
       fy="9.9571075"
       id="radialGradient3054-6"
       xlink:href="#linearGradient2867-449-88-871-390-598-476-591-434-148-57-177-8-3-3-6-4-8-8-8-5-6"
       gradientUnits="userSpaceOnUse"
       gradientTransform="matrix(0,9.1402449,-11.221301,0,136.56278,-77.887535)" />
    <linearGradient
       id="linearGradient2867-449-88-871-390-598-476-591-434-148-57-177-8-3-3-6-4-8-8-8-5">
      <stop
         id="stop3750-1-0-7-6-6-1-3-9-3"
         style="stop-color:#505050;stop-opacity:1"
         offset="0" />
      <stop
         id="stop3752-3-7-4-0-32-8-923-0-7"
         style="stop-color:#2b2b2b;stop-opacity:1"
         offset="0.26238" />
      <stop
         id="stop3754-1-8-5-2-7-6-7-1-9"
         style="stop-color:#0a0a0a;stop-opacity:1"
         offset="0.704952" />
      <stop
         id="stop3756-1-6-2-6-6-1-96-6-0"
         style="stop-color:#000000;stop-opacity:1"
         offset="1" />
    </linearGradient>
    <radialGradient
       cx="6.7304144"
       cy="9.9571075"
       r="12.671875"
       fx="6.2001843"
       fy="9.9571075"
       id="radialGradient3077"
       xlink:href="#linearGradient2867-449-88-871-390-598-476-591-434-148-57-177-8-3-3-6-4-8-8-8-5"
       gradientUnits="userSpaceOnUse"
       gradientTransform="matrix(0,9.4975523,-11.65996,0,136.43054,-84.660973)" />
    <linearGradient
       x1="20"
       y1="26.000008"
       x2="20"
       y2="13.000008"
       id="linearGradient3018-5"
       xlink:href="#linearGradient3680-6-6-6-3-7"
       gradientUnits="userSpaceOnUse"
       gradientTransform="translate(0,0.9999922)" />
    <linearGradient
       id="linearGradient3680-6-6-6-3-7">
      <stop
         id="stop3682-4-6-1-3-7"
         style="stop-color:#dcdcdc;stop-opacity:1"
         offset="0" />
      <stop
         id="stop3684-8-5-8-0-2"
         style="stop-color:#ffffff;stop-opacity:1"
         offset="1" />
    </linearGradient>
    <linearGradient
       x1="20"
       y1="26.000008"
       x2="20"
       y2="13.000008"
       id="linearGradient3950"
       xlink:href="#linearGradient3680-6-6-6-3-7"
       gradientUnits="userSpaceOnUse"
       gradientTransform="translate(-20,-24.000008)" />
    <linearGradient
       id="linearGradient2867-449-88-871-390-598-476-591-434-148-57-177-8-3-3-6-4-8-8-8-5-6">
      <stop
         id="stop3750-1-0-7-6-6-1-3-9-3-9"
         style="stop-color:#ff00ea;stop-opacity:1;"
         offset="0" />
      <stop
         id="stop3752-3-7-4-0-32-8-923-0-7-3"
         style="stop-color:#d942dc;stop-opacity:1;"
         offset="0.26238" />
      <stop
         id="stop3754-1-8-5-2-7-6-7-1-9-7"
         style="stop-color:#0a0a0a;stop-opacity:1;"
         offset="0.704952" />
      <stop
         id="stop3756-1-6-2-6-6-1-96-6-0-0"
         style="stop-color:#000000;stop-opacity:1;"
         offset="1" />
    </linearGradient>
  </defs>
  <metadata
     id="metadata4301">
    <rdf:RDF>
      <cc:Work
         rdf:about="">
        <dc:format>image/svg+xml</dc:format>
        <dc:type
           rdf:resource="http://purl.org/dc/dcmitype/StillImage" />
        <dc:title></dc:title>
      </cc:Work>
    </rdf:RDF>
  </metadata>
  <g
     transform="matrix(1.1578952,0,0,0.6428571,-3.789476,16.035716)"
     id="g3712-5"
     style="opacity:0.6">
    <rect
       width="5"
       height="7"
       x="38"
       y="40"
       id="rect2801-3"
       style="fill:url(#radialGradient3038);fill-opacity:1;stroke:none" />
    <rect
       width="5"
       height="7"
       x="-10"
       y="-47"
       transform="scale(-1,-1)"
       id="rect3696-6"
       style="fill:url(#radialGradient3040);fill-opacity:1;stroke:none" />
    <rect
       width="28"
       height="7.0000005"
       x="10"
       y="40"
       id="rect3700-4"
       style="fill:url(#linearGradient3042);fill-opacity:1;stroke:none" />
  </g>
  <rect
     width="39"
     height="39"
     rx="2"
     ry="2"
     x="4.5000124"
     y="5.4999948"
     id="rect5505-21"
     style="opacity:0.9;color:#000000;fill:url(#radialGradient3054-6);fill-opacity:1.0;fill-rule:nonzero;stroke:none;stroke-width:0.99999994;marker:none;visibility:visible;display:inline;overflow:visible;enable-background:accumulate" />
  <rect
     width="39"
     height="39"
     rx="2"
     ry="2"
     x="4.5000124"
     y="5.4999952"
     id="rect5505-21-3-2"
     style="opacity:0.7;color:#000000;fill:none;stroke:#000000;stroke-width:1;stroke-linecap:round;stroke-linejoin:round;stroke-miterlimit:4;stroke-opacity:1;stroke-dasharray:none;stroke-dashoffset:0;marker:none;visibility:visible;display:inline;overflow:visible;enable-background:accumulate" />
  <rect
     width="37"
     height="37"
     rx="1"
     ry="1"
     x="5.5000124"
     y="6.5000005"
     id="rect6741"
     style="opacity:0.3;fill:none;stroke:url(#linearGradient3024);stroke-width:0.99999994;stroke-linecap:round;stroke-linejoin:round;stroke-miterlimit:4;stroke-opacity:1;stroke-dasharray:none;stroke-dashoffset:0" />
  <path
     d="M 13,12.96875 A 1.0164126,1.0164126 0 0 0 11.96875,14 l 0,0.21875 c -0.633664,0.146924 -1.275436,0.351372 -1.84375,0.8125 -0.0123,0.0095 -0.01915,0.0216 -0.03125,0.03125 C 8.715408,16.160958 8.6225831,18.156244 9.625,19.46875 A 1.0164126,1.0164126 0 0 0 9.65625,19.5 c 0.674715,0.818644 1.522773,1.187105 2.3125,1.5 l 0,0.15625 C 11.451752,21.036334 10.903654,20.974429 10.40625,20.75 a 1.0164126,1.0164126 0 0 0 -1.4375,0.9375 l 0,1.78125 a 1.0164126,1.0164126 0 0 0 0.625,0.9375 c 0.772655,0.32786 1.577153,0.377595 2.375,0.46875 l 0,0.5625 A 1.0164126,1.0164126 0 0 0 13,26.46875 l 1,0 a 1.0164126,1.0164126 0 0 0 1.03125,-1.03125 l 0,-0.625 c 0.433853,-0.08365 0.840848,-0.113583 1.28125,-0.34375 0.01365,-0.0067 0.01771,-0.02438 0.03125,-0.03125 1.105109,-0.560904 1.851541,-1.664938 1.8125,-2.9375 -3.27e-4,-0.01065 4.37e-4,-0.02058 0,-0.03125 -0.004,-0.622231 -0.206759,-1.222539 -0.5625,-1.71875 a 1.0164126,1.0164126 0 0 0 0,-0.03125 c -0.731515,-0.97614 -1.706955,-1.363847 -2.5625,-1.6875 l 0,-0.09375 c 0.304223,0.07427 0.628524,0.108634 0.90625,0.21875 A 1.0164126,1.0164126 0 0 0 17.25,17.59375 L 17.90625,16 A 1.0164126,1.0164126 0 0 0 17.375,14.6875 c -0.750291,-0.321427 -1.558688,-0.364947 -2.34375,-0.46875 l 0,-0.21875 A 1.0164126,1.0164126 0 0 0 14,12.96875 l -1,0 z m 7,12 A 1.0164126,1.0164126 0 0 0 18.96875,26 l 0,2 A 1.0164126,1.0164126 0 0 0 20,29.03125 l 8,0 A 1.0164126,1.0164126 0 0 0 29.03125,28 l 0,-2 A 1.0164126,1.0164126 0 0 0 28,24.96875 l -8,0 z"
     id="path3987"
     style="opacity:0.15;fill:#000000;fill-opacity:1;stroke:none" />
  <path
     d="m 13,14 0,1.03125 c -0.820701,0.07841 -1.612547,0.283231 -2.25,0.8125 -0.9149118,0.707109 -0.9847126,2.119844 -0.3125,3 0.649969,0.78862 1.619178,1.143726 2.5625,1.5 l 0,2.125 c -1.051817,-0.08592 -2.044252,-0.350015 -3,-0.78125 l 0,1.78125 c 0.95663,0.405926 1.960071,0.57341 3,0.59375 l 0,1.375 1,0 0,-1.40625 c 0.636559,-0.05721 1.311364,-0.168161 1.875,-0.46875 0.783001,-0.384417 1.31607,-1.21155 1.28125,-2.0625 0.0032,-0.411424 -0.130626,-0.815381 -0.375,-1.15625 C 16.127549,19.471446 14.986259,19.116377 14,18.71875 l 0,-2.03125 c 0.78197,0.0636 1.587028,0.243607 2.3125,0.53125 L 16.96875,15.625 C 16.042368,15.228135 15.009967,15.0415 14,15 l 0,-1 -1,0 z m 0,2.71875 0,1.625 C 12.601857,18.168644 12.13814,17.937642 12.15625,17.4375 12.137624,16.965392 12.596945,16.76415 13,16.71875 z m 1,4 c 0.394867,0.192699 0.9911,0.372833 1,0.875 0.02269,0.512425 -0.552984,0.75293 -1,0.8125 l 0,-1.6875 z M 20,26 l 0,2 8,0 0,-2 -8,0 z"
     id="path3651-2-3-5-5"
     style="opacity:0.3;fill:#000000;fill-opacity:1;stroke:none" />
  <path
     d="m 13,13 0,1.03125 c -0.820701,0.07841 -1.612547,0.283231 -2.25,0.8125 -0.9149118,0.707109 -0.9847126,2.119844 -0.3125,3 0.649969,0.78862 1.619178,1.143726 2.5625,1.5 l 0,2.125 c -1.051817,-0.08592 -2.044252,-0.350015 -3,-0.78125 l 0,1.78125 c 0.95663,0.405926 1.960071,0.57341 3,0.59375 l 0,1.375 1,0 0,-1.40625 c 0.636559,-0.05721 1.311364,-0.168161 1.875,-0.46875 0.783001,-0.384417 1.31607,-1.21155 1.28125,-2.0625 0.0032,-0.411424 -0.130626,-0.815381 -0.375,-1.15625 C 16.127549,18.471446 14.986259,18.116377 14,17.71875 l 0,-2.03125 c 0.78197,0.0636 1.587028,0.243607 2.3125,0.53125 L 16.96875,14.625 C 16.042368,14.228135 15.009967,14.0415 14,14 l 0,-1 -1,0 z m 0,2.71875 0,1.625 C 12.601857,17.168644 12.13814,16.937642 12.15625,16.4375 12.137624,15.965392 12.596945,15.76415 13,15.71875 z m 1,4 c 0.394867,0.192699 0.9911,0.372833 1,0.875 0.02269,0.512425 -0.552984,0.75293 -1,0.8125 l 0,-1.6875 z M 20,25 l 0,2 8,0 0,-2 -8,0 z"
     id="text3905-9"
     style="font-size:14.31169891px;font-style:normal;font-variant:normal;font-weight:bold;font-stretch:normal;line-height:125%;letter-spacing:0px;word-spacing:0px;color:#000000;fill:url(#linearGradient3018-5);fill-opacity:1;fill-rule:nonzero;stroke:none;marker:none;visibility:visible;display:inline;overflow:visible;enable-background:accumulate;font-family:Open Sans;-inkscape-font-specification:Open Sans Bold" />
</svg>
