<?xml version="1.0" encoding="UTF-8" standalone="no"?>
<svg
   xmlns:dc="http://purl.org/dc/elements/1.1/"
   xmlns:cc="http://creativecommons.org/ns#"
   xmlns:rdf="http://www.w3.org/1999/02/22-rdf-syntax-ns#"
   xmlns:svg="http://www.w3.org/2000/svg"
   xmlns="http://www.w3.org/2000/svg"
   xmlns:xlink="http://www.w3.org/1999/xlink"
   xmlns:sodipodi="http://sodipodi.sourceforge.net/DTD/sodipodi-0.dtd"
   xmlns:inkscape="http://www.inkscape.org/namespaces/inkscape"
   version="1.1"
   width="48"
   height="48"
   id="svg4296"
   inkscape:version="0.91 r"
   sodipodi:docname="multimedia-audio-player.svg">
  <sodipodi:namedview
     pagecolor="#ffffff"
     bordercolor="#666666"
     borderopacity="1"
     objecttolerance="10"
     gridtolerance="10"
     guidetolerance="10"
     inkscape:pageopacity="0"
     inkscape:pageshadow="2"
     inkscape:window-width="1708"
     inkscape:window-height="895"
     id="namedview72"
     showgrid="true"
     inkscape:zoom="15.979167"
     inkscape:cx="12.797914"
     inkscape:cy="21.496741"
     inkscape:window-x="65"
     inkscape:window-y="254"
     inkscape:window-maximized="0"
     inkscape:current-layer="svg4296">
    <inkscape:grid
       type="xygrid"
       id="grid4746" />
  </sodipodi:namedview>
  <defs
     id="defs4298">
    <linearGradient
       id="linearGradient3462">
      <stop
         id="stop3464"
         style="stop-color:#ffffff;stop-opacity:1"
         offset="0" />
      <stop
         id="stop3466"
         style="stop-color:#ffffff;stop-opacity:0.23529412"
         offset="0.01141873" />
      <stop
         id="stop3468"
         style="stop-color:#ffffff;stop-opacity:0.15686275"
         offset="0.98451906" />
      <stop
         id="stop3470"
         style="stop-color:#ffffff;stop-opacity:0.39215687"
         offset="1" />
    </linearGradient>
    <linearGradient
       gradientTransform="matrix(0.08449704,0,0,0.01235294,-6.5396456,38.470822)"
       gradientUnits="userSpaceOnUse"
       xlink:href="#linearGradient5048"
       id="linearGradient19619"
       y2="609.50507"
       x2="302.85715"
       y1="366.64789"
       x1="302.85715" />
    <linearGradient
       id="linearGradient5048">
      <stop
         offset="0"
         style="stop-color:#000000;stop-opacity:0"
         id="stop5050" />
      <stop
         offset="0.5"
         style="stop-color:#000000;stop-opacity:1"
         id="stop5056" />
      <stop
         offset="1"
         style="stop-color:#000000;stop-opacity:0"
         id="stop5052" />
    </linearGradient>
    <radialGradient
       gradientTransform="matrix(-0.0289166,0,0,0.01235294,21.026894,38.470848)"
       gradientUnits="userSpaceOnUse"
       xlink:href="#linearGradient5060"
       id="radialGradient19616"
       fy="486.64789"
       fx="605.71429"
       r="117.14286"
       cy="486.64789"
       cx="605.71429" />
    <linearGradient
       id="linearGradient5060">
      <stop
         offset="0"
         style="stop-color:#000000;stop-opacity:1"
         id="stop5062" />
      <stop
         offset="1"
         style="stop-color:#000000;stop-opacity:0"
         id="stop5064" />
    </linearGradient>
    <radialGradient
       gradientTransform="matrix(0.02891661,0,0,0.01235294,26.973101,38.470848)"
       gradientUnits="userSpaceOnUse"
       xlink:href="#linearGradient5060"
       id="radialGradient19613"
       fy="486.64789"
       fx="605.71429"
       r="117.14286"
       cy="486.64789"
       cx="605.71429" />
    <linearGradient
       xlink:href="#linearGradient3462"
       id="linearGradient4088"
       gradientUnits="userSpaceOnUse"
       gradientTransform="matrix(1.1621621,0,0,0.91891888,-3.8918941,4.4459492)"
       x1="40.290417"
       y1="6.0190282"
       x2="40.290417"
       y2="41.955879" />
    <radialGradient
       xlink:href="#linearGradient2867-449-88-871-390-598-476-591-434-148-57-177-3-8"
       id="radialGradient4091"
       gradientUnits="userSpaceOnUse"
       gradientTransform="matrix(0,8.4371492,-12.947656,0,153.88012,-68.473106)"
       cx="7.1183534"
       cy="9.9571075"
       fx="7.1183534"
       fy="9.9571075"
       r="12.671875" />
    <linearGradient
       y2="44.340794"
       x2="71.204407"
       y1="6.2375584"
       x1="71.204407"
       gradientTransform="matrix(-0.05405404,0,0,0.05405404,20.44,39.223089)"
       gradientUnits="userSpaceOnUse"
       id="linearGradient14699"
       xlink:href="#linearGradient4011-9-9-70-61-7" />
    <linearGradient
       id="linearGradient4011-9-9-70-61-7">
      <stop
         offset="0"
         style="stop-color:#ffffff;stop-opacity:1;"
         id="stop4013-5-4-3-8-3" />
      <stop
         id="stop4015-1-5-70-9-5"
         style="stop-color:#ffffff;stop-opacity:0.23529412;"
         offset="0.507761" />
      <stop
         offset="0.83456558"
         style="stop-color:#ffffff;stop-opacity:0.15686275;"
         id="stop4017-7-0-13-0-1" />
      <stop
         offset="1"
         style="stop-color:#ffffff;stop-opacity:0.39215687;"
         id="stop4019-1-12-7-0-7" />
    </linearGradient>
    <linearGradient
       y2="8.0928917"
       x2="38.976662"
       y1="59.967686"
       x1="38.976662"
       gradientTransform="matrix(-0.07843137,0,0,0.07843137,19.009804,37.833334)"
       gradientUnits="userSpaceOnUse"
       id="linearGradient14702"
       xlink:href="#linearGradient4215-8-4-07-7" />
    <linearGradient
       id="linearGradient4215-8-4-07-7">
      <stop
         id="stop4217-1-2-1-2"
         offset="0"
         style="stop-color:#2b3235;stop-opacity:1" />
      <stop
         id="stop4219-3-4-0-96"
         offset="1"
         style="stop-color:#374044;stop-opacity:1" />
    </linearGradient>
    <radialGradient
       cx="7.4956999"
       cy="8.4497995"
       r="20"
       id="radialGradient3164"
       gradientUnits="userSpaceOnUse"
       gradientTransform="matrix(1.273594e-7,3.2957553,-5.3809239,0,77.467708,-19.382411)">
      <stop
         id="stop3244"
         style="stop-color:#f8b17e;stop-opacity:1"
         offset="0" />
      <stop
         id="stop3246"
         style="stop-color:#e35d4f;stop-opacity:1"
         offset="0.26238" />
      <stop
         id="stop3248"
         style="stop-color:#c6262e;stop-opacity:1"
         offset="0.66093999" />
      <stop
         id="stop3250"
         style="stop-color:#690b54;stop-opacity:1"
         offset="1" />
    </radialGradient>
    <linearGradient
       xlink:href="#linearGradient2867-449-88-871-390-598-476-591-434-148-57-177-3-8"
       id="linearGradient4357"
       x1="21"
       y1="33"
       x2="21"
       y2="44"
       gradientUnits="userSpaceOnUse" />
    <radialGradient
       gradientTransform="matrix(0,0.78112576,-1.0310721,0,12.113981,-16.388244)"
       gradientUnits="userSpaceOnUse"
       xlink:href="#linearGradient3242-8"
       id="radialGradient4492"
       fy="4.0384412"
       fx="21.994528"
       r="20.397499"
       cy="4.0384412"
       cx="21.994528" />
    <linearGradient
       gradientTransform="matrix(0.24324325,0,0,0.24324325,-9.4486951,1.8320621)"
       gradientUnits="userSpaceOnUse"
       xlink:href="#linearGradient4011-6-3-8"
       id="linearGradient4486"
       y2="44.340794"
       x2="71.204407"
       y1="6.2375584"
       x1="71.204407" />
    <linearGradient
       id="linearGradient3242-8">
      <stop
         offset="0"
         style="stop-color:#f8b17e;stop-opacity:1"
         id="stop3244-2" />
      <stop
         offset="0.26238"
         style="stop-color:#e35d4f;stop-opacity:1"
         id="stop3246-9" />
      <stop
         offset="0.66093999"
         style="stop-color:#c6262e;stop-opacity:1"
         id="stop3248-10" />
      <stop
         offset="1"
         style="stop-color:#690b54;stop-opacity:1"
         id="stop3250-2" />
    </linearGradient>
    <linearGradient
       id="linearGradient4011-6-3-8">
      <stop
         offset="0"
         style="stop-color:#ffffff;stop-opacity:1"
         id="stop4013-0-0-6" />
      <stop
         offset="0.507761"
         style="stop-color:#ffffff;stop-opacity:0.23529412"
         id="stop4015-7-9-1" />
      <stop
         offset="0.83456558"
         style="stop-color:#ffffff;stop-opacity:0.15686275"
         id="stop4017-6-8-4" />
      <stop
         offset="1"
         style="stop-color:#ffffff;stop-opacity:0.39215687"
         id="stop4019-8-2-1" />
    </linearGradient>
    <radialGradient
       xlink:href="#linearGradient3242-8"
       id="radialGradient3178"
       gradientUnits="userSpaceOnUse"
       gradientTransform="matrix(0,0.78112576,-1.0310721,0,12.113981,-16.388244)"
       cx="21.994528"
       cy="4.0384412"
       fx="21.994528"
       fy="4.0384412"
       r="20.397499" />
    <linearGradient
       xlink:href="#linearGradient4011-6-3-8"
       id="linearGradient3180"
       gradientUnits="userSpaceOnUse"
       gradientTransform="matrix(0.24324325,0,0,0.24324325,-9.4486951,1.8320621)"
       x1="71.204407"
       y1="6.2375584"
       x2="71.204407"
       y2="44.340794" />
    <linearGradient
       xlink:href="#linearGradient4011-6-3-8"
       id="linearGradient3184"
       gradientUnits="userSpaceOnUse"
       gradientTransform="matrix(0.24324325,0,0,0.24324325,41.201226,20.475664)"
       x1="71.204407"
       y1="6.2375584"
       x2="71.204407"
       y2="44.340794" />
    <radialGradient
       xlink:href="#linearGradient3242-8"
       id="radialGradient3187"
       gradientUnits="userSpaceOnUse"
       gradientTransform="matrix(0,0.78112576,-1.0310721,0,62.763902,2.255358)"
       cx="21.994528"
       cy="4.0384412"
       fx="21.994528"
       fy="4.0384412"
       r="20.397499" />
    <linearGradient
       x1="302.85715"
       y1="366.64789"
       x2="302.85715"
       y2="609.50507"
       id="linearGradient3178"
       xlink:href="#linearGradient5048"
       gradientUnits="userSpaceOnUse"
       gradientTransform="matrix(0.11390532,0,0,0.02058823,-101.77881,11.266703)" />
    <radialGradient
       cx="605.71429"
       cy="486.64789"
       r="117.14286"
       fx="605.71429"
       fy="486.64789"
       id="radialGradient3175"
       xlink:href="#linearGradient5060"
       gradientUnits="userSpaceOnUse"
       gradientTransform="matrix(-0.03212956,0,0,0.02058823,-68.746952,11.195452)" />
    <radialGradient
       cx="605.71429"
       cy="486.64789"
       r="117.14286"
       fx="605.71429"
       fy="486.64789"
       id="radialGradient3172"
       xlink:href="#linearGradient5060"
       gradientUnits="userSpaceOnUse"
       gradientTransform="matrix(0.03212956,0,0,0.02058823,-52.473385,11.195452)" />
    <radialGradient
       cx="7.8500957"
       cy="9.9571075"
       r="12.671875"
       fx="7.3198657"
       fy="9.9571075"
       id="radialGradient5521-1-5-7"
       xlink:href="#radialGradient3867"
       gradientUnits="userSpaceOnUse"
       gradientTransform="matrix(0,5.4633405,-13.453799,0,158.91984,-45.926201)" />
    <linearGradient
       id="linearGradient2867-449-88-871-390-598-476-591-434-148-57-177-3-8">
      <stop
         offset="0"
         style="stop-color:#90dbec;stop-opacity:1"
         id="stop3750-8-9" />
      <stop
         offset="0.26238"
         style="stop-color:#42baea;stop-opacity:1"
         id="stop3752-3-2" />
      <stop
         offset="0.704952"
         style="stop-color:#3689e6;stop-opacity:1"
         id="stop3754-7-2" />
      <stop
         offset="1"
         style="stop-color:#2b63a0;stop-opacity:1"
         id="stop3756-9-3" />
    </linearGradient>
    <linearGradient
       id="linearGradient4284"
       y2="387.51999"
       gradientUnits="userSpaceOnUse"
       x2="235.48"
       y1="371.87"
       x1="235.48">
      <stop
         id="stop4280"
         offset="0" />
      <stop
         id="stop4282"
         style="stop-opacity:0"
         offset="1" />
    </linearGradient>
    <clipPath
       id="clipPath4213"
       clipPathUnits="userSpaceOnUse">
      <g
         id="g4215"
         transform="matrix(3.5556,0,0,3.5522,0,-3262.2)">
        <g
           id="g4217"
           transform="translate(0,10)">
          <path
             inkscape:connector-curvature="0"
             id="path4219"
             d="m 46.703,908.36 50.595,0 c 40.862,0 46.702,5.84 46.702,46.7 l 0,40.595 c 0,40.865 -5.8378,46.702 -46.703,46.702 l -50.595,0 C 5.838,1042.357 0,1036.457 0,995.617 l 0,-40.6 c 0,-40.86 5.8378,-46.7 46.703,-46.7 z" />
        </g>
      </g>
    </clipPath>
    <filter
       id="filter3869">
      <feGaussianBlur
         id="feGaussianBlur3871"
         stdDeviation="3.39" />
    </filter>
    <linearGradient
       gradientTransform="matrix(0.1269726,0,0,0.08203125,-8.5306734,5.3003651)"
       id="linearGradient4051"
       y2="404"
       gradientUnits="userSpaceOnUse"
       x2="344"
       y1="430"
       x1="344">
      <stop
         id="stop3974"
         style="stop-color:#666"
         offset="0" />
      <stop
         id="stop3976"
         style="stop-color:#666;stop-opacity:0"
         offset="1" />
    </linearGradient>
    <linearGradient
       gradientTransform="matrix(0.12722409,0,0,0.08203125,-8.5573378,5.3003651)"
       id="linearGradient4064"
       y2="404"
       xlink:href="#linearGradient8265-821-176-38-919-66-249-7-7"
       gradientUnits="userSpaceOnUse"
       x2="344"
       y1="430"
       x1="344" />
    <linearGradient
       id="linearGradient8265-821-176-38-919-66-249-7-7">
      <stop
         id="stop2687-1-9"
         style="stop-color:#ffffff;stop-opacity:1"
         offset="0" />
      <stop
         id="stop2689-5-4"
         style="stop-color:#ffffff;stop-opacity:0"
         offset="1" />
    </linearGradient>
    <linearGradient
       id="linearGradient4068"
       y2="414.38"
       gradientUnits="userSpaceOnUse"
       x2="344"
       gradientTransform="matrix(0.12707897,0,0,0.08203125,-8.5419486,-74.534737)"
       y1="430"
       x1="344">
      <stop
         id="stop4023"
         style="stop-color:#c03c0e"
         offset="0" />
      <stop
         id="stop3856"
         style="stop-color:#e85e1b"
         offset=".5" />
      <stop
         id="stop4025"
         style="stop-color:#f57638"
         offset="1" />
    </linearGradient>
    <filter
       id="filter4013">
      <feGaussianBlur
         id="feGaussianBlur4015"
         stdDeviation="0.72" />
    </filter>
    <radialGradient
       id="radialGradient4075"
       gradientUnits="userSpaceOnUse"
       cy="421.89999"
       cx="212"
       gradientTransform="matrix(1.3333,0,0,1.2222,-70.667,-93.655)"
       r="9">
      <stop
         id="stop3984"
         style="stop-color:#f5f5f5"
         offset="0" />
      <stop
         id="stop3992"
         style="stop-color:#dfdfdf"
         offset=".75" />
      <stop
         id="stop3986"
         style="stop-color:#c6c6c6"
         offset="1" />
    </radialGradient>
    <linearGradient
       inkscape:collect="always"
       xlink:href="#linearGradient3462-3"
       id="linearGradient3345"
       gradientUnits="userSpaceOnUse"
       gradientTransform="matrix(1.1621621,0,0,0.91891888,-3.891894,4.4459489)"
       x1="40.290417"
       y1="5.4143372"
       x2="40.290417"
       y2="42.437775" />
    <linearGradient
       id="linearGradient3462-3">
      <stop
         offset="0"
         style="stop-color:#ffffff;stop-opacity:1"
         id="stop3464-2" />
      <stop
         offset="0.03457849"
         style="stop-color:#ffffff;stop-opacity:0.23529412"
         id="stop3466-2" />
      <stop
         offset="0.96375686"
         style="stop-color:#ffffff;stop-opacity:0.15686275"
         id="stop3468-5" />
      <stop
         offset="1"
         style="stop-color:#ffffff;stop-opacity:0.39215687"
         id="stop3470-9" />
    </linearGradient>
    <radialGradient
       cx="7.8500957"
       cy="9.9571075"
       r="12.671875"
       fx="7.3198657"
       fy="9.9571075"
       id="radialGradient5521-1-5-7-0"
       xlink:href="#radialGradient3867"
       gradientUnits="userSpaceOnUse"
       gradientTransform="matrix(0,5.4633405,-13.453799,0,103.9407,-48.987479)" />
    <radialGradient
       id="radialGradient3867"
       gradientUnits="userSpaceOnUse"
       cy="238"
       cx="256"
       gradientTransform="matrix(1.6229,0,0,1.4459,-159.45,-106.13)"
       r="256">
      <stop
         id="stop4115-3"
         style="stop-color:#947c69"
         offset="0" />
      <stop
         id="stop3999"
         style="stop-color:#605043"
         offset=".5" />
      <stop
         id="stop4117-0"
         offset="1" />
    </radialGradient>
  </defs>
  <metadata
     id="metadata4301">
    <rdf:RDF>
      <cc:Work
         rdf:about="">
        <dc:format>image/svg+xml</dc:format>
        <dc:type
           rdf:resource="http://purl.org/dc/dcmitype/StillImage" />
        <dc:title></dc:title>
      </cc:Work>
    </rdf:RDF>
  </metadata>
  <rect
     style="display:inline;overflow:visible;visibility:visible;fill:url(#linearGradient19619);fill-opacity:1;fill-rule:nonzero;stroke:none;stroke-width:1;marker:none"
     id="rect2879"
     y="43"
     x="3.5999999"
     height="2.9999998"
     width="40.799999" />
  <path
     style="display:inline;overflow:visible;visibility:visible;fill:url(#radialGradient19616);fill-opacity:1;fill-rule:nonzero;stroke:none;stroke-width:1;marker:none"
     id="path2881"
     d="m 3.6,43.00013 0,2.999835 C 2.1108662,46.005612 0,45.327854 0,44.499854 0,43.671856 1.6617608,43.000131 3.6,43.00013 Z" />
  <path
     style="display:inline;overflow:visible;visibility:visible;fill:url(#radialGradient19613);fill-opacity:1;fill-rule:nonzero;stroke:none;stroke-width:1;marker:none"
     id="path2883"
     d="m 44.4,43.00013 0,2.999835 c 1.489133,0.0056 3.6,-0.672111 3.6,-1.500111 0,-0.827998 -1.661761,-1.499723 -3.6,-1.499724 z" />
  <text
     x="132.85915"
     y="3.4678323"
     id="text4087-2-6-5"
     xml:space="preserve"
     style="font-style:normal;font-weight:normal;font-size:2.66666675px;font-family:'Bitstream Vera Sans';opacity:0.8;fill:#000000;fill-opacity:1;stroke:none"><tspan
       x="132.85915"
       y="3.4678323"
       id="tspan4089-7-2-9" /></text>
  <text
     x="137.90363"
     y="-5.1094952"
     id="text4087-2-6-5-5"
     xml:space="preserve"
     style="font-style:normal;font-weight:normal;font-size:2.66666675px;font-family:'Bitstream Vera Sans';opacity:0.8;fill:#000000;fill-opacity:1;stroke:none"><tspan
       x="137.90363"
       y="-5.1094952"
       id="tspan4089-7-2-9-6" /></text>
  <text
     x="-171.69218"
     y="-11.441827"
     id="text4087-2-6-5-2"
     xml:space="preserve"
     style="font-style:normal;font-weight:normal;font-size:2.66666675px;font-family:'Bitstream Vera Sans';opacity:0.8;fill:#000000;fill-opacity:1;stroke:none"><tspan
       x="-171.69218"
       y="-11.441827"
       id="tspan4089-7-2-9-2" /></text>
  <text
     x="-555.63171"
     y="145.5191"
     id="text4087-2-6-5-59"
     xml:space="preserve"
     style="font-style:normal;font-weight:normal;font-size:2.66666675px;font-family:'Bitstream Vera Sans';opacity:0.8;fill:#000000;fill-opacity:1;stroke:none"><tspan
       x="-555.63171"
       y="145.5191"
       id="tspan4089-7-2-9-4" /></text>
  <text
     x="-147.58844"
     y="-92.563225"
     id="text4087-2-6-5-1"
     xml:space="preserve"
     style="font-style:normal;font-weight:normal;font-size:2.66666675px;font-family:'Bitstream Vera Sans';opacity:0.8;fill:#000000;fill-opacity:1;stroke:none"><tspan
       x="-147.58844"
       y="-92.563225"
       id="tspan4089-7-2-9-7" /></text>
  <text
     x="22.435568"
     y="-179.61084"
     id="text4087-2-6-5-7"
     xml:space="preserve"
     style="font-style:normal;font-weight:normal;font-size:2.66666675px;font-family:'Bitstream Vera Sans';opacity:0.8;fill:#000000;fill-opacity:1;stroke:none"><tspan
       x="22.435568"
       y="-179.61084"
       id="tspan4089-7-2-9-1" /></text>
  <text
     x="27.480047"
     y="-188.18817"
     id="text4087-2-6-5-5-3"
     xml:space="preserve"
     style="font-style:normal;font-weight:normal;font-size:2.66666675px;font-family:'Bitstream Vera Sans';opacity:0.8;fill:#000000;fill-opacity:1;stroke:none"><tspan
       x="27.480047"
       y="-188.18817"
       id="tspan4089-7-2-9-6-5" /></text>
  <text
     x="-286.51682"
     y="-189.70607"
     id="text4087-2-6-5-3"
     xml:space="preserve"
     style="font-style:normal;font-weight:normal;font-size:2.66666675px;font-family:'Bitstream Vera Sans';opacity:0.8;fill:#000000;fill-opacity:1;stroke:none"><tspan
       x="-286.51682"
       y="-189.70607"
       id="tspan4089-7-2-9-18" /></text>
  <text
     x="20.970388"
     y="-247.2299"
     id="text4087-2-6-5-4"
     xml:space="preserve"
     style="font-style:normal;font-weight:normal;font-size:2.66666675px;font-family:'Bitstream Vera Sans';opacity:0.8;fill:#000000;fill-opacity:1;stroke:none"><tspan
       x="20.970388"
       y="-247.2299"
       id="tspan4089-7-2-9-9" /></text>
  <text
     x="333.84311"
     y="-115.29292"
     id="text4087-2-6-5-7-1"
     xml:space="preserve"
     style="font-style:normal;font-weight:normal;font-size:2.66666675px;font-family:'Bitstream Vera Sans';opacity:0.8;fill:#000000;fill-opacity:1;stroke:none"><tspan
       x="333.84311"
       y="-115.29292"
       id="tspan4089-7-2-9-1-8" /></text>
  <text
     x="338.88754"
     y="-123.87026"
     id="text4087-2-6-5-5-5"
     xml:space="preserve"
     style="font-style:normal;font-weight:normal;font-size:2.66666675px;font-family:'Bitstream Vera Sans';opacity:0.8;fill:#000000;fill-opacity:1;stroke:none"><tspan
       x="338.88754"
       y="-123.87026"
       id="tspan4089-7-2-9-6-9" /></text>
  <text
     x="24.890692"
     y="-125.38816"
     id="text4087-2-6-5-75"
     xml:space="preserve"
     style="font-style:normal;font-weight:normal;font-size:2.66666675px;font-family:'Bitstream Vera Sans';opacity:0.8;fill:#000000;fill-opacity:1;stroke:none"><tspan
       x="24.890692"
       y="-125.38816"
       id="tspan4089-7-2-9-3" /></text>
  <text
     x="332.37793"
     y="-182.91194"
     id="text4087-2-6-5-4-8"
     xml:space="preserve"
     style="font-style:normal;font-weight:normal;font-size:2.66666675px;font-family:'Bitstream Vera Sans';opacity:0.8;fill:#000000;fill-opacity:1;stroke:none"><tspan
       x="332.37793"
       y="-182.91194"
       id="tspan4089-7-2-9-9-8" /></text>
  <text
     x="-172.54723"
     y="-135.51279"
     id="text4087-2-6-5-45"
     xml:space="preserve"
     style="font-style:normal;font-weight:normal;font-size:2.66666675px;font-family:'Bitstream Vera Sans';opacity:0.8;fill:#000000;fill-opacity:1;stroke:none"><tspan
       x="-172.54723"
       y="-135.51279"
       id="tspan4089-7-2-9-75" /></text>
  <text
     x="-556.48669"
     y="21.448153"
     id="text4087-2-6-5-59-7"
     xml:space="preserve"
     style="font-style:normal;font-weight:normal;font-size:2.66666675px;font-family:'Bitstream Vera Sans';opacity:0.8;fill:#000000;fill-opacity:1;stroke:none"><tspan
       x="-556.48669"
       y="21.448153"
       id="tspan4089-7-2-9-4-0" /></text>
  <text
     x="-195.48024"
     y="41.000465"
     id="text4087-2-6-5-8"
     xml:space="preserve"
     style="font-style:normal;font-weight:normal;font-size:2.66666675px;font-family:'Bitstream Vera Sans';opacity:0.8;fill:#000000;fill-opacity:1;stroke:none"><tspan
       x="-195.48024"
       y="41.000465"
       id="tspan4089-7-2-9-19" /></text>
  <text
     x="38.001999"
     y="3.2773569"
     id="text4087-2-6-5-7-5"
     xml:space="preserve"
     style="font-style:normal;font-weight:normal;font-size:2.66666675px;font-family:'Bitstream Vera Sans';opacity:0.8;fill:#000000;fill-opacity:1;stroke:none"><tspan
       x="38.001999"
       y="3.2773569"
       id="tspan4089-7-2-9-1-2" /></text>
  <text
     x="43.046478"
     y="-5.2999706"
     id="text4087-2-6-5-5-0"
     xml:space="preserve"
     style="font-style:normal;font-weight:normal;font-size:2.66666675px;font-family:'Bitstream Vera Sans';opacity:0.8;fill:#000000;fill-opacity:1;stroke:none"><tspan
       x="43.046478"
       y="-5.2999706"
       id="tspan4089-7-2-9-6-2" /></text>
  <text
     x="-270.95038"
     y="-6.8178806"
     id="text4087-2-6-5-26"
     xml:space="preserve"
     style="font-style:normal;font-weight:normal;font-size:2.66666675px;font-family:'Bitstream Vera Sans';opacity:0.8;fill:#000000;fill-opacity:1;stroke:none"><tspan
       x="-270.95038"
       y="-6.8178806"
       id="tspan4089-7-2-9-90" /></text>
  <text
     x="36.536835"
     y="-64.34169"
     id="text4087-2-6-5-4-3"
     xml:space="preserve"
     style="font-style:normal;font-weight:normal;font-size:2.66666675px;font-family:'Bitstream Vera Sans';opacity:0.8;fill:#000000;fill-opacity:1;stroke:none"><tspan
       x="36.536835"
       y="-64.34169"
       id="tspan4089-7-2-9-9-5" /></text>
  <text
     x="-179.83154"
     y="-7.3893108"
     id="text4087-2-6-5-55"
     xml:space="preserve"
     style="font-style:normal;font-weight:normal;font-size:2.66666675px;font-family:'Bitstream Vera Sans';opacity:0.8;fill:#000000;fill-opacity:1;stroke:none"><tspan
       x="-179.83154"
       y="-7.3893108"
       id="tspan4089-7-2-9-32" /></text>
  <text
     x="-563.77106"
     y="149.57164"
     id="text4087-2-6-5-59-9"
     xml:space="preserve"
     style="font-style:normal;font-weight:normal;font-size:2.66666675px;font-family:'Bitstream Vera Sans';opacity:0.8;fill:#000000;fill-opacity:1;stroke:none"><tspan
       x="-563.77106"
       y="149.57164"
       id="tspan4089-7-2-9-4-1" /></text>
  <text
     x="-148.022"
     y="-188.76682"
     id="text4087-2-6-5-1-8"
     xml:space="preserve"
     style="font-style:normal;font-weight:normal;font-size:2.66666675px;font-family:'Bitstream Vera Sans';opacity:0.8;fill:#000000;fill-opacity:1;stroke:none"><tspan
       x="-148.022"
       y="-188.76682"
       id="tspan4089-7-2-9-7-8" /></text>
  <text
     x="22.001997"
     y="-275.81445"
     id="text4087-2-6-5-7-8"
     xml:space="preserve"
     style="font-style:normal;font-weight:normal;font-size:2.66666675px;font-family:'Bitstream Vera Sans';opacity:0.8;fill:#000000;fill-opacity:1;stroke:none"><tspan
       x="22.001997"
       y="-275.81445"
       id="tspan4089-7-2-9-1-9" /></text>
  <text
     x="27.046476"
     y="-284.39178"
     id="text4087-2-6-5-5-52"
     xml:space="preserve"
     style="font-style:normal;font-weight:normal;font-size:2.66666675px;font-family:'Bitstream Vera Sans';opacity:0.8;fill:#000000;fill-opacity:1;stroke:none"><tspan
       x="27.046476"
       y="-284.39178"
       id="tspan4089-7-2-9-6-4" /></text>
  <text
     x="-286.95038"
     y="-285.9097"
     id="text4087-2-6-5-3-4"
     xml:space="preserve"
     style="font-style:normal;font-weight:normal;font-size:2.66666675px;font-family:'Bitstream Vera Sans';opacity:0.8;fill:#000000;fill-opacity:1;stroke:none"><tspan
       x="-286.95038"
       y="-285.9097"
       id="tspan4089-7-2-9-18-3" /></text>
  <text
     x="20.536818"
     y="-343.4335"
     id="text4087-2-6-5-4-7"
     xml:space="preserve"
     style="font-style:normal;font-weight:normal;font-size:2.66666675px;font-family:'Bitstream Vera Sans';opacity:0.8;fill:#000000;fill-opacity:1;stroke:none"><tspan
       x="20.536818"
       y="-343.4335"
       id="tspan4089-7-2-9-9-54" /></text>
  <text
     x="333.40952"
     y="-211.49655"
     id="text4087-2-6-5-7-1-2"
     xml:space="preserve"
     style="font-style:normal;font-weight:normal;font-size:2.66666675px;font-family:'Bitstream Vera Sans';opacity:0.8;fill:#000000;fill-opacity:1;stroke:none"><tspan
       x="333.40952"
       y="-211.49655"
       id="tspan4089-7-2-9-1-8-0" /></text>
  <text
     x="338.45395"
     y="-220.07388"
     id="text4087-2-6-5-5-5-6"
     xml:space="preserve"
     style="font-style:normal;font-weight:normal;font-size:2.66666675px;font-family:'Bitstream Vera Sans';opacity:0.8;fill:#000000;fill-opacity:1;stroke:none"><tspan
       x="338.45395"
       y="-220.07388"
       id="tspan4089-7-2-9-6-9-8" /></text>
  <text
     x="24.457121"
     y="-221.59178"
     id="text4087-2-6-5-75-4"
     xml:space="preserve"
     style="font-style:normal;font-weight:normal;font-size:2.66666675px;font-family:'Bitstream Vera Sans';opacity:0.8;fill:#000000;fill-opacity:1;stroke:none"><tspan
       x="24.457121"
       y="-221.59178"
       id="tspan4089-7-2-9-3-9" /></text>
  <text
     x="331.94434"
     y="-279.1156"
     id="text4087-2-6-5-4-8-1"
     xml:space="preserve"
     style="font-style:normal;font-weight:normal;font-size:2.66666675px;font-family:'Bitstream Vera Sans';opacity:0.8;fill:#000000;fill-opacity:1;stroke:none"><tspan
       x="331.94434"
       y="-279.1156"
       id="tspan4089-7-2-9-9-8-8" /></text>
  <text
     x="-172.98079"
     y="-231.71642"
     id="text4087-2-6-5-45-0"
     xml:space="preserve"
     style="font-style:normal;font-weight:normal;font-size:2.66666675px;font-family:'Bitstream Vera Sans';opacity:0.8;fill:#000000;fill-opacity:1;stroke:none"><tspan
       x="-172.98079"
       y="-231.71642"
       id="tspan4089-7-2-9-75-2" /></text>
  <text
     x="-556.92029"
     y="-74.755463"
     id="text4087-2-6-5-59-5"
     xml:space="preserve"
     style="font-style:normal;font-weight:normal;font-size:2.66666675px;font-family:'Bitstream Vera Sans';opacity:0.8;fill:#000000;fill-opacity:1;stroke:none"><tspan
       x="-556.92029"
       y="-74.755463"
       id="tspan4089-7-2-9-4-00" /></text>
  <text
     x="-195.91382"
     y="-55.203144"
     id="text4087-2-6-5-264"
     xml:space="preserve"
     style="font-style:normal;font-weight:normal;font-size:2.66666675px;font-family:'Bitstream Vera Sans';opacity:0.8;fill:#000000;fill-opacity:1;stroke:none"><tspan
       x="-195.91382"
       y="-55.203144"
       id="tspan4089-7-2-9-8" /></text>
  <text
     x="-19.06605"
     y="-4.4836254"
     id="text4087-2-6-5-42"
     xml:space="preserve"
     style="font-style:normal;font-weight:normal;font-size:2.66666675px;font-family:'Bitstream Vera Sans';opacity:0.8;fill:#000000;fill-opacity:1;stroke:none"><tspan
       x="-19.06605"
       y="-4.4836254"
       id="tspan4089-7-2-9-93" /></text>
  <text
     x="-14.021569"
     y="-13.060957"
     id="text4087-2-6-5-5-05"
     xml:space="preserve"
     style="font-style:normal;font-weight:normal;font-size:2.66666675px;font-family:'Bitstream Vera Sans';opacity:0.8;fill:#000000;fill-opacity:1;stroke:none"><tspan
       x="-14.021569"
       y="-13.060957"
       id="tspan4089-7-2-9-6-49" /></text>
  <text
     x="-281.35535"
     y="-53.909687"
     id="text4087-2-6-5-1-4"
     xml:space="preserve"
     style="font-style:normal;font-weight:normal;font-size:2.66666675px;font-family:'Bitstream Vera Sans';opacity:0.8;fill:#000000;fill-opacity:1;stroke:none"><tspan
       x="-281.35535"
       y="-53.909687"
       id="tspan4089-7-2-9-7-7" /></text>
  <text
     x="-111.33134"
     y="-140.95731"
     id="text4087-2-6-5-7-56"
     xml:space="preserve"
     style="font-style:normal;font-weight:normal;font-size:2.66666675px;font-family:'Bitstream Vera Sans';opacity:0.8;fill:#000000;fill-opacity:1;stroke:none"><tspan
       x="-111.33134"
       y="-140.95731"
       id="tspan4089-7-2-9-1-1" /></text>
  <text
     x="-106.28687"
     y="-149.53464"
     id="text4087-2-6-5-5-8"
     xml:space="preserve"
     style="font-style:normal;font-weight:normal;font-size:2.66666675px;font-family:'Bitstream Vera Sans';opacity:0.8;fill:#000000;fill-opacity:1;stroke:none"><tspan
       x="-106.28687"
       y="-149.53464"
       id="tspan4089-7-2-9-6-7" /></text>
  <text
     x="-420.28372"
     y="-151.05254"
     id="text4087-2-6-5-3-42"
     xml:space="preserve"
     style="font-style:normal;font-weight:normal;font-size:2.66666675px;font-family:'Bitstream Vera Sans';opacity:0.8;fill:#000000;fill-opacity:1;stroke:none"><tspan
       x="-420.28372"
       y="-151.05254"
       id="tspan4089-7-2-9-18-39" /></text>
  <text
     x="-112.79651"
     y="-208.57635"
     id="text4087-2-6-5-4-4"
     xml:space="preserve"
     style="font-style:normal;font-weight:normal;font-size:2.66666675px;font-family:'Bitstream Vera Sans';opacity:0.8;fill:#000000;fill-opacity:1;stroke:none"><tspan
       x="-112.79651"
       y="-208.57635"
       id="tspan4089-7-2-9-9-3" /></text>
  <text
     x="200.07617"
     y="-76.639389"
     id="text4087-2-6-5-7-1-0"
     xml:space="preserve"
     style="font-style:normal;font-weight:normal;font-size:2.66666675px;font-family:'Bitstream Vera Sans';opacity:0.8;fill:#000000;fill-opacity:1;stroke:none"><tspan
       x="200.07617"
       y="-76.639389"
       id="tspan4089-7-2-9-1-8-5" /></text>
  <text
     x="205.12064"
     y="-85.216728"
     id="text4087-2-6-5-5-5-5"
     xml:space="preserve"
     style="font-style:normal;font-weight:normal;font-size:2.66666675px;font-family:'Bitstream Vera Sans';opacity:0.8;fill:#000000;fill-opacity:1;stroke:none"><tspan
       x="205.12064"
       y="-85.216728"
       id="tspan4089-7-2-9-6-9-2" /></text>
  <text
     x="-108.87622"
     y="-86.734634"
     id="text4087-2-6-5-75-9"
     xml:space="preserve"
     style="font-style:normal;font-weight:normal;font-size:2.66666675px;font-family:'Bitstream Vera Sans';opacity:0.8;fill:#000000;fill-opacity:1;stroke:none"><tspan
       x="-108.87622"
       y="-86.734634"
       id="tspan4089-7-2-9-3-1" /></text>
  <text
     x="198.61099"
     y="-144.25844"
     id="text4087-2-6-5-4-8-18"
     xml:space="preserve"
     style="font-style:normal;font-weight:normal;font-size:2.66666675px;font-family:'Bitstream Vera Sans';opacity:0.8;fill:#000000;fill-opacity:1;stroke:none"><tspan
       x="198.61099"
       y="-144.25844"
       id="tspan4089-7-2-9-9-8-4" /></text>
  <text
     x="-306.31415"
     y="-96.859261"
     id="text4087-2-6-5-45-3"
     xml:space="preserve"
     style="font-style:normal;font-weight:normal;font-size:2.66666675px;font-family:'Bitstream Vera Sans';opacity:0.8;fill:#000000;fill-opacity:1;stroke:none"><tspan
       x="-306.31415"
       y="-96.859261"
       id="tspan4089-7-2-9-75-7" /></text>
  <text
     x="-690.2536"
     y="60.101685"
     id="text4087-2-6-5-59-8"
     xml:space="preserve"
     style="font-style:normal;font-weight:normal;font-size:2.66666675px;font-family:'Bitstream Vera Sans';opacity:0.8;fill:#000000;fill-opacity:1;stroke:none"><tspan
       x="-690.2536"
       y="60.101685"
       id="tspan4089-7-2-9-4-2" /></text>
  <g
     transform="matrix(0.19047619,0,0,0.19047619,-202.71881,-141.18703)"
     id="layer4-0">
    <text
       x="-664.2738"
       y="1159.4154"
       id="text4087-2-6-5-20"
       xml:space="preserve"
       style="font-style:normal;font-weight:normal;font-size:14px;font-family:'Bitstream Vera Sans';opacity:0.8;fill:#000000;fill-opacity:1;stroke:none"><tspan
         x="-664.2738"
         y="1159.4154"
         id="tspan4089-7-2-9-82" /></text>
  </g>
  <text
     x="132.85915"
     y="4.9916439"
     id="text4087-2-6-5-9"
     xml:space="preserve"
     style="font-style:normal;font-weight:normal;font-size:2.66666675px;font-family:'Bitstream Vera Sans';opacity:0.8;fill:#000000;fill-opacity:1;stroke:none"><tspan
       x="132.85915"
       y="4.9916439"
       id="tspan4089-7-2-9-43" /></text>
  <text
     x="137.90363"
     y="-3.5856841"
     id="text4087-2-6-5-5-51"
     xml:space="preserve"
     style="font-style:normal;font-weight:normal;font-size:2.66666675px;font-family:'Bitstream Vera Sans';opacity:0.8;fill:#000000;fill-opacity:1;stroke:none"><tspan
       x="137.90363"
       y="-3.5856841"
       id="tspan4089-7-2-9-6-74" /></text>
  <text
     x="-171.69218"
     y="-9.9180183"
     id="text4087-2-6-5-2-3"
     xml:space="preserve"
     style="font-style:normal;font-weight:normal;font-size:2.66666675px;font-family:'Bitstream Vera Sans';opacity:0.8;fill:#000000;fill-opacity:1;stroke:none"><tspan
       x="-171.69218"
       y="-9.9180183"
       id="tspan4089-7-2-9-2-1" /></text>
  <text
     x="-555.63171"
     y="147.04292"
     id="text4087-2-6-5-59-4"
     xml:space="preserve"
     style="font-style:normal;font-weight:normal;font-size:2.66666675px;font-family:'Bitstream Vera Sans';opacity:0.8;fill:#000000;fill-opacity:1;stroke:none"><tspan
       x="-555.63171"
       y="147.04292"
       id="tspan4089-7-2-9-4-6" /></text>
  <text
     x="-147.58844"
     y="-91.039413"
     id="text4087-2-6-5-1-9"
     xml:space="preserve"
     style="font-style:normal;font-weight:normal;font-size:2.66666675px;font-family:'Bitstream Vera Sans';opacity:0.8;fill:#000000;fill-opacity:1;stroke:none"><tspan
       x="-147.58844"
       y="-91.039413"
       id="tspan4089-7-2-9-7-4" /></text>
  <text
     x="22.435568"
     y="-178.08702"
     id="text4087-2-6-5-7-2"
     xml:space="preserve"
     style="font-style:normal;font-weight:normal;font-size:2.66666675px;font-family:'Bitstream Vera Sans';opacity:0.8;fill:#000000;fill-opacity:1;stroke:none"><tspan
       x="22.435568"
       y="-178.08702"
       id="tspan4089-7-2-9-1-26" /></text>
  <text
     x="27.480047"
     y="-186.66435"
     id="text4087-2-6-5-5-3-4"
     xml:space="preserve"
     style="font-style:normal;font-weight:normal;font-size:2.66666675px;font-family:'Bitstream Vera Sans';opacity:0.8;fill:#000000;fill-opacity:1;stroke:none"><tspan
       x="27.480047"
       y="-186.66435"
       id="tspan4089-7-2-9-6-5-1" /></text>
  <text
     x="-286.51682"
     y="-188.18225"
     id="text4087-2-6-5-3-2"
     xml:space="preserve"
     style="font-style:normal;font-weight:normal;font-size:2.66666675px;font-family:'Bitstream Vera Sans';opacity:0.8;fill:#000000;fill-opacity:1;stroke:none"><tspan
       x="-286.51682"
       y="-188.18225"
       id="tspan4089-7-2-9-18-8" /></text>
  <text
     x="20.970388"
     y="-245.70609"
     id="text4087-2-6-5-4-89"
     xml:space="preserve"
     style="font-style:normal;font-weight:normal;font-size:2.66666675px;font-family:'Bitstream Vera Sans';opacity:0.8;fill:#000000;fill-opacity:1;stroke:none"><tspan
       x="20.970388"
       y="-245.70609"
       id="tspan4089-7-2-9-9-2" /></text>
  <text
     x="333.84311"
     y="-113.76911"
     id="text4087-2-6-5-7-1-8"
     xml:space="preserve"
     style="font-style:normal;font-weight:normal;font-size:2.66666675px;font-family:'Bitstream Vera Sans';opacity:0.8;fill:#000000;fill-opacity:1;stroke:none"><tspan
       x="333.84311"
       y="-113.76911"
       id="tspan4089-7-2-9-1-8-8" /></text>
  <text
     x="338.88754"
     y="-122.34645"
     id="text4087-2-6-5-5-5-8"
     xml:space="preserve"
     style="font-style:normal;font-weight:normal;font-size:2.66666675px;font-family:'Bitstream Vera Sans';opacity:0.8;fill:#000000;fill-opacity:1;stroke:none"><tspan
       x="338.88754"
       y="-122.34645"
       id="tspan4089-7-2-9-6-9-6" /></text>
  <text
     x="24.890692"
     y="-123.86435"
     id="text4087-2-6-5-75-8"
     xml:space="preserve"
     style="font-style:normal;font-weight:normal;font-size:2.66666675px;font-family:'Bitstream Vera Sans';opacity:0.8;fill:#000000;fill-opacity:1;stroke:none"><tspan
       x="24.890692"
       y="-123.86435"
       id="tspan4089-7-2-9-3-3" /></text>
  <text
     x="332.37793"
     y="-181.38814"
     id="text4087-2-6-5-4-8-8"
     xml:space="preserve"
     style="font-style:normal;font-weight:normal;font-size:2.66666675px;font-family:'Bitstream Vera Sans';opacity:0.8;fill:#000000;fill-opacity:1;stroke:none"><tspan
       x="332.37793"
       y="-181.38814"
       id="tspan4089-7-2-9-9-8-3" /></text>
  <text
     x="-172.54723"
     y="-133.98898"
     id="text4087-2-6-5-45-33"
     xml:space="preserve"
     style="font-style:normal;font-weight:normal;font-size:2.66666675px;font-family:'Bitstream Vera Sans';opacity:0.8;fill:#000000;fill-opacity:1;stroke:none"><tspan
       x="-172.54723"
       y="-133.98898"
       id="tspan4089-7-2-9-75-8" /></text>
  <text
     x="-556.48669"
     y="22.97196"
     id="text4087-2-6-5-59-7-0"
     xml:space="preserve"
     style="font-style:normal;font-weight:normal;font-size:2.66666675px;font-family:'Bitstream Vera Sans';opacity:0.8;fill:#000000;fill-opacity:1;stroke:none"><tspan
       x="-556.48669"
       y="22.97196"
       id="tspan4089-7-2-9-4-0-4" /></text>
  <text
     x="-195.48024"
     y="42.524277"
     id="text4087-2-6-5-8-7"
     xml:space="preserve"
     style="font-style:normal;font-weight:normal;font-size:2.66666675px;font-family:'Bitstream Vera Sans';opacity:0.8;fill:#000000;fill-opacity:1;stroke:none"><tspan
       x="-195.48024"
       y="42.524277"
       id="tspan4089-7-2-9-19-6" /></text>
  <text
     x="38.001999"
     y="4.8011646"
     id="text4087-2-6-5-7-5-8"
     xml:space="preserve"
     style="font-style:normal;font-weight:normal;font-size:2.66666675px;font-family:'Bitstream Vera Sans';opacity:0.8;fill:#000000;fill-opacity:1;stroke:none"><tspan
       x="38.001999"
       y="4.8011646"
       id="tspan4089-7-2-9-1-2-9" /></text>
  <text
     x="43.046478"
     y="-3.7761595"
     id="text4087-2-6-5-5-0-0"
     xml:space="preserve"
     style="font-style:normal;font-weight:normal;font-size:2.66666675px;font-family:'Bitstream Vera Sans';opacity:0.8;fill:#000000;fill-opacity:1;stroke:none"><tspan
       x="43.046478"
       y="-3.7761595"
       id="tspan4089-7-2-9-6-2-6" /></text>
  <text
     x="-270.95038"
     y="-5.2940712"
     id="text4087-2-6-5-26-8"
     xml:space="preserve"
     style="font-style:normal;font-weight:normal;font-size:2.66666675px;font-family:'Bitstream Vera Sans';opacity:0.8;fill:#000000;fill-opacity:1;stroke:none"><tspan
       x="-270.95038"
       y="-5.2940712"
       id="tspan4089-7-2-9-90-7" /></text>
  <text
     x="36.536835"
     y="-62.817879"
     id="text4087-2-6-5-4-3-9"
     xml:space="preserve"
     style="font-style:normal;font-weight:normal;font-size:2.66666675px;font-family:'Bitstream Vera Sans';opacity:0.8;fill:#000000;fill-opacity:1;stroke:none"><tspan
       x="36.536835"
       y="-62.817879"
       id="tspan4089-7-2-9-9-5-0" /></text>
  <text
     x="-179.83154"
     y="-5.8655014"
     id="text4087-2-6-5-55-3"
     xml:space="preserve"
     style="font-style:normal;font-weight:normal;font-size:2.66666675px;font-family:'Bitstream Vera Sans';opacity:0.8;fill:#000000;fill-opacity:1;stroke:none"><tspan
       x="-179.83154"
       y="-5.8655014"
       id="tspan4089-7-2-9-32-3" /></text>
  <text
     x="-563.77106"
     y="151.09544"
     id="text4087-2-6-5-59-9-3"
     xml:space="preserve"
     style="font-style:normal;font-weight:normal;font-size:2.66666675px;font-family:'Bitstream Vera Sans';opacity:0.8;fill:#000000;fill-opacity:1;stroke:none"><tspan
       x="-563.77106"
       y="151.09544"
       id="tspan4089-7-2-9-4-1-7" /></text>
  <text
     x="-148.022"
     y="-187.243"
     id="text4087-2-6-5-1-8-3"
     xml:space="preserve"
     style="font-style:normal;font-weight:normal;font-size:2.66666675px;font-family:'Bitstream Vera Sans';opacity:0.8;fill:#000000;fill-opacity:1;stroke:none"><tspan
       x="-148.022"
       y="-187.243"
       id="tspan4089-7-2-9-7-8-2" /></text>
  <text
     x="22.001997"
     y="-274.29065"
     id="text4087-2-6-5-7-8-6"
     xml:space="preserve"
     style="font-style:normal;font-weight:normal;font-size:2.66666675px;font-family:'Bitstream Vera Sans';opacity:0.8;fill:#000000;fill-opacity:1;stroke:none"><tspan
       x="22.001997"
       y="-274.29065"
       id="tspan4089-7-2-9-1-9-5" /></text>
  <text
     x="27.046476"
     y="-282.86798"
     id="text4087-2-6-5-5-52-2"
     xml:space="preserve"
     style="font-style:normal;font-weight:normal;font-size:2.66666675px;font-family:'Bitstream Vera Sans';opacity:0.8;fill:#000000;fill-opacity:1;stroke:none"><tspan
       x="27.046476"
       y="-282.86798"
       id="tspan4089-7-2-9-6-4-6" /></text>
  <text
     x="-286.95038"
     y="-284.38589"
     id="text4087-2-6-5-3-4-5"
     xml:space="preserve"
     style="font-style:normal;font-weight:normal;font-size:2.66666675px;font-family:'Bitstream Vera Sans';opacity:0.8;fill:#000000;fill-opacity:1;stroke:none"><tspan
       x="-286.95038"
       y="-284.38589"
       id="tspan4089-7-2-9-18-3-8" /></text>
  <text
     x="20.536818"
     y="-341.9097"
     id="text4087-2-6-5-4-7-7"
     xml:space="preserve"
     style="font-style:normal;font-weight:normal;font-size:2.66666675px;font-family:'Bitstream Vera Sans';opacity:0.8;fill:#000000;fill-opacity:1;stroke:none"><tspan
       x="20.536818"
       y="-341.9097"
       id="tspan4089-7-2-9-9-54-9" /></text>
  <text
     x="333.40952"
     y="-209.97273"
     id="text4087-2-6-5-7-1-2-6"
     xml:space="preserve"
     style="font-style:normal;font-weight:normal;font-size:2.66666675px;font-family:'Bitstream Vera Sans';opacity:0.8;fill:#000000;fill-opacity:1;stroke:none"><tspan
       x="333.40952"
       y="-209.97273"
       id="tspan4089-7-2-9-1-8-0-0" /></text>
  <text
     x="338.45395"
     y="-218.55008"
     id="text4087-2-6-5-5-5-6-4"
     xml:space="preserve"
     style="font-style:normal;font-weight:normal;font-size:2.66666675px;font-family:'Bitstream Vera Sans';opacity:0.8;fill:#000000;fill-opacity:1;stroke:none"><tspan
       x="338.45395"
       y="-218.55008"
       id="tspan4089-7-2-9-6-9-8-1" /></text>
  <text
     x="24.457121"
     y="-220.06798"
     id="text4087-2-6-5-75-4-0"
     xml:space="preserve"
     style="font-style:normal;font-weight:normal;font-size:2.66666675px;font-family:'Bitstream Vera Sans';opacity:0.8;fill:#000000;fill-opacity:1;stroke:none"><tspan
       x="24.457121"
       y="-220.06798"
       id="tspan4089-7-2-9-3-9-4" /></text>
  <text
     x="331.94434"
     y="-277.59177"
     id="text4087-2-6-5-4-8-1-8"
     xml:space="preserve"
     style="font-style:normal;font-weight:normal;font-size:2.66666675px;font-family:'Bitstream Vera Sans';opacity:0.8;fill:#000000;fill-opacity:1;stroke:none"><tspan
       x="331.94434"
       y="-277.59177"
       id="tspan4089-7-2-9-9-8-8-7" /></text>
  <text
     x="-172.98079"
     y="-230.19261"
     id="text4087-2-6-5-45-0-0"
     xml:space="preserve"
     style="font-style:normal;font-weight:normal;font-size:2.66666675px;font-family:'Bitstream Vera Sans';opacity:0.8;fill:#000000;fill-opacity:1;stroke:none"><tspan
       x="-172.98079"
       y="-230.19261"
       id="tspan4089-7-2-9-75-2-8" /></text>
  <text
     x="-556.92029"
     y="-73.231651"
     id="text4087-2-6-5-59-5-6"
     xml:space="preserve"
     style="font-style:normal;font-weight:normal;font-size:2.66666675px;font-family:'Bitstream Vera Sans';opacity:0.8;fill:#000000;fill-opacity:1;stroke:none"><tspan
       x="-556.92029"
       y="-73.231651"
       id="tspan4089-7-2-9-4-00-2" /></text>
  <text
     x="-195.91382"
     y="-53.679333"
     id="text4087-2-6-5-264-4"
     xml:space="preserve"
     style="font-style:normal;font-weight:normal;font-size:2.66666675px;font-family:'Bitstream Vera Sans';opacity:0.8;fill:#000000;fill-opacity:1;stroke:none"><tspan
       x="-195.91382"
       y="-53.679333"
       id="tspan4089-7-2-9-8-7" /></text>
  <text
     x="-19.06605"
     y="-2.9598181"
     id="text4087-2-6-5-42-9"
     xml:space="preserve"
     style="font-style:normal;font-weight:normal;font-size:2.66666675px;font-family:'Bitstream Vera Sans';opacity:0.8;fill:#000000;fill-opacity:1;stroke:none"><tspan
       x="-19.06605"
       y="-2.9598181"
       id="tspan4089-7-2-9-93-3" /></text>
  <text
     x="-14.021569"
     y="-11.537148"
     id="text4087-2-6-5-5-05-9"
     xml:space="preserve"
     style="font-style:normal;font-weight:normal;font-size:2.66666675px;font-family:'Bitstream Vera Sans';opacity:0.8;fill:#000000;fill-opacity:1;stroke:none"><tspan
       x="-14.021569"
       y="-11.537148"
       id="tspan4089-7-2-9-6-49-2" /></text>
  <text
     x="-281.35535"
     y="-52.385876"
     id="text4087-2-6-5-1-4-8"
     xml:space="preserve"
     style="font-style:normal;font-weight:normal;font-size:2.66666675px;font-family:'Bitstream Vera Sans';opacity:0.8;fill:#000000;fill-opacity:1;stroke:none"><tspan
       x="-281.35535"
       y="-52.385876"
       id="tspan4089-7-2-9-7-7-3" /></text>
  <text
     x="-111.33134"
     y="-139.4335"
     id="text4087-2-6-5-7-56-0"
     xml:space="preserve"
     style="font-style:normal;font-weight:normal;font-size:2.66666675px;font-family:'Bitstream Vera Sans';opacity:0.8;fill:#000000;fill-opacity:1;stroke:none"><tspan
       x="-111.33134"
       y="-139.4335"
       id="tspan4089-7-2-9-1-1-1" /></text>
  <text
     x="-106.28687"
     y="-148.01082"
     id="text4087-2-6-5-5-8-7"
     xml:space="preserve"
     style="font-style:normal;font-weight:normal;font-size:2.66666675px;font-family:'Bitstream Vera Sans';opacity:0.8;fill:#000000;fill-opacity:1;stroke:none"><tspan
       x="-106.28687"
       y="-148.01082"
       id="tspan4089-7-2-9-6-7-8" /></text>
  <text
     x="-420.28372"
     y="-149.52873"
     id="text4087-2-6-5-3-42-9"
     xml:space="preserve"
     style="font-style:normal;font-weight:normal;font-size:2.66666675px;font-family:'Bitstream Vera Sans';opacity:0.8;fill:#000000;fill-opacity:1;stroke:none"><tspan
       x="-420.28372"
       y="-149.52873"
       id="tspan4089-7-2-9-18-39-1" /></text>
  <text
     x="-112.79651"
     y="-207.05254"
     id="text4087-2-6-5-4-4-5"
     xml:space="preserve"
     style="font-style:normal;font-weight:normal;font-size:2.66666675px;font-family:'Bitstream Vera Sans';opacity:0.8;fill:#000000;fill-opacity:1;stroke:none"><tspan
       x="-112.79651"
       y="-207.05254"
       id="tspan4089-7-2-9-9-3-4" /></text>
  <text
     x="200.07617"
     y="-75.115585"
     id="text4087-2-6-5-7-1-0-9"
     xml:space="preserve"
     style="font-style:normal;font-weight:normal;font-size:2.66666675px;font-family:'Bitstream Vera Sans';opacity:0.8;fill:#000000;fill-opacity:1;stroke:none"><tspan
       x="200.07617"
       y="-75.115585"
       id="tspan4089-7-2-9-1-8-5-2" /></text>
  <text
     x="205.12064"
     y="-83.692917"
     id="text4087-2-6-5-5-5-5-5"
     xml:space="preserve"
     style="font-style:normal;font-weight:normal;font-size:2.66666675px;font-family:'Bitstream Vera Sans';opacity:0.8;fill:#000000;fill-opacity:1;stroke:none"><tspan
       x="205.12064"
       y="-83.692917"
       id="tspan4089-7-2-9-6-9-2-7" /></text>
  <text
     x="-108.87622"
     y="-85.210823"
     id="text4087-2-6-5-75-9-4"
     xml:space="preserve"
     style="font-style:normal;font-weight:normal;font-size:2.66666675px;font-family:'Bitstream Vera Sans';opacity:0.8;fill:#000000;fill-opacity:1;stroke:none"><tspan
       x="-108.87622"
       y="-85.210823"
       id="tspan4089-7-2-9-3-1-9" /></text>
  <text
     x="198.61099"
     y="-142.73463"
     id="text4087-2-6-5-4-8-18-9"
     xml:space="preserve"
     style="font-style:normal;font-weight:normal;font-size:2.66666675px;font-family:'Bitstream Vera Sans';opacity:0.8;fill:#000000;fill-opacity:1;stroke:none"><tspan
       x="198.61099"
       y="-142.73463"
       id="tspan4089-7-2-9-9-8-4-4" /></text>
  <text
     x="-306.31415"
     y="-95.335449"
     id="text4087-2-6-5-45-3-5"
     xml:space="preserve"
     style="font-style:normal;font-weight:normal;font-size:2.66666675px;font-family:'Bitstream Vera Sans';opacity:0.8;fill:#000000;fill-opacity:1;stroke:none"><tspan
       x="-306.31415"
       y="-95.335449"
       id="tspan4089-7-2-9-75-7-9" /></text>
  <text
     x="-690.2536"
     y="61.625496"
     id="text4087-2-6-5-59-8-3"
     xml:space="preserve"
     style="font-style:normal;font-weight:normal;font-size:2.66666675px;font-family:'Bitstream Vera Sans';opacity:0.8;fill:#000000;fill-opacity:1;stroke:none"><tspan
       x="-690.2536"
       y="61.625496"
       id="tspan4089-7-2-9-4-2-5" /></text>
  <g
     transform="matrix(0.19047619,0,0,0.19047619,-202.71881,-139.66322)"
     id="layer4-0-7">
    <text
       x="-664.2738"
       y="1159.4154"
       id="text4087-2-6-5-20-0"
       xml:space="preserve"
       style="font-style:normal;font-weight:normal;font-size:14px;font-family:'Bitstream Vera Sans';opacity:0.8;fill:#000000;fill-opacity:1;stroke:none"><tspan
         x="-664.2738"
         y="1159.4154"
         id="tspan4089-7-2-9-82-8" /></text>
  </g>
  <text
     x="39.947861"
     y="-74.857117"
     id="text7276"
     xml:space="preserve"
     style="font-style:normal;font-variant:normal;font-weight:normal;font-stretch:normal;font-size:2.66666675px;font-family:'Droid Sans';-inkscape-font-specification:'Droid Sans';fill:#000000;fill-opacity:1;stroke:none"><tspan
       x="39.947861"
       y="-74.857117"
       id="tspan7278" /><tspan
       x="39.947861"
       y="-71.523788"
       id="tspan7280" /></text>
  <text
     x="137.88277"
     y="-176.34167"
     id="text4087-2-6-5-51"
     xml:space="preserve"
     style="font-style:normal;font-weight:normal;font-size:2.66666675px;font-family:'Bitstream Vera Sans';opacity:0.8;fill:#000000;fill-opacity:1;stroke:none"><tspan
       x="137.88277"
       y="-176.34167"
       id="tspan4089-7-2-9-97" /></text>
  <text
     x="-246.05676"
     y="-19.380747"
     id="text4087-2-6-5-59-2"
     xml:space="preserve"
     style="font-style:normal;font-weight:normal;font-size:2.66666675px;font-family:'Bitstream Vera Sans';opacity:0.8;fill:#000000;fill-opacity:1;stroke:none"><tspan
       x="-246.05676"
       y="-19.380747"
       id="tspan4089-7-2-9-4-4" /></text>
  <text
     x="290.95438"
     y="-236.34169"
     id="text4087-2-6-5-7-7"
     xml:space="preserve"
     style="font-style:normal;font-weight:normal;font-size:2.66666675px;font-family:'Bitstream Vera Sans';opacity:0.8;fill:#000000;fill-opacity:1;stroke:none"><tspan
       x="290.95438"
       y="-236.34169"
       id="tspan4089-7-2-9-1-6" /></text>
  <text
     x="295.99884"
     y="-244.91902"
     id="text4087-2-6-5-5-6"
     xml:space="preserve"
     style="font-style:normal;font-weight:normal;font-size:2.66666675px;font-family:'Bitstream Vera Sans';opacity:0.8;fill:#000000;fill-opacity:1;stroke:none"><tspan
       x="295.99884"
       y="-244.91902"
       id="tspan4089-7-2-9-6-53" /></text>
  <text
     x="-17.998011"
     y="-246.43694"
     id="text4087-2-6-5-54"
     xml:space="preserve"
     style="font-style:normal;font-weight:normal;font-size:2.66666675px;font-family:'Bitstream Vera Sans';opacity:0.8;fill:#000000;fill-opacity:1;stroke:none"><tspan
       x="-17.998011"
       y="-246.43694"
       id="tspan4089-7-2-9-0" /></text>
  <text
     x="289.4892"
     y="-303.96072"
     id="text4087-2-6-5-4-1"
     xml:space="preserve"
     style="font-style:normal;font-weight:normal;font-size:2.66666675px;font-family:'Bitstream Vera Sans';opacity:0.8;fill:#000000;fill-opacity:1;stroke:none"><tspan
       x="289.4892"
       y="-303.96072"
       id="tspan4089-7-2-9-9-28" /></text>
  <g
     transform="matrix(0.19047619,0,0,0.19047619,-98.147377,1.1428776)"
     id="layer1" />
  <rect
     width="45"
     height="36"
     rx="1.5060328"
     ry="1.4826487"
     x="1.5"
     y="8.5"
     id="rect5505-21-8-9"
     style="color:#000000;display:inline;overflow:visible;visibility:visible;opacity:0.9;fill:url(#radialGradient5521-1-5-7);fill-opacity:1.0;fill-rule:nonzero;stroke:none;stroke-width:0.99999994;stroke-opacity:1;marker:none;enable-background:accumulate" />
  <path
     style="opacity:0.3;fill:#000000;fill-opacity:1;fill-rule:evenodd;stroke:none;stroke-width:9.14285755px;stroke-linecap:butt;stroke-linejoin:miter;stroke-opacity:1"
     d="m 1.5,35.499999 0.012433,6.64706 c 0,0 -0.089359,1.354208 0.4568025,1.900065 0.5461571,0.545858 1.9600504,0.445648 1.9600504,0.445648 l 40.9796591,-0.02019 c 0,0 0.80127,-0.08398 1.063903,-0.368768 C 46.385113,43.656773 46.5,42.300141 46.5,42.300141 l -0.06498,-6.800135 z"
     id="path4299"
     inkscape:connector-curvature="0"
     sodipodi:nodetypes="cczccaccc" />
  <rect
     id="rect4276"
     style="color:#000000;opacity:0.3;fill:url(#linearGradient4284)"
     clip-path="url(#clipPath4213)"
     ry="3"
     height="16.518999"
     width="512"
     y="372"
     x="0"
     transform="matrix(0.08789062,0,0,0.09988499,1.5,-1.8072163)" />
  <g
     id="layer4"
     transform="matrix(0.08302404,0,0,0.08290163,2.5039056,4.9346875)">
    <path
       inkscape:connector-curvature="0"
       id="path4240"
       style="color:#000000;text-indent:0;text-transform:none;block-progression:tb;opacity:0.5;filter:url(#filter3869)"
       d="m 256,102 c -62.325,0 -113,50.675 -113,113 0,62.325 50.675,113 113,113 62.325,0 113,-50.675 113,-113 0,-62.325 -50.675,-113 -113,-113 z m 0,14 c 54.759,0 99,44.241 99,99 0,54.759 -44.241,99 -99,99 -54.759,0 -99,-44.241 -99,-99 0,-54.759 44.241,-99 99,-99 z m -35.688,35.875 c -0.43215,0.039 -0.79815,0.15032 -1.0625,0.3125 -8.4591,5.1898 -8.4591,124.56 0,129.75 8.4591,5.1898 105.75,-54.495 105.75,-64.875 0,-10.055 -91.291,-66.395 -104.69,-65.188 z" />
    <path
       inkscape:connector-curvature="0"
       id="path4029"
       style="color:#000000;text-indent:0;text-transform:none;block-progression:tb;fill:#ffffff"
       d="m 256,102 c -62.325,0 -113,50.675 -113,113 0,62.325 50.675,113 113,113 62.325,0 113,-50.675 113,-113 0,-62.325 -50.675,-113 -113,-113 z m 0,14 c 54.759,0 99,44.241 99,99 0,54.759 -44.241,99 -99,99 -54.759,0 -99,-44.241 -99,-99 0,-54.759 44.241,-99 99,-99 z m -35.688,35.875 c -0.43215,0.039 -0.79815,0.15032 -1.0625,0.3125 -8.4591,5.1898 -8.4591,124.56 0,129.75 8.4591,5.1898 105.75,-54.495 105.75,-64.875 0,-10.055 -91.291,-66.395 -104.69,-65.188 z" />
  </g>
  <rect
     id="rect4035"
     style="color:#000000;opacity:0.6;fill:url(#linearGradient4051)"
     ry="0.65625"
     height="1.3125"
     width="38.091789"
     y="39.261303"
     x="4.9284215" />
  <rect
     id="rect4062"
     style="color:#000000;opacity:0.4;fill:url(#linearGradient4064)"
     ry="0.65625"
     height="1.3125"
     width="26.208164"
     y="39.261303"
     x="4.9284215" />
  <path
     inkscape:connector-curvature="0"
     id="rect4053"
     style="color:#000000;opacity:0.2;fill:#ffffff"
     d="m 4.9322284,39.958565 c -0.00132,0.01377 -0.00396,0.02701 -0.00396,0.04102 0,0.363562 0.453038,0.65625 1.0157798,0.65625 l 36.0602244,0 c 0.562741,0 1.015779,-0.292688 1.015779,-0.65625 0,-0.014 -0.0026,-0.02724 -0.004,-0.04102 -0.03305,0.344006 -0.47075,0.615234 -1.011828,0.615234 l -36.0602256,0 c -0.5410812,0 -0.9787686,-0.271228 -1.0118202,-0.615234 z" />
  <rect
     id="rect4066"
     style="color:#000000;fill:url(#linearGradient4068)"
     transform="scale(1,-1)"
     ry="0.65625"
     height="1.3125"
     width="20.07848"
     y="-40.573807"
     x="4.9284215" />
  <path
     inkscape:connector-curvature="0"
     id="rect3847"
     style="color:#000000;opacity:0.4"
     d="m 5.9442,39.183713 c -0.5624878,0 -1.0157798,0.292852 -1.0157798,0.65625 0,0.01394 0.00254,0.02707 0.00376,0.04102 0.033023,-0.343712 0.4710682,-0.615235 1.0119706,-0.615235 l 36.0601718,0 c 0.540903,0 0.978958,0.271523 1.011972,0.615235 0.0012,-0.01394 0.0038,-0.02707 0.0038,-0.04102 -2.3e-5,-0.363398 -0.453314,-0.65625 -1.015803,-0.65625 l -36.0601719,0 z" />
  <g
     id="g4070"
     transform="matrix(0.13051626,0,0,0.12852656,-10.178144,-14.759681)">
    <path
       inkscape:connector-curvature="0"
       id="path4005"
       style="color:#000000;opacity:0.4;filter:url(#filter4013)"
       d="m 221,425 c 0,4.9706 -4.0294,9 -9,9 -4.9706,0 -9,-4.0294 -9,-9 0,-4.9706 4.0294,-9 9,-9 4.9706,0 9,4.0294 9,9 z"
       transform="matrix(1.1111,0,0,1.1111,26.444,-47.222)" />
    <path
       inkscape:connector-curvature="0"
       id="path3980"
       style="color:#000000;fill:url(#radialGradient4075)"
       d="m 221,425 c 0,4.9706 -4.0294,9 -9,9 -4.9706,0 -9,-4.0294 -9,-9 0,-4.9706 4.0294,-9 9,-9 4.9706,0 9,4.0294 9,9 z"
       transform="translate(50,0)" />
    <path
       inkscape:connector-curvature="0"
       id="path3996"
       d="m 262,416 c -4.9706,0 -9,4.0294 -9,9 0,0.17156 0.0218,0.33081 0.0312,0.5 0.26501,-4.7327 4.1698,-8.5 8.9688,-8.5 4.799,0 8.7037,3.7673 8.9688,8.5 0.009,-0.16919 0.0312,-0.32844 0.0312,-0.5 0,-4.9706 -4.0294,-9 -9,-9 z"
       style="color:#000000;opacity:0.6;fill:#ffffff" />
  </g>
  <rect
     style="color:#000000;display:inline;overflow:visible;visibility:visible;opacity:0.9;fill:none;fill-opacity:1;fill-rule:nonzero;stroke:none;stroke-width:0.99999994;stroke-opacity:1;marker:none;enable-background:accumulate"
     id="rect4750"
     y="8.5"
     x="1.5"
     ry="1.4826487"
     rx="1.5060328"
     height="36"
     width="45" />
  <rect
     style="color:#000000;display:inline;overflow:visible;visibility:visible;opacity:0.4;fill:none;fill-opacity:1;fill-rule:nonzero;stroke:#5b332d;stroke-width:0.99999994;stroke-opacity:1;marker:none;enable-background:accumulate"
     id="rect4752"
     y="8.5"
     x="1.5"
     ry="1.4826487"
     rx="1.5060328"
     height="36"
     width="45" />
  <rect
     width="43"
     height="34"
     rx="0.75"
     ry="0.75"
     x="2.5"
     y="9.5"
     id="rect6741-5-0-2-3"
     style="opacity:0.3;fill:none;stroke:url(#linearGradient3345);stroke-width:1;stroke-linecap:round;stroke-linejoin:round;stroke-miterlimit:4;stroke-dasharray:none;stroke-dashoffset:0;stroke-opacity:1" />
</svg>
