<?xml version="1.0" encoding="UTF-8" standalone="no"?>
<!-- Created with Inkscape (http://www.inkscape.org/) -->

<svg
   xmlns:dc="http://purl.org/dc/elements/1.1/"
   xmlns:cc="http://creativecommons.org/ns#"
   xmlns:rdf="http://www.w3.org/1999/02/22-rdf-syntax-ns#"
   xmlns:svg="http://www.w3.org/2000/svg"
   xmlns="http://www.w3.org/2000/svg"
   xmlns:xlink="http://www.w3.org/1999/xlink"
   xmlns:sodipodi="http://sodipodi.sourceforge.net/DTD/sodipodi-0.dtd"
   xmlns:inkscape="http://www.inkscape.org/namespaces/inkscape"
   version="1.0"
   width="48"
   height="48"
   id="svg2453"
   inkscape:version="0.91 r"
   sodipodi:docname="pdfmod.svg">
  <sodipodi:namedview
     pagecolor="#ffffff"
     bordercolor="#666666"
     borderopacity="1"
     objecttolerance="10"
     gridtolerance="10"
     guidetolerance="10"
     inkscape:pageopacity="0"
     inkscape:pageshadow="2"
     inkscape:window-width="1855"
     inkscape:window-height="1056"
     id="namedview55"
     showgrid="true"
     inkscape:zoom="20.437022"
     inkscape:cx="15.258305"
     inkscape:cy="12.9605"
     inkscape:window-x="65"
     inkscape:window-y="24"
     inkscape:window-maximized="1"
     inkscape:current-layer="g6996">
    <inkscape:grid
       type="xygrid"
       id="grid3951" />
  </sodipodi:namedview>
  <metadata
     id="metadata35">
    <rdf:RDF>
      <cc:Work
         rdf:about="">
        <dc:format>image/svg+xml</dc:format>
        <dc:type
           rdf:resource="http://purl.org/dc/dcmitype/StillImage" />
        <dc:title />
      </cc:Work>
    </rdf:RDF>
  </metadata>
  <defs
     id="defs2455">
    <radialGradient
       cx="605.71429"
       cy="486.64789"
       r="117.14286"
       fx="605.71429"
       fy="486.64789"
       id="radialGradient19613"
       xlink:href="#linearGradient5060"
       gradientUnits="userSpaceOnUse"
       gradientTransform="matrix(0.02891661,0,0,0.01235294,26.973101,38.470848)" />
    <linearGradient
       id="linearGradient5060">
      <stop
         id="stop5062"
         style="stop-color:#000000;stop-opacity:1"
         offset="0" />
      <stop
         id="stop5064"
         style="stop-color:#000000;stop-opacity:0"
         offset="1" />
    </linearGradient>
    <radialGradient
       cx="605.71429"
       cy="486.64789"
       r="117.14286"
       fx="605.71429"
       fy="486.64789"
       id="radialGradient19616"
       xlink:href="#linearGradient5060"
       gradientUnits="userSpaceOnUse"
       gradientTransform="matrix(-0.0289166,0,0,0.01235294,21.026894,38.470848)" />
    <linearGradient
       id="linearGradient5048">
      <stop
         id="stop5050"
         style="stop-color:#000000;stop-opacity:0"
         offset="0" />
      <stop
         id="stop5056"
         style="stop-color:#000000;stop-opacity:1"
         offset="0.5" />
      <stop
         id="stop5052"
         style="stop-color:#000000;stop-opacity:0"
         offset="1" />
    </linearGradient>
    <linearGradient
       x1="302.85715"
       y1="366.64789"
       x2="302.85715"
       y2="609.50507"
       id="linearGradient19619"
       xlink:href="#linearGradient5048"
       gradientUnits="userSpaceOnUse"
       gradientTransform="matrix(0.08449704,0,0,0.01235294,-6.5396456,38.470822)" />
    <linearGradient
       id="linearGradient3680-6-6-6-3-7-1-8-8">
      <stop
         id="stop3682-4-6-1-3-7-7-4-0"
         style="stop-color:#dcdcdc;stop-opacity:1"
         offset="0" />
      <stop
         id="stop3684-8-5-8-0-2-6-8-4"
         style="stop-color:#ffffff;stop-opacity:1"
         offset="1" />
    </linearGradient>
    <linearGradient
       y2="13.000008"
       x2="20"
       y1="26.000008"
       x1="20"
       gradientTransform="matrix(1.326882,0,0,1.326882,9.2598082,6.2451596)"
       gradientUnits="userSpaceOnUse"
       id="linearGradient3127-4-4"
       xlink:href="#linearGradient3680-6-6-6-3-7-1-8-8"
       inkscape:collect="always" />
    <linearGradient
       id="linearGradient2867-449-88-871-390-598-476-591-434-148-57-177-8-3-3-6-4-8-8-8-5-7">
      <stop
         id="stop3750-1-0-7-6-6-1-3-9-3-9"
         style="stop-color:#505050;stop-opacity:1"
         offset="0" />
      <stop
         id="stop3752-3-7-4-0-32-8-923-0-7-0"
         style="stop-color:#2b2b2b;stop-opacity:1"
         offset="0.26238" />
      <stop
         id="stop3754-1-8-5-2-7-6-7-1-9-1"
         style="stop-color:#0a0a0a;stop-opacity:1"
         offset="0.704952" />
      <stop
         id="stop3756-1-6-2-6-6-1-96-6-0-1"
         style="stop-color:#000000;stop-opacity:1"
         offset="1" />
    </linearGradient>
    <linearGradient
       id="linearGradient3462">
      <stop
         offset="0"
         style="stop-color:#ffffff;stop-opacity:1"
         id="stop3464" />
      <stop
         offset="0.03457849"
         style="stop-color:#ffffff;stop-opacity:0.23529412"
         id="stop3466" />
      <stop
         offset="0.96375686"
         style="stop-color:#ffffff;stop-opacity:0.15686275"
         id="stop3468" />
      <stop
         offset="1"
         style="stop-color:#ffffff;stop-opacity:0.39215687"
         id="stop3470" />
    </linearGradient>
    <linearGradient
       inkscape:collect="always"
       xlink:href="#linearGradient3680-6-6-6-3-7-1-8-8"
       id="linearGradient3324"
       gradientUnits="userSpaceOnUse"
       gradientTransform="matrix(1.326882,0,0,1.326882,9.2598082,6.2451596)"
       x1="20"
       y1="26.000008"
       x2="20"
       y2="13.000008" />
    <linearGradient
       inkscape:collect="always"
       xlink:href="#linearGradient3680-6-6-6-3-7-1-8-8"
       id="linearGradient3339"
       gradientUnits="userSpaceOnUse"
       gradientTransform="matrix(1.326882,0,0,1.326882,9.2598082,6.2451596)"
       x1="20"
       y1="26.000008"
       x2="20"
       y2="13.000008" />
    <linearGradient
       inkscape:collect="always"
       xlink:href="#linearGradient3462"
       id="linearGradient3345"
       gradientUnits="userSpaceOnUse"
       gradientTransform="matrix(1.1621621,0,0,0.91891888,-3.8918941,4.4459492)"
       x1="40.290417"
       y1="5.4143372"
       x2="40.290417"
       y2="42.437775" />
    <radialGradient
       inkscape:collect="always"
       xlink:href="#linearGradient2867-449-88-871-390-598-476-591-434-148-57-177"
       id="radialGradient3348"
       gradientUnits="userSpaceOnUse"
       gradientTransform="matrix(9.5829934e-8,5.5240443,-3.5511715,6.160496e-8,56.719485,-34.846919)"
       cx="5.4030919"
       cy="10.340105"
       fx="5.4030919"
       fy="10.340105"
       r="12.671875" />
    <linearGradient
       inkscape:collect="always"
       xlink:href="#linearGradient3680-6-6-6-3-7-1-8-8"
       id="linearGradient3352"
       gradientUnits="userSpaceOnUse"
       gradientTransform="matrix(1.326882,0,0,1.326882,9.2598082,6.2451596)"
       x1="20"
       y1="26.000008"
       x2="20"
       y2="13.000008" />
    <linearGradient
       inkscape:collect="always"
       xlink:href="#linearGradient3680-6-6-6-3-7-1-8-8"
       id="linearGradient3378"
       gradientUnits="userSpaceOnUse"
       gradientTransform="matrix(0.94777285,0,0,0.9730468,24.899863,25.579784)"
       x1="20"
       y1="26.000008"
       x2="20"
       y2="13.000008" />
    <linearGradient
       x1="54.596001"
       y1="42.034893"
       x2="54.596001"
       y2="9.693037"
       id="linearGradient3024-0"
       xlink:href="#linearGradient3680-6-6-6-3-7-4-4"
       gradientUnits="userSpaceOnUse"
       gradientTransform="matrix(0.98042811,0,0,0.98042811,-37.50467,2.701201)" />
    <linearGradient
       id="linearGradient3680-6-6-6-3-7-4-4">
      <stop
         id="stop3682-4-6-1-3-7-5-0"
         style="stop-color:#dcdcdc;stop-opacity:1"
         offset="0" />
      <stop
         id="stop3684-8-5-8-0-2-3-6"
         style="stop-color:#ffffff;stop-opacity:1"
         offset="1" />
    </linearGradient>
    <radialGradient
       r="19.99999"
       fy="8.4308119"
       fx="9.4238949"
       cy="8.4308119"
       cx="9.4238949"
       gradientTransform="matrix(2.1537372e-8,2.5055178,-2.7406131,-4.6161198e-8,47.241358,64.515127)"
       gradientUnits="userSpaceOnUse"
       id="radialGradient2874"
       xlink:href="#linearGradient2867-449-88-871-390-598-476-591-434-148-57-177"
       inkscape:collect="always" />
    <linearGradient
       id="linearGradient2867-449-88-871-390-598-476-591-434-148-57-177">
      <stop
         id="stop3750"
         style="stop-color:#90dbec;stop-opacity:1;"
         offset="0" />
      <stop
         id="stop3752"
         style="stop-color:#55c1ec;stop-opacity:1;"
         offset="0.26238" />
      <stop
         id="stop3754"
         style="stop-color:#3689e6;stop-opacity:1;"
         offset="0.704952" />
      <stop
         id="stop3756"
         style="stop-color:#2b63a0;stop-opacity:1;"
         offset="1" />
    </linearGradient>
    <linearGradient
       y2="3.8990016"
       x2="24"
       y1="44"
       x1="24"
       gradientTransform="matrix(1.1085471,0,0,1.0721131,-2.5214394,77.846639)"
       gradientUnits="userSpaceOnUse"
       id="linearGradient2876"
       xlink:href="#linearGradient3707-319-631-407-324"
       inkscape:collect="always" />
    <linearGradient
       id="linearGradient3707-319-631-407-324">
      <stop
         id="stop3760"
         style="stop-color:#185f9a;stop-opacity:1;"
         offset="0" />
      <stop
         id="stop3762"
         style="stop-color:#599ec9;stop-opacity:1;"
         offset="1" />
    </linearGradient>
    <radialGradient
       r="19.99999"
       fy="8.4308119"
       fx="9.4238949"
       cy="8.4308119"
       cx="9.4238949"
       gradientTransform="matrix(2.1537372e-8,2.5055178,-2.7406131,-4.6161198e-8,-9.5248748,-20.277081)"
       gradientUnits="userSpaceOnUse"
       id="radialGradient3984"
       xlink:href="#linearGradient2867-449-88-871-390-598-476-591-434-148-57-177"
       inkscape:collect="always" />
    <linearGradient
       y2="3.8990016"
       x2="24"
       y1="44"
       x1="24"
       gradientTransform="matrix(1.1085471,0,0,1.0721131,-59.287673,-6.945569)"
       gradientUnits="userSpaceOnUse"
       id="linearGradient3986"
       xlink:href="#linearGradient3707-319-631-407-324"
       inkscape:collect="always" />
    <radialGradient
       r="19.99999"
       fy="8.4497671"
       fx="7.4956832"
       cy="8.4497671"
       cx="7.4956832"
       gradientTransform="matrix(0,1.5226695,-2.6041615,-6.425061e-8,79.647259,76.958573)"
       gradientUnits="userSpaceOnUse"
       id="radialGradient3119"
       xlink:href="#linearGradient4157-401-351-3-5-9"
       inkscape:collect="always" />
    <linearGradient
       id="linearGradient4157-401-351-3-5-9">
      <stop
         id="stop3790-0-0-6"
         style="stop-color:#505050;stop-opacity:1"
         offset="0" />
      <stop
         id="stop3792-0-2-5"
         style="stop-color:#141414;stop-opacity:1"
         offset="1" />
    </linearGradient>
    <linearGradient
       y2="44.000256"
       x2="16.142857"
       y1="4.000001"
       x1="16.142857"
       gradientTransform="matrix(0.84600005,0,0,0.66209757,37.338614,85.006885)"
       gradientUnits="userSpaceOnUse"
       id="linearGradient3121"
       xlink:href="#linearGradient3610-302-5-8-5"
       inkscape:collect="always" />
    <linearGradient
       id="linearGradient3610-302-5-8-5">
      <stop
         id="stop3796-3-0-6"
         style="stop-color:#323232;stop-opacity:1"
         offset="0" />
      <stop
         id="stop3798-8-6-0"
         style="stop-color:#000000;stop-opacity:1"
         offset="1" />
    </linearGradient>
    <linearGradient
       x1="33.497383"
       y1="8.0590115"
       x2="39.020798"
       y2="3.0796025"
       id="linearGradient3034-5-1"
       xlink:href="#linearGradient8589-4-3-1-8"
       gradientUnits="userSpaceOnUse"
       gradientTransform="matrix(1.2680217,0,0,1.3557621,-7.0906231,8.9619326)" />
    <linearGradient
       id="linearGradient8589-4-3-1-8">
      <stop
         id="stop8591-7-2-8-8"
         style="stop-color:#fefefe;stop-opacity:1"
         offset="0" />
      <stop
         id="stop8593-2-4-0-3"
         style="stop-color:#cbcbcb;stop-opacity:1"
         offset="1" />
    </linearGradient>
    <linearGradient
       x1="62.952984"
       y1="23.890965"
       x2="2.4973762"
       y2="23.890968"
       id="linearGradient3555-3-3"
       xlink:href="#linearGradient3793-7-8"
       gradientUnits="userSpaceOnUse"
       gradientTransform="matrix(-0.5572773,0,0,0.5517612,-7.1404144,13.903892)" />
    <linearGradient
       id="linearGradient3793-7-8">
      <stop
         id="stop2756-0-0"
         style="stop-color:#8cab2a;stop-opacity:0"
         offset="0" />
      <stop
         id="stop3797-2-9"
         style="stop-color:#b1c948;stop-opacity:1"
         offset="0.39199844" />
      <stop
         id="stop3799-7-5"
         style="stop-color:#d7e866;stop-opacity:1"
         offset="1" />
    </linearGradient>
    <linearGradient
       x1="40.808029"
       y1="38.088909"
       x2="40.808029"
       y2="26.149443"
       id="linearGradient3557-2-6"
       xlink:href="#linearGradient3480-0-1"
       gradientUnits="userSpaceOnUse"
       gradientTransform="matrix(0,-1.095875,1.1068307,0,-71.165689,71.806498)" />
    <linearGradient
       id="linearGradient3480-0-1">
      <stop
         id="stop3482-8-3"
         style="stop-color:#548820;stop-opacity:1"
         offset="0" />
      <stop
         id="stop3484-4-5"
         style="stop-color:#548820;stop-opacity:0"
         offset="1" />
    </linearGradient>
    <linearGradient
       x1="10.432508"
       y1="26.022909"
       x2="-7.3289967"
       y2="26.022909"
       id="linearGradient3559-0-5"
       xlink:href="#linearGradient4222-0-6"
       gradientUnits="userSpaceOnUse"
       gradientTransform="matrix(0.6272101,0,0,0.5877029,-35.729537,11.387754)" />
    <linearGradient
       id="linearGradient4222-0-6">
      <stop
         id="stop4224-2-0"
         style="stop-color:#ffffff;stop-opacity:1"
         offset="0" />
      <stop
         id="stop4226-8-6"
         style="stop-color:#ffffff;stop-opacity:0"
         offset="1" />
    </linearGradient>
    <linearGradient
       inkscape:collect="always"
       xlink:href="#linearGradient4011-9-90"
       id="linearGradient11346"
       gradientUnits="userSpaceOnUse"
       gradientTransform="matrix(0.0810811,0,0,0.08108111,20.058769,20.229856)"
       x1="71.204407"
       y1="6.2375584"
       x2="71.204407"
       y2="44.340794" />
    <linearGradient
       id="linearGradient4011-9-90">
      <stop
         id="stop4013-5-3"
         style="stop-color:#ffffff;stop-opacity:1;"
         offset="0" />
      <stop
         offset="0.507761"
         style="stop-color:#ffffff;stop-opacity:0.23529412;"
         id="stop4015-1-8" />
      <stop
         id="stop4017-7-37"
         style="stop-color:#ffffff;stop-opacity:0.15686275;"
         offset="0.83456558" />
      <stop
         id="stop4019-1-6"
         style="stop-color:#ffffff;stop-opacity:0.39215687;"
         offset="1" />
    </linearGradient>
    <linearGradient
       inkscape:collect="always"
       xlink:href="#linearGradient4215-7"
       id="linearGradient11342"
       gradientUnits="userSpaceOnUse"
       gradientTransform="matrix(0.09803922,0,0,0.09803922,22.737745,18.952536)"
       x1="38.976662"
       y1="59.967686"
       x2="38.976662"
       y2="8.0928917" />
    <linearGradient
       id="linearGradient4215-7">
      <stop
         style="stop-color:#dcdcdc;stop-opacity:1;"
         offset="0"
         id="stop4217-3" />
      <stop
         style="stop-color:#f0f0f0;stop-opacity:1;"
         offset="1"
         id="stop4219-2" />
    </linearGradient>
    <linearGradient
       inkscape:collect="always"
       xlink:href="#linearGradient4223-4"
       id="linearGradient11344"
       gradientUnits="userSpaceOnUse"
       gradientTransform="matrix(0.09803922,0,0,0.09803922,22.737745,18.952536)"
       x1="21.346498"
       y1="59.968513"
       x2="21.346498"
       y2="7.8025136" />
    <linearGradient
       id="linearGradient4223-4">
      <stop
         style="stop-color:#464646;stop-opacity:1;"
         offset="0"
         id="stop4225-4" />
      <stop
         style="stop-color:#6f6f6f;stop-opacity:1;"
         offset="1"
         id="stop4227-77" />
    </linearGradient>
    <linearGradient
       inkscape:collect="always"
       xlink:href="#linearGradient3837-4"
       id="linearGradient11340"
       gradientUnits="userSpaceOnUse"
       gradientTransform="matrix(0.13043478,0,0,0.39130435,-0.86643473,-50.885866)"
       x1="165.45238"
       y1="191.05556"
       x2="189.54762"
       y2="191.05556" />
    <linearGradient
       id="linearGradient3837-4">
      <stop
         style="stop-color:#000000;stop-opacity:1;"
         offset="0"
         id="stop3839-9" />
      <stop
         style="stop-color:#000000;stop-opacity:0;"
         offset="1"
         id="stop3841-5" />
    </linearGradient>
    <linearGradient
       inkscape:collect="always"
       xlink:href="#linearGradient4168-1"
       id="linearGradient11336"
       gradientUnits="userSpaceOnUse"
       gradientTransform="matrix(0.21739131,0,0,0.09243698,91.706126,-1.5283529)"
       x1="-536.36218"
       y1="264"
       x2="-512.36218"
       y2="263.99997" />
    <linearGradient
       id="linearGradient4168-1">
      <stop
         id="stop4170-7"
         offset="0"
         style="stop-color:#55c1ec;stop-opacity:1;" />
      <stop
         id="stop4172-4"
         offset="1"
         style="stop-color:#3689e6;stop-opacity:1;" />
    </linearGradient>
    <linearGradient
       inkscape:collect="always"
       xlink:href="#linearGradient4174-5"
       id="linearGradient11338"
       gradientUnits="userSpaceOnUse"
       gradientTransform="matrix(0.21739131,0,0,0.47826088,-60.872623,-67.277173)"
       x1="189.4996"
       y1="185.67543"
       x2="165.4996"
       y2="185.67543" />
    <linearGradient
       id="linearGradient4174-5">
      <stop
         id="stop4176-5"
         offset="0"
         style="stop-color:#1e80a8;stop-opacity:1;" />
      <stop
         id="stop4178-6"
         offset="1"
         style="stop-color:#2e91d4;stop-opacity:1;" />
    </linearGradient>
    <linearGradient
       inkscape:collect="always"
       xlink:href="#linearGradient3801-1"
       id="linearGradient11334"
       gradientUnits="userSpaceOnUse"
       gradientTransform="matrix(0.30434783,0,0,0.56521741,-65.021655,-74.543475)"
       x1="165.5"
       y1="188.5"
       x2="177.49998"
       y2="188.5" />
    <linearGradient
       id="linearGradient3801-1">
      <stop
         id="stop3803-8"
         offset="0"
         style="stop-color:#ffffff;stop-opacity:1;" />
      <stop
         id="stop3805-39"
         offset="1"
         style="stop-color:#ffffff;stop-opacity:0;" />
    </linearGradient>
    <linearGradient
       y2="188.5"
       x2="177.49998"
       y1="188.5"
       x1="165.5"
       gradientTransform="matrix(0.30434783,0,0,0.56521741,-76.307369,-83.668475)"
       gradientUnits="userSpaceOnUse"
       id="linearGradient3230"
       xlink:href="#linearGradient3801-1"
       inkscape:collect="always" />
    <radialGradient
       inkscape:collect="always"
       xlink:href="#linearGradient4751-5-4-1-2-9-1-2-3-365-589-154-4-7-64-3-8-6-5-3-8"
       id="radialGradient3943"
       gradientUnits="userSpaceOnUse"
       gradientTransform="matrix(0,7.9565035,-9.7680435,0,130.43348,-78.297185)"
       cx="7.3118296"
       cy="10.097507"
       fx="7.3118296"
       fy="10.097507"
       r="12.671875" />
    <linearGradient
       id="linearGradient4751-5-4-1-2-9-1-2-3-365-589-154-4-7-64-3-8-6-5-3-8">
      <stop
         id="stop9737-3-0-8-1-8-3-3-0-4"
         style="stop-color:#ffffff;stop-opacity:1"
         offset="0" />
      <stop
         id="stop9739-4-8-0-7-48-9-7-7-4"
         style="stop-color:#ebebeb;stop-opacity:1"
         offset="1" />
    </linearGradient>
    <linearGradient
       inkscape:collect="always"
       xlink:href="#linearGradient27416-1-2-2"
       id="linearGradient3951-3"
       gradientUnits="userSpaceOnUse"
       gradientTransform="matrix(0.56277032,0,0,0.63311667,5.9913518,3.0259797)"
       x1="30.271185"
       y1="10.028973"
       x2="30.271185"
       y2="55.052982" />
    <linearGradient
       id="linearGradient27416-1-2-2">
      <stop
         offset="0"
         style="stop-color:#55c1ec;stop-opacity:1"
         id="stop27420-2-0-2" />
      <stop
         offset="1"
         style="stop-color:#3689e6;stop-opacity:1"
         id="stop27422-3-5-1" />
    </linearGradient>
    <radialGradient
       cx="4.9929786"
       cy="43.5"
       r="2.5"
       fx="4.9929786"
       fy="43.5"
       id="radialGradient3013"
       xlink:href="#linearGradient3688-166-749"
       gradientUnits="userSpaceOnUse"
       gradientTransform="matrix(2.003784,0,0,1.4,27.98813,-17.4)" />
    <linearGradient
       id="linearGradient3688-166-749">
      <stop
         id="stop2883"
         style="stop-color:#181818;stop-opacity:1"
         offset="0" />
      <stop
         id="stop2885"
         style="stop-color:#181818;stop-opacity:0"
         offset="1" />
    </linearGradient>
    <radialGradient
       cx="4.9929786"
       cy="43.5"
       r="2.5"
       fx="4.9929786"
       fy="43.5"
       id="radialGradient3015"
       xlink:href="#linearGradient3688-464-309"
       gradientUnits="userSpaceOnUse"
       gradientTransform="matrix(2.003784,0,0,1.4,-20.01187,-104.4)" />
    <linearGradient
       id="linearGradient3688-464-309">
      <stop
         id="stop2889"
         style="stop-color:#181818;stop-opacity:1"
         offset="0" />
      <stop
         id="stop2891"
         style="stop-color:#181818;stop-opacity:0"
         offset="1" />
    </linearGradient>
    <linearGradient
       x1="25.058096"
       y1="47.027729"
       x2="25.058096"
       y2="39.999443"
       id="linearGradient3656"
       xlink:href="#linearGradient3702-501-757"
       gradientUnits="userSpaceOnUse" />
    <linearGradient
       id="linearGradient3702-501-757">
      <stop
         id="stop2895"
         style="stop-color:#181818;stop-opacity:0"
         offset="0" />
      <stop
         id="stop2897"
         style="stop-color:#181818;stop-opacity:1"
         offset="0.5" />
      <stop
         id="stop2899"
         style="stop-color:#181818;stop-opacity:0"
         offset="1" />
    </linearGradient>
    <radialGradient
       cx="7.4956832"
       cy="8.4497671"
       r="19.99999"
       fx="7.4956832"
       fy="8.4497671"
       id="radialGradient3056"
       xlink:href="#linearGradient2867-449-88-871-390-598-476-591-434-148-57-177-9"
       gradientUnits="userSpaceOnUse"
       gradientTransform="matrix(1.9428467e-8,2.33699,-2.4722567,-4.3056275e-8,-1.3241815,-8.7383707)" />
    <linearGradient
       id="linearGradient2867-449-88-871-390-598-476-591-434-148-57-177-9">
      <stop
         id="stop3750-6"
         style="stop-color:#90dbec;stop-opacity:1"
         offset="0" />
      <stop
         id="stop3752-3"
         style="stop-color:#55c1ec;stop-opacity:1"
         offset="0.26238" />
      <stop
         id="stop3754-6"
         style="stop-color:#3689e6;stop-opacity:1"
         offset="0.704952" />
      <stop
         id="stop3756-9"
         style="stop-color:#2b63a0;stop-opacity:1"
         offset="1" />
    </linearGradient>
    <linearGradient
       x1="23.99999"
       y1="4.999989"
       x2="23.99999"
       y2="43"
       id="linearGradient3053"
       xlink:href="#linearGradient3924"
       gradientUnits="userSpaceOnUse"
       gradientTransform="translate(-46.214282,3.6964383)" />
    <linearGradient
       id="linearGradient3924">
      <stop
         id="stop3926"
         style="stop-color:#ffffff;stop-opacity:1"
         offset="0" />
      <stop
         id="stop3928"
         style="stop-color:#ffffff;stop-opacity:0.23529412"
         offset="0.06316455" />
      <stop
         id="stop3930"
         style="stop-color:#ffffff;stop-opacity:0.15686275"
         offset="0.95056331" />
      <stop
         id="stop3932"
         style="stop-color:#ffffff;stop-opacity:0.39215687"
         offset="1" />
    </linearGradient>
    <linearGradient
       y2="39.999443"
       x2="25.058096"
       y1="47.027729"
       x1="25.058096"
       gradientUnits="userSpaceOnUse"
       id="linearGradient3101"
       xlink:href="#linearGradient3702-501-757"
       inkscape:collect="always" />
    <linearGradient
       x1="33.497383"
       y1="8.0590115"
       x2="39.020798"
       y2="3.0796025"
       id="linearGradient3034-5-1-8"
       xlink:href="#linearGradient8589-4-3-1-8-0"
       gradientUnits="userSpaceOnUse"
       gradientTransform="matrix(1.2680217,0,0,1.3557621,-6.6944651,8.4535567)" />
    <linearGradient
       id="linearGradient8589-4-3-1-8-0">
      <stop
         id="stop8591-7-2-8-8-9"
         style="stop-color:#fefefe;stop-opacity:1"
         offset="0" />
      <stop
         id="stop8593-2-4-0-3-2"
         style="stop-color:#cbcbcb;stop-opacity:1"
         offset="1" />
    </linearGradient>
    <radialGradient
       r="19.99999"
       fy="8.4497671"
       fx="7.4956832"
       cy="8.4497671"
       cx="7.4956832"
       gradientTransform="matrix(0,1.5226695,-2.6041615,-6.425061e-8,80.543363,2.7897421)"
       gradientUnits="userSpaceOnUse"
       id="radialGradient4007"
       xlink:href="#linearGradient4157-401-351-3-5-9-1"
       inkscape:collect="always" />
    <linearGradient
       id="linearGradient4157-401-351-3-5-9-1">
      <stop
         id="stop3790-0-0-6-5"
         style="stop-color:#505050;stop-opacity:1"
         offset="0" />
      <stop
         id="stop3792-0-2-5-1"
         style="stop-color:#141414;stop-opacity:1"
         offset="1" />
    </linearGradient>
    <linearGradient
       x1="19.874987"
       y1="38.245197"
       x2="19.874987"
       y2="-61.256123"
       id="linearGradient4251"
       xlink:href="#linearGradient3707-319-631-407-1-846-5-4-5-44"
       gradientUnits="userSpaceOnUse"
       gradientTransform="matrix(-0.44999993,0,0,0.44999993,51.388331,29.450003)" />
    <linearGradient
       id="linearGradient3707-319-631-407-1-846-5-4-5-44">
      <stop
         id="stop3788-4-8-9-7"
         style="stop-color:#365a7c;stop-opacity:1"
         offset="0" />
      <stop
         id="stop3790-2-1-9-6"
         style="stop-color:#5ea1ca;stop-opacity:1"
         offset="1" />
    </linearGradient>
    <linearGradient
       x1="19.874987"
       y1="38.245197"
       x2="19.874987"
       y2="-61.256123"
       id="linearGradient4253"
       xlink:href="#linearGradient3707-319-631-407-1-846-5-4-5-44"
       gradientUnits="userSpaceOnUse"
       gradientTransform="matrix(-0.44999993,0,0,0.44999993,42.388331,29.450003)" />
    <linearGradient
       x1="19.874987"
       y1="38.245197"
       x2="19.874987"
       y2="-61.256123"
       id="linearGradient4255"
       xlink:href="#linearGradient3707-319-631-407-1-846-5-4-5-44"
       gradientUnits="userSpaceOnUse"
       gradientTransform="matrix(-0.44999993,0,0,0.44999993,33.388331,29.450003)" />
    <linearGradient
       x1="19.874987"
       y1="38.245197"
       x2="19.874987"
       y2="-61.256123"
       id="linearGradient4257"
       xlink:href="#linearGradient3707-319-631-407-1-846-5-4-5-44"
       gradientUnits="userSpaceOnUse"
       gradientTransform="matrix(-0.44999993,0,0,0.44999993,24.388331,29.450003)" />
    <filter
       inkscape:collect="always"
       id="filter59068">
      <feGaussianBlur
         inkscape:collect="always"
         stdDeviation="0.67108113"
         id="feGaussianBlur59070" />
    </filter>
    <linearGradient
       inkscape:collect="always"
       xlink:href="#linearGradient6878"
       id="linearGradient8660"
       gradientUnits="userSpaceOnUse"
       x1="65.5625"
       y1="5.375"
       x2="67.5625"
       y2="7.375" />
    <linearGradient
       inkscape:collect="always"
       id="linearGradient6878">
      <stop
         style="stop-color:#f6f6f4;stop-opacity:1"
         offset="0"
         id="stop6880" />
      <stop
         style="stop-color:#d9d6d0;stop-opacity:1"
         offset="1"
         id="stop6882" />
    </linearGradient>
    <linearGradient
       inkscape:collect="always"
       xlink:href="#linearGradient4222-0-6"
       id="linearGradient8664"
       gradientUnits="userSpaceOnUse"
       x1="66.821594"
       y1="4.7339039"
       x2="69.56163"
       y2="7.2529716" />
    <linearGradient
       inkscape:collect="always"
       xlink:href="#linearGradient6870"
       id="linearGradient8666"
       gradientUnits="userSpaceOnUse"
       x1="71.75"
       y1="-2.4375"
       x2="76.125"
       y2="2.3125" />
    <linearGradient
       inkscape:collect="always"
       id="linearGradient6870">
      <stop
         style="stop-color:#f0efec;stop-opacity:1"
         offset="0"
         id="stop9495" />
      <stop
         style="stop-color:#d9d6d0;stop-opacity:1"
         offset="1"
         id="stop6874" />
    </linearGradient>
    <linearGradient
       inkscape:collect="always"
       xlink:href="#linearGradient4222-0-6"
       id="linearGradient8670"
       gradientUnits="userSpaceOnUse"
       x1="72.169083"
       y1="-4.1491251"
       x2="76.588501"
       y2="2.3474183" />
    <linearGradient
       inkscape:collect="always"
       xlink:href="#linearGradient6946"
       id="linearGradient8672"
       gradientUnits="userSpaceOnUse"
       x1="77.6875"
       y1="4.5058594"
       x2="78.5625"
       y2="5.5615234" />
    <linearGradient
       inkscape:collect="always"
       id="linearGradient6946">
      <stop
         style="stop-color:#eeeeec;stop-opacity:1;"
         offset="0"
         id="stop6948" />
      <stop
         style="stop-color:#ffffff;stop-opacity:1"
         offset="1"
         id="stop6950" />
    </linearGradient>
    <linearGradient
       inkscape:collect="always"
       xlink:href="#linearGradient6954"
       id="linearGradient8674"
       gradientUnits="userSpaceOnUse"
       x1="75.875"
       y1="3.5419922"
       x2="78.375"
       y2="6.0664062" />
    <linearGradient
       inkscape:collect="always"
       id="linearGradient6954">
      <stop
         style="stop-color:#888a85;stop-opacity:1;"
         offset="0"
         id="stop6956" />
      <stop
         style="stop-color:#6b6c68;stop-opacity:1"
         offset="1"
         id="stop6958" />
    </linearGradient>
    <linearGradient
       inkscape:collect="always"
       xlink:href="#linearGradient8816"
       id="linearGradient8676"
       gradientUnits="userSpaceOnUse"
       gradientTransform="matrix(1.0191696,0,0,1.0115918,-1.7342497,-0.07634652)"
       x1="84.6875"
       y1="-0.50000012"
       x2="86.46875"
       y2="6" />
    <linearGradient
       id="linearGradient8816"
       inkscape:collect="always">
      <stop
         id="stop8818"
         offset="0"
         style="stop-color:#f89b9b;stop-opacity:1" />
      <stop
         id="stop8820"
         offset="1"
         style="stop-color:#ef2929;stop-opacity:1" />
    </linearGradient>
    <linearGradient
       inkscape:collect="always"
       xlink:href="#linearGradient6970"
       id="linearGradient8678"
       gradientUnits="userSpaceOnUse"
       gradientTransform="matrix(1.0191696,0,0,1.0115918,-1.7342497,-0.07634652)"
       x1="88.6875"
       y1="6.34375"
       x2="87.75"
       y2="2.7499998" />
    <linearGradient
       inkscape:collect="always"
       id="linearGradient6970">
      <stop
         style="stop-color:#740a0a;stop-opacity:1"
         offset="0"
         id="stop6972" />
      <stop
         style="stop-color:#a40000;stop-opacity:1"
         offset="1"
         id="stop6974" />
    </linearGradient>
    <linearGradient
       inkscape:collect="always"
       xlink:href="#linearGradient8816"
       id="linearGradient8680"
       gradientUnits="userSpaceOnUse"
       gradientTransform="matrix(0.9863517,0,0,1.0059724,0.9132021,-0.07622978)"
       x1="80.047112"
       y1="8.383029"
       x2="81.474808"
       y2="15.413359" />
    <linearGradient
       inkscape:collect="always"
       xlink:href="#linearGradient6970"
       id="linearGradient8682"
       gradientUnits="userSpaceOnUse"
       gradientTransform="matrix(0.9863517,0,0,1.0059724,0.9132021,-0.07622978)"
       x1="84.886803"
       y1="13.945148"
       x2="82.800255"
       y2="8.274272" />
    <linearGradient
       inkscape:collect="always"
       xlink:href="#linearGradient58973"
       id="linearGradient8640"
       gradientUnits="userSpaceOnUse"
       gradientTransform="translate(92.125,30.015609)"
       x1="37.5625"
       y1="20.644794"
       x2="28.10952"
       y2="4.4367924" />
    <linearGradient
       id="linearGradient58973"
       inkscape:collect="always">
      <stop
         id="stop58975"
         offset="0"
         style="stop-color:#fdfdfc;stop-opacity:1" />
      <stop
         style="stop-color:#f0f0ef;stop-opacity:1;"
         offset="0.57471311"
         id="stop58987" />
      <stop
         id="stop58977"
         offset="1"
         style="stop-color:#ffffff;stop-opacity:1" />
    </linearGradient>
    <linearGradient
       id="linearGradient7848">
      <stop
         style="stop-color:#808080;stop-opacity:1;"
         offset="0"
         id="stop7850" />
      <stop
         style="stop-color:#a5a5a5;stop-opacity:1;"
         offset="1"
         id="stop7852" />
    </linearGradient>
    <linearGradient
       inkscape:collect="always"
       xlink:href="#linearGradient4222-0-6"
       id="linearGradient8645"
       gradientUnits="userSpaceOnUse"
       gradientTransform="matrix(0.99585102,0,0,1.0100499,116.14587,28.890346)"
       x1="120.125"
       y1="12.046859"
       x2="147.125"
       y2="12.046859" />
    <linearGradient
       inkscape:collect="always"
       xlink:href="#linearGradient2867-449-88-871-390-598-476-591-434-148-57-177-3-8"
       id="linearGradient8647"
       gradientUnits="userSpaceOnUse"
       gradientTransform="translate(101.125,30.046859)"
       x1="27.53297"
       y1="7.1645832"
       x2="27.444582"
       y2="14.147263" />
    <linearGradient
       id="linearGradient2867-449-88-871-390-598-476-591-434-148-57-177-3-8">
      <stop
         offset="0"
         style="stop-color:#90dbec;stop-opacity:1;"
         id="stop3750-8-9" />
      <stop
         offset="0.26238"
         style="stop-color:#42baea;stop-opacity:1;"
         id="stop3752-3-2" />
      <stop
         offset="0.704952"
         style="stop-color:#3689e6;stop-opacity:1;"
         id="stop3754-7-2" />
      <stop
         offset="1"
         style="stop-color:#2b63a0;stop-opacity:1;"
         id="stop3756-9-3" />
    </linearGradient>
    <radialGradient
       inkscape:collect="always"
       xlink:href="#linearGradient5911"
       id="radialGradient8649"
       gradientUnits="userSpaceOnUse"
       gradientTransform="matrix(1.7004739,0,0,1.5841724,-16.907714,-7.7022218)"
       cx="24.137535"
       cy="14.213541"
       fx="24.137535"
       fy="14.213541"
       r="19.18985" />
    <linearGradient
       id="linearGradient5911">
      <stop
         style="stop-color:#f6f6f5;stop-opacity:1;"
         offset="0"
         id="stop5913" />
      <stop
         id="stop5921"
         offset="0.38095239"
         style="stop-color:#ecece9;stop-opacity:1;" />
      <stop
         id="stop5919"
         offset="0.76190478"
         style="stop-color:#c5c5be;stop-opacity:1;" />
      <stop
         style="stop-color:#ffffff;stop-opacity:1;"
         offset="1"
         id="stop5915" />
    </linearGradient>
    <radialGradient
       inkscape:collect="always"
       xlink:href="#linearGradient6633"
       id="radialGradient8651"
       gradientUnits="userSpaceOnUse"
       gradientTransform="matrix(0,-1.0000537,1,-5.0577615e-7,14.532227,41.22123)"
       cx="27.875977"
       cy="13.343749"
       fx="27.875977"
       fy="13.343749"
       r="2.90625" />
    <linearGradient
       id="linearGradient6633"
       inkscape:collect="always">
      <stop
         id="stop6635"
         offset="0"
         style="stop-color:#fffbd6;stop-opacity:1" />
      <stop
         id="stop6637"
         offset="1"
         style="stop-color:#fef188;stop-opacity:0;" />
    </linearGradient>
    <linearGradient
       inkscape:collect="always"
       xlink:href="#linearGradient3707-319-631-407-324"
       id="linearGradient8653"
       gradientUnits="userSpaceOnUse"
       gradientTransform="matrix(1.1666666,0,0,1,96.458333,31.046859)"
       x1="28.901785"
       y1="12.25"
       x2="29.267857"
       y2="15.96875" />
    <radialGradient
       inkscape:collect="always"
       xlink:href="#linearGradient13-paper-sheet-orig"
       id="radialGradient8655"
       gradientUnits="userSpaceOnUse"
       gradientTransform="matrix(0.262642,-0.18058,0.484247,0.705503,337.04648,120.34787)"
       cx="-26.305403"
       cy="10.108011"
       fx="-26.305403"
       fy="10.108011"
       r="7.0421038" />
    <linearGradient
       id="linearGradient13-paper-sheet-orig">
      <stop
         id="stop19-paper-sheet-orig"
         offset="0"
         style="stop-color: rgb(255, 255, 255); stop-opacity: 1;" />
      <stop
         style="stop-color: rgb(255, 255, 255); stop-opacity: 1;"
         offset="0.47533694"
         id="stop20-paper-sheet-orig" />
      <stop
         id="stop21-paper-sheet-orig"
         offset="1"
         style="stop-color: rgb(255, 255, 255); stop-opacity: 0;" />
    </linearGradient>
    <linearGradient
       inkscape:collect="always"
       xlink:href="#linearGradient5060"
       id="linearGradient8658"
       gradientUnits="userSpaceOnUse"
       gradientTransform="matrix(0.594683,0,0,0.592781,351.70748,126.64787)"
       x1="-25.510078"
       y1="11.275285"
       x2="-30.558546"
       y2="12.189651" />
    <linearGradient
       inkscape:collect="always"
       xlink:href="#linearGradient6418"
       id="linearGradient8633"
       gradientUnits="userSpaceOnUse"
       gradientTransform="matrix(0.9803922,0,0,1.0084034,-19.034315,4.0399155)"
       x1="34"
       y1="34.332294"
       x2="25.940298"
       y2="19.874184" />
    <linearGradient
       inkscape:collect="always"
       id="linearGradient6418">
      <stop
         style="stop-color:#ffffff;stop-opacity:1"
         offset="0"
         id="stop6420" />
      <stop
         style="stop-color:#e6e6e3;stop-opacity:1"
         offset="1"
         id="stop6422" />
    </linearGradient>
    <radialGradient
       cx="9"
       cy="1035.5266"
       r="4.0006957"
       fx="9"
       fy="1035.5266"
       id="radialGradient3824"
       xlink:href="#linearGradient3810"
       gradientUnits="userSpaceOnUse"
       gradientTransform="matrix(-1.9795548,0.28278205,-0.24994327,-1.749674,285.6389,2844.6513)" />
    <linearGradient
       id="linearGradient3810">
      <stop
         id="stop3812"
         style="stop-color:#a60101;stop-opacity:1"
         offset="0" />
      <stop
         id="stop3814"
         style="stop-color:#5f0101;stop-opacity:1"
         offset="1" />
    </linearGradient>
    <radialGradient
       cx="12"
       cy="15.166395"
       r="4.0006957"
       fx="12"
       fy="15.166395"
       id="radialGradient3816"
       xlink:href="#linearGradient3810"
       gradientUnits="userSpaceOnUse"
       gradientTransform="matrix(1.6713871,0.86778838,-1.602032,2.9172601,85.089692,-50.264342)" />
    <radialGradient
       cx="14.999991"
       cy="1039.7"
       r="3.5266583"
       fx="14.999991"
       fy="1039.7"
       id="radialGradient3772"
       xlink:href="#linearGradient3764"
       gradientUnits="userSpaceOnUse"
       gradientTransform="matrix(-1.3456625,-0.84532948,1.3040537,-1.9626656,-1259.3976,2053.4544)" />
    <linearGradient
       id="linearGradient3764">
      <stop
         id="stop3766"
         style="stop-color:#d1d1d1;stop-opacity:1"
         offset="0" />
      <stop
         id="stop3768"
         style="stop-color:#eaeaea;stop-opacity:1"
         offset="1" />
    </linearGradient>
    <linearGradient
       x1="17"
       y1="1042.3622"
       x2="15"
       y2="1038.3622"
       id="linearGradient3780"
       xlink:href="#linearGradient3774"
       gradientUnits="userSpaceOnUse"
       gradientTransform="matrix(0.13862378,-1.2210231,1.255751,0.13479013,-1233.5288,-121.8588)" />
    <linearGradient
       id="linearGradient3774">
      <stop
         id="stop3776"
         style="stop-color:#444444;stop-opacity:1"
         offset="0" />
      <stop
         id="stop3778"
         style="stop-color:#9e9e9e;stop-opacity:1"
         offset="1" />
    </linearGradient>
    <radialGradient
       cx="14.999991"
       cy="1039.7"
       r="3.5266583"
       fx="14.999991"
       fy="1039.7"
       id="radialGradient3784"
       xlink:href="#linearGradient3764"
       gradientUnits="userSpaceOnUse"
       gradientTransform="matrix(-1.5028913,0.53957065,0.83237261,2.1919859,-767.73395,-2277.2067)" />
    <linearGradient
       x1="17"
       y1="1042.3622"
       x2="15"
       y2="1038.3622"
       id="linearGradient3786"
       xlink:href="#linearGradient3774"
       gradientUnits="userSpaceOnUse"
       gradientTransform="matrix(-0.13862378,1.2210231,1.255751,0.13479013,-1230.4717,-148.78641)" />
    <radialGradient
       cx="4.9929786"
       cy="43.5"
       r="2.5"
       fx="4.9929786"
       fy="43.5"
       id="radialGradient3013-3"
       xlink:href="#linearGradient3688-166-749"
       gradientUnits="userSpaceOnUse"
       gradientTransform="matrix(2.003784,0,0,1.4,27.98813,-17.4)" />
    <radialGradient
       cx="4.9929786"
       cy="43.5"
       r="2.5"
       fx="4.9929786"
       fy="43.5"
       id="radialGradient3015-2"
       xlink:href="#linearGradient3688-166-749"
       gradientUnits="userSpaceOnUse"
       gradientTransform="matrix(2.003784,0,0,1.4,-20.01187,-104.4)" />
    <radialGradient
       cx="7.8500957"
       cy="9.9571075"
       r="12.671875"
       fx="7.3198657"
       fy="9.9571075"
       id="radialGradient5521-1"
       xlink:href="#linearGradient2867-449-88-871-390-598-476-591-434-148-57-177-3-8"
       gradientUnits="userSpaceOnUse"
       gradientTransform="matrix(0,5.918619,-11.65996,0,194.58702,-18.365913)" />
    <linearGradient
       x1="23.99999"
       y1="4.999989"
       x2="23.99999"
       y2="43"
       id="linearGradient3058"
       xlink:href="#linearGradient3924"
       gradientUnits="userSpaceOnUse"
       gradientTransform="translate(53.656469,36.095819)" />
  </defs>
  <g
     id="g3257"
     style="opacity:0.4">
    <rect
       width="40.799999"
       height="2.9999998"
       x="3.5999999"
       y="43"
       id="rect2879"
       style="fill:url(#linearGradient19619);fill-opacity:1;fill-rule:nonzero;stroke:none;stroke-width:1;marker:none;visibility:visible;display:inline;overflow:visible" />
    <path
       d="m 3.6,43.00013 c 0,0 0,2.999835 0,2.999835 C 2.1108662,46.005612 0,45.327854 0,44.499854 0,43.671856 1.6617608,43.000131 3.6,43.00013 z"
       inkscape:connector-curvature="0"
       id="path2881"
       style="fill:url(#radialGradient19616);fill-opacity:1;fill-rule:nonzero;stroke:none;stroke-width:1;marker:none;visibility:visible;display:inline;overflow:visible" />
    <path
       d="m 44.4,43.00013 c 0,0 0,2.999835 0,2.999835 1.489133,0.0056 3.6,-0.672111 3.6,-1.500111 0,-0.827998 -1.661761,-1.499723 -3.6,-1.499724 z"
       inkscape:connector-curvature="0"
       id="path2883"
       style="fill:url(#radialGradient19613);fill-opacity:1;fill-rule:nonzero;stroke:none;stroke-width:1;marker:none;visibility:visible;display:inline;overflow:visible" />
  </g>
  <rect
     width="45"
     height="36"
     rx="1.5"
     ry="1.5"
     x="1.4999995"
     y="8.5"
     id="rect5505-21-3-8-5-2"
     style="color:#000000;display:inline;overflow:visible;visibility:visible;opacity:1;fill:url(#radialGradient3348);fill-opacity:1;fill-rule:nonzero;stroke:none;stroke-width:0.99999994;marker:none;enable-background:accumulate" />
  <rect
     width="45"
     height="36"
     rx="1.5"
     ry="1.5"
     x="1.4999995"
     y="8.5"
     id="rect5505-21-3-8-9-1-1"
     style="opacity:0.4;color:#000000;fill:none;stroke:#004264;stroke-width:1;stroke-linecap:round;stroke-linejoin:round;stroke-miterlimit:4;stroke-opacity:1;stroke-dasharray:none;stroke-dashoffset:0;marker:none;visibility:visible;display:inline;overflow:visible;enable-background:accumulate" />
  <rect
     width="43"
     height="34"
     rx="0.75"
     ry="0.75"
     x="2.5"
     y="9.5"
     id="rect6741-5-0-2-3"
     style="opacity:0.3;fill:none;stroke:url(#linearGradient3345);stroke-width:1;stroke-linecap:round;stroke-linejoin:round;stroke-miterlimit:4;stroke-opacity:1;stroke-dasharray:none;stroke-dashoffset:0" />
  <g
     style="display:inline;enable-background:new;stroke:none"
     id="g7642"
     transform="translate(3.0374987,-4.3765408)">
    <path
       inkscape:connector-curvature="0"
       sodipodi:nodetypes="ccccccc"
       id="rect7544"
       d="m 35.500003,25.504242 0,13.726352 c 0,0.703251 -0.566156,1.269407 -1.269407,1.269407 l -25.461188,0 c -0.703251,0 -1.269407,-0.566156 -1.269407,-1.269407 l 0,-13.726352 28.000002,0 z"
       style="display:inline;overflow:visible;visibility:visible;fill:url(#linearGradient8633);fill-opacity:1;fill-rule:evenodd;stroke:none;stroke-width:0.99999982px;stroke-linecap:butt;stroke-linejoin:miter;stroke-miterlimit:4;stroke-dashoffset:0;stroke-opacity:1;marker:none;marker-start:none;marker-mid:none;marker-end:none;enable-background:accumulate" />
    <rect
       ry="0.5"
       rx="0.5"
       y="28"
       x="10"
       height="1"
       width="11.875"
       id="rect7590"
       style="display:inline;overflow:visible;visibility:visible;opacity:1;fill:#babdb6;fill-opacity:1;fill-rule:evenodd;stroke:none;stroke-width:1px;stroke-linecap:butt;stroke-linejoin:miter;stroke-miterlimit:4;stroke-dasharray:none;stroke-dashoffset:0;stroke-opacity:1;marker:none;marker-start:none;marker-mid:none;marker-end:none;enable-background:accumulate" />
    <rect
       ry="0.5"
       rx="0.5"
       y="30"
       x="10"
       height="1"
       width="11.875"
       id="rect7592"
       style="display:inline;overflow:visible;visibility:visible;opacity:1;fill:#babdb6;fill-opacity:1;fill-rule:evenodd;stroke:none;stroke-width:1px;stroke-linecap:butt;stroke-linejoin:miter;stroke-miterlimit:4;stroke-dasharray:none;stroke-dashoffset:0;stroke-opacity:1;marker:none;marker-start:none;marker-mid:none;marker-end:none;enable-background:accumulate" />
    <rect
       ry="0.5"
       rx="0.5"
       y="33"
       x="10"
       height="1"
       width="11.875"
       id="rect7594"
       style="display:inline;overflow:visible;visibility:visible;opacity:1;fill:#babdb6;fill-opacity:1;fill-rule:evenodd;stroke:none;stroke-width:1px;stroke-linecap:butt;stroke-linejoin:miter;stroke-miterlimit:4;stroke-dasharray:none;stroke-dashoffset:0;stroke-opacity:1;marker:none;marker-start:none;marker-mid:none;marker-end:none;enable-background:accumulate" />
    <rect
       style="display:inline;overflow:visible;visibility:visible;opacity:1;fill:#babdb6;fill-opacity:1;fill-rule:evenodd;stroke:none;stroke-width:1px;stroke-linecap:butt;stroke-linejoin:miter;stroke-miterlimit:4;stroke-dasharray:none;stroke-dashoffset:0;stroke-opacity:1;marker:none;marker-start:none;marker-mid:none;marker-end:none;enable-background:accumulate"
       id="rect7596"
       width="11.875"
       height="1"
       x="10"
       y="35"
       rx="0.5"
       ry="0.5" />
    <rect
       ry="0.5"
       rx="0.5"
       y="35"
       x="26"
       height="1"
       width="7"
       id="rect7612"
       style="display:inline;overflow:visible;visibility:visible;opacity:1;fill:#babdb6;fill-opacity:1;fill-rule:evenodd;stroke:none;stroke-width:1px;stroke-linecap:butt;stroke-linejoin:miter;stroke-miterlimit:4;stroke-dasharray:none;stroke-dashoffset:0;stroke-opacity:1;marker:none;marker-start:none;marker-mid:none;marker-end:none;enable-background:accumulate" />
    <rect
       style="display:inline;overflow:visible;visibility:visible;opacity:1;fill:#babdb6;fill-opacity:1;fill-rule:evenodd;stroke:none;stroke-width:1px;stroke-linecap:butt;stroke-linejoin:miter;stroke-miterlimit:4;stroke-dasharray:none;stroke-dashoffset:0;stroke-opacity:1;marker:none;marker-start:none;marker-mid:none;marker-end:none;enable-background:accumulate"
       id="rect7614"
       width="7"
       height="1"
       x="26"
       y="33"
       rx="0.5"
       ry="0.5" />
    <rect
       ry="0.5"
       rx="0.5"
       y="30"
       x="26"
       height="1"
       width="7"
       id="rect7616"
       style="display:inline;overflow:visible;visibility:visible;opacity:1;fill:#babdb6;fill-opacity:1;fill-rule:evenodd;stroke:none;stroke-width:1px;stroke-linecap:butt;stroke-linejoin:miter;stroke-miterlimit:4;stroke-dasharray:none;stroke-dashoffset:0;stroke-opacity:1;marker:none;marker-start:none;marker-mid:none;marker-end:none;enable-background:accumulate" />
    <path
       inkscape:connector-curvature="0"
       sodipodi:nodetypes="ccccccc"
       id="path7859"
       d="m 8.46875,26.46875 0,12.75 c 0,0.175381 0.137121,0.3125 0.3125,0.3125 l 25.4375,0 c 0.17538,0 0.3125,-0.137119 0.3125,-0.3125 l 0,-12.75 -26.0625,0 z"
       style="display:inline;overflow:visible;visibility:visible;opacity:0.35714291;fill:none;fill-opacity:1;fill-rule:evenodd;stroke:none;stroke-width:0.99999982px;stroke-linecap:butt;stroke-linejoin:miter;stroke-miterlimit:4;stroke-dashoffset:0;stroke-opacity:1;marker:none;marker-start:none;marker-mid:none;marker-end:none;enable-background:accumulate" />
    <rect
       ry="0.5"
       rx="0.5"
       y="37"
       x="10"
       height="1"
       width="10"
       id="rect7955"
       style="display:inline;overflow:visible;visibility:visible;opacity:1;fill:#babdb6;fill-opacity:1;fill-rule:evenodd;stroke:none;stroke-width:1px;stroke-linecap:butt;stroke-linejoin:miter;stroke-miterlimit:4;stroke-dasharray:none;stroke-dashoffset:0;stroke-opacity:1;marker:none;marker-start:none;marker-mid:none;marker-end:none;enable-background:accumulate" />
    <rect
       style="display:inline;overflow:visible;visibility:visible;opacity:1;fill:#babdb6;fill-opacity:1;fill-rule:evenodd;stroke:none;stroke-width:1px;stroke-linecap:butt;stroke-linejoin:miter;stroke-miterlimit:4;stroke-dasharray:none;stroke-dashoffset:0;stroke-opacity:1;marker:none;marker-start:none;marker-mid:none;marker-end:none;enable-background:accumulate"
       id="rect7957"
       width="7"
       height="1"
       x="26"
       y="37"
       rx="0.5"
       ry="0.5" />
    <path
       style="display:inline;overflow:visible;visibility:visible;fill:none;fill-opacity:1;fill-rule:evenodd;stroke:#1a3a80;stroke-width:0.99999982px;stroke-linecap:butt;stroke-linejoin:miter;stroke-miterlimit:4;stroke-dashoffset:0;stroke-opacity:1;marker:none;marker-start:none;marker-mid:none;marker-end:none;enable-background:accumulate;opacity:0.4"
       d="m 35.500003,25.504242 0,13.726352 c 0,0.703251 -0.566156,1.269407 -1.269407,1.269407 l -25.461188,0 c -0.703251,0 -1.269407,-0.566156 -1.269407,-1.269407 l 0,-13.726352 28.000002,0 z"
       id="path4447"
       sodipodi:nodetypes="ccccccc"
       inkscape:connector-curvature="0" />
  </g>
  <g
     style="display:inline;enable-background:new"
     id="g58989"
     transform="translate(-109.0875,-32.423398)">
    <path
       inkscape:connector-curvature="0"
       sodipodi:nodetypes="cccccccc"
       id="path7444"
       d="m 120.78125,33.515609 c -0.63657,0 -1.15625,0.519677 -1.15625,1.15625 l 0,15.84375 0,0.03125 27.90625,-0.03125 -0.0313,-8.84375 c -0.15529,-4.130483 -3.88873,-8.17195 -9.125,-8.125 l -17.59375,-0.03125 z"
       style="display:inline;overflow:visible;visibility:visible;fill:url(#linearGradient8640);fill-opacity:1;fill-rule:evenodd;stroke:none;stroke-width:0.99999982px;stroke-linecap:butt;stroke-linejoin:miter;stroke-miterlimit:4;stroke-dashoffset:0;stroke-opacity:1;marker:none;marker-start:none;marker-mid:none;marker-end:none;enable-background:accumulate" />
    <rect
       style="display:inline;overflow:visible;visibility:visible;fill:url(#linearGradient8647);fill-opacity:1;fill-rule:evenodd;stroke:none;stroke-width:1px;stroke-linecap:butt;stroke-linejoin:miter;stroke-miterlimit:4;stroke-dasharray:none;stroke-dashoffset:0;stroke-opacity:1;marker:none;marker-start:none;marker-mid:none;marker-end:none;enable-background:accumulate"
       id="rect6462"
       width="14"
       height="12"
       x="122.125"
       y="36.04686"
       rx="1.1490487"
       ry="1.1490488" />
    <circle
       r="2.90625"
       cy="13.34375"
       cx="27.90625"
       transform="matrix(1.0322581,0,0,1.0322581,100.31855,29.272665)"
       id="path6470"
       style="display:inline;overflow:visible;visibility:visible;fill:url(#radialGradient8649);fill-opacity:1;fill-rule:nonzero;stroke:none;stroke-width:1.0000006;stroke-linecap:butt;stroke-linejoin:miter;stroke-miterlimit:4;stroke-dasharray:none;stroke-dashoffset:0;stroke-opacity:1;marker:none;marker-start:none;marker-mid:none;marker-end:none;enable-background:accumulate" />
    <circle
       r="2.90625"
       cy="13.34375"
       cx="27.90625"
       style="display:inline;overflow:visible;visibility:visible;opacity:0.51503757;fill:url(#radialGradient8651);fill-opacity:1;fill-rule:nonzero;stroke:none;stroke-width:1.0000006;stroke-linecap:butt;stroke-linejoin:miter;stroke-miterlimit:4;stroke-dasharray:none;stroke-dashoffset:0;stroke-opacity:1;marker:none;marker-start:none;marker-mid:none;marker-end:none;enable-background:accumulate"
       id="path6629"
       transform="matrix(1.7204301,0,0,1.72043,81.114246,20.08987)" />
    <rect
       ry="0.43029881"
       rx="0.43029881"
       y="44.04686"
       x="122.125"
       height="4"
       width="14"
       id="rect6515"
       style="display:inline;overflow:visible;visibility:visible;fill:url(#linearGradient8653);fill-opacity:1;fill-rule:evenodd;stroke:none;stroke-width:1px;stroke-linecap:butt;stroke-linejoin:miter;stroke-miterlimit:4;stroke-dasharray:none;stroke-dashoffset:0;stroke-opacity:1;marker:none;marker-start:none;marker-mid:none;marker-end:none;enable-background:accumulate" />
    <circle
       r="2.90625"
       cy="13.34375"
       cx="27.90625"
       style="display:inline;overflow:visible;visibility:visible;fill:#fef18f;fill-opacity:1;fill-rule:nonzero;stroke:none;stroke-width:1.0000006;stroke-linecap:butt;stroke-linejoin:miter;stroke-miterlimit:4;stroke-dasharray:none;stroke-dashoffset:0;stroke-opacity:1;marker:none;marker-start:none;marker-mid:none;marker-end:none;enable-background:accumulate"
       id="path6639"
       transform="matrix(0.3440861,0,0,0.344086,119.52285,38.455461)" />
    <ellipse
       ry="0.28726214"
       rx="0.46403882"
       cy="15.340506"
       cx="26.671185"
       transform="matrix(1.077496,0,0,1.7405705,97.886905,18.845628)"
       id="path6643"
       style="display:inline;overflow:visible;visibility:visible;opacity:0.23684214;fill:#ffffff;fill-opacity:1;fill-rule:evenodd;stroke:none;stroke-width:1px;stroke-linecap:butt;stroke-linejoin:miter;stroke-miterlimit:4;stroke-dasharray:none;stroke-dashoffset:0;stroke-opacity:1;marker:none;marker-start:none;marker-mid:none;marker-end:none;enable-background:accumulate" />
    <ellipse
       ry="0.28726214"
       rx="0.46403882"
       cy="15.340506"
       cx="26.671185"
       style="display:inline;overflow:visible;visibility:visible;opacity:0.51503757;fill:#ffffff;fill-opacity:1;fill-rule:evenodd;stroke:none;stroke-width:1px;stroke-linecap:butt;stroke-linejoin:miter;stroke-miterlimit:4;stroke-dasharray:none;stroke-dashoffset:0;stroke-opacity:1;marker:none;marker-start:none;marker-mid:none;marker-end:none;enable-background:accumulate"
       id="path6645"
       transform="matrix(1.077496,0,0,1.7405705,100.88691,17.845628)" />
    <ellipse
       ry="0.28726214"
       rx="0.46403882"
       cy="15.340506"
       cx="26.671185"
       transform="matrix(1.0774961,0,0,1.7405705,102.8869,17.845628)"
       id="path6647"
       style="display:inline;overflow:visible;visibility:visible;opacity:0.51503757;fill:#ffffff;fill-opacity:1;fill-rule:evenodd;stroke:none;stroke-width:1px;stroke-linecap:butt;stroke-linejoin:miter;stroke-miterlimit:4;stroke-dasharray:none;stroke-dashoffset:0;stroke-opacity:1;marker:none;marker-start:none;marker-mid:none;marker-end:none;enable-background:accumulate" />
    <ellipse
       ry="0.28726214"
       rx="0.46403882"
       cy="15.340506"
       cx="26.671185"
       style="display:inline;overflow:visible;visibility:visible;opacity:0.37593988;fill:#ffffff;fill-opacity:1;fill-rule:evenodd;stroke:none;stroke-width:1px;stroke-linecap:butt;stroke-linejoin:miter;stroke-miterlimit:4;stroke-dasharray:none;stroke-dashoffset:0;stroke-opacity:1;marker:none;marker-start:none;marker-mid:none;marker-end:none;enable-background:accumulate"
       id="path6649"
       transform="matrix(1.077496,0,0,1.7405705,99.886905,18.845628)" />
    <ellipse
       ry="0.28726214"
       rx="0.46403882"
       cy="15.340506"
       cx="26.671185"
       transform="matrix(1.077496,0,0,1.7405705,96.886905,17.845627)"
       id="path6651"
       style="display:inline;overflow:visible;visibility:visible;opacity:0.51503757;fill:#ffffff;fill-opacity:1;fill-rule:evenodd;stroke:none;stroke-width:1px;stroke-linecap:butt;stroke-linejoin:miter;stroke-miterlimit:4;stroke-dasharray:none;stroke-dashoffset:0;stroke-opacity:1;marker:none;marker-start:none;marker-mid:none;marker-end:none;enable-background:accumulate" />
    <ellipse
       ry="0.28726214"
       rx="0.46403882"
       cy="15.340506"
       cx="26.671185"
       transform="matrix(1.077496,0,0,1.7405705,98.886905,17.845627)"
       id="path6655"
       style="display:inline;overflow:visible;visibility:visible;opacity:0.51503757;fill:#ffffff;fill-opacity:1;fill-rule:evenodd;stroke:none;stroke-width:1px;stroke-linecap:butt;stroke-linejoin:miter;stroke-miterlimit:4;stroke-dasharray:none;stroke-dashoffset:0;stroke-opacity:1;marker:none;marker-start:none;marker-mid:none;marker-end:none;enable-background:accumulate" />
    <ellipse
       ry="0.28726214"
       rx="0.46403882"
       cy="15.340506"
       cx="26.671185"
       transform="matrix(1.077496,0,0,1.7405705,101.88691,18.845628)"
       id="path6657"
       style="display:inline;overflow:visible;visibility:visible;opacity:0.37593988;fill:#ffffff;fill-opacity:1;fill-rule:evenodd;stroke:none;stroke-width:1px;stroke-linecap:butt;stroke-linejoin:miter;stroke-miterlimit:4;stroke-dasharray:none;stroke-dashoffset:0;stroke-opacity:1;marker:none;marker-start:none;marker-mid:none;marker-end:none;enable-background:accumulate" />
    <ellipse
       ry="0.28726214"
       rx="0.46403882"
       cy="15.340506"
       cx="26.671185"
       transform="matrix(1.0774961,0,0,1.7405705,100.8869,19.845627)"
       id="path6661"
       style="display:inline;overflow:visible;visibility:visible;opacity:0.23684214;fill:#ffffff;fill-opacity:1;fill-rule:evenodd;stroke:none;stroke-width:1px;stroke-linecap:butt;stroke-linejoin:miter;stroke-miterlimit:4;stroke-dasharray:none;stroke-dashoffset:0;stroke-opacity:1;marker:none;marker-start:none;marker-mid:none;marker-end:none;enable-background:accumulate" />
    <rect
       ry="0.5"
       rx="0.5"
       y="43.04686"
       x="138.125"
       height="1"
       width="7"
       id="rect7578"
       style="display:inline;overflow:visible;visibility:visible;fill:#babdb6;fill-opacity:1;fill-rule:evenodd;stroke:none;stroke-width:1px;stroke-linecap:butt;stroke-linejoin:miter;stroke-miterlimit:4;stroke-dasharray:none;stroke-dashoffset:0;stroke-opacity:1;marker:none;marker-start:none;marker-mid:none;marker-end:none;enable-background:accumulate" />
    <rect
       style="display:inline;overflow:visible;visibility:visible;fill:#babdb6;fill-opacity:1;fill-rule:evenodd;stroke:none;stroke-width:1px;stroke-linecap:butt;stroke-linejoin:miter;stroke-miterlimit:4;stroke-dasharray:none;stroke-dashoffset:0;stroke-opacity:1;marker:none;marker-start:none;marker-mid:none;marker-end:none;enable-background:accumulate"
       id="rect7580"
       width="7"
       height="1"
       x="138.125"
       y="45.04686"
       rx="0.5"
       ry="0.5" />
    <rect
       style="display:inline;overflow:visible;visibility:visible;fill:#babdb6;fill-opacity:1;fill-rule:evenodd;stroke:none;stroke-width:1px;stroke-linecap:butt;stroke-linejoin:miter;stroke-miterlimit:4;stroke-dasharray:none;stroke-dashoffset:0;stroke-opacity:1;marker:none;marker-start:none;marker-mid:none;marker-end:none;enable-background:accumulate"
       id="rect7582"
       width="5"
       height="1"
       x="138.125"
       y="47.04686"
       rx="0.5"
       ry="0.5" />
    <path
       inkscape:connector-curvature="0"
       sodipodi:nodetypes="cccccccc"
       id="path6607"
       d="m 120.6272,34.603442 0,14.835109 0.15561,0.15782 25.58093,0 c 0.0929,0 0.15561,-0.06372 0.15561,-0.15782 l -0.18673,-7.764757 c -0.0737,-3.288205 -2.79429,-7.158905 -8.0913,-7.228171 l -17.61412,0.157819 z"
       style="display:inline;overflow:visible;visibility:visible;opacity:0.56790125;fill:none;fill-opacity:1;fill-rule:evenodd;stroke:url(#linearGradient8645);stroke-width:0.96344644;stroke-linecap:butt;stroke-linejoin:miter;stroke-miterlimit:4;stroke-dasharray:none;stroke-dashoffset:0;stroke-opacity:1;marker:none;marker-start:none;marker-mid:none;marker-end:none;enable-background:accumulate" />
    <g
       inkscape:export-ydpi="90"
       inkscape:export-xdpi="90"
       inkscape:export-filename="/home/lapo/Scrivania/use4934.png"
       transform="matrix(1,0,0,0.9913092,-193,-93.87889)"
       id="g28-paper-sheet-orig"
       style="display:inline;enable-background:new">
      <path
         inkscape:connector-curvature="0"
         sodipodi:nodetypes="ccccczc"
         id="path33-paper-sheet-orig"
         d="m 332.32984,128.37387 c -0.89553,0 -0.0271,0.32079 0.86642,0.72599 0.89355,0.40521 2.36476,1.91215 1.83822,4.27401 4.56932,-0.70711 5.1482,2.17757 5.35509,2.92542 0.20689,0.74785 0.64478,1.68278 0.64478,0.7865 0.0183,-2.45585 -1.83467,-4.15056 -3.12315,-5.58612 -1.28847,-1.43556 -3.22548,-2.81813 -5.58136,-3.1258 z"
         style="display:inline;fill:url(#radialGradient8655);fill-opacity:1;stroke:none" />
      <path
         inkscape:connector-curvature="0"
         sodipodi:nodetypes="ccccc"
         id="path34-paper-sheet-orig"
         d="m 333.03966,129.02846 c 0.59468,0 0.99482,3.84541 0.99482,6.34541 3,0 5.70366,0.45181 6,1 -0.20689,-0.74785 -0.53856,-3.7734 -5,-3 0.55752,-2.5008 -1.21299,-4.10771 -1.99482,-4.34541 z"
         style="display:inline;opacity:0.7;fill:url(#linearGradient8658);fill-opacity:1;stroke:none" />
    </g>
    <path
       style="display:inline;overflow:visible;visibility:visible;fill:none;fill-opacity:1;fill-rule:evenodd;stroke:#1a3a80;stroke-width:0.99999982px;stroke-linecap:butt;stroke-linejoin:miter;stroke-miterlimit:4;stroke-dashoffset:0;stroke-opacity:1;marker:none;marker-start:none;marker-mid:none;marker-end:none;enable-background:accumulate;opacity:0.4"
       d="m 120.78125,33.515609 c -0.63657,0 -1.15625,0.519677 -1.15625,1.15625 l 0,15.84375 0,0.03125 27.90625,-0.03125 -0.0313,-8.84375 c -0.15529,-4.130483 -3.88873,-8.17195 -9.125,-8.125 l -17.59375,-0.03125 z"
       id="path4449"
       sodipodi:nodetypes="cccccccc"
       inkscape:connector-curvature="0" />
  </g>
  <g
     style="display:inline;fill:none;fill-opacity:1;stroke:#ffffff;stroke-width:1.05127716;stroke-miterlimit:4;stroke-dasharray:none;stroke-opacity:1;enable-background:new"
     id="g4421"
     transform="matrix(0.92981223,0,0,0.86912113,4.5465357,-0.10898468)">
    <path
       inkscape:connector-curvature="0"
       sodipodi:nodetypes="ccccccc"
       id="path4423"
       d="m 35.500003,25.504242 0,13.726352 c 0,0.703251 -0.566156,1.269407 -1.269407,1.269407 l -25.461188,0 c -0.703251,0 -1.269407,-0.566156 -1.269407,-1.269407 l 0,-13.726352 28.000002,0 z"
       style="display:inline;overflow:visible;visibility:visible;opacity:0.5;fill:none;fill-opacity:1;fill-rule:evenodd;stroke:#ffffff;stroke-width:1.05127716;stroke-linecap:butt;stroke-linejoin:miter;stroke-miterlimit:4;stroke-dasharray:none;stroke-dashoffset:0;stroke-opacity:1;marker:none;marker-start:none;marker-mid:none;marker-end:none;enable-background:accumulate" />
  </g>
  <g
     style="display:inline;enable-background:new"
     id="g7698"
     transform="translate(1.0374987,-2.3765398)">
    <path
       inkscape:connector-curvature="0"
       id="path7211"
       d="M 19.816754,19.730132 28.423903,32.934005 13.976087,33.667 16.30635,35.486544 c 0,0 4.40685,2.738199 8.03078,2.473034 3.62392,-0.265165 9.25856,-1.996321 9.25856,-1.996321 l -1.45006,-0.87316 c 0,0 0.34467,1.767767 0.521447,3.800699 0.176777,2.032932 0.353553,2.828427 0.353553,2.828427 l 1.944544,1.325825 2.298097,-0.353553 c 0,0 -2.298097,-2.65165 -1.856155,-4.154252 0.441942,-1.502602 0.09727,-3.358758 0.09727,-3.358758 L 33.825009,29.07969 19.816754,19.730132 Z"
       style="opacity:0.37198067;fill:#000000;fill-rule:evenodd;stroke:none;stroke-width:1px;stroke-linecap:butt;stroke-linejoin:miter;stroke-opacity:1;filter:url(#filter59068)"
       sodipodi:nodetypes="ccccsccscccsccc" />
    <g
       transform="translate(-43.968592,28)"
       id="g6996">
      <path
         inkscape:connector-curvature="0"
         style="fill:url(#linearGradient8660);fill-opacity:1;fill-rule:evenodd;stroke:#838383;stroke-width:1px;stroke-linecap:butt;stroke-linejoin:miter;stroke-opacity:1"
         d="M 81.499999,4.8079659 C 76.276432,7.0356804 71.684768,7.90665 68.170456,8.4083918 64.612827,8.9163179 58.500002,5.1772404 58.500002,5.1772404 l 22.999997,-2.6772403 0,2.3079658 z"
         id="path6852"
         sodipodi:nodetypes="czccc" />
      <path
         sodipodi:type="inkscape:offset"
         inkscape:radius="-1.016466"
         inkscape:original="M 81.5 2.5 L 58.5 5.1875 C 58.5 5.1875 64.598621 8.9141759 68.15625 8.40625 C 71.670562 7.9045082 76.276432 7.0402146 81.5 4.8125 L 81.5 2.5 z "
         style="fill:none;fill-opacity:1;fill-rule:evenodd;stroke:url(#linearGradient8664);stroke-width:1px;stroke-linecap:butt;stroke-linejoin:miter;stroke-opacity:1"
         id="path6904"
         d="M 80.484375,3.6425781 61.925781,5.8105469 c 0.249323,0.1185259 0.209016,0.1272866 0.478516,0.2460937 1.900939,0.838016 4.253399,1.537065 5.607422,1.34375 C 71.33747,6.9255698 75.643594,6.061922 80.484375,4.0839844 l 0,-0.4414063 z" />
      <path
         inkscape:connector-curvature="0"
         sodipodi:nodetypes="czccc"
         id="path6854"
         d="M 80.500001,7.8820928 C 78.381924,2.6586699 75.751379,-1.1706909 73.621482,-3.9859848 71.465333,-6.8359795 64.500003,-8.5000003 64.500003,-8.5000003 L 78.868262,9.5 80.500001,7.8820928 Z"
         style="fill:url(#linearGradient8666);fill-opacity:1;fill-rule:evenodd;stroke:#838383;stroke-width:1px;stroke-linecap:butt;stroke-linejoin:miter;stroke-opacity:1" />
      <path
         sodipodi:type="inkscape:offset"
         inkscape:radius="-1.0791198"
         inkscape:original="M 64.5 -8.5 L 78.875 9.5 L 80.5 7.875 C 78.381924 2.6515769 75.754897 -1.1847061 73.625 -4 C 71.46885 -6.8499947 64.5 -8.5 64.5 -8.5 z "
         style="fill:none;fill-opacity:1;fill-rule:evenodd;stroke:url(#linearGradient8670);stroke-width:1px;stroke-linecap:butt;stroke-linejoin:miter;stroke-opacity:1"
         id="path6890"
         d="M 67.550781,-6.4101562 78.964844,7.8828125 79.1875,7.6601562 c -2.01587,-4.7488663 -4.418631,-8.35930032 -6.423828,-11.0097656 -0.801031,-1.0588013 -2.956621,-2.2203962 -4.894531,-2.9609375 -0.170468,-0.065141 -0.152859,-0.039797 -0.31836,-0.099609 z" />
      <ellipse
         ry="1.46875"
         rx="2"
         cy="4.78125"
         cx="77.6875"
         style="display:inline;overflow:visible;visibility:visible;opacity:1;fill:url(#linearGradient8672);fill-opacity:1;fill-rule:evenodd;stroke:url(#linearGradient8674);stroke-width:0.85695684px;stroke-linecap:butt;stroke-linejoin:miter;stroke-miterlimit:4;stroke-dasharray:none;stroke-dashoffset:0;stroke-opacity:1;marker:none;marker-start:none;marker-mid:none;marker-end:none;enable-background:accumulate"
         id="path6866"
         transform="matrix(1,0,0,1.3617021,-0.1875,-2.0106381)" />
      <path
         inkscape:connector-curvature="0"
         style="fill:url(#linearGradient8676);fill-opacity:1;fill-rule:evenodd;stroke:url(#linearGradient8678);stroke-width:0.99999994px;stroke-linecap:butt;stroke-linejoin:miter;stroke-opacity:1"
         d="m 84.927015,-1.4988974 c -2.54593,-0.046323 -3.770205,1.44602027 -4.427018,3.1296119 -0.477884,1.2249463 -0.06138,2.888329 0.828076,3.8566936 0.932078,1.0147648 1.829428,1.2447819 3.953358,1.2073149 2.124244,-0.037472 5.780584,-2.1232988 5.059923,-4.7162738 -0.77403,-2.78499359 -2.868411,-3.4310239 -5.414339,-3.4773466 z m 0.546063,1.62046823 c 0.448678,0.0556678 1.247401,0.13365073 1.869705,0.57450834 C 88.134038,1.2566265 88.70043,2.2529546 88.557807,2.8899852 88.451381,3.3653425 87.880254,4.1234342 87.001333,4.4956977 85.776052,5.0146605 83.748565,5.3571208 83.118009,4.8417004 82.035141,3.9565575 81.871526,2.8753476 82.24938,1.938593 82.710809,0.79464526 84.453908,0.18479532 85.473078,0.12157083 Z"
         id="path6850"
         sodipodi:nodetypes="caassccssssac" />
      <path
         inkscape:connector-curvature="0"
         style="display:inline;overflow:visible;visibility:visible;opacity:1;fill:url(#linearGradient8680);fill-opacity:1;fill-rule:evenodd;stroke:url(#linearGradient8682);stroke-width:1px;stroke-linecap:butt;stroke-linejoin:miter;stroke-miterlimit:4;stroke-dasharray:none;stroke-dashoffset:0;stroke-opacity:1;marker:none;marker-start:none;marker-mid:none;marker-end:none;enable-background:accumulate"
         d="m 81.270041,7.5000001 c -1.007562,-0.058113 -2.278914,0.1540469 -2.866584,0.9745357 -1.189845,1.6612282 -1.8234,4.4926012 0,6.1301452 1.499022,1.346228 4.093402,3.098707 6.811991,0.723042 1.961545,-1.714114 1.435669,-4.450631 0.03082,-5.9415246 C 83.84163,7.8955218 82.734581,7.5844708 81.270041,7.5000001 Z m -0.770586,2.1376914 c 1.019753,-0.4762469 2.639253,-0.070264 3.263422,0.8662835 0.75335,1.130379 0.67758,3.458187 -0.550958,4.037832 -1.376299,0.649361 -3.744313,-1.310365 -3.88376,-2.39984 -0.147564,-1.152888 0.336314,-2.114321 1.171296,-2.5042755 z"
         id="path6856"
         sodipodi:nodetypes="aasssaaaasa" />
      <ellipse
         ry="1.46875"
         rx="2"
         cy="4.78125"
         cx="77.6875"
         transform="matrix(0.25,0,0,0.3404256,58.078122,2.8723403)"
         id="path6982"
         style="display:inline;overflow:visible;visibility:visible;opacity:1;fill:#ffffff;fill-opacity:1;fill-rule:evenodd;stroke:none;stroke-width:0.85695684px;stroke-linecap:butt;stroke-linejoin:miter;stroke-miterlimit:4;stroke-dasharray:none;stroke-dashoffset:0;stroke-opacity:1;marker:none;marker-start:none;marker-mid:none;marker-end:none;enable-background:accumulate" />
    </g>
  </g>
</svg>
