<?xml version="1.0" encoding="UTF-8" standalone="no"?>
<!-- Created with Inkscape (http://www.inkscape.org/) -->

<svg
   xmlns:dc="http://purl.org/dc/elements/1.1/"
   xmlns:cc="http://creativecommons.org/ns#"
   xmlns:rdf="http://www.w3.org/1999/02/22-rdf-syntax-ns#"
   xmlns:svg="http://www.w3.org/2000/svg"
   xmlns="http://www.w3.org/2000/svg"
   xmlns:xlink="http://www.w3.org/1999/xlink"
   xmlns:sodipodi="http://sodipodi.sourceforge.net/DTD/sodipodi-0.dtd"
   xmlns:inkscape="http://www.inkscape.org/namespaces/inkscape"
   width="48px"
   height="48px"
   id="svg4389"
   version="1.1"
   inkscape:version="0.91 r"
   sodipodi:docname="administration.svg">
  <defs
     id="defs4391">
    <linearGradient
       id="linearGradient4751-5-4-1-2-9-1-2-3-365-589-154-4-7-64-3-8-6-5-3-8">
      <stop
         id="stop9737-3-0-8-1-8-3-3-0-4"
         style="stop-color:#ffffff;stop-opacity:1"
         offset="0" />
      <stop
         id="stop9739-4-8-0-7-48-9-7-7-4"
         style="stop-color:#ebebeb;stop-opacity:1"
         offset="1" />
    </linearGradient>
    <linearGradient
       inkscape:collect="always"
       xlink:href="#linearGradient3924-1"
       id="linearGradient3108"
       gradientUnits="userSpaceOnUse"
       gradientTransform="translate(4e-6,1.0000062)"
       x1="23.99999"
       y1="4.999989"
       x2="23.99999"
       y2="43" />
    <linearGradient
       id="linearGradient3924-1">
      <stop
         id="stop3926-3"
         style="stop-color:#ffffff;stop-opacity:1"
         offset="0" />
      <stop
         id="stop3928-91"
         style="stop-color:#ffffff;stop-opacity:0.23529412"
         offset="0.06316455" />
      <stop
         id="stop3930-6"
         style="stop-color:#ffffff;stop-opacity:0.15686275"
         offset="0.95056331" />
      <stop
         id="stop3932-6"
         style="stop-color:#ffffff;stop-opacity:0.39215687"
         offset="1" />
    </linearGradient>
    <linearGradient
       id="linearGradient27416-1-2-2">
      <stop
         offset="0"
         style="stop-color:#55c1ec;stop-opacity:1"
         id="stop27420-2-0-2" />
      <stop
         offset="1"
         style="stop-color:#3689e6;stop-opacity:1"
         id="stop27422-3-5-1" />
    </linearGradient>
    <radialGradient
       inkscape:collect="always"
       xlink:href="#linearGradient4632-92-3-0-8-1-6"
       id="radialGradient3955-7"
       gradientUnits="userSpaceOnUse"
       gradientTransform="matrix(0,1.6685761,-1.668576,0,31.244828,-48.006534)"
       cx="31.999998"
       cy="4.3419166"
       fx="31.999998"
       fy="4.3419166"
       r="27.5" />
    <linearGradient
       id="linearGradient4632-92-3-0-8-1-6">
      <stop
         style="stop-color:#fafafa;stop-opacity:1;"
         offset="0"
         id="stop4634-68-8-0-2-9-1" />
      <stop
         style="stop-color:#e1e1e1;stop-opacity:1;"
         offset="1"
         id="stop4636-8-21-7-1-4-9" />
    </linearGradient>
    <radialGradient
       cx="4.9929786"
       cy="43.5"
       r="2.5"
       fx="4.9929786"
       fy="43.5"
       id="radialGradient3013"
       xlink:href="#linearGradient3688-166-749"
       gradientUnits="userSpaceOnUse"
       gradientTransform="matrix(2.003784,0,0,1.4,27.98813,-17.4)" />
    <linearGradient
       id="linearGradient3688-166-749">
      <stop
         id="stop2883"
         style="stop-color:#181818;stop-opacity:1"
         offset="0" />
      <stop
         id="stop2885"
         style="stop-color:#181818;stop-opacity:0"
         offset="1" />
    </linearGradient>
    <radialGradient
       cx="4.9929786"
       cy="43.5"
       r="2.5"
       fx="4.9929786"
       fy="43.5"
       id="radialGradient3015"
       xlink:href="#linearGradient3688-464-309"
       gradientUnits="userSpaceOnUse"
       gradientTransform="matrix(2.003784,0,0,1.4,-20.01187,-104.4)" />
    <linearGradient
       id="linearGradient3688-464-309">
      <stop
         id="stop2889"
         style="stop-color:#181818;stop-opacity:1"
         offset="0" />
      <stop
         id="stop2891"
         style="stop-color:#181818;stop-opacity:0"
         offset="1" />
    </linearGradient>
    <linearGradient
       id="linearGradient3702-501-757">
      <stop
         id="stop2895"
         style="stop-color:#181818;stop-opacity:0"
         offset="0" />
      <stop
         id="stop2897"
         style="stop-color:#181818;stop-opacity:1"
         offset="0.5" />
      <stop
         id="stop2899"
         style="stop-color:#181818;stop-opacity:0"
         offset="1" />
    </linearGradient>
    <linearGradient
       y2="39.999443"
       x2="25.058096"
       y1="47.027729"
       x1="25.058096"
       gradientUnits="userSpaceOnUse"
       id="linearGradient4387"
       xlink:href="#linearGradient3702-501-757"
       inkscape:collect="always" />
    <radialGradient
       xlink:href="#2"
       gradientUnits="userSpaceOnUse"
       gradientTransform="matrix(0.34725851,0,0,0.1360638,2.3605157,15.843183)"
       r="9.1719999"
       cy="51.029999"
       cx="87.769997"
       id="F" />
    <linearGradient
       id="2">
      <stop
         id="b"
         stop-color="#eee" />
      <stop
         offset="1"
         id="c"
         stop-color="#eee"
         stop-opacity="0.675" />
    </linearGradient>
    <filter
       id="D">
      <feGaussianBlur
         stdDeviation="0.1546"
         id="o" />
    </filter>
    <radialGradient
       xlink:href="#4"
       gradientUnits="userSpaceOnUse"
       gradientTransform="matrix(0.34725851,0,0,0.31519456,2.3605157,6.9318777)"
       r="8.9689999"
       cy="67.169998"
       cx="87.75"
       id="B" />
    <linearGradient
       id="4">
      <stop
         id="f"
         stop-color="#eee" />
      <stop
         offset="1"
         id="g"
         stop-color="#e1e1e1" />
    </linearGradient>
    <filter
       id="C">
      <feGaussianBlur
         stdDeviation="0.3"
         id="n" />
    </filter>
    <radialGradient
       xlink:href="#4"
       gradientUnits="userSpaceOnUse"
       gradientTransform="matrix(0.34725851,0,0,0.21653117,1.8504798,7.8109273)"
       r="24.16"
       cy="21"
       cx="63.938"
       id="8" />
    <filter
       id="A">
      <feGaussianBlur
         stdDeviation="0.44719"
         id="m" />
    </filter>
    <filter
       id="9">
      <feGaussianBlur
         stdDeviation="0.46078"
         id="l" />
    </filter>
  </defs>
  <sodipodi:namedview
     id="base"
     pagecolor="#ffffff"
     bordercolor="#666666"
     borderopacity="1.0"
     inkscape:pageopacity="0.0"
     inkscape:pageshadow="2"
     inkscape:zoom="19.333333"
     inkscape:cx="24"
     inkscape:cy="24"
     inkscape:current-layer="layer1"
     showgrid="true"
     inkscape:grid-bbox="true"
     inkscape:document-units="px"
     inkscape:window-width="1855"
     inkscape:window-height="1056"
     inkscape:window-x="65"
     inkscape:window-y="24"
     inkscape:window-maximized="1">
    <inkscape:grid
       type="xygrid"
       id="grid3462" />
  </sodipodi:namedview>
  <metadata
     id="metadata4394">
    <rdf:RDF>
      <cc:Work
         rdf:about="">
        <dc:format>image/svg+xml</dc:format>
        <dc:type
           rdf:resource="http://purl.org/dc/dcmitype/StillImage" />
        <dc:title></dc:title>
      </cc:Work>
    </rdf:RDF>
  </metadata>
  <g
     id="layer1"
     inkscape:label="Layer 1"
     inkscape:groupmode="layer">
    <g
       style="opacity:0.4"
       id="g3712-5"
       transform="matrix(1.1578952,0,0,0.6428571,-3.789476,16.035716)">
      <rect
         style="fill:url(#radialGradient3013);fill-opacity:1;stroke:none"
         id="rect2801-3"
         y="40"
         x="38"
         height="7"
         width="5" />
      <rect
         style="fill:url(#radialGradient3015);fill-opacity:1;stroke:none"
         id="rect3696-6"
         transform="scale(-1,-1)"
         y="-47"
         x="-10"
         height="7"
         width="5" />
      <rect
         style="fill:url(#linearGradient4387);fill-opacity:1;stroke:none"
         id="rect3700-4"
         y="40"
         x="10"
         height="7.0000005"
         width="28" />
    </g>
    <rect
       style="color:#000000;fill:url(#radialGradient3955-7);fill-opacity:1;fill-rule:nonzero;stroke:none;stroke-width:0.99999994;marker:none;visibility:visible;display:inline;overflow:visible;enable-background:accumulate"
       id="rect5505-21"
       y="5.4999948"
       x="4.5000124"
       ry="2"
       rx="2"
       height="39"
       width="39" />
    <rect
       style="fill:none;stroke:url(#linearGradient3108);stroke-width:1;stroke-linecap:round;stroke-linejoin:round;stroke-miterlimit:4;stroke-opacity:1;stroke-dasharray:none;stroke-dashoffset:0"
       id="rect6741"
       y="6.4999948"
       x="5.5000124"
       ry="1"
       rx="1"
       height="37"
       width="37" />
    <rect
       style="opacity:0.25;color:#000000;fill:none;stroke:#000000;stroke-width:0.99999982;stroke-linecap:butt;stroke-linejoin:miter;stroke-miterlimit:4;stroke-opacity:1;stroke-dasharray:none;stroke-dashoffset:0;marker:none;visibility:visible;display:inline;overflow:visible;enable-background:accumulate"
       id="rect5505-21-3-2"
       y="5.4999948"
       x="4.5000124"
       ry="2"
       rx="2"
       height="39"
       width="39" />
    <path
       inkscape:connector-curvature="0"
       style="filter:url(#9)"
       transform="matrix(0.34016837,0,0,0.33903753,2.2632856,5.4718828)"
       d="m 47.71875,2.625 c -2.950535,0 -5.64918,0.8991057 -7.71875,2.5 -2.06957,1.6008943 -3.53125,4.0166122 -3.53125,6.75 l 0,2.65625 a 2.4738001,2.4738001 0 0 0 0.375,1.3125 l 14.25,22.84375 a 2.4738001,2.4738001 0 0 0 2.09375,1.15625 l 0.28125,0 A 2.4738001,2.4738001 0 0 0 55.5,38.78125 L 63.9375,26.75 72.375,38.78125 a 2.4738001,2.4738001 0 0 0 2.03125,1.0625 l 0.28125,0 a 2.4738001,2.4738001 0 0 0 2.09375,-1.15625 l 14.25,-22.84375 a 2.4738001,2.4738001 0 0 0 0.375,-1.3125 l 0,-2.65625 c 0,-2.7402618 -1.454772,-5.1516365 -3.53125,-6.75 -2.076478,-1.5983635 -4.799465,-2.5 -7.75,-2.5 l -32.40625,0 z"
       id="J" />
    <path
       inkscape:connector-curvature="0"
       style="fill:#bbbbbb;stroke:#888888;stroke-width:0.34691137"
       d="m 24.058393,39.836812 -0.01011,4.062756"
       id="K" />
    <path
       inkscape:connector-curvature="0"
       style="filter:url(#A)"
       id="L"
       d="m 14.833801,-0.32283194 -2,61.65624994 3.96875,5.875 3.96875,5.906255 4.03125,-5.875005 4.03125,-5.84375 0,-0.0625 -2,-61.65624994 -12,0 z"
       transform="matrix(0.34725851,0,0,0.34725851,16.818607,15.638924)" />
    <path
       inkscape:connector-curvature="0"
       style="fill:#323232"
       d="m 21.969771,15.526816 -0.694517,21.41066 1.378184,2.040141 1.378182,2.050997 1.399884,-2.040143 1.399886,-2.029292 0,-0.02167 -0.694517,-21.410664 -4.167102,0 z"
       id="M" />
    <path
       inkscape:connector-curvature="0"
       style="fill:#555555"
       id="N"
       d="m 22.512361,16.091112 -0.661963,20.683582 1.269669,1.888221 0.911553,1.356476 0.933253,-1.356476 1.291372,-1.877367 -0.661966,-20.694436 -3.081918,0 z" />
    <path
       inkscape:connector-curvature="0"
       style="fill:#323232"
       id="O"
       d="m 27.966791,15.581494 a 3.9134711,2.6254934 0 0 1 -7.82694,0 3.9134711,2.6254934 0 1 1 7.82694,0 z" />
    <path
       inkscape:connector-curvature="0"
       style="fill:#555555"
       id="P"
       d="m 24.054376,13.931595 c -0.902602,0 -1.707091,0.260874 -2.224628,0.607708 -0.517538,0.346828 -0.716221,0.713107 -0.716221,1.041777 0,0.328664 0.198683,0.694939 0.716221,1.041775 0.517537,0.346827 1.322026,0.6077 2.224628,0.6077 0.902594,0 1.707085,-0.260873 2.22462,-0.6077 0.517539,-0.346836 0.716224,-0.713111 0.716224,-1.041775 0,-0.32867 -0.198685,-0.694949 -0.716224,-1.041777 -0.517535,-0.346834 -1.322026,-0.607708 -2.22462,-0.607708 z" />
    <path
       inkscape:connector-curvature="0"
       style="fill:#bbbbbb"
       id="Q"
       d="m 18.421219,5.9772101 c -1.024597,0 -1.961724,0.3122203 -2.680395,0.8681459 -0.71868,0.5559225 -1.226261,1.3947998 -1.226261,2.3439904 l 0,0.9224046 a 0.85904833,0.85904833 0 0 0 0.130221,0.455779 l 4.948439,7.932686 a 0.85904833,0.85904833 0 0 0 0.72707,0.401519 l 0.09766,0 a 0.85904833,0.85904833 0 0 0 0.705369,-0.368964 l 2.929998,-4.177953 2.929989,4.177953 a 0.85904833,0.85904833 0 0 0 0.705368,0.368964 l 0.09766,0 a 0.85904833,0.85904833 0 0 0 0.727072,-0.401519 l 4.948434,-7.932686 a 0.85904833,0.85904833 0 0 0 0.13022,-0.455779 l 0,-0.9224046 c 0,-0.9515739 -0.505183,-1.788946 -1.226255,-2.3439904 C 31.644741,6.2903094 30.69916,5.9772101 29.674565,5.9772101 l -11.253349,0 z" />
    <path
       inkscape:connector-curvature="0"
       style="fill:url(#8)"
       id="R"
       d="m 18.421219,7.1275009 c -0.784844,0 -1.482425,0.248358 -1.975029,0.6294073 -0.492603,0.3810508 -0.781336,0.8848546 -0.781336,1.4324382 l 0,0.8355976 4.709698,7.56372 3.440032,-4.905026 a 0.29725527,0.29725527 0 0 1 0.477477,0 l 3.440029,4.905026 4.709695,-7.56372 0,-0.8355976 c 0,-0.5467561 -0.285904,-1.0510857 -0.781333,-1.4324382 C 31.165026,7.3755574 30.459407,7.1275009 29.674569,7.1275009 l -11.25335,0 z" />
    <rect
       style="fill:#eeeeee"
       y="8.3965969"
       x="18.189371"
       height="3.3083305"
       width="11.730044"
       id="S"
       rx="1.3890344" />
    <rect
       style="fill:#323232"
       id="T"
       width="11.730044"
       height="3.3083305"
       x="18.189371"
       y="8.0837135"
       rx="1.3890344" />
    <path
       inkscape:connector-curvature="0"
       style="fill:#888888"
       d="m 22.431564,17.96687 -0.05424,1.443288 3.342366,1.562667 -0.04341,-1.649476 -2.582739,-1.204556 c -0.229548,-0.03896 -0.450578,-0.08712 -0.661966,-0.151923 z m -0.108518,3.060215 -0.04341,1.606068 3.548549,1.649477 -0.05424,-1.638626 -3.450883,-1.616919 z m -0.09766,3.222989 -0.05424,1.595222 3.765581,1.747144 -0.05424,-1.638629 -3.657065,-1.703737 z m -0.09766,3.168737 -0.05424,1.606069 3.971773,1.855662 -0.05424,-1.649477 -3.863256,-1.812254 z m -0.10852,3.255548 -0.05425,1.606068 4.177952,1.942479 -0.04341,-1.649479 -4.080283,-1.899068 z m -0.09766,3.190437 -0.05424,1.595219 3.99347,1.855664 0.368959,-0.531743 -0.03258,-0.922403 -4.275619,-1.996737 z m 0.206183,3.364068 0.965809,1.432442 0.618554,0.922404 0.444924,0.206182 0.781338,-1.128586 0.06513,-0.09766 -2.875738,-1.334775 z"
       id="U" />
    <rect
       style="filter:url(#C)"
       y="18.266281"
       x="35.712391"
       height="19.18"
       width="20.816"
       id="V"
       rx="4"
       transform="matrix(0.34725851,0,0,0.34725851,16.818607,15.638924)" />
    <rect
       style="fill:#bbbbbb"
       id="W"
       width="7.2285357"
       height="6.6604128"
       x="29.220034"
       y="21.947317"
       rx="1.3890344" />
    <path
       inkscape:connector-curvature="0"
       style="fill:url(#B)"
       id="X"
       d="m 30.607828,22.450284 c -0.503278,0 -0.889851,0.386574 -0.889851,0.889848 l 0,3.874106 c 0,0.503272 0.386573,0.889844 0.889851,0.889844 l 4.449248,0 c 0.503277,0 0.889849,-0.386572 0.889849,-0.889844 l 0,-3.874106 c 0,-0.503274 -0.386572,-0.889848 -0.889849,-0.889848 l -4.449248,0 z" />
    <path
       inkscape:connector-curvature="0"
       style="filter:url(#D)"
       id="Y"
       d="m 39.566116,15.741668 c -2.197444,0 -3.966505,1.512059 -3.966505,3.390268 l 0,2.25135 4.896155,2.383783 3.780575,1.854053 3.68761,0 3.780576,-1.854053 4.896154,-2.383783 0,-2.25135 c 0,-1.878209 -1.769061,-3.390268 -3.966505,-3.390268 l -13.10806,0 z"
       transform="matrix(0.34725851,0,0,0.34725851,16.818607,15.638924)" />
    <path
       inkscape:connector-curvature="0"
       style="fill:#bbbbbb"
       d="m 30.558275,21.070554 c -0.763079,0 -1.377402,0.525074 -1.377402,1.177299 l 0,0.781801 1.700231,0.827784 1.312839,0.643842 1.280554,0 1.312837,-0.643842 1.700231,-0.827784 0,-0.781801 c 0,-0.652225 -0.614321,-1.177299 -1.377402,-1.177299 l -4.551888,0 z"
       id="Z" />
    <path
       inkscape:connector-curvature="0"
       style="fill:url(#F)"
       id="a"
       d="m 30.553567,21.538726 c -0.552942,0 -0.900702,0.33896 -0.900702,0.705371 l 0,0.499186 1.43244,0.705369 1.204554,0.585997 1.085187,0 1.204547,-0.585997 1.443294,-0.705369 0,-0.499186 c 0,-0.361279 -0.358608,-0.705371 -0.911551,-0.705371 l -4.557769,0 z" />
  </g>
</svg>
