<svg xmlns="http://www.w3.org/2000/svg" width="48" height="48">
<defs>
<defs
     id="defs4">
  </defs>
  <path
     d="m 29.949023,2.0080012 c -0.227145,0.022689 -0.431787,0.1117603 -0.637671,0.2318805 L 3.1088526,17.515011 c -0.8235363,0.480481 -1.0828947,1.580572 -0.5507162,2.492716 l 9.2752206,15.883815 c 0.532178,0.912146 1.640195,1.26308 2.463731,0.782597 L 40.470602,21.39901 c 0.823537,-0.480483 1.082894,-1.609557 0.550716,-2.521701 L 31.746097,2.9934934 C 31.346964,2.3093853 30.630461,1.939934 29.949023,2.0080012 z m 0.521731,3.8550137 1.420268,2.434745 -2.898506,1.681134 -1.420268,-2.4347453 2.898506,-1.6811337 z m -4.376745,2.550686 1.420269,2.4347451 -2.898507,1.681134 -1.420268,-2.434746 2.898506,-1.6811331 z m -4.347759,2.5506851 1.420268,2.405761 -2.927492,1.710119 -1.420268,-2.434746 2.927492,-1.681134 z m 9.536086,1.304328 1.420268,2.434746 -2.898506,1.710119 -1.420268,-2.434746 2.898506,-1.710119 z m -13.912831,1.246358 1.420268,2.405761 -2.927492,1.710118 -1.420268,-2.434745 2.927492,-1.681134 z m 9.565071,1.304328 1.420268,2.434746 -2.927491,1.710118 -1.420268,-2.434745 2.927491,-1.710119 z m -13.970801,1.246358 1.420268,2.434745 -2.898507,1.681134 -1.420268,-2.434745 2.898507,-1.681134 z m 23.506888,0.08695 1.420268,2.434746 -4.34776,2.550685 -1.420268,-2.434745 4.34776,-2.550686 z M 22.557831,17.370081 23.9781,19.804826 21.050608,21.514945 19.63034,19.0802 22.557831,17.370081 z M 8.616015,18.616444 10.036283,21.051189 7.1087916,22.732323 5.6885234,20.297577 8.616015,18.616444 z m 22.02865,0.927522 1.420268,2.434745 -13.854861,8.086833 -1.420269,-2.434745 13.854862,-8.086833 z m -12.492563,0.405791 1.420268,2.40576 -2.898507,1.710119 -1.420268,-2.434746 2.898507,-1.681133 z m -4.34776,2.550685 1.420268,2.405761 -2.927492,1.710119 -1.420268,-2.434746 2.927492,-1.681134 z m 24.057604,3.565163 c -0.732164,0.05827 -1.467567,0.317862 -2.086925,0.811582 l -2.260835,1.797074 3.941969,4.927461 5.246297,-4.173849 -1.565194,-1.941999 c -0.822867,-1.032262 -2.055039,-1.517376 -3.275312,-1.420269 z m -22.521396,2.434746 1.420268,2.434745 -3.623133,2.11591 -1.420268,-2.434745 3.623133,-2.11591 z m 17.651905,0.608686 -6.985401,5.565133 c -1.65162,1.316585 -1.925272,3.710618 -0.608686,5.362237 l 3.623133,4.52167 c 1.316585,1.651621 3.710619,1.925271 5.362237,0.608686 l 6.956416,-5.565132 -8.347699,-10.492594 z m 10.115788,0.840567 -5.246297,4.17385 4.028924,5.043401 2.260835,-1.797074 c 1.651619,-1.316585 1.896287,-3.710618 0.579701,-5.362237 l -1.623163,-2.05794 z"
     id="path-main"
      />
</defs>
<acyl-settings>
<linearGradient
     id="linearGradient4321">
    <stop
       style="stop-color:#89F6FB;stop-opacity:1.0;"
       offset="0.5"
       id="stop1" />
    <stop
       style="stop-color:#10A1AA;stop-opacity:1.0;"
       offset="1.0"
       id="stop2" />
  </linearGradient>
<radialGradient
       inkscape:collect="always"
       xlink:href="#linearGradient4321"
       id="acyl_gradient"
       cx="50.0%"
       cy="50.0%"
       fx="50.0%"
       fy="50.0%"
       r="50.0%"
/>
<filter id="filter1111" x="-50%" y="-50%" width="200%" height="200%">
	<feImage
	id="feImage2"
	xlink:href="#1"
	result="result1" />
	<feComposite
	id="feComposite3633"
	in="result1"
	in2="SourceGraphic"
	operator="xor" />
</filter>
	<rect
	style="fill:#1A4B4F;fill-opacity:1.0;filter:url(#filter1111)"
	id="rect2835"
	width="48"
	height="48"
	x="0"
	y="0"
	rx="3.5"
	ry="3.5" />
	<rect
	style="fill:url(#acyl_gradient);filter:url(#filter1111)"
	id="rect2835"
	width="44"
	height="44"
	x="2"
	y="2"
	rx="3.5"
	ry="3.5" />
<defs>
<use id="1" transform="translate(22.5,22.5) scale(0.85) translate(-22.5,-22.5)" style="fill:#000000" xlink:href="#path-main" />
</defs>
	<use id="2" transform="translate(22.5,22.5) scale(0.85) translate(-22.5,-22.5)" style="fill:#1A4B4F;fill-opacity:1.0" xlink:href="#path-main" />
</acyl-settings>
</svg>
