<?xml version="1.0" encoding="UTF-8" standalone="no"?>
<!-- Created with Inkscape (http://www.inkscape.org/) -->

<svg
   xmlns:dc="http://purl.org/dc/elements/1.1/"
   xmlns:cc="http://creativecommons.org/ns#"
   xmlns:rdf="http://www.w3.org/1999/02/22-rdf-syntax-ns#"
   xmlns:svg="http://www.w3.org/2000/svg"
   xmlns="http://www.w3.org/2000/svg"
   xmlns:xlink="http://www.w3.org/1999/xlink"
   xmlns:sodipodi="http://sodipodi.sourceforge.net/DTD/sodipodi-0.dtd"
   xmlns:inkscape="http://www.inkscape.org/namespaces/inkscape"
   version="1.0"
   width="24"
   height="24"
   id="svg2562"
   inkscape:version="0.48.0 r9654"
   sodipodi:docname="mail-mark-unread.svg">
  <metadata
     id="metadata57">
    <rdf:RDF>
      <cc:Work
         rdf:about="">
        <dc:format>image/svg+xml</dc:format>
        <dc:type
           rdf:resource="http://purl.org/dc/dcmitype/StillImage" />
        <dc:title></dc:title>
      </cc:Work>
    </rdf:RDF>
  </metadata>
  <sodipodi:namedview
     pagecolor="#ffffff"
     bordercolor="#666666"
     borderopacity="1"
     objecttolerance="10"
     gridtolerance="10"
     guidetolerance="10"
     inkscape:pageopacity="0"
     inkscape:pageshadow="2"
     inkscape:window-width="1131"
     inkscape:window-height="717"
     id="namedview55"
     showgrid="false"
     inkscape:zoom="8.7209836"
     inkscape:cx="15.757752"
     inkscape:cy="17.480197"
     inkscape:window-x="108"
     inkscape:window-y="4"
     inkscape:window-maximized="0"
     inkscape:current-layer="svg2562"
     showguides="true"
     inkscape:guide-bbox="true" />
  <defs
     id="defs2564">
    <linearGradient
       id="linearGradient5060-6-986-342-61">
      <stop
         id="stop4080"
         style="stop-color:#1e1e1e;stop-opacity:1"
         offset="0" />
      <stop
         id="stop4082"
         style="stop-color:#1e1e1e;stop-opacity:0"
         offset="1" />
    </linearGradient>
    <radialGradient
       cx="605.71429"
       cy="486.64789"
       r="117.14286"
       fx="605.71429"
       fy="486.64789"
       id="radialGradient2724-226-535-494"
       xlink:href="#linearGradient5060-6-986-342-61"
       gradientUnits="userSpaceOnUse"
       gradientTransform="matrix(-0.06553443,0,0,0.02470588,-21.829255,10.577352)" />
    <linearGradient
       id="linearGradient5060-6-252-476-367">
      <stop
         id="stop4074"
         style="stop-color:#1e1e1e;stop-opacity:1"
         offset="0" />
      <stop
         id="stop4076"
         style="stop-color:#1e1e1e;stop-opacity:0"
         offset="1" />
    </linearGradient>
    <radialGradient
       cx="605.71429"
       cy="486.64789"
       r="117.14286"
       fx="605.71429"
       fy="486.64789"
       id="radialGradient2722-303-187-273"
       xlink:href="#linearGradient5060-6-252-476-367"
       gradientUnits="userSpaceOnUse"
       gradientTransform="matrix(0.06553443,0,0,0.02470588,-69.175497,10.577352)" />
    <linearGradient
       id="linearGradient5048-7-668-934-892">
      <stop
         id="stop4066"
         style="stop-color:#1e1e1e;stop-opacity:0"
         offset="0" />
      <stop
         id="stop4068"
         style="stop-color:#1e1e1e;stop-opacity:1"
         offset="0.5" />
      <stop
         id="stop4070"
         style="stop-color:#1e1e1e;stop-opacity:0"
         offset="1" />
    </linearGradient>
    <linearGradient
       x1="302.85715"
       y1="366.64789"
       x2="302.85715"
       y2="609.50507"
       id="linearGradient2720-766-26-906"
       xlink:href="#linearGradient5048-7-668-934-892"
       gradientUnits="userSpaceOnUse"
       gradientTransform="matrix(0.06553443,0,0,0.02470588,-69.188394,10.577352)" />
    <linearGradient
       id="linearGradient2490-495-150-777">
      <stop
         id="stop4108"
         style="stop-color:#727272;stop-opacity:1"
         offset="0" />
      <stop
         id="stop4110"
         style="stop-color:#bebebe;stop-opacity:1"
         offset="1" />
    </linearGradient>
    <linearGradient
       x1="28.103424"
       y1="45.000065"
       x2="28.103424"
       y2="14.038458"
       id="linearGradient2477"
       xlink:href="#linearGradient2490-495-150-777"
       gradientUnits="userSpaceOnUse"
       gradientTransform="matrix(0.4666666,0,0,0.5006418,0.7999998,-3.7785543)" />
    <linearGradient
       id="linearGradient3242-967-12-570-862-307">
      <stop
         id="stop4498"
         style="stop-color:#ffffff;stop-opacity:1"
         offset="0" />
      <stop
         id="stop4502"
         style="stop-color:#cfcfcf;stop-opacity:1"
         offset="0.87426931" />
      <stop
         id="stop4504"
         style="stop-color:#999999;stop-opacity:1"
         offset="1" />
    </linearGradient>
    <linearGradient
       x1="20.052792"
       y1="8.163353"
       x2="19.875452"
       y2="45.60001"
       id="linearGradient2475"
       xlink:href="#linearGradient3242-967-12-570-862-307"
       gradientUnits="userSpaceOnUse"
       gradientTransform="matrix(0.4666666,0,0,0.4545454,0.7999999,-1.7272766)" />
    <linearGradient
       id="linearGradient3333-314-917-262">
      <stop
         id="stop4102"
         style="stop-color:#ffffff;stop-opacity:1"
         offset="0" />
      <stop
         id="stop4104"
         style="stop-color:#ffffff;stop-opacity:0"
         offset="1" />
    </linearGradient>
    <linearGradient
       x1="25.57654"
       y1="15.000002"
       x2="25.57654"
       y2="44.00053"
       id="linearGradient2472"
       xlink:href="#linearGradient3333-314-917-262"
       gradientUnits="userSpaceOnUse"
       gradientTransform="matrix(0.4418603,0,0,0.4642857,1.3953491,-2.6964344)" />
    <linearGradient
       x1="23.928667"
       y1="30.773148"
       x2="23.928667"
       y2="45.530704"
       id="linearGradient2469"
       xlink:href="#linearGradient3495-841-851-719"
       gradientUnits="userSpaceOnUse"
       gradientTransform="matrix(0.4657385,0,0,0.4850945,0.8223378,-3.1022334)" />
    <linearGradient
       id="linearGradient3495-841-851-719">
      <stop
         id="stop4120"
         style="stop-color:#1e1e1e;stop-opacity:1"
         offset="0" />
      <stop
         id="stop4122"
         style="stop-color:#1e1e1e;stop-opacity:0"
         offset="1" />
    </linearGradient>
    <linearGradient
       x1="23.903786"
       y1="35.75"
       x2="23.903786"
       y2="16.00676"
       id="linearGradient2466"
       xlink:href="#linearGradient3495-841-851-719"
       gradientUnits="userSpaceOnUse"
       gradientTransform="matrix(0.4657385,0,0,0.4850945,0.8223379,-1.4684474)" />
    <linearGradient
       id="linearGradient2250">
      <stop
         id="stop2252"
         style="stop-color:#ffc349;stop-opacity:1"
         offset="0" />
      <stop
         id="stop2256"
         style="stop-color:#ff921a;stop-opacity:1"
         offset="1" />
    </linearGradient>
    <linearGradient
       x1="24.097157"
       y1="9.5958176"
       x2="23.673159"
       y2="22.839001"
       id="linearGradient3706"
       xlink:href="#linearGradient3230"
       gradientUnits="userSpaceOnUse"
       gradientTransform="matrix(0.51158075,0,0,0.56818156,-22.31027,10.767314)" />
    <linearGradient
       id="linearGradient3230">
      <stop
         id="stop3232"
         style="stop-color:#ffefa7;stop-opacity:1"
         offset="0" />
      <stop
         id="stop3234"
         style="stop-color:#ffc64c;stop-opacity:1"
         offset="1" />
    </linearGradient>
    <linearGradient
       x1="15.83692"
       y1="9.9463511"
       x2="15.937729"
       y2="13.749167"
       id="linearGradient2877"
       xlink:href="#linearGradient2250"
       gradientUnits="userSpaceOnUse"
       gradientTransform="translate(-26.089159,10.37581)" />
    <linearGradient
       inkscape:collect="always"
       xlink:href="#linearGradient3495-841-851-719"
       id="linearGradient3038"
       gradientUnits="userSpaceOnUse"
       gradientTransform="matrix(0.4646757,0,0,0.45788051,1.0000704,-0.85616348)"
       x1="23.903786"
       y1="35.75"
       x2="23.903786"
       y2="16.00676" />
    <linearGradient
       inkscape:collect="always"
       xlink:href="#linearGradient3495-841-851-719"
       id="linearGradient3041"
       gradientUnits="userSpaceOnUse"
       gradientTransform="matrix(0.4646757,0,0,0.4900117,1.0572723,-3.6307757)"
       x1="23.928667"
       y1="30.773148"
       x2="23.928667"
       y2="45.530704" />
    <linearGradient
       inkscape:collect="always"
       xlink:href="#linearGradient3333-314-917-262"
       id="linearGradient3044"
       gradientUnits="userSpaceOnUse"
       gradientTransform="matrix(0.44085198,0,0,0.76329649,1.5717739,-11.927165)"
       x1="25.57654"
       y1="15.000002"
       x2="25.57654"
       y2="44.00053" />
    <linearGradient
       inkscape:collect="always"
       xlink:href="#linearGradient3242-967-12-570-862-307"
       id="linearGradient3047"
       gradientUnits="userSpaceOnUse"
       gradientTransform="matrix(0.46560168,0,0,0.74728317,0.97778321,-10.333847)"
       x1="20.052792"
       y1="8.163353"
       x2="19.875452"
       y2="45.60001" />
    <linearGradient
       inkscape:collect="always"
       xlink:href="#linearGradient2490-495-150-777"
       id="linearGradient3049"
       gradientUnits="userSpaceOnUse"
       gradientTransform="matrix(0.46560168,0,0,0.82306674,0.97778321,-13.706194)"
       x1="28.103424"
       y1="45.000065"
       x2="28.103424"
       y2="14.038458" />
    <linearGradient
       inkscape:collect="always"
       xlink:href="#linearGradient2250"
       id="linearGradient3061"
       gradientUnits="userSpaceOnUse"
       gradientTransform="translate(-26.089159,10.37581)"
       x1="15.83692"
       y1="9.9463511"
       x2="15.937729"
       y2="13.749167" />
    <linearGradient
       inkscape:collect="always"
       xlink:href="#linearGradient3230"
       id="linearGradient3063"
       gradientUnits="userSpaceOnUse"
       gradientTransform="matrix(0.51158075,0,0,0.56818156,-22.31027,10.767314)"
       x1="24.097157"
       y1="9.5958176"
       x2="23.673159"
       y2="22.839001" />
  </defs>
  <rect
     style="fill:url(#linearGradient3047);fill-opacity:1;fill-rule:evenodd;stroke:url(#linearGradient3049);stroke-width:0.46140584;stroke-linecap:square;stroke-linejoin:round;stroke-miterlimit:4;stroke-opacity:1;stroke-dasharray:none;stroke-dashoffset:0;marker:none;visibility:visible;display:inline;overflow:visible;enable-background:accumulate"
     id="rect2396"
     y="1.5595392"
     x="1.6832118"
     ry="1.6872653"
     rx="1.4055835"
     height="21.360731"
     width="20.945051" />
  <rect
     style="opacity:0.4;fill:none;stroke:url(#linearGradient3044);stroke-width:1.28073072;stroke-linecap:square;stroke-linejoin:miter;stroke-miterlimit:4;stroke-opacity:1;stroke-dasharray:none;stroke-dashoffset:0;marker:none;visibility:visible;display:inline;overflow:visible;enable-background:accumulate"
     id="rect3331"
     y="2.9604311"
     x="2.6739035"
     ry="0.057548366"
     rx="0.036393005"
     height="18.315813"
     width="18.956642" />
  <path
     inkscape:connector-curvature="0"
     style="opacity:0.5;fill:none;stroke:url(#linearGradient3041);stroke-width:1.00390816;stroke-linecap:butt;stroke-linejoin:miter;stroke-miterlimit:4;stroke-opacity:1;stroke-dasharray:none;stroke-dashoffset:0;marker:none;visibility:visible;display:inline;overflow:visible;enable-background:accumulate"
     id="path3341"
     d="m 8.8395427,12.647844 -6.485371,5.5109 m 13.3174093,-5.693064 6.326933,5.693064" />
  <path
     inkscape:connector-curvature="0"
     style="opacity:0.5;fill:none;stroke:url(#linearGradient3038);stroke-width:0.97043604;stroke-linecap:butt;stroke-linejoin:miter;stroke-miterlimit:4;stroke-opacity:1;stroke-dasharray:none"
     id="path3493"
     d="M 2.0245456,6.331061 12.152288,14.954576 22.066756,6.331061" />
  <g
     id="g2554"
     transform="matrix(1.3328493,0,0,1.3328493,28.323316,-12.124014)">
    <path
       inkscape:connector-curvature="0"
       style="fill:url(#linearGradient3061);fill-opacity:1;stroke:#c08607;stroke-width:1;stroke-linecap:butt;stroke-linejoin:round;stroke-miterlimit:4;stroke-opacity:1;stroke-dasharray:none"
       id="path3660"
       d="m -10.201835,15.699754 c 0.390349,0 1.177566,3.377091 1.493365,3.606532 0.315798,0.229441 3.770866,-0.06545 3.89149,0.305794 0.120625,0.371244 -2.847916,2.16351 -2.968541,2.534753 -0.120624,0.371244 1.227508,3.566082 0.91171,3.795523 -0.315799,0.229442 -2.937675,-2.039968 -3.328024,-2.039968 -0.390348,0 -3.012224,2.26941 -3.328023,2.039968 -0.315799,-0.229441 1.032334,-3.424279 0.911709,-3.795523 -0.120624,-0.371243 -3.089165,-2.163509 -2.968541,-2.534753 0.120625,-0.371244 3.575692,-0.07635 3.891491,-0.305794 0.315799,-0.229441 1.103016,-3.606532 1.493364,-3.606532 z" />
    <path
       inkscape:connector-curvature="0"
       style="fill:url(#linearGradient3063);fill-opacity:1;fill-rule:nonzero;stroke:none;stroke-width:1;marker:none;visibility:visible;display:inline;overflow:visible"
       id="path1322"
       d="m -10.116841,16.382948 -1.216914,3.494415 -3.011465,0.131523 2.268783,1.863658 c 1.080283,-0.784793 2.586483,-1.234085 3.621224,0.203224 l 2.776869,-2.179667 -3.292917,0.109895 -1.14558,-3.623048 z" />
  </g>
</svg>
