<?xml version="1.0" encoding="UTF-8" standalone="no"?>
<!-- Created with Inkscape (http://www.inkscape.org/) -->

<svg
   xmlns:osb="http://www.openswatchbook.org/uri/2009/osb"
   xmlns:dc="http://purl.org/dc/elements/1.1/"
   xmlns:cc="http://creativecommons.org/ns#"
   xmlns:rdf="http://www.w3.org/1999/02/22-rdf-syntax-ns#"
   xmlns:svg="http://www.w3.org/2000/svg"
   xmlns="http://www.w3.org/2000/svg"
   xmlns:xlink="http://www.w3.org/1999/xlink"
   xmlns:sodipodi="http://sodipodi.sourceforge.net/DTD/sodipodi-0.dtd"
   xmlns:inkscape="http://www.inkscape.org/namespaces/inkscape"
   version="1.1"
   width="16"
   height="16"
   id="svg4117"
   inkscape:version="0.91 r"
   sodipodi:docname="application-x-deb.svg">
  <sodipodi:namedview
     pagecolor="#ffffff"
     bordercolor="#666666"
     borderopacity="1"
     objecttolerance="10"
     gridtolerance="10"
     guidetolerance="10"
     inkscape:pageopacity="0"
     inkscape:pageshadow="2"
     inkscape:window-width="1855"
     inkscape:window-height="1056"
     id="namedview84"
     showgrid="false"
     inkscape:zoom="58"
     inkscape:cx="8"
     inkscape:cy="8"
     inkscape:window-x="65"
     inkscape:window-y="24"
     inkscape:window-maximized="1"
     inkscape:current-layer="svg4117">
    <inkscape:grid
       type="xygrid"
       id="grid10884"
       empspacing="12"
       visible="true"
       enabled="true"
       snapvisiblegridlinesonly="true" />
  </sodipodi:namedview>
  <defs
     id="defs4119">
    <linearGradient
       inkscape:collect="always"
       id="linearGradient11957">
      <stop
         style="stop-color:#000000;stop-opacity:1;"
         offset="0"
         id="stop11959" />
      <stop
         style="stop-color:#000000;stop-opacity:0;"
         offset="1"
         id="stop11961" />
    </linearGradient>
    <linearGradient
       id="linearGradient3924">
      <stop
         id="stop3926"
         style="stop-color:#ffffff;stop-opacity:1"
         offset="0" />
      <stop
         id="stop3928"
         style="stop-color:#ffffff;stop-opacity:0.23529412"
         offset="0.06316455" />
      <stop
         id="stop3930"
         style="stop-color:#ffffff;stop-opacity:0.15686275"
         offset="0.95056331" />
      <stop
         id="stop3932"
         style="stop-color:#ffffff;stop-opacity:0.39215687"
         offset="1" />
    </linearGradient>
    <radialGradient
       cx="4.9929786"
       cy="43.5"
       r="2.5"
       fx="4.9929786"
       fy="43.5"
       id="radialGradient2873-966-168"
       xlink:href="#linearGradient3688-166-749"
       gradientUnits="userSpaceOnUse"
       gradientTransform="matrix(2.003784,0,0,1.4,27.98813,-17.4)" />
    <linearGradient
       id="linearGradient3688-166-749">
      <stop
         id="stop2883"
         style="stop-color:#181818;stop-opacity:1"
         offset="0" />
      <stop
         id="stop2885"
         style="stop-color:#181818;stop-opacity:0"
         offset="1" />
    </linearGradient>
    <radialGradient
       cx="4.9929786"
       cy="43.5"
       r="2.5"
       fx="4.9929786"
       fy="43.5"
       id="radialGradient2875-742-326"
       xlink:href="#linearGradient3688-464-309"
       gradientUnits="userSpaceOnUse"
       gradientTransform="matrix(2.003784,0,0,1.4,-20.01187,-104.4)" />
    <linearGradient
       id="linearGradient3688-464-309">
      <stop
         id="stop2889"
         style="stop-color:#181818;stop-opacity:1"
         offset="0" />
      <stop
         id="stop2891"
         style="stop-color:#181818;stop-opacity:0"
         offset="1" />
    </linearGradient>
    <linearGradient
       x1="25.058096"
       y1="47.027729"
       x2="25.058096"
       y2="39.999443"
       id="linearGradient2877-634-617"
       xlink:href="#linearGradient3702-501-757"
       gradientUnits="userSpaceOnUse" />
    <linearGradient
       id="linearGradient3702-501-757">
      <stop
         id="stop2895"
         style="stop-color:#181818;stop-opacity:0"
         offset="0" />
      <stop
         id="stop2897"
         style="stop-color:#181818;stop-opacity:1"
         offset="0.5" />
      <stop
         id="stop2899"
         style="stop-color:#181818;stop-opacity:0"
         offset="1" />
    </linearGradient>
    <filter
       color-interpolation-filters="sRGB"
       id="filter3831">
      <feGaussianBlur
         id="feGaussianBlur3833"
         stdDeviation="0.6375" />
    </filter>
    <clipPath
       id="clipPath3823">
      <path
         d="M 108.8125,58 C 107.25437,58 106,59.254375 106,60.8125 l 0,24.375 C 106,86.745625 107.25437,88 108.8125,88 l 24.375,0 C 134.74562,88 136,86.745625 136,85.1875 l 0,-24.375 C 136,59.254375 134.74562,58 133.1875,58 l -24.375,0 z m 7.1875,4.5 10,0 0,8.75 5,0 -10,13.75 -10,-13.75 5,0 0,-8.75 z"
         id="path3825"
         style="fill:#ffffff;fill-opacity:1;stroke:none"
         inkscape:connector-curvature="0" />
    </clipPath>
    <linearGradient
       x1="65.262688"
       y1="64.205269"
       x2="65.262688"
       y2="50.068527"
       id="linearGradient3812"
       xlink:href="#linearGradient5010"
       gradientUnits="userSpaceOnUse"
       gradientTransform="matrix(0.625,0,0,0.625,78.5,32.25)" />
    <filter
       color-interpolation-filters="sRGB"
       id="filter3806">
      <feGaussianBlur
         id="feGaussianBlur3808"
         stdDeviation="1.2" />
    </filter>
    <linearGradient
       x1="70"
       y1="54"
       x2="70"
       y2="75.095024"
       id="linearGradient3788"
       xlink:href="#linearGradient3737"
       gradientUnits="userSpaceOnUse"
       gradientTransform="translate(0,4)" />
    <linearGradient
       x1="56"
       y1="72"
       x2="88"
       y2="72"
       id="linearGradient3773"
       xlink:href="#linearGradient3778"
       gradientUnits="userSpaceOnUse"
       gradientTransform="matrix(0.9375,0,0,0.9375,-140.5,3.5)" />
    <linearGradient
       x1="65.262688"
       y1="64.205269"
       x2="65.262688"
       y2="50.068527"
       id="linearGradient3832"
       xlink:href="#linearGradient3737"
       gradientUnits="userSpaceOnUse"
       gradientTransform="matrix(0.625,0,0,0.625,28.5,31.25)" />
    <filter
       color-interpolation-filters="sRGB"
       id="filter3174">
      <feGaussianBlur
         id="feGaussianBlur3176"
         stdDeviation="1.71" />
    </filter>
    <linearGradient
       id="linearGradient3737">
      <stop
         id="stop3739"
         style="stop-color:#ffffff;stop-opacity:1"
         offset="0" />
      <stop
         id="stop3741"
         style="stop-color:#ffffff;stop-opacity:0"
         offset="1" />
    </linearGradient>
    <linearGradient
       x1="45.447727"
       y1="92.539597"
       x2="45.447727"
       y2="7.0165396"
       id="ButtonShadow"
       gradientUnits="userSpaceOnUse"
       gradientTransform="scale(1.0058652,0.994169)">
      <stop
         id="stop3750"
         style="stop-color:#000000;stop-opacity:1"
         offset="0" />
      <stop
         id="stop3752"
         style="stop-color:#000000;stop-opacity:0.58823532"
         offset="1" />
    </linearGradient>
    <linearGradient
       id="linearGradient5010">
      <stop
         id="stop5012"
         style="stop-color:#000000;stop-opacity:1"
         offset="0" />
      <stop
         id="stop5014"
         style="stop-color:#000000;stop-opacity:0"
         offset="1" />
    </linearGradient>
    <linearGradient
       id="linearGradient3778">
      <stop
         id="stop3780"
         style="stop-color:#499119;stop-opacity:1"
         offset="0" />
      <stop
         id="stop3782"
         style="stop-color:#8fd625;stop-opacity:1"
         offset="1" />
    </linearGradient>
    <linearGradient
       id="linearGradient3600">
      <stop
         id="stop3602"
         style="stop-color:#f4f4f4;stop-opacity:1"
         offset="0" />
      <stop
         id="stop3604"
         style="stop-color:#dbdbdb;stop-opacity:1"
         offset="1" />
    </linearGradient>
    <linearGradient
       id="linearGradient3104-5">
      <stop
         id="stop3106-9"
         style="stop-color:#aaaaaa;stop-opacity:1"
         offset="0" />
      <stop
         id="stop3108-8"
         style="stop-color:#c8c8c8;stop-opacity:1"
         offset="1" />
    </linearGradient>
    <linearGradient
       x1="23.99999"
       y1="4.999989"
       x2="23.99999"
       y2="43"
       id="linearGradient3084"
       xlink:href="#linearGradient3924"
       gradientUnits="userSpaceOnUse"
       gradientTransform="matrix(0.2972973,0,0,0.2972973,0.86486553,0.86483507)" />
    <radialGradient
       cx="7.4956832"
       cy="8.4497671"
       r="19.99999"
       fx="7.4956832"
       fy="8.4497671"
       id="radialGradient3093"
       xlink:href="#linearGradient3600"
       gradientUnits="userSpaceOnUse"
       gradientTransform="matrix(0,0.59670165,-0.6312392,-1.6241302e-8,13.333858,-2.2934448)" />
    <linearGradient
       x1="20"
       y1="43"
       x2="20"
       y2="3"
       id="linearGradient3098"
       xlink:href="#linearGradient3104-5"
       gradientUnits="userSpaceOnUse"
       gradientTransform="translate(0,-15.967439)" />
    <linearGradient
       id="linearGradient3801-1">
      <stop
         id="stop3803-8"
         offset="0"
         style="stop-color:#ffffff;stop-opacity:1;" />
      <stop
         id="stop3805-39"
         offset="1"
         style="stop-color:#ffffff;stop-opacity:0;" />
    </linearGradient>
    <linearGradient
       id="linearGradient4168-1">
      <stop
         id="stop4170-7"
         offset="0"
         style="stop-color:#55c1ec;stop-opacity:1;" />
      <stop
         id="stop4172-4"
         offset="1"
         style="stop-color:#3689e6;stop-opacity:1;" />
    </linearGradient>
    <linearGradient
       id="linearGradient4174-5">
      <stop
         id="stop4176-5"
         offset="0"
         style="stop-color:#1e80a8;stop-opacity:1;" />
      <stop
         id="stop4178-6"
         offset="1"
         style="stop-color:#2e91d4;stop-opacity:1;" />
    </linearGradient>
    <linearGradient
       id="linearGradient3837-4">
      <stop
         style="stop-color:#000000;stop-opacity:1;"
         offset="0"
         id="stop3839-9" />
      <stop
         style="stop-color:#000000;stop-opacity:0;"
         offset="1"
         id="stop3841-5" />
    </linearGradient>
    <linearGradient
       id="linearGradient4215-7">
      <stop
         style="stop-color:#dcdcdc;stop-opacity:1;"
         offset="0"
         id="stop4217-3" />
      <stop
         style="stop-color:#f0f0f0;stop-opacity:1;"
         offset="1"
         id="stop4219-2" />
    </linearGradient>
    <linearGradient
       id="linearGradient4223-4">
      <stop
         style="stop-color:#464646;stop-opacity:1;"
         offset="0"
         id="stop4225-4" />
      <stop
         style="stop-color:#6f6f6f;stop-opacity:1;"
         offset="1"
         id="stop4227-77" />
    </linearGradient>
    <linearGradient
       id="linearGradient4011-9-90">
      <stop
         id="stop4013-5-3"
         style="stop-color:#ffffff;stop-opacity:1;"
         offset="0" />
      <stop
         offset="0.507761"
         style="stop-color:#ffffff;stop-opacity:0.23529412;"
         id="stop4015-1-8" />
      <stop
         id="stop4017-7-37"
         style="stop-color:#ffffff;stop-opacity:0.15686275;"
         offset="0.83456558" />
      <stop
         id="stop4019-1-6"
         style="stop-color:#ffffff;stop-opacity:0.39215687;"
         offset="1" />
    </linearGradient>
    <linearGradient
       inkscape:collect="always"
       id="linearGradient281926">
      <stop
         style="stop-color:#ffffff;stop-opacity:1;"
         offset="0"
         id="stop281928" />
      <stop
         style="stop-color:#ffffff;stop-opacity:0;"
         offset="1"
         id="stop281930" />
    </linearGradient>
    <linearGradient
       id="linearGradient3829">
      <stop
         style="stop-color:#ffffff;stop-opacity:1;"
         offset="0"
         id="stop3831" />
      <stop
         style="stop-color:#ebebeb;stop-opacity:1;"
         offset="1"
         id="stop3833" />
    </linearGradient>
    <linearGradient
       id="linearGradient3823">
      <stop
         id="stop3825"
         offset="0"
         style="stop-color:#a0a0a0;stop-opacity:1;" />
      <stop
         id="stop3827"
         offset="1"
         style="stop-color:#8c8c8c;stop-opacity:1;" />
    </linearGradient>
    <linearGradient
       inkscape:collect="always"
       id="linearGradient281942">
      <stop
         style="stop-color:#000000;stop-opacity:1;"
         offset="0"
         id="stop281944" />
      <stop
         style="stop-color:#000000;stop-opacity:0;"
         offset="1"
         id="stop281946" />
    </linearGradient>
    <linearGradient
       id="linearGradient17874"
       osb:paint="solid"
       gradientTransform="translate(-385.3,-937.16216)">
      <stop
         style="stop-color:#505050;stop-opacity:1;"
         offset="0"
         id="stop17876" />
    </linearGradient>
    <linearGradient
       inkscape:collect="always"
       xlink:href="#linearGradient281926"
       id="linearGradient11136"
       gradientUnits="userSpaceOnUse"
       gradientTransform="matrix(0.99999996,0,0,2.0909092,-123.50006,-1330.5301)"
       x1="86.5"
       y1="624.86218"
       x2="91.499985"
       y2="624.86218" />
    <linearGradient
       inkscape:collect="always"
       xlink:href="#linearGradient3829"
       id="linearGradient11138"
       gradientUnits="userSpaceOnUse"
       gradientTransform="matrix(0.39130435,0,0,0.17647059,174.18513,-22.588206)"
       x1="-536.36218"
       y1="264"
       x2="-512.36218"
       y2="264" />
    <linearGradient
       inkscape:collect="always"
       xlink:href="#linearGradient3823"
       id="linearGradient11140"
       gradientUnits="userSpaceOnUse"
       gradientTransform="matrix(0.39130435,0,0,0.91304351,-100.45659,-148.10868)"
       x1="165.5"
       y1="188.5"
       x2="189.5"
       y2="188.5" />
    <linearGradient
       inkscape:collect="always"
       xlink:href="#linearGradient281942"
       id="linearGradient11142"
       gradientUnits="userSpaceOnUse"
       gradientTransform="matrix(0.28000001,0,0,0.1570248,-112.46139,3.2727231)"
       x1="499.36218"
       y1="132"
       x2="525.36218"
       y2="132" />
    <linearGradient
       inkscape:collect="always"
       xlink:href="#linearGradient4215-7"
       id="linearGradient11144"
       gradientUnits="userSpaceOnUse"
       gradientTransform="matrix(0.17647059,0,0,0.17647059,60.352942,32.00016)"
       x1="38.976662"
       y1="59.967686"
       x2="38.976662"
       y2="8.0928917" />
    <linearGradient
       inkscape:collect="always"
       xlink:href="#linearGradient4223-4"
       id="linearGradient11146"
       gradientUnits="userSpaceOnUse"
       gradientTransform="matrix(0.17647059,0,0,0.17647059,60.352942,32.00016)"
       x1="21.346498"
       y1="59.968513"
       x2="21.346498"
       y2="7.8025136" />
    <linearGradient
       inkscape:collect="always"
       xlink:href="#linearGradient4011-9-90"
       id="linearGradient11148"
       gradientUnits="userSpaceOnUse"
       gradientTransform="matrix(0.18918921,0,0,0.18918922,52.428794,33.202822)"
       x1="71.204407"
       y1="6.2375584"
       x2="71.204407"
       y2="44.340794" />
    <linearGradient
       inkscape:collect="always"
       xlink:href="#linearGradient3801-1"
       id="linearGradient11171"
       gradientUnits="userSpaceOnUse"
       gradientTransform="matrix(0.47826087,0,0,1,-103.89117,-164.49999)"
       x1="165.5"
       y1="188.5"
       x2="177.49998"
       y2="188.5" />
    <linearGradient
       inkscape:collect="always"
       xlink:href="#linearGradient4168-1"
       id="linearGradient11173"
       gradientUnits="userSpaceOnUse"
       gradientTransform="matrix(0.39130435,0,0,0.17647061,186.18531,-22.58822)"
       x1="-536.36218"
       y1="264"
       x2="-512.36218"
       y2="263.99997" />
    <linearGradient
       inkscape:collect="always"
       xlink:href="#linearGradient4174-5"
       id="linearGradient11175"
       gradientUnits="userSpaceOnUse"
       gradientTransform="matrix(0.39130435,0,0,0.9130435,-88.456436,-148.10869)"
       x1="189.4996"
       y1="185.67543"
       x2="165.4996"
       y2="185.67543" />
    <linearGradient
       inkscape:collect="always"
       xlink:href="#linearGradient3837-4"
       id="linearGradient11177"
       gradientUnits="userSpaceOnUse"
       gradientTransform="matrix(0.30434783,0,0,0.82608695,-35.021681,-131.71738)"
       x1="165.45238"
       y1="191.05556"
       x2="189.54762"
       y2="191.05556" />
    <linearGradient
       inkscape:collect="always"
       xlink:href="#linearGradient4215-7"
       id="linearGradient11179"
       gradientUnits="userSpaceOnUse"
       gradientTransform="matrix(0.17647059,0,0,0.17647059,60.352942,32.00016)"
       x1="38.976662"
       y1="59.967686"
       x2="38.976662"
       y2="8.0928917" />
    <linearGradient
       inkscape:collect="always"
       xlink:href="#linearGradient4223-4"
       id="linearGradient11181"
       gradientUnits="userSpaceOnUse"
       gradientTransform="matrix(0.17647059,0,0,0.17647059,60.352942,32.00016)"
       x1="21.346498"
       y1="59.968513"
       x2="21.346498"
       y2="7.8025136" />
    <linearGradient
       inkscape:collect="always"
       xlink:href="#linearGradient4011-9-90"
       id="linearGradient11183"
       gradientUnits="userSpaceOnUse"
       gradientTransform="matrix(0.18918921,0,0,0.18918922,52.428794,33.202822)"
       x1="71.204407"
       y1="6.2375584"
       x2="71.204407"
       y2="44.340794" />
    <linearGradient
       inkscape:collect="always"
       xlink:href="#linearGradient11957"
       id="linearGradient11963"
       x1="6.5"
       y1="10.5"
       x2="10.5"
       y2="10.5"
       gradientUnits="userSpaceOnUse" />
    <linearGradient
       inkscape:collect="always"
       xlink:href="#linearGradient3801-1"
       id="linearGradient11967"
       gradientUnits="userSpaceOnUse"
       x1="6.625"
       y1="10.125"
       x2="10.375"
       y2="10.125" />
    <linearGradient
       inkscape:collect="always"
       xlink:href="#linearGradient3801-1"
       id="linearGradient11975"
       gradientUnits="userSpaceOnUse"
       x1="6.625"
       y1="10.125"
       x2="10.375"
       y2="10.125" />
    <linearGradient
       inkscape:collect="always"
       xlink:href="#linearGradient11957"
       id="linearGradient11977"
       gradientUnits="userSpaceOnUse"
       x1="6.5"
       y1="10.5"
       x2="10.5"
       y2="10.5" />
    <linearGradient
       inkscape:collect="always"
       xlink:href="#linearGradient3801-1"
       id="linearGradient11985"
       gradientUnits="userSpaceOnUse"
       x1="6.625"
       y1="10.125"
       x2="10.375"
       y2="10.125" />
    <linearGradient
       inkscape:collect="always"
       xlink:href="#linearGradient11957"
       id="linearGradient11987"
       gradientUnits="userSpaceOnUse"
       x1="6.5"
       y1="10.5"
       x2="10.5"
       y2="10.5" />
    <linearGradient
       inkscape:collect="always"
       xlink:href="#linearGradient3801-1"
       id="linearGradient11995"
       gradientUnits="userSpaceOnUse"
       x1="6.625"
       y1="10.125"
       x2="10.375"
       y2="10.125" />
    <linearGradient
       inkscape:collect="always"
       xlink:href="#linearGradient11957"
       id="linearGradient11997"
       gradientUnits="userSpaceOnUse"
       x1="6.5"
       y1="10.5"
       x2="10.5"
       y2="10.5" />
    <radialGradient
       inkscape:collect="always"
       xlink:href="#linearGradient3688-166-749"
       id="radialGradient11182"
       gradientUnits="userSpaceOnUse"
       gradientTransform="matrix(2.003784,0,0,1.4,27.98813,-17.4)"
       cx="4.9929786"
       cy="43.5"
       fx="4.9929786"
       fy="43.5"
       r="2.5" />
    <radialGradient
       inkscape:collect="always"
       xlink:href="#linearGradient3688-464-309"
       id="radialGradient11184"
       gradientUnits="userSpaceOnUse"
       gradientTransform="matrix(2.003784,0,0,1.4,-20.01187,-104.4)"
       cx="4.9929786"
       cy="43.5"
       fx="4.9929786"
       fy="43.5"
       r="2.5" />
    <linearGradient
       inkscape:collect="always"
       xlink:href="#linearGradient3702-501-757"
       id="linearGradient11186"
       gradientUnits="userSpaceOnUse"
       x1="25.058096"
       y1="47.027729"
       x2="25.058096"
       y2="39.999443" />
    <linearGradient
       inkscape:collect="always"
       xlink:href="#linearGradient3702-501-757"
       id="linearGradient11189"
       gradientUnits="userSpaceOnUse"
       x1="25.058096"
       y1="47.027729"
       x2="25.058096"
       y2="39.999443"
       gradientTransform="matrix(0.7142857,0,0,0.42857139,-1.1428569,9.8571123)" />
    <radialGradient
       inkscape:collect="always"
       xlink:href="#linearGradient3688-464-309"
       id="radialGradient11192"
       gradientUnits="userSpaceOnUse"
       gradientTransform="matrix(1.6030272,0,0,0.60000002,-14.009496,-54.599969)"
       cx="4.9929786"
       cy="43.5"
       fx="4.9929786"
       fy="43.5"
       r="2.5" />
    <radialGradient
       inkscape:collect="always"
       xlink:href="#linearGradient3688-166-749"
       id="radialGradient11195"
       gradientUnits="userSpaceOnUse"
       gradientTransform="matrix(1.6030272,0,0,0.60000002,17.990504,2.3999667)"
       cx="4.9929786"
       cy="43.5"
       fx="4.9929786"
       fy="43.5"
       r="2.5" />
    <radialGradient
       inkscape:collect="always"
       xlink:href="#linearGradient3688-166-749"
       id="radialGradient11202"
       gradientUnits="userSpaceOnUse"
       gradientTransform="matrix(1.6030272,0,0,0.60000002,17.990504,2.3999667)"
       cx="4.9929786"
       cy="43.5"
       fx="4.9929786"
       fy="43.5"
       r="2.5" />
    <radialGradient
       inkscape:collect="always"
       xlink:href="#linearGradient3688-464-309"
       id="radialGradient11204"
       gradientUnits="userSpaceOnUse"
       gradientTransform="matrix(1.6030272,0,0,0.60000002,-14.009496,-54.599969)"
       cx="4.9929786"
       cy="43.5"
       fx="4.9929786"
       fy="43.5"
       r="2.5" />
    <linearGradient
       inkscape:collect="always"
       xlink:href="#linearGradient3702-501-757"
       id="linearGradient11206"
       gradientUnits="userSpaceOnUse"
       gradientTransform="matrix(0.7142857,0,0,0.42857139,-1.1428569,9.8571123)"
       x1="25.058096"
       y1="47.027729"
       x2="25.058096"
       y2="39.999443" />
    <linearGradient
       inkscape:collect="always"
       xlink:href="#linearGradient3837-4"
       id="linearGradient11219"
       gradientUnits="userSpaceOnUse"
       gradientTransform="matrix(0.30434783,0,0,0.73913044,-37.021681,-119.32608)"
       x1="165.45238"
       y1="191.05556"
       x2="189.54762"
       y2="191.05556" />
    <linearGradient
       inkscape:collect="always"
       xlink:href="#linearGradient4168-1"
       id="linearGradient11222"
       gradientUnits="userSpaceOnUse"
       gradientTransform="matrix(0.39130435,0,0,0.15966388,188.18531,-22.151247)"
       x1="-536.36218"
       y1="264"
       x2="-512.36218"
       y2="263.99997" />
    <linearGradient
       inkscape:collect="always"
       xlink:href="#linearGradient4174-5"
       id="linearGradient11224"
       gradientUnits="userSpaceOnUse"
       gradientTransform="matrix(0.39130435,0,0,0.82608697,-86.456436,-135.71739)"
       x1="189.4996"
       y1="185.67543"
       x2="165.4996"
       y2="185.67543" />
    <linearGradient
       inkscape:collect="always"
       xlink:href="#linearGradient3801-1"
       id="linearGradient11227"
       gradientUnits="userSpaceOnUse"
       gradientTransform="matrix(0.47826087,0,0,0.91304351,-101.89117,-152.10869)"
       x1="165.5"
       y1="188.5"
       x2="177.49998"
       y2="188.5" />
    <linearGradient
       inkscape:collect="always"
       xlink:href="#linearGradient4215-7"
       id="linearGradient11229"
       gradientUnits="userSpaceOnUse"
       gradientTransform="matrix(0.17647059,0,0,0.17647059,60.352942,32.00016)"
       x1="38.976662"
       y1="59.967686"
       x2="38.976662"
       y2="8.0928917" />
    <linearGradient
       inkscape:collect="always"
       xlink:href="#linearGradient4223-4"
       id="linearGradient11231"
       gradientUnits="userSpaceOnUse"
       gradientTransform="matrix(0.17647059,0,0,0.17647059,60.352942,32.00016)"
       x1="21.346498"
       y1="59.968513"
       x2="21.346498"
       y2="7.8025136" />
    <linearGradient
       inkscape:collect="always"
       xlink:href="#linearGradient4011-9-90"
       id="linearGradient11233"
       gradientUnits="userSpaceOnUse"
       gradientTransform="matrix(0.18918921,0,0,0.18918922,52.428794,33.202822)"
       x1="71.204407"
       y1="6.2375584"
       x2="71.204407"
       y2="44.340794" />
    <linearGradient
       inkscape:collect="always"
       xlink:href="#linearGradient3801-1"
       id="linearGradient11250"
       gradientUnits="userSpaceOnUse"
       gradientTransform="matrix(0.47826087,0,0,0.91304351,-101.89117,-152.10869)"
       x1="165.5"
       y1="188.5"
       x2="177.49998"
       y2="188.5" />
    <linearGradient
       inkscape:collect="always"
       xlink:href="#linearGradient4168-1"
       id="linearGradient11252"
       gradientUnits="userSpaceOnUse"
       gradientTransform="matrix(0.39130435,0,0,0.15966388,188.18531,-22.151247)"
       x1="-536.36218"
       y1="264"
       x2="-512.36218"
       y2="263.99997" />
    <linearGradient
       inkscape:collect="always"
       xlink:href="#linearGradient4174-5"
       id="linearGradient11254"
       gradientUnits="userSpaceOnUse"
       gradientTransform="matrix(0.39130435,0,0,0.82608697,-86.456436,-135.71739)"
       x1="189.4996"
       y1="185.67543"
       x2="165.4996"
       y2="185.67543" />
    <linearGradient
       inkscape:collect="always"
       xlink:href="#linearGradient3837-4"
       id="linearGradient11256"
       gradientUnits="userSpaceOnUse"
       gradientTransform="matrix(0.30434783,0,0,0.73913044,-37.021681,-119.32608)"
       x1="165.45238"
       y1="191.05556"
       x2="189.54762"
       y2="191.05556" />
    <linearGradient
       inkscape:collect="always"
       xlink:href="#linearGradient4215-7"
       id="linearGradient11258"
       gradientUnits="userSpaceOnUse"
       gradientTransform="matrix(0.17647059,0,0,0.17647059,60.352942,32.00016)"
       x1="38.976662"
       y1="59.967686"
       x2="38.976662"
       y2="8.0928917" />
    <linearGradient
       inkscape:collect="always"
       xlink:href="#linearGradient4223-4"
       id="linearGradient11260"
       gradientUnits="userSpaceOnUse"
       gradientTransform="matrix(0.17647059,0,0,0.17647059,60.352942,32.00016)"
       x1="21.346498"
       y1="59.968513"
       x2="21.346498"
       y2="7.8025136" />
    <linearGradient
       inkscape:collect="always"
       xlink:href="#linearGradient4011-9-90"
       id="linearGradient11262"
       gradientUnits="userSpaceOnUse"
       gradientTransform="matrix(0.18918921,0,0,0.18918922,52.428794,33.202822)"
       x1="71.204407"
       y1="6.2375584"
       x2="71.204407"
       y2="44.340794" />
    <linearGradient
       inkscape:collect="always"
       xlink:href="#linearGradient3702-501-757"
       id="linearGradient11265"
       gradientUnits="userSpaceOnUse"
       gradientTransform="matrix(0.57142856,0,0,0.42857139,-1.7142855,2.8571447)"
       x1="25.058096"
       y1="47.027729"
       x2="25.058096"
       y2="39.999443" />
    <radialGradient
       inkscape:collect="always"
       xlink:href="#linearGradient3688-464-309"
       id="radialGradient11268"
       gradientUnits="userSpaceOnUse"
       gradientTransform="matrix(1.2022704,0,0,0.60000002,-10.007122,-47.600001)"
       cx="4.9929786"
       cy="43.5"
       fx="4.9929786"
       fy="43.5"
       r="2.5" />
    <radialGradient
       inkscape:collect="always"
       xlink:href="#linearGradient3688-166-749"
       id="radialGradient11271"
       gradientUnits="userSpaceOnUse"
       gradientTransform="matrix(1.2022704,0,0,0.60000002,13.992877,-4.6000009)"
       cx="4.9929786"
       cy="43.5"
       fx="4.9929786"
       fy="43.5"
       r="2.5" />
    <linearGradient
       inkscape:collect="always"
       xlink:href="#linearGradient3837-4"
       id="linearGradient11289"
       gradientUnits="userSpaceOnUse"
       gradientTransform="matrix(0.13043478,0,0,0.39130435,-12.152149,-41.760866)"
       x1="165.45238"
       y1="191.05556"
       x2="189.54762"
       y2="191.05556" />
    <linearGradient
       inkscape:collect="always"
       xlink:href="#linearGradient4168-1"
       id="linearGradient11292"
       gradientUnits="userSpaceOnUse"
       gradientTransform="matrix(0.21739131,0,0,0.09243698,102.99184,7.5966467)"
       x1="-536.36218"
       y1="264"
       x2="-512.36218"
       y2="263.99997" />
    <linearGradient
       inkscape:collect="always"
       xlink:href="#linearGradient4174-5"
       id="linearGradient11294"
       gradientUnits="userSpaceOnUse"
       gradientTransform="matrix(0.21739131,0,0,0.47826088,-49.586909,-58.152173)"
       x1="189.4996"
       y1="185.67543"
       x2="165.4996"
       y2="185.67543" />
    <linearGradient
       inkscape:collect="always"
       xlink:href="#linearGradient3801-1"
       id="linearGradient11297"
       gradientUnits="userSpaceOnUse"
       gradientTransform="matrix(0.30434783,0,0,0.56521741,-65.021655,-74.543475)"
       x1="165.5"
       y1="188.5"
       x2="177.49998"
       y2="188.5" />
    <linearGradient
       inkscape:collect="always"
       xlink:href="#linearGradient4215-7"
       id="linearGradient11299"
       gradientUnits="userSpaceOnUse"
       gradientTransform="matrix(0.17647059,0,0,0.17647059,60.352942,32.00016)"
       x1="38.976662"
       y1="59.967686"
       x2="38.976662"
       y2="8.0928917" />
    <linearGradient
       inkscape:collect="always"
       xlink:href="#linearGradient4223-4"
       id="linearGradient11301"
       gradientUnits="userSpaceOnUse"
       gradientTransform="matrix(0.17647059,0,0,0.17647059,60.352942,32.00016)"
       x1="21.346498"
       y1="59.968513"
       x2="21.346498"
       y2="7.8025136" />
    <linearGradient
       inkscape:collect="always"
       xlink:href="#linearGradient4011-9-90"
       id="linearGradient11303"
       gradientUnits="userSpaceOnUse"
       gradientTransform="matrix(0.18918921,0,0,0.18918922,52.428794,33.202822)"
       x1="71.204407"
       y1="6.2375584"
       x2="71.204407"
       y2="44.340794" />
    <linearGradient
       inkscape:collect="always"
       xlink:href="#linearGradient4011-9-90"
       id="linearGradient11313"
       gradientUnits="userSpaceOnUse"
       gradientTransform="matrix(0.0810811,0,0,0.08108111,29.183769,8.9441419)"
       x1="71.204407"
       y1="6.2375584"
       x2="71.204407"
       y2="44.340794" />
    <linearGradient
       inkscape:collect="always"
       xlink:href="#linearGradient4215-7"
       id="linearGradient11316"
       gradientUnits="userSpaceOnUse"
       gradientTransform="matrix(0.09803922,0,0,0.09803922,31.862745,7.6668225)"
       x1="38.976662"
       y1="59.967686"
       x2="38.976662"
       y2="8.0928917" />
    <linearGradient
       inkscape:collect="always"
       xlink:href="#linearGradient4223-4"
       id="linearGradient11318"
       gradientUnits="userSpaceOnUse"
       gradientTransform="matrix(0.09803922,0,0,0.09803922,31.862745,7.6668225)"
       x1="21.346498"
       y1="59.968513"
       x2="21.346498"
       y2="7.8025136" />
    <linearGradient
       inkscape:collect="always"
       xlink:href="#linearGradient3801-1"
       id="linearGradient11334"
       gradientUnits="userSpaceOnUse"
       gradientTransform="matrix(0.30434783,0,0,0.56521741,-65.021655,-74.543475)"
       x1="165.5"
       y1="188.5"
       x2="177.49998"
       y2="188.5" />
    <linearGradient
       inkscape:collect="always"
       xlink:href="#linearGradient4168-1"
       id="linearGradient11336"
       gradientUnits="userSpaceOnUse"
       gradientTransform="matrix(0.21739131,0,0,0.09243698,102.99184,7.5966467)"
       x1="-536.36218"
       y1="264"
       x2="-512.36218"
       y2="263.99997" />
    <linearGradient
       inkscape:collect="always"
       xlink:href="#linearGradient4174-5"
       id="linearGradient11338"
       gradientUnits="userSpaceOnUse"
       gradientTransform="matrix(0.21739131,0,0,0.47826088,-49.586909,-58.152173)"
       x1="189.4996"
       y1="185.67543"
       x2="165.4996"
       y2="185.67543" />
    <linearGradient
       inkscape:collect="always"
       xlink:href="#linearGradient3837-4"
       id="linearGradient11340"
       gradientUnits="userSpaceOnUse"
       gradientTransform="matrix(0.13043478,0,0,0.39130435,-12.152149,-41.760866)"
       x1="165.45238"
       y1="191.05556"
       x2="189.54762"
       y2="191.05556" />
    <linearGradient
       inkscape:collect="always"
       xlink:href="#linearGradient4215-7"
       id="linearGradient11342"
       gradientUnits="userSpaceOnUse"
       gradientTransform="matrix(0.09803922,0,0,0.09803922,31.862745,7.6668225)"
       x1="38.976662"
       y1="59.967686"
       x2="38.976662"
       y2="8.0928917" />
    <linearGradient
       inkscape:collect="always"
       xlink:href="#linearGradient4223-4"
       id="linearGradient11344"
       gradientUnits="userSpaceOnUse"
       gradientTransform="matrix(0.09803922,0,0,0.09803922,31.862745,7.6668225)"
       x1="21.346498"
       y1="59.968513"
       x2="21.346498"
       y2="7.8025136" />
    <linearGradient
       inkscape:collect="always"
       xlink:href="#linearGradient4011-9-90"
       id="linearGradient11346"
       gradientUnits="userSpaceOnUse"
       gradientTransform="matrix(0.0810811,0,0,0.08108111,29.183769,8.9441419)"
       x1="71.204407"
       y1="6.2375584"
       x2="71.204407"
       y2="44.340794" />
    <radialGradient
       inkscape:collect="always"
       xlink:href="#linearGradient3688-166-749"
       id="radialGradient11348"
       gradientUnits="userSpaceOnUse"
       gradientTransform="matrix(1.2022704,0,0,0.60000002,13.992877,-4.6000009)"
       cx="4.9929786"
       cy="43.5"
       fx="4.9929786"
       fy="43.5"
       r="2.5" />
    <radialGradient
       inkscape:collect="always"
       xlink:href="#linearGradient3688-464-309"
       id="radialGradient11350"
       gradientUnits="userSpaceOnUse"
       gradientTransform="matrix(1.2022704,0,0,0.60000002,-10.007122,-47.600001)"
       cx="4.9929786"
       cy="43.5"
       fx="4.9929786"
       fy="43.5"
       r="2.5" />
    <linearGradient
       inkscape:collect="always"
       xlink:href="#linearGradient3702-501-757"
       id="linearGradient11352"
       gradientUnits="userSpaceOnUse"
       gradientTransform="matrix(0.57142856,0,0,0.42857139,-1.7142855,2.8571447)"
       x1="25.058096"
       y1="47.027729"
       x2="25.058096"
       y2="39.999443" />
  </defs>
  <metadata
     id="metadata4122">
    <rdf:RDF>
      <cc:Work
         rdf:about="">
        <dc:format>image/svg+xml</dc:format>
        <dc:type
           rdf:resource="http://purl.org/dc/dcmitype/StillImage" />
        <dc:title></dc:title>
      </cc:Work>
    </rdf:RDF>
  </metadata>
  <rect
     width="12"
     height="12"
     x="2"
     y="1.9999995"
     id="rect5505-21"
     style="color:#000000;fill:url(#radialGradient3093);fill-opacity:1;fill-rule:nonzero;stroke:none;stroke-width:1;marker:none;visibility:visible;display:inline;overflow:visible;enable-background:accumulate" />
  <rect
     width="11"
     height="11"
     x="2.5"
     y="2.4999671"
     id="rect6741-2"
     style="fill:none;stroke:url(#linearGradient3084);stroke-width:0.99999994;stroke-linecap:round;stroke-linejoin:round;stroke-miterlimit:4;stroke-opacity:1;stroke-dasharray:none;stroke-dashoffset:0" />
  <g
     transform="translate(-135.85714,-63.05041)"
     id="layer2"
     style="display:none">
    <path
       d="M 11,7 48,5 85,7 c 3.324,0 6,2.676 6,6 l 0,73 c 0,3.324 -2.676,6 -6,6 L 11,92 C 7.676,92 5,89.324 5,86 L 5,13 C 5,9.676 7.676,7 11,7 z"
       id="rect3745"
       style="opacity:0.9;fill:url(#ButtonShadow);fill-opacity:1;fill-rule:nonzero;stroke:none;filter:url(#filter3174)"
       inkscape:connector-curvature="0" />
  </g>
  <g
     transform="translate(-135.85714,-63.05041)"
     id="layer4"
     style="display:none">
    <rect
       width="30"
       height="30"
       rx="2.8125"
       ry="2.8125"
       x="-86"
       y="56"
       transform="matrix(0,-1,1,0,0,4)"
       id="rect3790"
       style="opacity:0.6;fill:#000000;fill-opacity:1;stroke:none;filter:url(#filter3806)" />
    <rect
       width="30"
       height="30"
       rx="2.8125"
       ry="2.8125"
       x="-88"
       y="56"
       transform="matrix(0,-1,1,0,0,0)"
       id="rect2993"
       style="fill:url(#linearGradient3773);fill-opacity:1;stroke:none" />
    <path
       d="M 58.8125,58 C 57.254375,58 56,59.254375 56,60.8125 l 0,24.375 c 0,0.873066 0.410816,1.641163 1.03125,2.15625 C 57.02841,87.289908 57,87.242129 57,87.1875 l 0,-24.375 C 57,61.254375 58.17075,60 59.625,60 l 22.75,0 C 83.82925,60 85,61.254375 85,62.8125 l 0,24.375 c 0,0.05463 -0.02841,0.102408 -0.03125,0.15625 C 85.589184,86.828663 86,86.060566 86,85.1875 l 0,-24.375 C 86,59.254375 84.745625,58 83.1875,58 l -24.375,0 z"
       id="rect3775"
       style="opacity:0.5;fill:url(#linearGradient3788);fill-opacity:1;stroke:none"
       inkscape:connector-curvature="0" />
    <path
       d="m 116,63.5 0,8.75 -5,0 10,13.75 10,-13.75 -5,0 0,-8.75 -10,0 z"
       transform="translate(-50,0)"
       clip-path="url(#clipPath3823)"
       id="path3810"
       style="opacity:0.6;fill:url(#linearGradient3812);fill-opacity:1;fill-rule:nonzero;stroke:none;display:inline;filter:url(#filter3831)"
       inkscape:connector-curvature="0" />
    <path
       d="m 66,62.5 0,8.75 -5,0 10,13.75 10,-13.75 -5,0 0,-8.75 -10,0 z"
       id="path4278"
       style="fill:url(#linearGradient3832);fill-opacity:1;fill-rule:nonzero;stroke:none;display:inline"
       inkscape:connector-curvature="0" />
  </g>
  <rect
     style="opacity:0.35;fill:none;stroke:#000000;stroke-width:1;stroke-linecap:round;stroke-linejoin:round;stroke-miterlimit:4;stroke-opacity:1;stroke-dasharray:none;stroke-dashoffset:0"
     id="rect11173"
     y="1.5"
     x="1.5"
     ry="1"
     rx="1"
     height="13"
     width="13" />
  <path
     inkscape:connector-curvature="0"
     d="m 11.100484,7.2800664 c 0.01006,0.2698361 -0.07873,0.4009565 -0.159041,0.6328184 l -0.144409,0.07182 c -0.11805,0.2294041 0.01174,0.1456392 -0.07282,0.3280251 C 10.539709,8.476575 10.165111,8.8252607 10.045161,8.857204 9.957485,8.855334 10.104471,8.7537854 10.123671,8.714132 9.8769573,8.8834495 9.9256515,8.9683316 9.5482636,9.0714193 L 9.5372775,9.0467383 C 8.606975,9.4845459 7.3145391,8.617074 7.3315152,7.4336414 c -0.00983,0.075053 -0.028252,0.05629 -0.04881,0.086445 C 7.234685,6.9112802 7.5639316,6.2997958 8.1192366,6.0497288 8.662369,5.7810105 9.2990922,5.891133 9.687872,6.2540045 9.474329,5.9741167 9.0489148,5.6773648 8.5450971,5.7048394 c -0.493766,0.00804 -0.9558116,0.32177 -1.1099392,0.662527 -0.2528582,0.1591537 -0.2823436,0.61383 -0.3924668,0.697149 -0.1484308,1.0900635 0.2788811,1.5608231 1.0018276,2.1149018 0.1134743,0.076615 0.031944,0.088338 0.047135,0.146645 C 7.8515272,9.2137049 7.6317292,9.0439418 7.4507972,8.836092 7.546846,8.9764825 7.6503798,9.1129641 7.7842914,9.220183 7.5576803,9.1436801 7.2551226,8.671465 7.1670009,8.6522556 7.5573463,9.3511928 8.7504912,9.8780186 9.3756008,9.6165594 9.0863331,9.6272959 8.7189965,9.6225519 8.3942115,9.5024169 8.2573958,9.4321686 8.0721081,9.2868608 8.1052791,9.2597202 8.9581165,9.5781408 9.8388756,9.5007403 10.576677,8.909359 c 0.187855,-0.1463104 0.39291,-0.3950382 0.452216,-0.3983865 -0.08924,0.1342469 0.01529,0.064556 -0.05326,0.1830537 0.186739,-0.3016654 -0.08143,-0.1228564 0.193218,-0.5209071 l 0.10141,0.1396091 c -0.03798,-0.2506255 0.311047,-0.5546373 0.275529,-0.9506791 0.08009,-0.1210687 0.08923,0.1304513 0.0043,0.4089976 0.117824,-0.309038 0.03115,-0.358738 0.06131,-0.6138314 0.0325,0.085774 0.07573,0.1768005 0.09772,0.2673793 -0.07684,-0.2987633 0.07851,-0.5029272 0.117164,-0.6766002 -0.0382,-0.016745 -0.1185,0.1320143 -0.137041,-0.2206919 0.0027,-0.1532351 0.04279,-0.080303 0.05809,-0.1180538 -0.02993,-0.017313 -0.108901,-0.1348065 -0.156806,-0.3600786 0.03452,-0.053056 0.09292,0.1372627 0.140278,0.1449693 -0.03052,-0.1790389 -0.08291,-0.3156325 -0.08514,-0.4531186 -0.13849,-0.2892691 -0.04902,0.038646 -0.161161,-0.1241961 -0.147428,-0.45948 0.122182,-0.106662 0.1405,-0.3152921 0.223149,0.3233332 0.350358,0.8248071 0.408997,1.032433 C 11.98931,6.0807717 11.91726,5.8353959 11.829146,5.5980611 11.897156,5.6267661 11.71981,5.0772652 11.917485,5.4411416 11.706536,4.6654754 11.015307,3.9406279 10.379254,3.6006533 10.456871,3.6717977 10.555049,3.7611479 10.51998,3.7752199 10.203493,3.5870282 10.259112,3.5721739 10.213768,3.4926525 9.9563309,3.3877796 9.9391304,3.5012542 9.7688098,3.492876 9.2829852,3.2351039 9.1893933,3.2624669 8.7423116,3.1011914 l 0.020334,0.095157 C 8.4408769,3.089128 8.3877139,3.2367818 8.0400344,3.1965714 8.0189263,3.1801561 8.1514975,3.136705 8.2607265,3.12096 7.9495678,3.1620577 7.964087,3.0595318 7.6596298,3.1322332 7.7345717,3.079635 7.8140927,3.0446744 7.89406,3 7.6404205,3.0154125 7.2882729,3.1476505 7.3969431,3.0272486 6.9831411,3.2119796 6.2481321,3.4712048 5.8356744,3.8579758 l -0.01295,-0.086669 C 5.6337519,3.9981434 4.9985911,4.4488004 4.9479976,4.7428717 l -0.050597,0.011735 C 4.799228,4.9211263 4.7354546,5.1097654 4.6574977,5.2809812 4.5289472,5.5002229 4.4689713,5.3654171 4.4872878,5.3998161 4.2343181,5.9126826 4.1084476,6.3435703 4,6.6971701 4.077286,6.8127671 4.0019,7.3932043 4.031051,7.8577098 3.904175,10.152203 5.6413465,12.379799 7.540241,12.894006 7.8185628,12.993746 8.2323609,12.990166 8.584396,13 8.1691473,12.881161 8.1155379,12.93712 7.7107857,12.796056 7.4189495,12.658459 7.3550645,12.501537 7.1482212,12.322055 l 0.081866,0.144637 C 6.8246876,12.323171 6.9943392,12.289107 6.6644181,12.18468 l 0.087449,-0.114031 c -0.1314542,-0.01 -0.3481264,-0.221363 -0.4073201,-0.338745 l -0.1438523,0.0057 C 6.0280271,11.524707 5.9358859,11.370911 5.9426987,11.251742 l -0.046466,0.08288 C 5.8436273,11.244289 5.2606262,10.535189 5.5630732,10.700262 5.5068948,10.649114 5.4321767,10.61683 5.3512038,10.469517 l 0.061545,-0.07024 C 5.2674437,10.211971 5.1449238,9.9719556 5.1543055,9.8919883 5.2319266,9.9967552 5.285761,10.016405 5.3391463,10.034389 4.9715865,9.122577 4.9509248,9.9842274 4.6727135,9.1062702 l 0.058745,-0.00475 c -0.04501,-0.068245 -0.0726,-0.1418451 -0.108786,-0.2143293 L 4.6483571,8.6319864 C 4.3838838,8.3264557 4.5744215,7.3314377 4.6127294,6.7858464 4.6389722,6.5640379 4.8335329,6.3278195 4.981294,5.9573544 L 4.8912761,5.9419422 C 5.0634956,5.641728 5.8743395,4.7358358 6.2500532,4.7822973 6.4319906,4.5537862 6.2138664,4.7813564 6.1782378,4.7239987 6.5779647,4.3104226 6.7036109,4.431826 6.9733337,4.3573313 7.264053,4.1847748 6.7237146,4.4247896 6.8615361,4.2915482 7.3644604,4.1632195 7.2178158,3.9995981 7.8737506,3.9344847 7.9430062,3.9737961 7.7132564,3.9952426 7.6556272,4.046284 8.0744504,3.8412268 8.9812322,3.8880238 9.5704915,4.1599821 10.253677,4.4795176 11.021744,5.4236068 11.052125,6.3118526 l 0.03451,0.00927 c -0.01742,0.3531532 0.05406,0.7615928 -0.07002,1.1366379 L 11.100489,7.28007"
     id="path3032"
     style="fill:#d70751" />
</svg>
