<?xml version="1.0" encoding="UTF-8" standalone="no"?>
<!-- Generator: Adobe Illustrator 15.0.0, SVG Export Plug-In . SVG Version: 6.00 Build 0)  -->

<svg
   xmlns:dc="http://purl.org/dc/elements/1.1/"
   xmlns:cc="http://creativecommons.org/ns#"
   xmlns:rdf="http://www.w3.org/1999/02/22-rdf-syntax-ns#"
   xmlns:svg="http://www.w3.org/2000/svg"
   xmlns="http://www.w3.org/2000/svg"
   xmlns:sodipodi="http://sodipodi.sourceforge.net/DTD/sodipodi-0.dtd"
   xmlns:inkscape="http://www.inkscape.org/namespaces/inkscape"
   version="1.1"
   id="Layer_1"
   x="0px"
   y="0px"
   width="16"
   height="16"
   viewBox="0 0 16 16"
   enable-background="new 0 0 512 512"
   xml:space="preserve"
   inkscape:version="0.91 r"
   sodipodi:docname="lastfm-audioscrobbler.svg"><metadata
     id="metadata9"><rdf:RDF><cc:Work
         rdf:about=""><dc:format>image/svg+xml</dc:format><dc:type
           rdf:resource="http://purl.org/dc/dcmitype/StillImage" /><dc:title /></cc:Work></rdf:RDF></metadata><defs
     id="defs7" /><sodipodi:namedview
     pagecolor="#ffffff"
     bordercolor="#666666"
     borderopacity="1"
     objecttolerance="10"
     gridtolerance="10"
     guidetolerance="10"
     inkscape:pageopacity="0"
     inkscape:pageshadow="2"
     inkscape:window-width="1855"
     inkscape:window-height="1056"
     id="namedview5"
     showgrid="true"
     inkscape:zoom="29.8125"
     inkscape:cx="-2.4870236"
     inkscape:cy="8"
     inkscape:window-x="65"
     inkscape:window-y="24"
     inkscape:window-maximized="1"
     inkscape:current-layer="Layer_1"><inkscape:grid
       type="xygrid"
       id="grid4888" /></sodipodi:namedview><path
     d="m 12.595123,12.595745 c -1.593517,-0.0068 -2.442565,-0.801157 -3.0326202,-2.201672 L 9.393715,10.011908 7.9390462,6.629412 C 7.4566165,5.4320678 6.2595061,4.623226 4.9087866,4.623226 c -1.8276213,0 -3.310347,1.5122236 -3.310347,3.3774741 0,1.8651817 1.4826959,3.3774099 3.310347,3.3774099 1.2749161,0 2.3834943,-0.735162 2.9368273,-1.8131436 l 0.5882618,1.3839586 c -0.835303,1.038642 -2.1046314,1.700122 -3.525059,1.700122 -2.5174427,0 -4.55786396,-2.079781 -4.55786396,-4.6483763 0,-2.5673837 2.04042126,-4.6497178 4.55780416,-4.6497178 1.8997798,0 3.4336586,1.0348285 4.2129685,2.8682605 0.059098,0.1422521 0.824068,1.9667908 1.4913896,3.519629 0.41332,0.9611496 0.765775,1.5985856 1.908565,1.6379896 1.12298,0.03929 1.893684,-0.657726 1.893684,-1.5390135 0,-0.8608562 -0.587665,-1.0677985 -1.579862,-1.4042577 -1.783489,-0.5993058 -2.704129,-1.2011472 -2.704129,-2.6435221 0,-1.4068803 0.938686,-2.3451711 2.463721,-2.3451711 0.993453,0 1.710673,0.4507837 2.207476,1.3497375 l -0.9749,0.5078583 C 13.460336,4.7781158 13.055174,4.571115 12.540295,4.571115 c -0.715755,0 -1.2269,0.5079262 -1.2269,1.1833606 0,0.9586807 0.840981,1.1034195 2.016908,1.4970115 1.58297,0.5256252 2.318744,1.1262181 2.318744,2.6257938 5.9e-5,1.5744501 -1.324693,2.7210011 -3.053924,2.7184641 z"
     id="path3"
     inkscape:connector-curvature="0"
     style="fill:#333333;fill-opacity:1;stroke:#333333;stroke-width:0.70190549;stroke-miterlimit:4;stroke-dasharray:none;stroke-opacity:1" /></svg>