<?xml version="1.0" encoding="UTF-8" standalone="no"?>
<!-- Created with Inkscape (http://www.inkscape.org/) -->

<svg
   xmlns:dc="http://purl.org/dc/elements/1.1/"
   xmlns:cc="http://creativecommons.org/ns#"
   xmlns:rdf="http://www.w3.org/1999/02/22-rdf-syntax-ns#"
   xmlns:svg="http://www.w3.org/2000/svg"
   xmlns="http://www.w3.org/2000/svg"
   xmlns:xlink="http://www.w3.org/1999/xlink"
   xmlns:sodipodi="http://sodipodi.sourceforge.net/DTD/sodipodi-0.dtd"
   xmlns:inkscape="http://www.inkscape.org/namespaces/inkscape"
   version="1.1"
   width="16"
   height="16"
   id="svg3810"
   inkscape:version="0.91 r"
   sodipodi:docname="2.svg">
  <sodipodi:namedview
     pagecolor="#ffffff"
     bordercolor="#666666"
     borderopacity="1"
     objecttolerance="10"
     gridtolerance="10"
     guidetolerance="10"
     inkscape:pageopacity="0"
     inkscape:pageshadow="2"
     inkscape:window-width="640"
     inkscape:window-height="480"
     id="namedview28"
     showgrid="false"
     inkscape:zoom="48.25"
     inkscape:cx="4.2901554"
     inkscape:cy="8"
     inkscape:current-layer="svg3810" />
  <defs
     id="defs3812">
    <linearGradient
       x1="23.99999"
       y1="6.2052388"
       x2="23.99999"
       y2="41.589603"
       id="linearGradient3988"
       xlink:href="#linearGradient3977"
       gradientUnits="userSpaceOnUse"
       gradientTransform="matrix(0.24324324,0,0,0.35135133,2.1621636,-0.43242804)" />
    <linearGradient
       id="linearGradient3977">
      <stop
         id="stop3979"
         style="stop-color:#ffffff;stop-opacity:1"
         offset="0" />
      <stop
         id="stop3981"
         style="stop-color:#ffffff;stop-opacity:0.23529412"
         offset="0.02929282" />
      <stop
         id="stop3983"
         style="stop-color:#ffffff;stop-opacity:0.15686275"
         offset="0.97230476" />
      <stop
         id="stop3985"
         style="stop-color:#ffffff;stop-opacity:0.39215687"
         offset="1" />
    </linearGradient>
    <linearGradient
       id="linearGradient3600">
      <stop
         id="stop3602"
         style="stop-color:#f4f4f4;stop-opacity:1"
         offset="0" />
      <stop
         id="stop3604"
         style="stop-color:#dbdbdb;stop-opacity:1"
         offset="1" />
    </linearGradient>
    <linearGradient
       x1="25.132275"
       y1="0.98520643"
       x2="25.132275"
       y2="47.013336"
       id="linearGradient3806"
       xlink:href="#linearGradient3600"
       gradientUnits="userSpaceOnUse"
       gradientTransform="matrix(0.28571361,0,0,0.30419701,1.1428727,0.2326048)" />
    <linearGradient
       id="linearGradient3104-9">
      <stop
         id="stop3106-5"
         style="stop-color:#000000;stop-opacity:0.33950618"
         offset="0" />
      <stop
         id="stop3108-5"
         style="stop-color:#000000;stop-opacity:0.24691358"
         offset="1" />
    </linearGradient>
    <linearGradient
       x1="-51.786404"
       y1="50.786446"
       x2="-51.786404"
       y2="2.9062471"
       id="linearGradient3019"
       xlink:href="#linearGradient3104-9"
       gradientUnits="userSpaceOnUse"
       gradientTransform="matrix(0.25378586,0,0,0.30501865,19.128979,-0.68547704)" />
    <linearGradient
       id="linearGradient3104-5">
      <stop
         id="stop3106-2"
         style="stop-color:#aaaaaa;stop-opacity:1"
         offset="0" />
      <stop
         id="stop3108-5-8"
         style="stop-color:#c8c8c8;stop-opacity:1"
         offset="1" />
    </linearGradient>
    <linearGradient
       x1="22.004084"
       y1="47.813133"
       x2="22.004084"
       y2="3.3638515"
       id="linearGradient3032"
       xlink:href="#linearGradient3104-5"
       gradientUnits="userSpaceOnUse"
       gradientTransform="matrix(0.32160807,0,0,0.3333374,-0.1751469,-0.3490771)" />
    <linearGradient
       id="linearGradient2867-449-88-871-390-598-476-591-434-148-57-177">
      <stop
         offset="0"
         style="stop-color:#90dbec;stop-opacity:1;"
         id="stop3750" />
      <stop
         offset="0.26238"
         style="stop-color:#55c1ec;stop-opacity:1;"
         id="stop3752" />
      <stop
         offset="0.704952"
         style="stop-color:#3689e6;stop-opacity:1;"
         id="stop3754" />
      <stop
         offset="1"
         style="stop-color:#2b63a0;stop-opacity:1;"
         id="stop3756" />
    </linearGradient>
    <linearGradient
       id="linearGradient3707-319-631-407-324">
      <stop
         offset="0"
         style="stop-color:#185f9a;stop-opacity:1;"
         id="stop3760" />
      <stop
         offset="1"
         style="stop-color:#599ec9;stop-opacity:1;"
         id="stop3762" />
    </linearGradient>
    <linearGradient
       id="linearGradient3781-1">
      <stop
         id="stop3783-5"
         style="stop-color:#ffffff;stop-opacity:1"
         offset="0" />
      <stop
         id="stop3785-5"
         style="stop-color:#ffffff;stop-opacity:0"
         offset="1" />
    </linearGradient>
    <linearGradient
       x1="26.883902"
       y1="12.606901"
       x2="26.883902"
       y2="34.606899"
       id="linearGradient4596-7"
       xlink:href="#linearGradient3316"
       gradientUnits="userSpaceOnUse"
       gradientTransform="matrix(0.32217706,0,0,0.32725342,1.6554682,0.18722829)" />
    <linearGradient
       id="linearGradient3316">
      <stop
         id="stop3318"
         style="stop-color:#ffffff;stop-opacity:1"
         offset="0" />
      <stop
         id="stop3320"
         style="stop-color:#ffffff;stop-opacity:0.23529412"
         offset="0.09090909" />
      <stop
         id="stop3322"
         style="stop-color:#ffffff;stop-opacity:0.15686275"
         offset="0.9545455" />
      <stop
         id="stop3324"
         style="stop-color:#ffffff;stop-opacity:0.39215687"
         offset="1" />
    </linearGradient>
    <radialGradient
       cx="9.8367758"
       cy="10.243929"
       r="12.671875"
       fx="9.3065472"
       fy="10.243929"
       id="radialGradient3399"
       xlink:href="#linearGradient3242-6-6"
       gradientUnits="userSpaceOnUse"
       gradientTransform="matrix(0,2.3054138,-2.3657776,0,29.568331,-20.831196)" />
    <linearGradient
       id="linearGradient3242-6-6">
      <stop
         id="stop3244-3-4"
         style="stop-color:#f8b17e;stop-opacity:1"
         offset="0" />
      <stop
         id="stop3246-2-3"
         style="stop-color:#e35d4f;stop-opacity:1"
         offset="0.26238" />
      <stop
         id="stop3248-0-3"
         style="stop-color:#c6262e;stop-opacity:1"
         offset="0.66093999" />
      <stop
         id="stop3250-6-3"
         style="stop-color:#690b54;stop-opacity:1"
         offset="1" />
    </linearGradient>
    <linearGradient
       x1="25"
       y1="49.945103"
       x2="25"
       y2="4.9451008"
       id="linearGradient3401"
       xlink:href="#linearGradient2490-6-6"
       gradientUnits="userSpaceOnUse"
       gradientTransform="matrix(0.31743851,0,0,0.32580324,-1.6030854,0.12343329)" />
    <linearGradient
       id="linearGradient2490-6-6">
      <stop
         id="stop2492-1-04"
         style="stop-color:#791235;stop-opacity:1"
         offset="0" />
      <stop
         id="stop2494-0-8"
         style="stop-color:#dd3b27;stop-opacity:1"
         offset="1" />
    </linearGradient>
  </defs>
  <metadata
     id="metadata3815">
    <rdf:RDF>
      <cc:Work
         rdf:about="">
        <dc:format>image/svg+xml</dc:format>
        <dc:type
           rdf:resource="http://purl.org/dc/dcmitype/StillImage" />
        <dc:title></dc:title>
      </cc:Work>
    </rdf:RDF>
  </metadata>
  <g
     id="layer1">
    <path
       d="m 3,1 c 2.2915074,0 9.999988,8.904e-4 9.999988,8.904e-4 L 13,15 C 13,15 6.3333332,15 3,15 3,10.333334 3,5.6666664 3,1 z"
       inkscape:connector-curvature="0"
       id="path4160"
       style="fill:url(#linearGradient3806);fill-opacity:1;stroke:none;display:inline" />
    <path
       d="m 12.5,14.5 -9.0000001,0 0,-13 L 12.5,1.5 z"
       inkscape:connector-curvature="0"
       id="rect6741-1"
       style="fill:none;stroke:url(#linearGradient3988);stroke-width:1;stroke-linecap:round;stroke-linejoin:miter;stroke-miterlimit:4;stroke-opacity:1;stroke-dasharray:none;stroke-dashoffset:0" />
    <path
       d="m 2.4999621,0.49997396 c 2.5206756,0 11.0000629,9.54e-4 11.0000629,9.54e-4 l 1.3e-5,14.99909804 c 0,0 -7.3333841,0 -11.000076,0 0,-5.000017 0,-10.000035 0,-15.00005204 z"
       inkscape:connector-curvature="0"
       id="path4160-8"
       style="fill:none;stroke:url(#linearGradient3019);stroke-width:0.99992192;stroke-linecap:butt;stroke-linejoin:round;stroke-miterlimit:4;stroke-opacity:1;stroke-dasharray:none;stroke-dashoffset:0;display:inline" />
  </g>
  <g
     id="g5804"
     transform="translate(-0.24870505,0.04145088)">
    <path
       inkscape:connector-curvature="0"
       d="m 10.503945,11.67156 -1.4182438,0 0,-3.1164478 c -5e-6,-0.384978 -0.05891,-0.672919 -0.1767,-0.863824 -0.114703,-0.194077 -0.292953,-0.291118 -0.534747,-0.291123 -0.182902,5e-6 -0.336351,0.03818 -0.460348,0.114541 -0.124002,0.07636 -0.223202,0.189313 -0.297599,0.338848 -0.0744,0.149543 -0.127102,0.334079 -0.158099,0.553611 -0.03101,0.219538 -0.0465,0.47089 -0.0465,0.754056 l 0,2.5103388 -1.4182431,0 0,-7.4260218 1.4182431,0 0.0093,2.772828 c 0.151898,-0.276802 0.345647,-0.475655 0.581248,-0.596564 0.235596,-0.12408 0.502194,-0.186123 0.799796,-0.186128 0.257295,5e-6 0.489794,0.03819 0.697497,0.11454 0.210794,0.07318 0.390593,0.189315 0.5393968,0.348393 0.148796,0.159088 0.263495,0.362716 0.3441,0.610881 0.08059,0.244992 0.120894,0.539298 0.120899,0.882914 l 0,3.4791578 z"
       id="path3354"
       style="color:#000000;font-style:normal;font-variant:normal;font-weight:bold;font-stretch:normal;font-size:29.91349983px;line-height:125%;font-family:'Droid Sans';-inkscape-font-specification:'Droid Sans Bold';letter-spacing:0px;word-spacing:0px;display:inline;overflow:visible;visibility:visible;fill:url(#radialGradient3399);fill-opacity:1;fill-rule:nonzero;stroke:url(#linearGradient3401);stroke-width:0.57397735;stroke-linecap:butt;stroke-linejoin:round;stroke-miterlimit:4;stroke-dasharray:none;stroke-dashoffset:0;stroke-opacity:1;marker:none;enable-background:accumulate" />
    <path
       inkscape:connector-curvature="0"
       d="m 6.2996991,4.5583192 0,6.7802818 0.7752381,0 0,-2.1885068 c -2e-6,-0.299584 0.01644,-0.570273 0.05034,-0.807907 0.0355,-0.248833 0.105798,-0.464416 0.201361,-0.654507 0.09985,-0.198626 0.243285,-0.360982 0.422856,-0.470427 0.176502,-0.107565 0.394644,-0.173848 0.634287,-0.173852 0.330701,5e-6 0.644208,0.173645 0.815511,0.449973 l 0.01007,0 c 0.0015,0.0025 -0.0015,0.0076 0,0.01023 0.169376,0.276386 0.231561,0.624003 0.231565,1.043121 l 0,2.7918808 0.7752398,0 0,-3.1600408 c -5e-6,-0.312677 -0.04121,-0.557801 -0.110748,-0.767 a 0.33200813,0.33723938 0 0 1 0,-0.01023 c -0.07094,-0.216138 -0.1633158,-0.36582 -0.2718418,-0.480655 -0.115041,-0.121715 -0.260662,-0.22039 -0.422857,-0.27612 -0.168622,-0.06135 -0.362739,-0.09203 -0.594015,-0.09204 -0.259168,5e-6 -0.478999,0.04649 -0.66449,0.143173 -0.169318,0.086 -0.312206,0.234556 -0.442993,0.470427 a 0.33200813,0.33723938 0 0 1 -0.291972,0.173853 l -0.08054,0 a 0.33200813,0.33723938 0 0 1 -0.332245,-0.357933 c 0.01038,-0.154684 0.02849,-0.302101 0.04026,-0.439747 0.0086,-0.113736 0.01375,-0.239308 0.02013,-0.388613 0.0061,-0.146711 0.01006,-0.291482 0.01007,-0.419294 l 0,-1.176067 -0.7752381,0 z"
       id="path3216"
       style="color:#000000;font-style:normal;font-variant:normal;font-weight:bold;font-stretch:normal;font-size:30px;line-height:125%;font-family:'Droid Sans';-inkscape-font-specification:'Droid Sans Bold';letter-spacing:0px;word-spacing:0px;display:inline;overflow:visible;visibility:visible;opacity:0.5;fill:none;stroke:url(#linearGradient4596-7);stroke-width:0.32267162;stroke-linecap:butt;stroke-linejoin:round;stroke-miterlimit:4;stroke-dasharray:none;stroke-dashoffset:0;stroke-opacity:1;marker:none;enable-background:accumulate" />
  </g>
</svg>
