<?xml version="1.0" encoding="UTF-8" standalone="no"?>
<svg
   xmlns:dc="http://purl.org/dc/elements/1.1/"
   xmlns:cc="http://creativecommons.org/ns#"
   xmlns:rdf="http://www.w3.org/1999/02/22-rdf-syntax-ns#"
   xmlns:svg="http://www.w3.org/2000/svg"
   xmlns="http://www.w3.org/2000/svg"
   xmlns:xlink="http://www.w3.org/1999/xlink"
   xmlns:sodipodi="http://sodipodi.sourceforge.net/DTD/sodipodi-0.dtd"
   xmlns:inkscape="http://www.inkscape.org/namespaces/inkscape"
   version="1.1"
   width="24"
   height="24"
   id="svg3979"
   inkscape:version="0.91 r"
   sodipodi:docname="audio-x-generic.svg">
  <sodipodi:namedview
     pagecolor="#ffffff"
     bordercolor="#666666"
     borderopacity="1"
     objecttolerance="10"
     gridtolerance="10"
     guidetolerance="10"
     inkscape:pageopacity="0"
     inkscape:pageshadow="2"
     inkscape:window-width="640"
     inkscape:window-height="480"
     id="namedview48"
     showgrid="false"
     inkscape:zoom="32.166667"
     inkscape:cx="6.4352332"
     inkscape:cy="12"
     inkscape:current-layer="layer1" />
  <defs
     id="defs3981">
    <linearGradient
       x1="-51.786404"
       y1="50.786446"
       x2="-51.786404"
       y2="2.9062471"
       id="linearGradient3114"
       xlink:href="#linearGradient3104-6-2"
       gradientUnits="userSpaceOnUse"
       gradientTransform="matrix(0.37459597,0,0,0.4144562,28.426726,8.1982324)" />
    <linearGradient
       id="linearGradient3104-6-2">
      <stop
         id="stop3106-3-4"
         style="stop-color:#000000;stop-opacity:0.31782946"
         offset="0" />
      <stop
         id="stop3108-9-9"
         style="stop-color:#000000;stop-opacity:0.24031007"
         offset="1" />
    </linearGradient>
    <linearGradient
       x1="16.626165"
       y1="15.298182"
       x2="20.054544"
       y2="24.627615"
       id="linearGradient3135"
       xlink:href="#linearGradient8265-821-176-38-919-66-249-7-7-8"
       gradientUnits="userSpaceOnUse"
       gradientTransform="matrix(0.39077928,0,0,0.59639877,2.6029975,7.5932432)" />
    <linearGradient
       id="linearGradient8265-821-176-38-919-66-249-7-7-8">
      <stop
         id="stop2687-1-9-6"
         style="stop-color:#ffffff;stop-opacity:1"
         offset="0" />
      <stop
         id="stop2689-5-4-8"
         style="stop-color:#ffffff;stop-opacity:0"
         offset="1" />
    </linearGradient>
    <linearGradient
       x1="23.99999"
       y1="6.6499596"
       x2="23.99999"
       y2="41.441586"
       id="linearGradient3138"
       xlink:href="#linearGradient3917"
       gradientUnits="userSpaceOnUse"
       gradientTransform="matrix(0.45945947,0,0,0.45945947,0.9742203,8.9717327)" />
    <linearGradient
       id="linearGradient3917">
      <stop
         id="stop3919"
         style="stop-color:#ffffff;stop-opacity:1"
         offset="0" />
      <stop
         id="stop3921"
         style="stop-color:#ffffff;stop-opacity:0.23529412"
         offset="0.01020449" />
      <stop
         id="stop3923"
         style="stop-color:#ffffff;stop-opacity:0.15686275"
         offset="0.99008638" />
      <stop
         id="stop3925"
         style="stop-color:#ffffff;stop-opacity:0.39215687"
         offset="1" />
    </linearGradient>
    <linearGradient
       x1="25.132275"
       y1="0.98520643"
       x2="25.132275"
       y2="47.013336"
       id="linearGradient3125"
       xlink:href="#linearGradient3600-9-9"
       gradientUnits="userSpaceOnUse"
       gradientTransform="matrix(0.4301289,0,0,0.41244197,1.6769074,9.4686024)" />
    <linearGradient
       id="linearGradient3600-9-9">
      <stop
         id="stop3602-3-7"
         style="stop-color:#f4f4f4;stop-opacity:1"
         offset="0" />
      <stop
         id="stop3604-7-3"
         style="stop-color:#dbdbdb;stop-opacity:1"
         offset="1" />
    </linearGradient>
    <radialGradient
       cx="4.9929786"
       cy="43.5"
       r="2.5"
       fx="4.9929786"
       fy="43.5"
       id="radialGradient3082"
       xlink:href="#linearGradient3688-166-749"
       gradientUnits="userSpaceOnUse"
       gradientTransform="matrix(2.003784,0,0,1.4,27.98813,-17.4)" />
    <linearGradient
       id="linearGradient3688-166-749">
      <stop
         id="stop2883"
         style="stop-color:#181818;stop-opacity:1"
         offset="0" />
      <stop
         id="stop2885"
         style="stop-color:#181818;stop-opacity:0"
         offset="1" />
    </linearGradient>
    <radialGradient
       cx="4.9929786"
       cy="43.5"
       r="2.5"
       fx="4.9929786"
       fy="43.5"
       id="radialGradient3084"
       xlink:href="#linearGradient3688-464-309"
       gradientUnits="userSpaceOnUse"
       gradientTransform="matrix(2.003784,0,0,1.4,-20.01187,-104.4)" />
    <linearGradient
       id="linearGradient3688-464-309">
      <stop
         id="stop2889"
         style="stop-color:#181818;stop-opacity:1"
         offset="0" />
      <stop
         id="stop2891"
         style="stop-color:#181818;stop-opacity:0"
         offset="1" />
    </linearGradient>
    <linearGradient
       x1="25.058096"
       y1="47.027729"
       x2="25.058096"
       y2="39.999443"
       id="linearGradient3086"
       xlink:href="#linearGradient3702-501-757"
       gradientUnits="userSpaceOnUse" />
    <linearGradient
       id="linearGradient3702-501-757">
      <stop
         id="stop2895"
         style="stop-color:#181818;stop-opacity:0"
         offset="0" />
      <stop
         id="stop2897"
         style="stop-color:#181818;stop-opacity:1"
         offset="0.5" />
      <stop
         id="stop2899"
         style="stop-color:#181818;stop-opacity:0"
         offset="1" />
    </linearGradient>
  </defs>
  <metadata
     id="metadata3984">
    <rdf:RDF>
      <cc:Work
         rdf:about="">
        <dc:format>image/svg+xml</dc:format>
        <dc:type
           rdf:resource="http://purl.org/dc/dcmitype/StillImage" />
        <dc:title></dc:title>
      </cc:Work>
    </rdf:RDF>
  </metadata>
  <g
     transform="translate(0,-8)"
     id="layer1">
    <g
       transform="matrix(0.55,0,0,0.3333336,-1.2000011,15.33331)"
       id="g2036"
       style="display:inline">
      <g
         transform="matrix(1.052632,0,0,1.285713,-1.263158,-13.42854)"
         id="g3712"
         style="opacity:0.4">
        <rect
           width="5"
           height="7"
           x="38"
           y="40"
           id="rect2801"
           style="fill:url(#radialGradient3082);fill-opacity:1;stroke:none" />
        <rect
           width="5"
           height="7"
           x="-10"
           y="-47"
           transform="scale(-1,-1)"
           id="rect3696"
           style="fill:url(#radialGradient3084);fill-opacity:1;stroke:none" />
        <rect
           width="28"
           height="7.0000005"
           x="10"
           y="40"
           id="rect3700"
           style="fill:url(#linearGradient3086);fill-opacity:1;stroke:none" />
      </g>
    </g>
    <rect
       width="18"
       height="18"
       x="3.000001"
       y="10.999999"
       id="rect5505-21-8-5"
       style="color:#000000;fill:url(#linearGradient3125);fill-opacity:1;fill-rule:nonzero;stroke:none;stroke-width:0.99999994;marker:none;visibility:visible;display:inline;overflow:visible;enable-background:accumulate" />
    <rect
       width="17"
       height="17"
       x="3.5012455"
       y="11.498756"
       id="rect6741-9"
       style="fill:none;stroke:url(#linearGradient3138);stroke-width:1;stroke-linecap:round;stroke-linejoin:miter;stroke-miterlimit:4;stroke-opacity:1;stroke-dasharray:none;stroke-dashoffset:0" />
    <path
       d="M 3.5764341,11 C 3.2547127,11 3,11.418213 3,11.824999 L 3.00603,22 C 3.5238425,21.988917 20.606966,17.945168 21,17.750658 l 0,-5.925659 C 21,11.514064 20.748387,11 20.46981,11 L 3.576473,11 z"
       id="path3333"
       style="opacity:0.4;fill:url(#linearGradient3135);fill-opacity:1;fill-rule:evenodd;stroke:none" />
    <rect
       width="19.000078"
       height="19.000078"
       x="2.4999619"
       y="10.49996"
       id="rect5505-21-8-6"
       style="color:#000000;fill:none;stroke:url(#linearGradient3114);stroke-width:0.9999218;stroke-linecap:butt;stroke-linejoin:round;stroke-miterlimit:4;stroke-opacity:1;stroke-dasharray:none;stroke-dashoffset:0;marker:none;visibility:visible;display:inline;overflow:visible;enable-background:accumulate" />
    <g
       id="g4184"
       transform="translate(-0.02072781,0.23411671)">
      <path
         inkscape:connector-curvature="0"
         d="m 15.016408,15.649791 -0.339136,0.438657 c 0.953883,0.40226 1.692763,1.034826 2.039748,1.725884 0.200204,0.398732 0.232866,1.075512 0.215955,1.298175 l -0.02977,0.392144 c 0.940977,0.167142 2.121387,0.378371 2.582367,0.453477 0,0 -0.0016,-0.133235 -0.06656,-0.521607 -0.09517,-0.569297 -0.582233,-1.447931 -1.089827,-1.963703 -0.868708,-0.882697 -1.796382,-1.426212 -3.312758,-1.823027 z"
         id="path1399"
         style="opacity:0.6;fill:#550000;fill-opacity:1" />
      <path
         inkscape:connector-curvature="0"
         d="m 7.7585546,22.325272 0,-2.015072 1.1053289,0.04996 c 1.3943165,0.06302 2.0799245,0.26493 2.6036675,0.766766 0.324234,0.31067 0.3571,0.379022 0.3571,0.742711 0,0.299623 -0.05238,0.469228 -0.207867,0.673079 -0.27838,0.364977 -1.140034,0.777223 -1.8621688,0.890933 l -0.585376,0.09218 0,0.304564 c 0,0.344562 -0.024098,0.356789 -0.8920497,0.452664 l -0.5186349,0.05728 0,-2.015072 z m 2.0122248,0.587679 C 10.429526,22.495188 10.611458,21.827961 10.199966,21.338931 9.9490114,21.040687 9.6181681,20.79592 9.3559489,20.714506 l -0.1867097,-0.05797 0,1.250315 c 0,0.972653 0.024036,1.250315 0.108229,1.250315 0.059524,0 0.2815136,-0.109893 0.4933125,-0.244214 z m -5.7274807,-0.979763 0.022582,-1.555902 1.2862155,-0.01167 c 0.9487119,-0.0086 1.3617525,0.01949 1.574099,0.107099 L 7.214081,20.591478 6.8648786,20.799716 C 6.5625903,20.979973 6.4752331,20.996781 6.21463,20.924825 6.0490517,20.879114 5.805917,20.863239 5.6743293,20.88956 l -0.239253,0.04784 0,1.275843 0,1.275839 -0.707172,0 -0.7071757,0 0.02257,-1.555903 z m 8.7771283,-0.02857 0,-1.584467 3.008081,0.03177 c 2.575724,0.0272 3.052805,0.05157 3.319259,0.169551 l 0.311182,0.13778 0,1.41492 0,1.414919 -0.703336,0 -0.703335,0 -0.02275,-1.389939 -0.02276,-1.389941 -0.601618,-0.02438 -0.601615,-0.02438 0,1.414321 0,1.414321 -0.663851,0 -0.663853,0 0,-1.279423 c 0,-0.703687 -0.02267,-1.338496 -0.05036,-1.410688 -0.03919,-0.10213 -0.177329,-0.13126 -0.622361,-0.13126 l -0.571995,0 0,1.410687 0,1.410684 -0.705341,0 -0.705344,0 0,-1.584469 z m 3.070316,-2.531536 c -2.912282,-0.523375 -3.896205,-0.672134 -4.011806,-0.606537 -0.113656,0.06449 -0.188575,0.05613 -0.290437,-0.03239 -0.07549,-0.06562 -0.249293,-0.160549 -0.386212,-0.210947 l -0.248946,-0.09163 0.248946,0.01288 c 0.136919,0.0071 0.339454,-0.01715 0.450075,-0.05383 0.143479,-0.04758 0.227476,-0.03068 0.293041,0.05898 0.08793,0.120265 0.47879,0.194642 6.725221,1.279805 0.684598,0.118937 1.280196,0.248013 1.323555,0.286846 0.126295,0.113124 -0.04168,0.08678 -4.103437,-0.643157 z M 4.1073665,19.633564 c 0,-0.428805 0.2961773,-1.139528 0.7079993,-1.698947 1.2245674,-1.663453 3.9493576,-2.744571 6.9138032,-2.743188 1.053461,4.83e-4 2.326062,0.149955 2.973021,0.349176 l 0.346604,0.106727 -0.180642,0.221663 -0.180639,0.221663 -0.580871,-0.19549 c -2.765565,-0.930742 -6.4014195,0.05518 -7.3485053,1.992668 -0.1598916,0.327094 -0.2020913,0.54223 -0.1994071,1.016522 0.00186,0.330888 -0.016807,0.601773 -0.041488,0.601969 -0.024694,1.92e-4 -0.5657551,0.09355 -1.2023565,0.207452 -0.6366025,0.113907 -1.1687212,0.207102 -1.1824892,0.207102 -0.013764,0 -0.025029,-0.129297 -0.025029,-0.287324 z"
         id="path1397"
         style="opacity:0.75;fill:#1a1a1a;fill-opacity:1" />
    </g>
  </g>
</svg>
