<svg xmlns="http://www.w3.org/2000/svg" width="48" height="48">
<defs>
  <path
     d="m 46,11.355483 c 0,1.581939 -1.323807,2.855485 -2.98913,2.855485 l -38.0217399,0 c -1.665323,0 -2.98913,-1.273546 -2.98913,-2.855485 0,-1.5819375 1.323807,-2.8554836 2.98913,-2.8554836 l 38.0217399,0 c 1.665323,0 2.98913,1.273546 2.98913,2.8554836 z m -0.777174,25.282928 c 0,0.729913 -0.274895,1.46333 -0.836956,2.022634 -1.124124,1.118607 -2.941094,1.118607 -4.065218,0 L 24.179348,22.59895 8.0380441,38.661045 c -1.124124,1.118607 -2.941094,1.118607 -4.065218,0 -1.124123,-1.118607 -1.124123,-2.926661 0,-4.045269 L 21.788044,16.887983 c 0.646916,-0.643741 1.551533,-0.870559 2.391304,-0.77336 0.850885,-0.109512 1.735006,0.120271 2.391304,0.77336 L 44.38587,34.615776 c 0.562061,0.559304 0.836956,1.292721 0.836956,2.022635 z"
     id="path-main" />
</defs>
<acyl-settings>
<linearGradient
     id="linearGradient4321">
    <stop
       style="stop-color:#89F6FB;stop-opacity:1.0;"
       offset="0.5"
       id="stop1" />
    <stop
       style="stop-color:#10A1AA;stop-opacity:1.0;"
       offset="1.0"
       id="stop2" />
  </linearGradient>
<radialGradient
       inkscape:collect="always"
       xlink:href="#linearGradient4321"
       id="acyl_gradient"
       cx="50.0%"
       cy="50.0%"
       fx="50.0%"
       fy="50.0%"
       r="50.0%"
/>
<filter id="filter1111" x="-50%" y="-50%" width="200%" height="200%">
	<feImage
	id="feImage2"
	xlink:href="#1"
	result="result1" />
	<feComposite
	id="feComposite3633"
	in="result1"
	in2="SourceGraphic"
	operator="xor" />
</filter>
	<rect
	style="fill:#1A4B4F;fill-opacity:1.0;filter:url(#filter1111)"
	id="rect2835"
	width="48"
	height="48"
	x="0"
	y="0"
	rx="3.5"
	ry="3.5" />
	<rect
	style="fill:url(#acyl_gradient);filter:url(#filter1111)"
	id="rect2835"
	width="44"
	height="44"
	x="2"
	y="2"
	rx="3.5"
	ry="3.5" />
<defs>
<use id="1" transform="translate(22.5,22.5) scale(0.85) translate(-22.5,-22.5)" style="fill:#000000" xlink:href="#path-main" />
</defs>
	<use id="2" transform="translate(22.5,22.5) scale(0.85) translate(-22.5,-22.5)" style="fill:#1A4B4F;fill-opacity:1.0" xlink:href="#path-main" />
</acyl-settings>
</svg>
