<svg xmlns="http://www.w3.org/2000/svg" width="48" height="48">
<defs>
<defs
     id="defs5">
  </defs>
  <path
     d="M 16.627932,2 C 11.310397,2 7,6.3103969 7,11.627932 c 0,2.133284 0.690418,4.103547 1.864606,5.69936 1.28163,-0.255777 2.855062,-0.704103 4.608742,-1.477612 C 16.882071,14.34617 20.946505,11.601174 24.82516,6.5735608 23.125316,3.8298386 20.090837,2 16.627932,2 z m 9.029851,6.2622601 c -3.901401,4.8401149 -8.007527,7.5930629 -11.504265,9.1353949 -1.455384,0.641937 -2.802996,1.069498 -3.998934,1.360341 1.709779,1.553992 3.980753,2.497868 6.473348,2.497868 0.181902,0 0.360125,-0.0019 0.539445,-0.01173 0.0033,-9.38e-4 0.0084,9.39e-4 0.01173,0 2.080513,-0.586602 5.450224,-2.047974 8.220683,-5.652452 0.551264,-1.210756 0.867804,-2.547327 0.867804,-3.963752 0,-1.185115 -0.21727,-2.3171746 -0.609808,-3.3656719 z m -0.05864,8.5607679 c -2.649166,3.105064 -5.713553,4.538329 -7.810234,5.195096 l 7.493603,9.416844 c 1.911879,-0.776354 4.308142,-2.200777 6.402985,-4.796375 -2.429033,-3.908665 -4.625307,-7.450979 -6.086354,-9.815565 z m 6.602346,10.648187 c -2.067277,2.44989 -4.402919,3.866757 -6.332623,4.690832 l 1.207889,1.52452 c 1.863146,-0.817644 4.103838,-2.226468 6.074627,-4.702558 -0.326925,-0.525057 -0.624185,-0.989081 -0.949893,-1.512794 z m 1.465884,2.345416 c -1.943958,2.335572 -4.122235,3.751239 -5.992537,4.608742 L 36.880593,46 c 1e-6,0 2.771456,-0.194204 4.948827,-3.295309 -1.432899,-2.121795 -4.768248,-7.441659 -8.162047,-12.88806 z"
     id="path-main"
      />
</defs>
<acyl-settings>
<linearGradient
     id="linearGradient4321">
    <stop
       style="stop-color:#89F6FB;stop-opacity:1.0;"
       offset="0.5"
       id="stop1" />
    <stop
       style="stop-color:#10A1AA;stop-opacity:1.0;"
       offset="1.0"
       id="stop2" />
  </linearGradient>
<radialGradient
       inkscape:collect="always"
       xlink:href="#linearGradient4321"
       id="acyl_gradient"
       cx="50.0%"
       cy="50.0%"
       fx="50.0%"
       fy="50.0%"
       r="50.0%"
/>
<filter id="filter1111" x="-50%" y="-50%" width="200%" height="200%">
	<feImage
	id="feImage2"
	xlink:href="#1"
	result="result1" />
	<feComposite
	id="feComposite3633"
	in="result1"
	in2="SourceGraphic"
	operator="xor" />
</filter>
	<rect
	style="fill:#1A4B4F;fill-opacity:1.0;filter:url(#filter1111)"
	id="rect2835"
	width="48"
	height="48"
	x="0"
	y="0"
	rx="3.5"
	ry="3.5" />
	<rect
	style="fill:url(#acyl_gradient);filter:url(#filter1111)"
	id="rect2835"
	width="44"
	height="44"
	x="2"
	y="2"
	rx="3.5"
	ry="3.5" />
<defs>
<use id="1" transform="translate(22.5,22.5) scale(0.85) translate(-22.5,-22.5)" style="fill:#000000" xlink:href="#path-main" />
</defs>
	<use id="2" transform="translate(22.5,22.5) scale(0.85) translate(-22.5,-22.5)" style="fill:#1A4B4F;fill-opacity:1.0" xlink:href="#path-main" />
</acyl-settings>
</svg>
