<svg xmlns="http://www.w3.org/2000/svg" width="48" height="48">
<defs>
<defs
     id="defs3408">
  </defs>
  <path
     id="path-main"
     d="M 3.7427522,15.581134 C 2.7732526,15.581134 1.999999,16.354387 2,17.323887 l 0,14.606778 c 0,0.969502 0.7732526,1.742754 1.7427522,1.742754 l 40.4965298,0 C 45.208781,33.673419 46,32.900167 46,31.930665 l 0,-14.606778 c 0,-0.9695 -0.791219,-1.742753 -1.760718,-1.742753 l -40.4965298,0 z m 34.3519798,3.036343 c 1.141443,-2e-6 2.06615,0.924706 2.06615,2.066148 0,1.141444 -0.924707,2.066152 -2.06615,2.066152 -1.141442,0 -2.06615,-0.924708 -2.06615,-2.066152 0,-1.141443 0.924707,-2.066148 2.06615,-2.066148 z m -29.7166191,0.574929 1.8146181,0 c 0.290505,1e-6 0.521029,0.230524 0.521029,0.521027 l 0,3.485506 3.467538,0 c 0.290505,0 0.521031,0.230523 0.52103,0.52103 l 0,1.832585 c 0,0.290504 -0.230525,0.521028 -0.52103,0.521028 l -3.467538,0 0,3.467538 c 0,0.290502 -0.230523,0.521029 -0.521029,0.521028 l -1.8146181,0 c -0.2905042,0 -0.5210275,-0.230523 -0.5210285,-0.521028 l 0,-3.467538 -3.4675375,0 c -0.2905056,0 -0.5569616,-0.230524 -0.5569627,-0.521028 l 0,-1.832585 c 0,-0.290504 0.2664581,-0.52103 0.5569627,-0.52103 l 3.4675375,0 0,-3.485506 c 0,-0.290506 0.2305255,-0.521027 0.5210285,-0.521027 z m 25.5124551,3.413636 c 1.141442,1e-6 2.066148,0.924708 2.066148,2.066152 0,1.141444 -0.924706,2.066149 -2.066148,2.066149 -1.141444,0 -2.06615,-0.924706 -2.06615,-2.066149 0,-1.141443 0.924706,-2.066151 2.06615,-2.066152 z m 8.282563,0 c 1.141443,1e-6 2.066151,0.924708 2.066151,2.066152 0,1.141444 -0.924708,2.066149 -2.066151,2.066149 -1.141443,0 -2.066149,-0.924706 -2.066149,-2.066149 0,-1.141443 0.924706,-2.066151 2.066149,-2.066152 z m -16.493262,3.539404 1.868518,0 c 0.540597,0 0.970192,0.429598 0.970192,0.970193 0,0.540596 -0.429595,0.988159 -0.970192,0.988159 l -1.868518,0 c -0.540597,0 -0.970193,-0.447563 -0.970193,-0.988159 0,-0.540595 0.429596,-0.970193 0.970193,-0.970193 z m -5.228257,0.08983 1.850552,0 c 0.540596,0 0.988158,0.429597 0.988158,0.97019 0,0.540601 -0.447562,0.98816 -0.988158,0.98816 l -1.850552,0 c -0.540597,0 -0.988157,-0.447559 -0.988157,-0.98816 0,-0.540593 0.44756,-0.97019 0.988157,-0.97019 z m 17.64312,0.251532 c 1.141443,0 2.06615,0.942671 2.06615,2.084116 0,1.141442 -0.924707,2.066148 -2.06615,2.066148 -1.141442,1e-6 -2.06615,-0.924706 -2.06615,-2.066148 0,-1.141445 0.924707,-2.084117 2.06615,-2.084116 z" />
</defs>
<acyl-settings>
<linearGradient
     id="linearGradient4321">
    <stop
       style="stop-color:#89F6FB;stop-opacity:1.0;"
       offset="0.5"
       id="stop1" />
    <stop
       style="stop-color:#10A1AA;stop-opacity:1.0;"
       offset="1.0"
       id="stop2" />
  </linearGradient>
<radialGradient
       inkscape:collect="always"
       xlink:href="#linearGradient4321"
       id="acyl_gradient"
       cx="50.0%"
       cy="50.0%"
       fx="50.0%"
       fy="50.0%"
       r="50.0%"
/>
<filter id="filter1111" x="-50%" y="-50%" width="200%" height="200%">
	<feImage
	id="feImage2"
	xlink:href="#1"
	result="result1" />
	<feComposite
	id="feComposite3633"
	in="result1"
	in2="SourceGraphic"
	operator="xor" />
</filter>
	<rect
	style="fill:#1A4B4F;fill-opacity:1.0;filter:url(#filter1111)"
	id="rect2835"
	width="48"
	height="48"
	x="0"
	y="0"
	rx="3.5"
	ry="3.5" />
	<rect
	style="fill:url(#acyl_gradient);filter:url(#filter1111)"
	id="rect2835"
	width="44"
	height="44"
	x="2"
	y="2"
	rx="3.5"
	ry="3.5" />
<defs>
<use id="1" transform="translate(22.5,22.5) scale(0.85) translate(-22.5,-22.5)" style="fill:#000000" xlink:href="#path-main" />
</defs>
	<use id="2" transform="translate(22.5,22.5) scale(0.85) translate(-22.5,-22.5)" style="fill:#1A4B4F;fill-opacity:1.0" xlink:href="#path-main" />
</acyl-settings>
</svg>
