<?xml version="1.0" encoding="UTF-8" standalone="no"?>
<!-- Created with Inkscape (http://www.inkscape.org/) -->

<svg
   xmlns:dc="http://purl.org/dc/elements/1.1/"
   xmlns:cc="http://creativecommons.org/ns#"
   xmlns:rdf="http://www.w3.org/1999/02/22-rdf-syntax-ns#"
   xmlns:svg="http://www.w3.org/2000/svg"
   xmlns="http://www.w3.org/2000/svg"
   xmlns:xlink="http://www.w3.org/1999/xlink"
   xmlns:sodipodi="http://sodipodi.sourceforge.net/DTD/sodipodi-0.dtd"
   xmlns:inkscape="http://www.inkscape.org/namespaces/inkscape"
   id="svg3245"
   height="16"
   width="16"
   version="1.0"
   inkscape:version="0.91 r"
   sodipodi:docname="process-stop.svg">
  <metadata
     id="metadata18">
    <rdf:RDF>
      <cc:Work
         rdf:about="">
        <dc:format>image/svg+xml</dc:format>
        <dc:type
           rdf:resource="http://purl.org/dc/dcmitype/StillImage" />
        <dc:title />
      </cc:Work>
    </rdf:RDF>
  </metadata>
  <sodipodi:namedview
     pagecolor="#ffffff"
     bordercolor="#666666"
     borderopacity="1"
     objecttolerance="10"
     gridtolerance="10"
     guidetolerance="10"
     inkscape:pageopacity="0"
     inkscape:pageshadow="2"
     inkscape:window-width="640"
     inkscape:window-height="480"
     id="namedview16"
     showgrid="false"
     inkscape:zoom="164.04877"
     inkscape:cx="11.933366"
     inkscape:cy="5.9694544"
     inkscape:current-layer="layer1" />
  <defs
     id="defs3247">
    <linearGradient
       id="linearGradient3234"
       y2="22"
       gradientUnits="userSpaceOnUse"
       x2="11.192"
       gradientTransform="matrix(.57895 0 0 .61111 1.0526 .36108)"
       y1="3"
       x1="11.192">
      <stop
         id="stop3205"
         style="stop-color:#777976"
         offset="0" />
      <stop
         id="stop3207"
         style="stop-color:#565755"
         offset="1" />
    </linearGradient>
    <linearGradient
       id="linearGradient3231"
       y2="32.702"
       xlink:href="#linearGradient7916"
       gradientUnits="userSpaceOnUse"
       x2="16.331"
       gradientTransform="matrix(.30773 -.32448 .30773 .32448 -7.0772 7.6731)"
       y1="13.023"
       x1="36.011" />
    <linearGradient
       id="linearGradient7916">
      <stop
         id="stop7918"
         style="stop-color:#fff"
         offset="0" />
      <stop
         id="stop7920"
         style="stop-color:#fff;stop-opacity:0"
         offset="1" />
    </linearGradient>
    <linearGradient
       id="linearGradient3228"
       y2="32.702"
       xlink:href="#linearGradient7916"
       gradientUnits="userSpaceOnUse"
       x2="16.331"
       gradientTransform="matrix(.30773 -.32448 .30773 .32448 -7.3874 7.8369)"
       y1="20.584"
       x1="28.449" />
  </defs>
  <g
     id="layer1">
    <path
       id="text1314"
       style="fill:url(#linearGradient3234);stroke:#4d4d4d"
       d="M 13.5,11.239 10.315,7.998 13.38,4.6029 11.17,2.5 8.0165,5.7353 4.7985,2.5 2.5,4.6803 5.7179,7.9842 2.4999,11.2353 4.7984,13.5 8.0126,10.1029 11.2343,13.5 13.518187,11.257087 Z"
       inkscape:connector-curvature="0"
       sodipodi:nodetypes="cccccccccccccc" />
    <path
       id="path7076"
       style="opacity:.3;stroke:url(#linearGradient3231);stroke-linecap:square;fill:none"
       d="m12.003 4.6567-0.771-0.7498-3.1494 3.2624-3.3058-3.2432-0.8632 0.7964" />
    <path
       id="path3165"
       style="opacity:.3;stroke:url(#linearGradient3228);fill:none"
       d="m12.449 11.612-3.1043-3.2132m-2.6538-0.00618-3.1094 3.1907" />
  </g>
</svg>
