<svg xmlns="http://www.w3.org/2000/svg" width="48" height="48">
<defs>
  <path
     d="M 36.40625 7 C 36.406188 9.9999725 34.304499 10.056797 31.96875 10.09375 L 7.625 10.09375 C 7.0330035 10.08525 6.5 10.595626 6.5 11.1875 C 6.5 11.779374 7.0330035 12.32097 7.625 12.3125 L 31.96875 12.3125 C 35.382521 12.3125 38.34375 11.347808 38.4375 9.25 L 43.75 9.25 L 43.75 34.34375 C 43.75 35.614803 43.338785 36.602102 42.15625 37.40625 C 41.821928 37.63355 41.41755 37.817897 40.9375 38 C 41.150614 37.467325 41.25 36.882022 41.25 36.21875 L 41.25 13.6875 L 2 13.6875 L 2 35.46875 C 2 38.51966 4.4481547 40.973501 7.5 40.96875 C 17.139776 40.95374 26.798885 41.03034 36.4375 40.96875 C 39.510336 40.94346 41.791703 40.347879 43.40625 39.25 C 45.151268 38.063368 46 36.217045 46 34.34375 L 46 7 L 36.40625 7 z M 20.03125 17.375 C 21.374222 17.43227 20.637025 19.24777 21.90625 20 C 22.533139 20.0093 23.16837 20.102376 23.75 20.25 C 25.35491 19.800597 24.85021 17.363694 26.9375 18.59375 C 28.93148 19.768771 26.82527 20.522834 26.96875 22 C 27.55352 22.529069 28.08217 23.128624 28.46875 23.8125 C 29.80359 24.213452 31.03121 22.576414 31.59375 24.75 C 32.14494 26.879735 30.36281 26.157111 29.375 27.0625 C 29.3762 27.11441 29.37456 27.13532 29.375 27.1875 C 29.3826 28.007902 29.22304 28.824395 28.96875 29.5625 C 29.65118 30.743975 31.62751 30.493712 30.5 32.40625 C 29.32531 34.39882 28.57266 32.293639 27.09375 32.4375 C 26.58042 32.922352 26.04648 33.358036 25.40625 33.6875 C 24.71637 35.108001 26.64252 36.438538 24.34375 37.03125 C 21.98429 37.63961 23.177729 35.427191 21.71875 34.5625 C 21.07597 34.555 20.43903 34.434026 19.84375 34.28125 C 18.265289 34.746773 18.76526 37.193169 16.6875 35.96875 C 14.69362 34.79373 16.79972 34.039664 16.65625 32.5625 C 16.0523 32.021635 15.51968 31.423269 15.125 30.71875 C 13.80185 30.351094 12.58953 31.938403 12.03125 29.78125 C 11.48006 27.651514 13.26219 28.40539 14.25 27.5 C 14.2476 27.44025 14.25045 27.40387 14.25 27.34375 C 14.2424 26.523347 14.33946 25.738106 14.59375 25 C 13.91132 23.818525 11.99749 24.03754 13.125 22.125 C 14.29931 20.133081 15.02206 22.267344 16.5 22.125 C 17.02301 21.628737 17.59476 21.177892 18.25 20.84375 C 18.90708 19.431995 16.995189 18.089434 19.28125 17.5 C 19.45127 17.45616 19.58324 17.42197 19.71875 17.40625 C 19.827813 17.3936 19.941719 17.37118 20.03125 17.375 z M 21.8125 24.375 C 20.16494 24.38912 18.82905 25.698765 18.84375 27.28125 C 18.85845 28.863736 20.19618 30.17037 21.84375 30.15625 C 23.491309 30.14213 24.79595 28.832486 24.78125 27.25 C 24.76654 25.667515 23.460059 24.36088 21.8125 24.375 z "
     id="path-main" />
</defs>
<acyl-settings>
<linearGradient
     id="linearGradient4321">
    <stop
       style="stop-color:#89F6FB;stop-opacity:1.0;"
       offset="0.5"
       id="stop1" />
    <stop
       style="stop-color:#10A1AA;stop-opacity:1.0;"
       offset="1.0"
       id="stop2" />
  </linearGradient>
<radialGradient
       inkscape:collect="always"
       xlink:href="#linearGradient4321"
       id="acyl_gradient"
       cx="50.0%"
       cy="50.0%"
       fx="50.0%"
       fy="50.0%"
       r="50.0%"
/>
<filter id="filter1111" x="-50%" y="-50%" width="200%" height="200%">
	<feImage
	id="feImage2"
	xlink:href="#1"
	result="result1" />
	<feComposite
	id="feComposite3633"
	in="result1"
	in2="SourceGraphic"
	operator="xor" />
</filter>
	<rect
	style="fill:#1A4B4F;fill-opacity:1.0;filter:url(#filter1111)"
	id="rect2835"
	width="48"
	height="48"
	x="0"
	y="0"
	rx="3.5"
	ry="3.5" />
	<rect
	style="fill:url(#acyl_gradient);filter:url(#filter1111)"
	id="rect2835"
	width="44"
	height="44"
	x="2"
	y="2"
	rx="3.5"
	ry="3.5" />
<defs>
<use id="1" transform="translate(22.5,22.5) scale(0.85) translate(-22.5,-22.5)" style="fill:#000000" xlink:href="#path-main" />
</defs>
	<use id="2" transform="translate(22.5,22.5) scale(0.85) translate(-22.5,-22.5)" style="fill:#1A4B4F;fill-opacity:1.0" xlink:href="#path-main" />
</acyl-settings>
</svg>
