<?xml version="1.0" encoding="UTF-8" standalone="no"?>
<!-- Created with Inkscape (http://www.inkscape.org/) -->

<svg
   xmlns:dc="http://purl.org/dc/elements/1.1/"
   xmlns:cc="http://creativecommons.org/ns#"
   xmlns:rdf="http://www.w3.org/1999/02/22-rdf-syntax-ns#"
   xmlns:svg="http://www.w3.org/2000/svg"
   xmlns="http://www.w3.org/2000/svg"
   xmlns:xlink="http://www.w3.org/1999/xlink"
   xmlns:sodipodi="http://sodipodi.sourceforge.net/DTD/sodipodi-0.dtd"
   xmlns:inkscape="http://www.inkscape.org/namespaces/inkscape"
   version="1.1"
   width="64"
   height="64"
   id="svg4352"
   inkscape:version="0.91 r"
   sodipodi:docname="amazon-store.svg">
  <sodipodi:namedview
     pagecolor="#ffffff"
     bordercolor="#666666"
     borderopacity="1"
     objecttolerance="10"
     gridtolerance="10"
     guidetolerance="10"
     inkscape:pageopacity="0"
     inkscape:pageshadow="2"
     inkscape:window-width="1855"
     inkscape:window-height="1056"
     id="namedview64"
     showgrid="true"
     inkscape:snap-global="false"
     inkscape:zoom="48.744681"
     inkscape:cx="28.327804"
     inkscape:cy="32"
     inkscape:window-x="65"
     inkscape:window-y="24"
     inkscape:window-maximized="1"
     inkscape:current-layer="layer1">
    <inkscape:grid
       type="xygrid"
       id="grid3058" />
  </sodipodi:namedview>
  <defs
     id="defs4354">
    <linearGradient
       x1="31.899628"
       y1="12.294439"
       x2="31.899628"
       y2="24.540121"
       id="linearGradient4263"
       xlink:href="#linearGradient4252"
       gradientUnits="userSpaceOnUse" />
    <linearGradient
       id="linearGradient4252">
      <stop
         id="stop4254"
         style="stop-color:#000000;stop-opacity:1"
         offset="0" />
      <stop
         id="stop4256"
         style="stop-color:#000000;stop-opacity:0"
         offset="1" />
    </linearGradient>
    <linearGradient
       x1="32.26038"
       y1="38.92131"
       x2="32.26038"
       y2="51.793919"
       id="linearGradient4272"
       xlink:href="#linearGradient4266"
       gradientUnits="userSpaceOnUse" />
    <linearGradient
       id="linearGradient4266">
      <stop
         id="stop4268"
         style="stop-color:#000000;stop-opacity:1"
         offset="0" />
      <stop
         id="stop4270"
         style="stop-color:#000000;stop-opacity:0"
         offset="1" />
    </linearGradient>
    <linearGradient
       x1="32.105934"
       y1="22.973545"
       x2="32.105934"
       y2="40.893845"
       id="linearGradient4282"
       xlink:href="#linearGradient4276"
       gradientUnits="userSpaceOnUse" />
    <linearGradient
       id="linearGradient4276">
      <stop
         id="stop4278"
         style="stop-color:#000000;stop-opacity:1"
         offset="0" />
      <stop
         id="stop4280"
         style="stop-color:#000000;stop-opacity:0"
         offset="1" />
    </linearGradient>
    <linearGradient
       x1="-90.675308"
       y1="49.843208"
       x2="-90.675308"
       y2="3.9778562"
       id="linearGradient3014-6"
       xlink:href="#linearGradient3104-6-4"
       gradientUnits="userSpaceOnUse"
       gradientTransform="matrix(1.0843523,0,0,1.1997367,138.31765,-0.5041793)" />
    <linearGradient
       id="linearGradient3104-6-4">
      <stop
         id="stop3106-3-7"
         style="stop-color:#000000;stop-opacity:0.31782946"
         offset="0" />
      <stop
         id="stop3108-9-2"
         style="stop-color:#000000;stop-opacity:0.24031007"
         offset="1" />
    </linearGradient>
    <linearGradient
       x1="23.99999"
       y1="4.999989"
       x2="23.99999"
       y2="43"
       id="linearGradient3107-996"
       xlink:href="#linearGradient3924-45"
       gradientUnits="userSpaceOnUse"
       gradientTransform="matrix(1.4324324,0,0,1.4324324,-2.3783747,-2.3783645)" />
    <linearGradient
       id="linearGradient3924-45">
      <stop
         id="stop3124"
         style="stop-color:#ffffff;stop-opacity:1"
         offset="0" />
      <stop
         id="stop3126"
         style="stop-color:#ffffff;stop-opacity:0.23529412"
         offset="0.06316455" />
      <stop
         id="stop3128"
         style="stop-color:#ffffff;stop-opacity:0.15686275"
         offset="0.95056331" />
      <stop
         id="stop3130"
         style="stop-color:#ffffff;stop-opacity:0.39215687"
         offset="1" />
    </linearGradient>
    <linearGradient
       x1="-15.95268"
       y1="5.2698884"
       x2="-15.95268"
       y2="48.714642"
       id="linearGradient3058-7"
       xlink:href="#linearGradient3600-9-9"
       gradientUnits="userSpaceOnUse"
       gradientTransform="matrix(1.3142827,0,0,1.2602393,57.681227,-2.1204556)" />
    <linearGradient
       id="linearGradient3600-9-9">
      <stop
         id="stop3602-3-6"
         style="stop-color:#f4f4f4;stop-opacity:1"
         offset="0" />
      <stop
         id="stop3604-7-0"
         style="stop-color:#dbdbdb;stop-opacity:1"
         offset="1" />
    </linearGradient>
    <radialGradient
       cx="4.9929786"
       cy="43.5"
       r="2.5"
       fx="4.9929786"
       fy="43.5"
       id="radialGradient2873-966-168-714"
       xlink:href="#linearGradient3688-166-749-654"
       gradientUnits="userSpaceOnUse"
       gradientTransform="matrix(2.003784,0,0,1.4,27.98813,-17.4)" />
    <linearGradient
       id="linearGradient3688-166-749-654">
      <stop
         id="stop3088"
         style="stop-color:#181818;stop-opacity:1"
         offset="0" />
      <stop
         id="stop3090"
         style="stop-color:#181818;stop-opacity:0"
         offset="1" />
    </linearGradient>
    <radialGradient
       cx="4.9929786"
       cy="43.5"
       r="2.5"
       fx="4.9929786"
       fy="43.5"
       id="radialGradient2875-742-326-419"
       xlink:href="#linearGradient3688-464-309-604"
       gradientUnits="userSpaceOnUse"
       gradientTransform="matrix(2.003784,0,0,1.4,-20.01187,-104.4)" />
    <linearGradient
       id="linearGradient3688-464-309-604">
      <stop
         id="stop3094"
         style="stop-color:#181818;stop-opacity:1"
         offset="0" />
      <stop
         id="stop3096"
         style="stop-color:#181818;stop-opacity:0"
         offset="1" />
    </linearGradient>
    <linearGradient
       x1="25.058096"
       y1="47.027729"
       x2="25.058096"
       y2="39.999443"
       id="linearGradient2877-634-617-908"
       xlink:href="#linearGradient3702-501-757-795"
       gradientUnits="userSpaceOnUse" />
    <linearGradient
       id="linearGradient3702-501-757-795">
      <stop
         id="stop3100"
         style="stop-color:#181818;stop-opacity:0"
         offset="0" />
      <stop
         id="stop3102"
         style="stop-color:#181818;stop-opacity:1"
         offset="0.5" />
      <stop
         id="stop3104"
         style="stop-color:#181818;stop-opacity:0"
         offset="1" />
    </linearGradient>
    <linearGradient
       gradientTransform="translate(-287.99999,-140.5)"
       inkscape:collect="always"
       xlink:href="#linearGradient3968"
       id="linearGradient3992"
       x1="321"
       y1="189"
       x2="321"
       y2="155"
       gradientUnits="userSpaceOnUse" />
    <linearGradient
       inkscape:collect="always"
       id="linearGradient3968">
      <stop
         style="stop-color:#ed6308;stop-opacity:1;"
         offset="0"
         id="stop3970" />
      <stop
         style="stop-color:#f09e17;stop-opacity:1"
         offset="1"
         id="stop3972" />
    </linearGradient>
    <radialGradient
       inkscape:collect="always"
       xlink:href="#linearGradient6303-33-0-2-0-0"
       id="radialGradient8161"
       cx="12.700491"
       cy="10.404876"
       fx="12.700491"
       fy="10.404876"
       r="19.96875"
       gradientTransform="matrix(1.4491183,0,0,0.96691296,2.8875115,2.7709065)"
       gradientUnits="userSpaceOnUse" />
    <linearGradient
       id="linearGradient6303-33-0-2-0-0">
      <stop
         offset="0"
         style="stop-color:#ffffff;stop-opacity:1"
         id="stop6305-1-0-2-0-2" />
      <stop
         offset="1"
         style="stop-color:#ffffff;stop-opacity:0"
         id="stop6307-5-0-6-1-8" />
    </linearGradient>
    <linearGradient
       inkscape:collect="always"
       xlink:href="#linearGradient7648"
       id="linearGradient7671"
       gradientUnits="userSpaceOnUse"
       gradientTransform="matrix(1.0389031,0,0,-0.797757,-1.5456379,37.324)"
       x1="21.9326"
       y1="24.627399"
       x2="21.9326"
       y2="7.1090999" />
    <linearGradient
       id="linearGradient7648"
       gradientUnits="userSpaceOnUse"
       x1="21.9326"
       y1="24.627399"
       x2="21.9326"
       y2="7.1090999">
      <stop
         offset="0"
         style="stop-color: rgb(133, 149, 188); stop-opacity: 1;"
         id="stop7650" />
      <stop
         offset="1"
         style="stop-color: rgb(4, 26, 59); stop-opacity: 1;"
         id="stop7652" />
    </linearGradient>
    <linearGradient
       inkscape:collect="always"
       xlink:href="#aigrd3"
       id="linearGradient7673"
       gradientUnits="userSpaceOnUse"
       gradientTransform="matrix(1.0389031,0,0,1.1067,-1.5456379,-4.92245)"
       x1="21.9326"
       y1="24.627399"
       x2="21.9326"
       y2="7.1090999" />
    <linearGradient
       y2="7.1090999"
       x2="21.9326"
       y1="24.627399"
       x1="21.9326"
       gradientUnits="userSpaceOnUse"
       id="aigrd3">
      <stop
         id="stop16199"
         style="stop-color: rgb(208, 214, 229); stroke-dasharray: none; stroke-miterlimit: 4; stroke-width: 1.21667;"
         offset="0" />
      <stop
         id="stop16201"
         style="stop-color: rgb(9, 58, 128); stroke-dasharray: none; stroke-miterlimit: 4; stroke-width: 1.21667;"
         offset="1" />
    </linearGradient>
    <linearGradient
       x1="22.004084"
       y1="44.854229"
       x2="22.004084"
       y2="3.0718794"
       id="linearGradient3302"
       xlink:href="#linearGradient3104"
       gradientUnits="userSpaceOnUse"
       gradientTransform="matrix(1.5609181,0,0,1.3332795,-5.2111065,20.269061)" />
    <linearGradient
       id="linearGradient3104">
      <stop
         id="stop3106"
         style="stop-color:#a0a0a0;stop-opacity:1"
         offset="0" />
      <stop
         id="stop3108"
         style="stop-color:#c8c8c8;stop-opacity:1"
         offset="1" />
    </linearGradient>
  </defs>
  <metadata
     id="metadata4357">
    <rdf:RDF>
      <cc:Work
         rdf:about="">
        <dc:format>image/svg+xml</dc:format>
        <dc:type
           rdf:resource="http://purl.org/dc/dcmitype/StillImage" />
        <dc:title />
      </cc:Work>
    </rdf:RDF>
  </metadata>
  <g
     id="layer1">
    <g
       transform="matrix(1.5000021,0,0,0.5555561,-4.0000114,35.888881)"
       id="g2036"
       style="display:inline">
      <g
         transform="matrix(1.052632,0,0,1.285713,-1.263158,-13.42854)"
         id="g3712"
         style="opacity:0.4">
        <rect
           width="5"
           height="7"
           x="38"
           y="40"
           id="rect2801"
           style="fill:url(#radialGradient2873-966-168-714);fill-opacity:1;stroke:none" />
        <rect
           width="5"
           height="7"
           x="-10"
           y="-47"
           transform="scale(-1,-1)"
           id="rect3696"
           style="fill:url(#radialGradient2875-742-326-419);fill-opacity:1;stroke:none" />
        <rect
           width="28"
           height="7.0000005"
           x="10"
           y="40"
           id="rect3700"
           style="fill:url(#linearGradient2877-634-617-908);fill-opacity:1;stroke:none" />
      </g>
    </g>
    <rect
       width="54"
       height="54"
       rx="2.5"
       ry="2.5"
       x="5"
       y="5"
       id="rect5505-21"
       style="color:#000000;fill:url(#linearGradient3058-7);fill-opacity:1;fill-rule:nonzero;stroke:none;stroke-width:0.99999994;marker:none;visibility:visible;display:inline;overflow:visible;enable-background:accumulate;opacity:1" />
    <rect
       width="53"
       height="53"
       rx="2"
       ry="2"
       x="5.5"
       y="5.5"
       id="rect6741"
       style="fill:none;stroke:url(#linearGradient3107-996);stroke-width:1;stroke-linecap:round;stroke-linejoin:round;stroke-miterlimit:4;stroke-opacity:1;stroke-dasharray:none;stroke-dashoffset:0" />
    <rect
       width="55"
       height="55"
       rx="3"
       ry="3"
       x="4.5"
       y="4.5"
       id="rect5505-21-8"
       style="color:#000000;fill:none;stroke:url(#linearGradient3014-6);stroke-width:0.9999218;stroke-linecap:butt;stroke-linejoin:round;stroke-miterlimit:4;stroke-opacity:1;stroke-dasharray:none;stroke-dashoffset:0;marker:none;visibility:visible;display:inline;overflow:visible;enable-background:accumulate" />
    <g
       id="g4271"
       transform="translate(-0.06896484,-1.1087328)">
      <g
         transform="matrix(1.05477,0,0,1.04999,9.3197028,2.6090328)"
         id="g7654">
        <path
           style="fill:url(#linearGradient7671);fill-opacity:1;fill-rule:nonzero;stroke:none;stroke-width:1.21667004;stroke-miterlimit:4"
           d="m 5.512695,30 32.264462,0 0,-10.372625 -32.264462,0 0,10.372625 z"
           id="path7644"
           inkscape:connector-curvature="0" />
        <path
           id="path16203"
           d="m 5.512695,5.237844 32.264462,0 0,14.389531 -32.264462,0 0,-14.389531 z"
           style="fill:url(#linearGradient7673);fill-rule:nonzero;stroke:none;stroke-width:1.21667004;stroke-miterlimit:4"
           inkscape:connector-curvature="0" />
        <g
           transform="matrix(-1,0,0,1,44.050772,0)"
           id="g4465">
          <g
             id="g16205"
             style="fill-rule:nonzero;stroke:#000000;stroke-width:1.15611005;stroke-miterlimit:4"
             transform="matrix(1.18922,0,0,1.18922,12.680321,-7.8407037)">
            <g
               id="g16207">
              <path
                 inkscape:connector-curvature="0"
                 style="opacity:0.04999988;fill:#e8f52f;stroke:none"
                 d="m 18.4,15.4 c 0,2.2 -1.8,4.1 -4.1,4.1 -2.2,0 -4.1,-1.8 -4.1,-4.1 0,-2.2 1.8,-4.1 4.1,-4.1 2.2,0 4.1,1.8 4.1,4.1 z"
                 id="path16209" />
              <path
                 inkscape:connector-curvature="0"
                 style="opacity:0.2083;fill:#ecf751;stroke:none"
                 d="m 18,15.4 c 0,2 -1.6,3.7 -3.7,3.7 -2,0 -3.7,-1.6 -3.7,-3.7 0,-2 1.6,-3.7 3.7,-3.7 2,0 3.7,1.6 3.7,3.7 l 0,0 z"
                 id="path16211" />
              <path
                 inkscape:connector-curvature="0"
                 style="opacity:0.3667;fill:#f0f972;stroke:none"
                 d="m 17.6,15.4 c 0,1.8 -1.5,3.3 -3.3,3.3 -1.8,0 -3.3,-1.5 -3.3,-3.3 0,-1.8 1.5,-3.3 3.3,-3.3 1.8,0 3.3,1.5 3.3,3.3 l 0,0 z"
                 id="path16213" />
              <path
                 inkscape:connector-curvature="0"
                 style="opacity:0.525;fill:#f4fa95;stroke:none"
                 d="m 17.2,15.4 c 0,1.6 -1.3,2.9 -2.9,2.9 -1.6,0 -2.9,-1.3 -2.9,-2.9 0,-1.6 1.3,-2.9 2.9,-2.9 1.6,0 2.9,1.3 2.9,2.9 z"
                 id="path16215" />
              <path
                 inkscape:connector-curvature="0"
                 style="opacity:0.6833;fill:#f7fcb7;stroke:none"
                 d="m 16.8,15.4 c 0,1.4 -1.1,2.5 -2.5,2.5 -1.4,0 -2.5,-1.1 -2.5,-2.5 0,-1.4 1.1,-2.5 2.5,-2.5 1.4,0 2.5,1.1 2.5,2.5 l 0,0 z"
                 id="path16217" />
              <path
                 inkscape:connector-curvature="0"
                 style="opacity:0.8417;fill:#fbfddb;stroke:none"
                 d="m 16.4,15.4 c 0,1.2 -1,2.1 -2.1,2.1 -1.1,0 -2.1,-1 -2.1,-2.1 0,-1.1 1,-2.1 2.1,-2.1 1.1,0 2.1,1 2.1,2.1 z"
                 id="path16219" />
              <path
                 inkscape:connector-curvature="0"
                 style="fill:#ffffff;stroke:none"
                 d="m 16,15.4 c 0,1 -0.8,1.8 -1.8,1.8 -1,0 -1.8,-0.8 -1.8,-1.8 0,-1 0.8,-1.8 1.8,-1.8 1,0 1.8,0.8 1.8,1.8 l 0,0 z"
                 id="path16221" />
            </g>
          </g>
          <path
             inkscape:connector-curvature="0"
             style="opacity:0.3;fill-rule:nonzero;stroke:none;stroke-width:1.21667004;stroke-miterlimit:4"
             d="m 20.77979,20.34375 -8.681289,0 -1.664904,0.475688 2.854121,0 c 0,0 -2.854121,0.237842 -4.281184,2.021669 -1.427059,1.664904 1.664905,3.686575 1.664905,3.686575 0,0 0,0 0,0 0.118922,-0.356766 0.832454,-3.210889 2.259514,-4.400106 1.070297,-0.951374 2.259514,-1.189218 2.259514,-1.189218 l 5.589323,0 0,-0.475686 0,-0.118922 z"
             id="path16223" />
          <path
             inkscape:connector-curvature="0"
             style="opacity:0.3;fill-rule:nonzero;stroke:none;stroke-width:1.21667004;stroke-miterlimit:4"
             d="m 15.071543,21.05728 4.994715,0 -9.275897,5.232557 4.281182,-5.232557 0,0 z"
             id="path16225" />
          <path
             inkscape:connector-curvature="0"
             style="fill:#515151;fill-rule:nonzero;stroke:none;stroke-width:1.21667004;stroke-miterlimit:4"
             d="m 20.77979,20.462672 -8.681289,0 -1.30814,-0.832453 2.854121,0 c 0,0 -2.616276,-0.475686 -2.973043,-3.448731 -0.356763,-2.973043 4.043341,-6.3028507 4.043341,-6.3028507 0,0 0,0 0,0.118922 -0.118921,0.7135297 -1.308138,5.7082427 -0.475688,7.6109927 0.356767,1.664901 1.427062,2.021667 1.427062,2.021667 l 5.470401,0 -0.237844,0.832453 -0.118921,0 z"
             id="path16227" />
          <path
             inkscape:connector-curvature="0"
             style="fill:#515151;fill-rule:nonzero;stroke:none;stroke-width:1.21667004;stroke-miterlimit:4"
             d="m 15.547231,19.154533 4.994714,0 -5.946086,-9.038054 0.951372,9.038054 z"
             id="path16229" />
        </g>
      </g>
      <path
         sodipodi:nodetypes="ccccc"
         id="rect8150"
         d="M 14.972015,8.2016118 15.28236,27.06293 C 34.196455,27.826559 36.311051,15.834499 49.116411,15.834499 l 0,-7.7363352 z"
         style="color:#000000;display:inline;overflow:visible;visibility:visible;opacity:0.30113603;fill:url(#radialGradient8161);fill-opacity:1;fill-rule:nonzero;stroke:none;stroke-width:1;stroke-linecap:butt;stroke-linejoin:miter;stroke-miterlimit:4;stroke-dasharray:none;stroke-dashoffset:0pt;stroke-opacity:1;marker:none"
         inkscape:connector-curvature="0" />
    </g>
    <path
       d="m 15.079164,35.599997 3.664989,0 m 0.523572,0 3.403203,0 m 0.547815,0 3.036705,0 m 0.499327,0 1.308924,0 m 0.52357,0 2.93199,0 m 0.575928,0 7.696476,0 m 0.523573,0 5.863982,0 m 0.52357,0 1.780137,0 m -33.40376,3 5.682729,0 m 0.661146,0 2.715335,0 m 0.501957,0 1.33997,0 m 0.545184,0 2.501224,0 m 0.523572,0 2.565128,0 m 0.484213,0 4.027857,0 m 0.523572,0 5.313689,0 m -27.385576,2.986685 4.809855,0 m 0.505276,0 7.921404,0 m 0.485493,0 3.841709,0 m 0.492397,0 3.593873,0 m 0.515385,0 3.061461,0 m 0.492398,0 4.814907,0.02663 m -30.534159,2.986685 6.687523,0 m 0.525144,0 7.227954,0 m 0.499327,0 2.840338,0 m 0.523573,0 6.760533,0 m 0.455026,0 4.633641,0 m 0.523573,0 1.833937,0 m 0.523571,0 1.014428,0"
       id="path3715"
       style="fill:none;stroke:#515151;stroke-width:1.0820055px;stroke-linecap:butt;stroke-linejoin:miter;stroke-opacity:1"
       inkscape:connector-curvature="0"
       sodipodi:nodetypes="cccccccccccccccccccccccccccccccccccccccccccccccccccccccc" />
    <path
       style="opacity:1;fill:#6dffff;fill-opacity:1;fill-rule:evenodd;stroke:none;stroke-width:1px;stroke-linecap:butt;stroke-linejoin:miter;stroke-opacity:1"
       d="m 15.103448,46.134557 34,0.06896 -0.06896,11.034483 -34.137931,0 0,-11.241379"
       id="path4306"
       inkscape:connector-curvature="0" />
    <text
       xml:space="preserve"
       style="font-style:normal;font-weight:normal;font-size:12.5px;line-height:125%;font-family:sans-serif;letter-spacing:0px;word-spacing:0px;fill:#515151;fill-opacity:1;stroke:none;stroke-width:1px;stroke-linecap:butt;stroke-linejoin:miter;stroke-opacity:1;"
       x="20.081055"
       y="55.120399"
       id="text4291"
       sodipodi:linespacing="125%"><tspan
         sodipodi:role="line"
         id="tspan4293"
         x="20.081055"
         y="55.120399"
         style="font-style:normal;font-variant:normal;font-weight:bold;font-stretch:normal;font-size:10px;font-family:sans-serif;-inkscape-font-specification:'sans-serif Bold';fill:#515151;fill-opacity:1;">OCR</tspan></text>
  </g>
</svg>
