<?xml version="1.0" encoding="UTF-8" standalone="no"?>
<!-- Created with Inkscape (http://www.inkscape.org/) -->

<svg
   xmlns:dc="http://purl.org/dc/elements/1.1/"
   xmlns:cc="http://creativecommons.org/ns#"
   xmlns:rdf="http://www.w3.org/1999/02/22-rdf-syntax-ns#"
   xmlns:svg="http://www.w3.org/2000/svg"
   xmlns="http://www.w3.org/2000/svg"
   xmlns:xlink="http://www.w3.org/1999/xlink"
   xmlns:sodipodi="http://sodipodi.sourceforge.net/DTD/sodipodi-0.dtd"
   xmlns:inkscape="http://www.inkscape.org/namespaces/inkscape"
   version="1.1"
   width="64"
   height="64"
   id="svg6333"
   inkscape:version="0.91 r"
   sodipodi:docname="java.svg">
  <sodipodi:namedview
     pagecolor="#ffffff"
     bordercolor="#666666"
     borderopacity="1"
     objecttolerance="10"
     gridtolerance="10"
     guidetolerance="10"
     inkscape:pageopacity="0"
     inkscape:pageshadow="2"
     inkscape:window-width="1855"
     inkscape:window-height="1056"
     id="namedview49"
     showgrid="true"
     inkscape:zoom="14.4375"
     inkscape:cx="7.4112556"
     inkscape:cy="32"
     inkscape:window-x="65"
     inkscape:window-y="24"
     inkscape:window-maximized="1"
     inkscape:current-layer="svg6333"
     showguides="false">
    <inkscape:grid
       type="xygrid"
       id="grid3120" />
  </sodipodi:namedview>
  <defs
     id="defs6335">
    <linearGradient
       x1="167.98311"
       y1="8.50811"
       x2="167.98311"
       y2="54.780239"
       id="linearGradient5809"
       xlink:href="#linearGradient5803"
       gradientUnits="userSpaceOnUse"
       gradientTransform="translate(-130,1.759402e-6)" />
    <linearGradient
       id="linearGradient5803">
      <stop
         id="stop5805"
         style="stop-color:#fff5ef;stop-opacity:1"
         offset="0" />
      <stop
         id="stop5807"
         style="stop-color:#fef8dd;stop-opacity:1"
         offset="1" />
    </linearGradient>
    <linearGradient
       x1="27.096104"
       y1="10.880992"
       x2="27.096104"
       y2="39.150768"
       id="linearGradient5801"
       xlink:href="#linearGradient3895-9-0-3-5-2-0-4-9"
       gradientUnits="userSpaceOnUse"
       gradientTransform="matrix(1.4102564,0,0,1.4102564,0.391129,-2.2559982)" />
    <linearGradient
       id="linearGradient3895-9-0-3-5-2-0-4-9">
      <stop
         id="stop3897-0-5-7-89-6-6-7-0"
         style="stop-color:#dc5639;stop-opacity:1"
         offset="0" />
      <stop
         id="stop3899-8-7-06-3-8-3-8-0"
         style="stop-color:#9d0f0f;stop-opacity:1"
         offset="1" />
    </linearGradient>
    <linearGradient
       x1="23.99999"
       y1="4.999989"
       x2="23.99999"
       y2="43"
       id="linearGradient3381-5-4"
       xlink:href="#linearGradient3924-2-2-5-8"
       gradientUnits="userSpaceOnUse"
       gradientTransform="matrix(1.4324324,0,0,1.4362832,-2.378381,-2.4707782)" />
    <linearGradient
       id="linearGradient3924-2-2-5-8">
      <stop
         id="stop3926-9-4-9-6"
         style="stop-color:#ffffff;stop-opacity:1"
         offset="0" />
      <stop
         id="stop3928-9-8-6-5"
         style="stop-color:#ffffff;stop-opacity:0.23529412"
         offset="0.06316455" />
      <stop
         id="stop3930-3-5-1-7"
         style="stop-color:#ffffff;stop-opacity:0.15686275"
         offset="0.95056331" />
      <stop
         id="stop3932-8-0-4-8"
         style="stop-color:#ffffff;stop-opacity:0.39215687"
         offset="1" />
    </linearGradient>
    <radialGradient
       cx="6.7304144"
       cy="9.9571075"
       r="12.671875"
       fx="6.2001843"
       fy="9.9571075"
       id="radialGradient3402-7-1-6"
       xlink:href="#linearGradient2867-449-88-871-390-598-476-591-434-148-57-177-8-3-3-6-4-8-8-8"
       gradientUnits="userSpaceOnUse"
       gradientTransform="matrix(0,13.393984,-16.443533,0,196.90205,-114.89368)" />
    <linearGradient
       id="linearGradient2867-449-88-871-390-598-476-591-434-148-57-177-8-3-3-6-4-8-8-8">
      <stop
         id="stop3750-1-0-7-6-6-1-3-9"
         style="stop-color:#ffcd7d;stop-opacity:1"
         offset="0" />
      <stop
         id="stop3752-3-7-4-0-32-8-923-0"
         style="stop-color:#fc8f36;stop-opacity:1"
         offset="0.26238" />
      <stop
         id="stop3754-1-8-5-2-7-6-7-1"
         style="stop-color:#e23a0e;stop-opacity:1"
         offset="0.704952" />
      <stop
         id="stop3756-1-6-2-6-6-1-96-6"
         style="stop-color:#ac441f;stop-opacity:1"
         offset="1" />
    </linearGradient>
    <radialGradient
       cx="4.9929786"
       cy="43.5"
       r="2.5"
       fx="4.9929786"
       fy="43.5"
       id="radialGradient3337-2-2"
       xlink:href="#linearGradient3688-166-749-4-0-3-8"
       gradientUnits="userSpaceOnUse"
       gradientTransform="matrix(2.003784,0,0,1.4,27.98813,-17.4)" />
    <linearGradient
       id="linearGradient3688-166-749-4-0-3-8">
      <stop
         id="stop2883-4-0-1-8"
         style="stop-color:#181818;stop-opacity:1"
         offset="0" />
      <stop
         id="stop2885-9-2-9-6"
         style="stop-color:#181818;stop-opacity:0"
         offset="1" />
    </linearGradient>
    <radialGradient
       cx="4.9929786"
       cy="43.5"
       r="2.5"
       fx="4.9929786"
       fy="43.5"
       id="radialGradient3339-1-4"
       xlink:href="#linearGradient3688-464-309-9-2-4-2"
       gradientUnits="userSpaceOnUse"
       gradientTransform="matrix(2.003784,0,0,1.4,-20.01187,-104.4)" />
    <linearGradient
       id="linearGradient3688-464-309-9-2-4-2">
      <stop
         id="stop2889-7-9-6-9"
         style="stop-color:#181818;stop-opacity:1"
         offset="0" />
      <stop
         id="stop2891-6-6-1-7"
         style="stop-color:#181818;stop-opacity:0"
         offset="1" />
    </linearGradient>
    <linearGradient
       id="linearGradient3702-501-757-8-4-1-1">
      <stop
         id="stop2895-8-9-9-1"
         style="stop-color:#181818;stop-opacity:0"
         offset="0" />
      <stop
         id="stop2897-7-8-7-7"
         style="stop-color:#181818;stop-opacity:1"
         offset="0.5" />
      <stop
         id="stop2899-4-5-1-5"
         style="stop-color:#181818;stop-opacity:0"
         offset="1" />
    </linearGradient>
    <linearGradient
       x1="25.058096"
       y1="47.027729"
       x2="25.058096"
       y2="39.999443"
       id="linearGradient6394"
       xlink:href="#linearGradient3702-501-757-8-4-1-1"
       gradientUnits="userSpaceOnUse" />
    <linearGradient
       inkscape:collect="always"
       xlink:href="#linearGradient5803"
       id="linearGradient3028"
       gradientUnits="userSpaceOnUse"
       gradientTransform="translate(-130,1.759402e-6)"
       x1="167.98311"
       y1="8.50811"
       x2="167.98311"
       y2="54.780239" />
    <linearGradient
       inkscape:collect="always"
       xlink:href="#linearGradient3895-9-0-3-5-2-0-4-9"
       id="linearGradient3032"
       gradientUnits="userSpaceOnUse"
       gradientTransform="matrix(1.4102564,0,0,1.4102564,0.391129,-2.2559982)"
       x1="27.096104"
       y1="10.880992"
       x2="27.096104"
       y2="39.150768" />
    <linearGradient
       inkscape:collect="always"
       xlink:href="#linearGradient3924-2-2-5-8"
       id="linearGradient3035"
       gradientUnits="userSpaceOnUse"
       gradientTransform="matrix(1.4324324,0,0,1.4362832,-2.378381,-2.4707782)"
       x1="23.99999"
       y1="4.999989"
       x2="23.99999"
       y2="43" />
    <radialGradient
       inkscape:collect="always"
       xlink:href="#linearGradient2867-449-88-871-390-598-476-591-434-148-57-177-8-3-3-6-4-8-8-8"
       id="radialGradient3038"
       gradientUnits="userSpaceOnUse"
       gradientTransform="matrix(0,13.393984,-16.443533,0,196.90205,-114.89368)"
       cx="6.7304144"
       cy="9.9571075"
       fx="6.2001843"
       fy="9.9571075"
       r="12.671875" />
  </defs>
  <metadata
     id="metadata6338">
    <rdf:RDF>
      <cc:Work
         rdf:about="">
        <dc:format>image/svg+xml</dc:format>
        <dc:type
           rdf:resource="http://purl.org/dc/dcmitype/StillImage" />
        <dc:title />
      </cc:Work>
    </rdf:RDF>
  </metadata>
  <g
     style="opacity:0.6"
     id="g3712-8-2-4-4"
     transform="matrix(1.5789502,0,0,0.7142857,-5.894751,27.928572)">
    <rect
       style="fill:url(#radialGradient3337-2-2);fill-opacity:1;stroke:none"
       id="rect2801-5-5-7-9"
       y="40"
       x="38"
       height="7"
       width="5" />
    <rect
       style="fill:url(#radialGradient3339-1-4);fill-opacity:1;stroke:none"
       id="rect3696-3-0-3-7"
       transform="scale(-1,-1)"
       y="-47"
       x="-10"
       height="7"
       width="5" />
    <rect
       style="fill:url(#linearGradient6394);fill-opacity:1;stroke:none"
       id="rect3700-5-6-8-4"
       y="40"
       x="10"
       height="7.0000005"
       width="28" />
  </g>
  <rect
     style="color:#000000;fill:url(#radialGradient3038);fill-opacity:1;fill-rule:nonzero;stroke:none;stroke-width:0.99999994;marker:none;visibility:visible;display:inline;overflow:visible;enable-background:accumulate"
     id="rect5505-21-3-8-5-2"
     y="4.5000019"
     x="4.4999986"
     ry="3"
     rx="3"
     height="55"
     width="55" />
  <rect
     style="opacity:0.5;fill:none;stroke:url(#linearGradient3035);stroke-width:1;stroke-linecap:round;stroke-linejoin:round;stroke-miterlimit:4;stroke-opacity:1;stroke-dasharray:none;stroke-dashoffset:0"
     id="rect6741-5-0-2-3"
     y="5.4287739"
     x="5.4999986"
     ry="2"
     rx="2"
     height="53.142479"
     width="53" />
  <rect
     style="opacity:0.4;color:#000000;fill:none;stroke:#640000;stroke-width:1;stroke-linecap:round;stroke-linejoin:round;stroke-miterlimit:4;stroke-opacity:1;stroke-dasharray:none;stroke-dashoffset:0;marker:none;visibility:visible;display:inline;overflow:visible;enable-background:accumulate"
     id="rect5505-21-3-8-9-1-1"
     y="4.5000019"
     x="4.4999986"
     ry="3"
     rx="3"
     height="55"
     width="55" />
  <g
     id="g4179"
     transform="translate(-0.01373188,0.49975762)">
    <path
       inkscape:connector-curvature="0"
       style="opacity:0.2;fill:#000000;fill-opacity:1;stroke:#000000;stroke-width:0.71511805;stroke-linecap:round;stroke-linejoin:round;stroke-miterlimit:4;stroke-dasharray:none;stroke-opacity:1"
       d="m 35.023287,16.878653 c 1.268834,4.99694 -4.472004,6.497191 -6.544608,9.609399 -1.412081,2.120161 0.707447,4.403797 3.575591,6.991555 -1.118301,-2.52788 -4.913573,-4.739317 0,-8.619726 6.127422,-4.837379 2.969017,-7.981228 2.969017,-7.981228 z m 3.799065,6.193433 c 0,0 -10.344042,2.566385 -5.39531,8.268552 1.459885,1.680795 -0.383099,3.192491 -0.383099,3.192491 0,0 3.681754,-1.913565 1.979344,-4.309863 -1.589997,-2.234698 -2.801825,-3.322896 3.799065,-7.15118 z m 2.011269,10.184047 c -0.408379,-0.01955 -0.855756,0.03223 -1.308921,0.191549 -0.318474,0.113066 -0.478874,0.383099 -0.478874,0.383099 0,0 0.18934,-0.09806 0.638498,-0.191549 1.832524,-0.38202 4.4652,2.476548 -1.213146,5.427235 -0.02627,0.07023 -0.1277,0.12778 -0.1277,0.1277 6.635753,-1.744438 5.348802,-5.801149 2.490143,-5.938034 z M 28.22328,33.543457 c -0.723945,0.01901 -2.43521,0.164891 -4.405638,1.117372 -3.106582,1.50271 7.694845,2.203377 13.280764,0.734273 0.580743,-0.396542 1.372772,-0.766198 1.372772,-0.766198 0,0 -2.288801,0.414538 -4.565263,0.606573 -2.785495,0.233403 -5.746854,0.296619 -7.246956,0.09577 -3.552803,-0.474447 1.94742,-1.787795 1.94742,-1.787795 0,0 -0.141785,-0.0063 -0.383099,0 z m -0.925823,3.415966 c -5.126567,1.701517 2.860901,3.627106 10.024424,1.532396 -0.761432,-0.268465 -1.245072,-0.734273 -1.245072,-0.734273 -3.500999,0.674147 -5.515026,0.6474 -8.077004,0.383098 -1.981159,-0.204919 -0.702348,-1.181221 -0.702348,-1.181221 z m 0.734273,3.320191 c -4.653669,1.300319 2.82256,3.975916 8.747427,1.436621 -0.970428,-0.377374 -1.660095,-0.798123 -1.660095,-0.798123 -2.642981,0.500224 -3.858947,0.52901 -6.257284,0.255399 C 26.88209,40.945922 28.03173,40.279614 28.03173,40.279614 Z m -3.479815,2.202819 c -2.142014,0.187411 -5.769927,1.970592 -2.170894,2.553993 12.080111,1.959049 22.001042,-0.885207 18.867624,-2.298594 0,0 0.872685,0.699493 -0.925822,1.245071 -3.419914,1.036021 -14.235333,1.339491 -17.239454,0.03193 -1.079905,-0.469801 0.927295,-1.108264 1.564321,-1.245071 0.664357,-0.144066 1.053522,-0.1277 1.053522,-0.1277 -0.225181,-0.158629 -0.654986,-0.202873 -1.149297,-0.159624 z m 18.612225,1.787795 c 0,0 -0.377907,0.979424 -4.501413,1.75587 -4.652119,0.875468 -10.388454,0.784549 -13.791563,0.223474 8.4e-5,-8.1e-5 0.695688,0.568407 4.277938,0.798123 5.450505,0.348904 13.816807,-0.198444 14.015038,-2.777467 z"
       id="path3830" />
    <path
       id="path5"
       d="m 35.023287,15.857559 c 1.268834,4.996941 -4.472004,6.497191 -6.544608,9.609399 -1.412081,2.120162 0.707447,4.403797 3.575591,6.991556 -1.118301,-2.52788 -4.913573,-4.739317 0,-8.619727 6.127422,-4.837379 2.969017,-7.981228 2.969017,-7.981228 z m 3.799065,6.193433 c 0,0 -10.344042,2.566385 -5.39531,8.268553 1.459885,1.680795 -0.383099,3.192491 -0.383099,3.192491 0,0 3.681754,-1.913565 1.979344,-4.309863 -1.589997,-2.234698 -2.801825,-3.322896 3.799065,-7.151181 z m 2.011269,10.184047 c -0.408379,-0.01955 -0.855756,0.03223 -1.308921,0.19155 -0.318474,0.113065 -0.478874,0.383099 -0.478874,0.383099 0,0 0.18934,-0.09806 0.638498,-0.19155 1.832524,-0.38202 4.4652,2.476548 -1.213146,5.427235 -0.02627,0.07024 -0.1277,0.127781 -0.1277,0.1277 6.635753,-1.744437 5.348802,-5.801149 2.490143,-5.938034 z M 28.22328,32.522364 c -0.723945,0.01901 -2.43521,0.16489 -4.405638,1.117372 -3.106582,1.50271 7.694845,2.203376 13.280764,0.734272 0.580743,-0.396542 1.372772,-0.766197 1.372772,-0.766197 0,0 -2.288801,0.414537 -4.565263,0.606573 -2.785495,0.233402 -5.746854,0.296619 -7.246956,0.09577 -3.552803,-0.474447 1.94742,-1.787795 1.94742,-1.787795 0,0 -0.141785,-0.0063 -0.383099,0 z m -0.925823,3.415965 c -5.126567,1.701517 2.860901,3.627106 10.024424,1.532396 -0.761432,-0.268465 -1.245072,-0.734273 -1.245072,-0.734273 -3.500999,0.674148 -5.515026,0.6474 -8.077004,0.383099 -1.981159,-0.204919 -0.702348,-1.181222 -0.702348,-1.181222 z m 0.734273,3.320191 c -4.653669,1.30032 2.82256,3.975916 8.747427,1.436621 -0.970428,-0.377374 -1.660095,-0.798123 -1.660095,-0.798123 -2.642981,0.500224 -3.858947,0.529011 -6.257284,0.2554 C 26.88209,39.924828 28.03173,39.25852 28.03173,39.25852 Z m -3.479815,2.202819 c -2.142014,0.187411 -5.769927,1.970593 -2.170894,2.553993 12.080111,1.959049 22.001042,-0.885207 18.867624,-2.298594 0,0 0.872685,0.699493 -0.925822,1.245072 -3.419914,1.03602 -14.235333,1.339491 -17.239454,0.03193 -1.079905,-0.469801 0.927295,-1.108265 1.564321,-1.245072 0.664357,-0.144065 1.053522,-0.127699 1.053522,-0.127699 -0.225181,-0.15863 -0.654986,-0.202873 -1.149297,-0.159625 z m 18.612225,1.787795 c 0,0 -0.377907,0.979425 -4.501413,1.75587 -4.652119,0.875468 -10.388454,0.784549 -13.791563,0.223475 8.4e-5,-8.1e-5 0.695688,0.568406 4.277938,0.798122 5.450505,0.348904 13.816807,-0.198444 14.015038,-2.777467 z"
       style="fill:#ffffff;fill-opacity:1;stroke:#ffffff;stroke-width:0.71511805;stroke-linecap:round;stroke-linejoin:round;stroke-miterlimit:4;stroke-dasharray:none;stroke-opacity:1"
       inkscape:connector-curvature="0" />
  </g>
</svg>
