<?xml version="1.0" encoding="UTF-8" standalone="no"?>
<!-- Created with Inkscape (http://www.inkscape.org/) -->

<svg
   xmlns:dc="http://purl.org/dc/elements/1.1/"
   xmlns:cc="http://creativecommons.org/ns#"
   xmlns:rdf="http://www.w3.org/1999/02/22-rdf-syntax-ns#"
   xmlns:svg="http://www.w3.org/2000/svg"
   xmlns="http://www.w3.org/2000/svg"
   xmlns:xlink="http://www.w3.org/1999/xlink"
   xmlns:sodipodi="http://sodipodi.sourceforge.net/DTD/sodipodi-0.dtd"
   xmlns:inkscape="http://www.inkscape.org/namespaces/inkscape"
   width="64px"
   height="64px"
   id="svg13986"
   version="1.1"
   inkscape:version="0.91 r"
   sodipodi:docname="style.svg">
  <defs
     id="defs13988">
    <radialGradient
       inkscape:collect="always"
       xlink:href="#linearGradient4751-5-4-1-2-9-1-2-3-365-589-154-4-7-64-3-8-6-5-3-8"
       id="radialGradient12934-2"
       gradientUnits="userSpaceOnUse"
       gradientTransform="matrix(0,7.9565035,-9.7680435,0,130.43348,-78.297185)"
       cx="7.3118296"
       cy="10.097507"
       fx="7.3118296"
       fy="10.097507"
       r="12.671875" />
    <linearGradient
       id="linearGradient4751-5-4-1-2-9-1-2-3-365-589-154-4-7-64-3-8-6-5-3-8">
      <stop
         id="stop9737-3-0-8-1-8-3-3-0-4"
         style="stop-color:#ffffff;stop-opacity:1"
         offset="0" />
      <stop
         id="stop9739-4-8-0-7-48-9-7-7-4"
         style="stop-color:#ebebeb;stop-opacity:1"
         offset="1" />
    </linearGradient>
    <linearGradient
       inkscape:collect="always"
       xlink:href="#linearGradient27416-1-2"
       id="linearGradient13718"
       gradientUnits="userSpaceOnUse"
       x1="30.271185"
       y1="10.028973"
       x2="30.271185"
       y2="55.052982"
       gradientTransform="matrix(1.111111,0,0,1.25,-3.5555551,-8.000001)" />
    <linearGradient
       id="linearGradient27416-1-2">
      <stop
         offset="0"
         style="stop-color:#55c1ec;stop-opacity:1"
         id="stop27420-2-0" />
      <stop
         offset="1"
         style="stop-color:#3689e6;stop-opacity:1"
         id="stop27422-3-5" />
    </linearGradient>
    <linearGradient
       inkscape:collect="always"
       xlink:href="#linearGradient3924-2-2-5-8"
       id="linearGradient12931"
       gradientUnits="userSpaceOnUse"
       gradientTransform="matrix(1.4324324,0,0,1.4362832,-2.378381,-2.4707781)"
       x1="23.99999"
       y1="4.999989"
       x2="23.99999"
       y2="43" />
    <linearGradient
       id="linearGradient3924-2-2-5-8">
      <stop
         id="stop3926-9-4-9-6"
         style="stop-color:#ffffff;stop-opacity:1"
         offset="0" />
      <stop
         id="stop3928-9-8-6-5"
         style="stop-color:#ffffff;stop-opacity:0.23529412"
         offset="0.06316455" />
      <stop
         id="stop3930-3-5-1-7"
         style="stop-color:#ffffff;stop-opacity:0.15686275"
         offset="0.95056331" />
      <stop
         id="stop3932-8-0-4-8"
         style="stop-color:#ffffff;stop-opacity:0.39215687"
         offset="1" />
    </linearGradient>
    <linearGradient
       id="linearGradient4751-5-4-1-2-9-1-2-3-365-589-154-4-7-64-3-8-6-5-3">
      <stop
         id="stop9737-3-0-8-1-8-3-3-0"
         style="stop-color:#ffffff;stop-opacity:1"
         offset="0" />
      <stop
         id="stop9739-4-8-0-7-48-9-7-7"
         style="stop-color:#ebebeb;stop-opacity:1"
         offset="1" />
    </linearGradient>
    <radialGradient
       cx="4.9929786"
       cy="43.5"
       r="2.5"
       fx="4.9929786"
       fy="43.5"
       id="radialGradient3337-2-2"
       xlink:href="#linearGradient3688-166-749-4-0-3-8"
       gradientUnits="userSpaceOnUse"
       gradientTransform="matrix(2.003784,0,0,1.4,27.98813,-17.4)" />
    <linearGradient
       id="linearGradient3688-166-749-4-0-3-8">
      <stop
         id="stop2883-4-0-1-8"
         style="stop-color:#181818;stop-opacity:1"
         offset="0" />
      <stop
         id="stop2885-9-2-9-6"
         style="stop-color:#181818;stop-opacity:0"
         offset="1" />
    </linearGradient>
    <radialGradient
       cx="4.9929786"
       cy="43.5"
       r="2.5"
       fx="4.9929786"
       fy="43.5"
       id="radialGradient3339-1-4"
       xlink:href="#linearGradient3688-464-309-9-2-4-2"
       gradientUnits="userSpaceOnUse"
       gradientTransform="matrix(2.003784,0,0,1.4,-20.01187,-104.4)" />
    <linearGradient
       id="linearGradient3688-464-309-9-2-4-2">
      <stop
         id="stop2889-7-9-6-9"
         style="stop-color:#181818;stop-opacity:1"
         offset="0" />
      <stop
         id="stop2891-6-6-1-7"
         style="stop-color:#181818;stop-opacity:0"
         offset="1" />
    </linearGradient>
    <linearGradient
       id="linearGradient3702-501-757-8-4-1-1">
      <stop
         id="stop2895-8-9-9-1"
         style="stop-color:#181818;stop-opacity:0"
         offset="0" />
      <stop
         id="stop2897-7-8-7-7"
         style="stop-color:#181818;stop-opacity:1"
         offset="0.5" />
      <stop
         id="stop2899-4-5-1-5"
         style="stop-color:#181818;stop-opacity:0"
         offset="1" />
    </linearGradient>
    <linearGradient
       y2="39.999443"
       x2="25.058096"
       y1="47.027729"
       x1="25.058096"
       gradientUnits="userSpaceOnUse"
       id="linearGradient13984"
       xlink:href="#linearGradient3702-501-757-8-4-1-1"
       inkscape:collect="always" />
    <linearGradient
       inkscape:collect="always"
       xlink:href="#linearGradient27416-1-2-8"
       id="linearGradient13718-3"
       gradientUnits="userSpaceOnUse"
       x1="30.271185"
       y1="10.028973"
       x2="30.271185"
       y2="55.052982"
       gradientTransform="matrix(1.111111,0,0,1.25,-3.5555551,-8.000001)" />
    <linearGradient
       id="linearGradient27416-1-2-8">
      <stop
         offset="0"
         style="stop-color:#55c1ec;stop-opacity:1"
         id="stop27420-2-0-4" />
      <stop
         offset="1"
         style="stop-color:#3689e6;stop-opacity:1"
         id="stop27422-3-5-9" />
    </linearGradient>
    <linearGradient
       y2="55.052982"
       x2="30.271185"
       y1="10.028973"
       x1="30.271185"
       gradientTransform="matrix(1.111111,0,0,1.25,-3.555555,-8.000001)"
       gradientUnits="userSpaceOnUse"
       id="linearGradient3041"
       xlink:href="#linearGradient27416-1-2-8"
       inkscape:collect="always" />
    <linearGradient
       inkscape:collect="always"
       xlink:href="#linearGradient27416-1-2-0"
       id="linearGradient13718-7"
       gradientUnits="userSpaceOnUse"
       x1="30.271185"
       y1="10.028973"
       x2="30.271185"
       y2="55.052982"
       gradientTransform="matrix(1.111111,0,0,1.25,-3.5555551,-8.000001)" />
    <linearGradient
       id="linearGradient27416-1-2-0">
      <stop
         offset="0"
         style="stop-color:#55c1ec;stop-opacity:1"
         id="stop27420-2-0-1" />
      <stop
         offset="1"
         style="stop-color:#3689e6;stop-opacity:1"
         id="stop27422-3-5-4" />
    </linearGradient>
    <linearGradient
       y2="55.052982"
       x2="30.271185"
       y1="10.028973"
       x1="30.271185"
       gradientTransform="matrix(1.111111,0,0,1.25,-3.555555,-7.000001)"
       gradientUnits="userSpaceOnUse"
       id="linearGradient3041-3"
       xlink:href="#linearGradient27416-1-2-0"
       inkscape:collect="always" />
    <linearGradient
       inkscape:collect="always"
       xlink:href="#linearGradient27416-1-2-8"
       id="linearGradient3082"
       gradientUnits="userSpaceOnUse"
       gradientTransform="matrix(1.111111,0,0,1.25,-3.555555,-8.000001)"
       x1="30.271185"
       y1="10.028973"
       x2="30.271185"
       y2="55.052982" />
    <linearGradient
       inkscape:collect="always"
       xlink:href="#linearGradient27416-1-2-4"
       id="linearGradient13718-4"
       gradientUnits="userSpaceOnUse"
       x1="30.271185"
       y1="10.028973"
       x2="30.271185"
       y2="55.052982"
       gradientTransform="matrix(1.111111,0,0,1.25,-3.5555551,-8.000001)" />
    <linearGradient
       id="linearGradient27416-1-2-4">
      <stop
         offset="0"
         style="stop-color:#55c1ec;stop-opacity:1"
         id="stop27420-2-0-5" />
      <stop
         offset="1"
         style="stop-color:#3689e6;stop-opacity:1"
         id="stop27422-3-5-95" />
    </linearGradient>
    <linearGradient
       y2="55.052982"
       x2="30.271185"
       y1="10.028973"
       x1="30.271185"
       gradientTransform="matrix(1.0555554,0,0,1.125,-1.7777772,-3.0000009)"
       gradientUnits="userSpaceOnUse"
       id="linearGradient3117"
       xlink:href="#linearGradient27416-1-2-4"
       inkscape:collect="always" />
    <linearGradient
       inkscape:collect="always"
       xlink:href="#linearGradient27416-1-2-9"
       id="linearGradient13718-1"
       gradientUnits="userSpaceOnUse"
       x1="30.271185"
       y1="10.028973"
       x2="30.271185"
       y2="55.052982"
       gradientTransform="matrix(1.111111,0,0,1.25,-3.5555551,-8.000001)" />
    <linearGradient
       id="linearGradient27416-1-2-9">
      <stop
         offset="0"
         style="stop-color:#55c1ec;stop-opacity:1"
         id="stop27420-2-0-11" />
      <stop
         offset="1"
         style="stop-color:#3689e6;stop-opacity:1"
         id="stop27422-3-5-0" />
    </linearGradient>
    <linearGradient
       y2="55.052982"
       x2="30.271185"
       y1="10.028973"
       x1="30.271185"
       gradientTransform="matrix(1.111111,0,0,1.25,-3.555555,-8.000001)"
       gradientUnits="userSpaceOnUse"
       id="linearGradient3200"
       xlink:href="#linearGradient27416-1-2-9"
       inkscape:collect="always" />
    <linearGradient
       inkscape:collect="always"
       xlink:href="#linearGradient4632-0-6-4-4-4"
       id="linearGradient3043"
       gradientUnits="userSpaceOnUse"
       gradientTransform="matrix(0.50413225,0,0,0.49333391,85.504654,2.6145072)"
       x1="-91"
       y1="43.999817"
       x2="-91"
       y2="119.05979" />
    <linearGradient
       id="linearGradient4632-0-6-4-4-4">
      <stop
         id="stop4634-4-4-7-4"
         style="stop-color:#e9e9e9;stop-opacity:1"
         offset="0" />
      <stop
         id="stop4636-3-1-5-9"
         style="stop-color:#b4b4b4;stop-opacity:1"
         offset="1" />
    </linearGradient>
    <linearGradient
       inkscape:collect="always"
       xlink:href="#linearGradient27416-1-2-2"
       id="linearGradient3860-2"
       gradientUnits="userSpaceOnUse"
       gradientTransform="matrix(1.111111,0,0,1.25,-3.5555565,-7.9999992)"
       x1="30.271185"
       y1="10.028973"
       x2="30.271185"
       y2="55.052982" />
    <linearGradient
       id="linearGradient27416-1-2-2">
      <stop
         offset="0"
         style="stop-color:#55c1ec;stop-opacity:1"
         id="stop27420-2-0-6" />
      <stop
         offset="1"
         style="stop-color:#3689e6;stop-opacity:1"
         id="stop27422-3-5-3" />
    </linearGradient>
    <linearGradient
       gradientTransform="matrix(0.09153846,0,0,0.02058823,-1.084616,49.45142)"
       gradientUnits="userSpaceOnUse"
       xlink:href="#linearGradient5048"
       id="linearGradient3842"
       y2="609.50507"
       x2="302.85715"
       y1="366.64789"
       x1="302.85715" />
    <linearGradient
       id="linearGradient5048">
      <stop
         offset="0"
         style="stop-color:#000000;stop-opacity:0"
         id="stop5050" />
      <stop
         offset="0.5"
         style="stop-color:#000000;stop-opacity:1"
         id="stop5056" />
      <stop
         offset="1"
         style="stop-color:#000000;stop-opacity:0"
         id="stop5052" />
    </linearGradient>
    <radialGradient
       gradientTransform="matrix(-0.03132632,0,0,0.02058823,28.779136,49.45142)"
       gradientUnits="userSpaceOnUse"
       xlink:href="#linearGradient5060"
       id="radialGradient3156"
       fy="486.64789"
       fx="605.71429"
       r="117.14286"
       cy="486.64789"
       cx="605.71429" />
    <linearGradient
       id="linearGradient5060">
      <stop
         offset="0"
         style="stop-color:#000000;stop-opacity:1"
         id="stop5062" />
      <stop
         offset="1"
         style="stop-color:#000000;stop-opacity:0"
         id="stop5064" />
    </linearGradient>
    <radialGradient
       gradientTransform="matrix(0.03132633,0,0,0.02058823,35.220859,49.45142)"
       gradientUnits="userSpaceOnUse"
       xlink:href="#linearGradient5060"
       id="radialGradient3153"
       fy="486.64789"
       fx="605.71429"
       r="117.14286"
       cy="486.64789"
       cx="605.71429" />
    <linearGradient
       id="linearGradient3600-9">
      <stop
         offset="0"
         style="stop-color:#f4f4f4;stop-opacity:1"
         id="stop3602-3" />
      <stop
         offset="1"
         style="stop-color:#dbdbdb;stop-opacity:1"
         id="stop3604-7" />
    </linearGradient>
    <linearGradient
       gradientTransform="matrix(1.3142827,0,0,1.2602393,0.4572141,-2.1793201)"
       gradientUnits="userSpaceOnUse"
       xlink:href="#linearGradient3600-9"
       id="linearGradient3096"
       y2="47.013336"
       x2="25.132275"
       y1="0.98520643"
       x1="25.132275" />
    <linearGradient
       id="linearGradient3977-4">
      <stop
         offset="0"
         style="stop-color:#ffffff;stop-opacity:1"
         id="stop3979-7" />
      <stop
         offset="0.01214366"
         style="stop-color:#ffffff;stop-opacity:0.23529412"
         id="stop3981-6" />
      <stop
         offset="0.98781353"
         style="stop-color:#ffffff;stop-opacity:0.15686275"
         id="stop3983-5" />
      <stop
         offset="1"
         style="stop-color:#ffffff;stop-opacity:0.39215687"
         id="stop3985-6" />
    </linearGradient>
    <linearGradient
       gradientTransform="matrix(1.2162162,0,0,1.5405376,2.8108184,-6.9729501)"
       gradientUnits="userSpaceOnUse"
       xlink:href="#linearGradient3977-4"
       id="linearGradient3093"
       y2="42.100208"
       x2="23.99999"
       y1="5.8641062"
       x1="23.99999" />
    <linearGradient
       id="linearGradient3104-6">
      <stop
         offset="0"
         style="stop-color:#000000;stop-opacity:0.31782946"
         id="stop3106-3" />
      <stop
         offset="1"
         style="stop-color:#000000;stop-opacity:0.24031007"
         id="stop3108-9" />
    </linearGradient>
    <linearGradient
       gradientTransform="matrix(1.0843523,0,0,1.1997367,79.550862,-4.1628601)"
       gradientUnits="userSpaceOnUse"
       xlink:href="#linearGradient3104-6"
       id="linearGradient3033"
       y2="2.9062471"
       x2="-51.786404"
       y1="50.786446"
       x1="-51.786404" />
    <linearGradient
       id="linearGradient3600-9-4">
      <stop
         offset="0"
         style="stop-color:#fafafa;stop-opacity:1;"
         id="stop3602-3-1" />
      <stop
         offset="1"
         style="stop-color:#dbdbdb;stop-opacity:1"
         id="stop3604-7-9" />
    </linearGradient>
    <linearGradient
       y2="47.013336"
       x2="25.132275"
       y1="0.98520643"
       x1="25.132275"
       gradientTransform="matrix(1.3142827,0,0,1.2602393,-8.542786,-3.1792)"
       gradientUnits="userSpaceOnUse"
       id="linearGradient3996"
       xlink:href="#linearGradient3600-9-4"
       inkscape:collect="always" />
    <radialGradient
       inkscape:collect="always"
       xlink:href="#linearGradient4632-92-3-0-8-1"
       id="radialGradient4047"
       cx="31.999998"
       cy="4.3419166"
       fx="31.999998"
       fy="4.3419166"
       r="27.5"
       gradientUnits="userSpaceOnUse"
       gradientTransform="matrix(1.0242397e-8,2.3531201,-2.35312,1.0242397e-8,42.217049,-70.957923)" />
    <linearGradient
       gradientUnits="userSpaceOnUse"
       xlink:href="#linearGradient3702-501-757"
       id="linearGradient6647"
       y2="39.999443"
       x2="25.058096"
       y1="47.027729"
       x1="25.058096" />
    <linearGradient
       id="linearGradient3702-501-757">
      <stop
         offset="0"
         style="stop-color:#181818;stop-opacity:0"
         id="stop2895" />
      <stop
         offset="0.5"
         style="stop-color:#181818;stop-opacity:1"
         id="stop2897" />
      <stop
         offset="1"
         style="stop-color:#181818;stop-opacity:0"
         id="stop2899" />
    </linearGradient>
    <linearGradient
       id="linearGradient3688-464-309">
      <stop
         offset="0"
         style="stop-color:#181818;stop-opacity:1"
         id="stop2889" />
      <stop
         offset="1"
         style="stop-color:#181818;stop-opacity:0"
         id="stop2891" />
    </linearGradient>
    <radialGradient
       gradientTransform="matrix(2.003784,0,0,1.4,-20.01187,-104.4)"
       gradientUnits="userSpaceOnUse"
       xlink:href="#linearGradient3688-464-309"
       id="radialGradient3015"
       fy="43.5"
       fx="4.9929786"
       r="2.5"
       cy="43.5"
       cx="4.9929786" />
    <linearGradient
       id="linearGradient3688-166-749">
      <stop
         offset="0"
         style="stop-color:#181818;stop-opacity:1"
         id="stop2883" />
      <stop
         offset="1"
         style="stop-color:#181818;stop-opacity:0"
         id="stop2885" />
    </linearGradient>
    <radialGradient
       gradientTransform="matrix(2.003784,0,0,1.4,27.98813,-17.4)"
       gradientUnits="userSpaceOnUse"
       xlink:href="#linearGradient3688-166-749"
       id="radialGradient3013"
       fy="43.5"
       fx="4.9929786"
       r="2.5"
       cy="43.5"
       cx="4.9929786" />
    <linearGradient
       id="linearGradient2867-449-88-871-390-598-476-591-434-148-57-177-8-3-3-6-4-8-8-8">
      <stop
         offset="0"
         style="stop-color:#ffcd7d;stop-opacity:1"
         id="stop3750-1-0-7-6-6-1-3-9" />
      <stop
         offset="0.26238"
         style="stop-color:#fc8f36;stop-opacity:1"
         id="stop3752-3-7-4-0-32-8-923-0" />
      <stop
         offset="0.704952"
         style="stop-color:#e23a0e;stop-opacity:1"
         id="stop3754-1-8-5-2-7-6-7-1" />
      <stop
         offset="1"
         style="stop-color:#ac441f;stop-opacity:1"
         id="stop3756-1-6-2-6-6-1-96-6" />
    </linearGradient>
    <radialGradient
       gradientTransform="matrix(0,9.4975523,-11.65996,0,140.93055,-79.160978)"
       gradientUnits="userSpaceOnUse"
       xlink:href="#linearGradient2867-449-88-871-390-598-476-591-434-148-57-177-8-3-3-6-4-8-8-8"
       id="radialGradient5521-1"
       fy="9.9571075"
       fx="6.2001843"
       r="12.671875"
       cy="9.9571075"
       cx="6.7304144" />
    <linearGradient
       id="linearGradient3924-1">
      <stop
         offset="0"
         style="stop-color:#ffffff;stop-opacity:1"
         id="stop3926-3" />
      <stop
         offset="0.06316455"
         style="stop-color:#ffffff;stop-opacity:0.23529412"
         id="stop3928-91" />
      <stop
         offset="0.95056331"
         style="stop-color:#ffffff;stop-opacity:0.15686275"
         id="stop3930-6" />
      <stop
         offset="1"
         style="stop-color:#ffffff;stop-opacity:0.39215687"
         id="stop3932-6" />
    </linearGradient>
    <linearGradient
       gradientTransform="translate(4e-6,1.000006)"
       gradientUnits="userSpaceOnUse"
       xlink:href="#linearGradient3924-1"
       id="linearGradient3058"
       y2="43"
       x2="23.99999"
       y1="4.999989"
       x1="23.99999" />
    <linearGradient
       id="linearGradient5803">
      <stop
         offset="0"
         style="stop-color:#fff5ef;stop-opacity:1"
         id="stop5805" />
      <stop
         offset="1"
         style="stop-color:#fef8dd;stop-opacity:1"
         id="stop5807" />
    </linearGradient>
    <linearGradient
       gradientTransform="matrix(0.71090703,0,0,0.71090703,-91.334988,2.139763)"
       gradientUnits="userSpaceOnUse"
       xlink:href="#linearGradient5803"
       id="linearGradient5414"
       y2="54.780239"
       x2="167.98311"
       y1="8.50811"
       x1="167.98311" />
    <radialGradient
       gradientTransform="matrix(2.8862785,0,0,1.0039217,-148.75315,46.023509)"
       gradientUnits="userSpaceOnUse"
       xlink:href="#linearGradient8838-561-565"
       id="radialGradient3994"
       fy="4.625"
       fx="62.625"
       r="10.625"
       cy="4.625"
       cx="62.625" />
    <linearGradient
       id="linearGradient8838-561-565">
      <stop
         offset="0"
         style="stop-color:#0a0a0a;stop-opacity:1"
         id="stop4621" />
      <stop
         offset="1"
         style="stop-color:#0a0a0a;stop-opacity:0"
         id="stop4623" />
    </linearGradient>
    <linearGradient
       id="linearGradient3600-8-3">
      <stop
         offset="0"
         style="stop-color:#f4f4f4;stop-opacity:1"
         id="stop3828-7-6" />
      <stop
         offset="1"
         style="stop-color:#dbdbdb;stop-opacity:1"
         id="stop3604-2-5" />
    </linearGradient>
    <linearGradient
       gradientTransform="matrix(0.58378914,3.5977471e-4,-3.5543764e-4,0.59091266,61.565019,-10.157046)"
       gradientUnits="userSpaceOnUse"
       xlink:href="#linearGradient3600-8-3"
       id="linearGradient6654-1"
       y2="104.84189"
       x2="-60.914154"
       y1="28.233982"
       x1="-60.960796" />
    <linearGradient
       id="linearGradient3104-8-8-97-9">
      <stop
         offset="0"
         style="stop-color:#000000;stop-opacity:0.32173914"
         id="stop3106-5-4-3-6" />
      <stop
         offset="1"
         style="stop-color:#000000;stop-opacity:0.27826086"
         id="stop3108-4-3-7-0" />
    </linearGradient>
    <linearGradient
       gradientTransform="matrix(1.0700435,0,0,1.1244505,78.923391,-1.102116)"
       gradientUnits="userSpaceOnUse"
       xlink:href="#linearGradient3104-8-8-97-9"
       id="linearGradient3394-3"
       y2="3.6336823"
       x2="-51.786404"
       y1="53.514328"
       x1="-51.786404" />
    <linearGradient
       gradientTransform="matrix(1.3333351,0,0,1.3333351,0.0846107,3.459921)"
       gradientUnits="userSpaceOnUse"
       xlink:href="#linearGradient3922"
       id="linearGradient6886"
       y2="30.98424"
       x2="22.642942"
       y1="26.966721"
       x1="22.642942" />
    <linearGradient
       id="linearGradient3922">
      <stop
         offset="0"
         style="stop-color:#000000;stop-opacity:1"
         id="stop3924" />
      <stop
         offset="1"
         style="stop-color:#000000;stop-opacity:0"
         id="stop3926-9" />
    </linearGradient>
    <linearGradient
       gradientTransform="matrix(1.23944,0,0,1.2401758,2.5038689,6.6210943)"
       gradientUnits="userSpaceOnUse"
       xlink:href="#linearGradient3922"
       id="linearGradient6883"
       y2="30.98424"
       x2="22.642942"
       y1="26.966721"
       x1="22.642942" />
    <linearGradient
       id="linearGradient6786-4">
      <stop
         offset="0"
         style="stop-color:#ffffff;stop-opacity:1"
         id="stop6788-2" />
      <stop
         offset="0.46352294"
         style="stop-color:#ffffff;stop-opacity:0.23529412"
         id="stop6790-0" />
      <stop
         offset="0.76175833"
         style="stop-color:#ffffff;stop-opacity:0.15686275"
         id="stop6792-0" />
      <stop
         offset="1"
         style="stop-color:#ffffff;stop-opacity:0.39215687"
         id="stop6794-4" />
    </linearGradient>
    <linearGradient
       gradientTransform="matrix(1.1891887,0,0,1.4107063,-126.14094,-11.842585)"
       gradientUnits="userSpaceOnUse"
       xlink:href="#linearGradient6786-4"
       id="linearGradient6784-9"
       y2="33.33271"
       x2="132.3414"
       y1="2.2922528"
       x1="132.3414" />
    <linearGradient
       inkscape:collect="always"
       xlink:href="#linearGradient4632-92-3-0-8-1"
       id="linearGradient6654"
       gradientUnits="userSpaceOnUse"
       gradientTransform="matrix(0.50413225,0,0,0.49333391,73.843637,-1.4532899)"
       x1="-91"
       y1="43.999817"
       x2="-91"
       y2="119.05979" />
    <linearGradient
       id="linearGradient4632-92-3-0-8-1">
      <stop
         style="stop-color:#fafafa;stop-opacity:1;"
         offset="0"
         id="stop4634-68-8-0-2-9" />
      <stop
         style="stop-color:#e1e1e1;stop-opacity:1;"
         offset="1"
         id="stop4636-8-21-7-1-4" />
    </linearGradient>
    <radialGradient
       xlink:href="#2"
       gradientUnits="userSpaceOnUse"
       gradientTransform="matrix(0.49943784,0,0,0.19322205,0.68561284,19.156949)"
       r="9.1719999"
       cy="51.029999"
       cx="87.769997"
       id="F" />
    <linearGradient
       id="2">
      <stop
         id="b"
         stop-color="#eee" />
      <stop
         offset="1"
         id="c"
         stop-color="#eee"
         stop-opacity="0.675" />
    </linearGradient>
    <filter
       id="D">
      <feGaussianBlur
         stdDeviation="0.1546"
         id="o" />
    </filter>
    <radialGradient
       xlink:href="#4"
       gradientUnits="userSpaceOnUse"
       gradientTransform="matrix(0.49943784,0,0,0.44760275,0.68561284,6.5021436)"
       r="8.9689999"
       cy="67.169998"
       cx="87.75"
       id="B" />
    <linearGradient
       id="4">
      <stop
         id="f"
         stop-color="#eee" />
      <stop
         offset="1"
         id="g"
         stop-color="#e1e1e1" />
    </linearGradient>
    <filter
       id="C">
      <feGaussianBlur
         stdDeviation="0.3"
         id="n" />
    </filter>
    <radialGradient
       xlink:href="#4"
       gradientUnits="userSpaceOnUse"
       gradientTransform="matrix(0.49943784,0,0,0.30749245,-0.0479364,7.750472)"
       r="24.16"
       cy="21"
       cx="63.938"
       id="8" />
    <filter
       id="A">
      <feGaussianBlur
         stdDeviation="0.44719"
         id="m" />
    </filter>
    <filter
       id="9">
      <feGaussianBlur
         stdDeviation="0.46078"
         id="l" />
    </filter>
  </defs>
  <sodipodi:namedview
     id="base"
     pagecolor="#ffffff"
     bordercolor="#666666"
     borderopacity="1.0"
     inkscape:pageopacity="0.0"
     inkscape:pageshadow="2"
     inkscape:zoom="14.5"
     inkscape:cx="32"
     inkscape:cy="29.241379"
     inkscape:current-layer="layer1"
     showgrid="true"
     inkscape:document-units="px"
     inkscape:grid-bbox="true"
     inkscape:window-width="1855"
     inkscape:window-height="1056"
     inkscape:window-x="65"
     inkscape:window-y="24"
     inkscape:window-maximized="1"
     showborder="false">
    <inkscape:grid
       type="xygrid"
       id="grid3568" />
  </sodipodi:namedview>
  <metadata
     id="metadata13991">
    <rdf:RDF>
      <cc:Work
         rdf:about="">
        <dc:format>image/svg+xml</dc:format>
        <dc:type
           rdf:resource="http://purl.org/dc/dcmitype/StillImage" />
        <dc:title></dc:title>
      </cc:Work>
    </rdf:RDF>
  </metadata>
  <g
     id="layer1"
     inkscape:label="Layer 1"
     inkscape:groupmode="layer">
    <g
       style="opacity:0.4"
       id="g3712-8-2-4-4"
       transform="matrix(1.5789502,0,0,0.7142857,-5.894751,27.928572)">
      <rect
         style="fill:url(#radialGradient3337-2-2);fill-opacity:1;stroke:none"
         id="rect2801-5-5-7-9"
         y="40"
         x="38"
         height="7"
         width="5" />
      <rect
         style="fill:url(#radialGradient3339-1-4);fill-opacity:1;stroke:none"
         id="rect3696-3-0-3-7"
         transform="scale(-1,-1)"
         y="-47"
         x="-10"
         height="7"
         width="5" />
      <rect
         style="fill:url(#linearGradient13984);fill-opacity:1;stroke:none"
         id="rect3700-5-6-8-4"
         y="40"
         x="10"
         height="7.0000005"
         width="28" />
    </g>
    <rect
       style="color:#000000;fill:url(#radialGradient4047);fill-opacity:1.0;fill-rule:nonzero;stroke:none;stroke-width:0.99999994000000003;marker:none;visibility:visible;display:inline;overflow:visible;enable-background:accumulate"
       id="rect5505-21-3-8-5-2"
       y="4.5000019"
       x="4.4999986"
       ry="3"
       rx="3"
       height="55"
       width="55" />
    <rect
       style="fill:none;stroke:url(#linearGradient12931);stroke-width:1;stroke-linecap:round;stroke-linejoin:round;stroke-miterlimit:4;stroke-opacity:1;stroke-dasharray:none;stroke-dashoffset:0;opacity:1"
       id="rect6741-5-0-2-3"
       y="5.4287739"
       x="5.4999986"
       ry="2"
       rx="2"
       height="53.142479"
       width="53" />
    <rect
       style="opacity:0.25;color:#000000;fill:none;stroke:#000000;stroke-width:0.99999981999999998;stroke-linecap:butt;stroke-linejoin:miter;stroke-miterlimit:4;stroke-opacity:1;stroke-dasharray:none;stroke-dashoffset:0;marker:none;visibility:visible;display:inline;overflow:visible;enable-background:accumulate"
       id="rect5505-21-3-8-9-1-1"
       y="4.5000019"
       x="4.4999986"
       ry="3"
       rx="3"
       height="55"
       width="55" />
    <path
       inkscape:connector-curvature="0"
       style="filter:url(#9)"
       transform="matrix(0.48924059,0,0,0.48146177,0.54577391,4.4288298)"
       d="m 47.71875,2.625 c -2.950535,0 -5.64918,0.8991057 -7.71875,2.5 -2.06957,1.6008943 -3.53125,4.0166122 -3.53125,6.75 l 0,2.65625 a 2.4738001,2.4738001 0 0 0 0.375,1.3125 l 14.25,22.84375 a 2.4738001,2.4738001 0 0 0 2.09375,1.15625 l 0.28125,0 A 2.4738001,2.4738001 0 0 0 55.5,38.78125 L 63.9375,26.75 72.375,38.78125 a 2.4738001,2.4738001 0 0 0 2.03125,1.0625 l 0.28125,0 a 2.4738001,2.4738001 0 0 0 2.09375,-1.15625 l 14.25,-22.84375 a 2.4738001,2.4738001 0 0 0 0.375,-1.3125 l 0,-2.65625 c 0,-2.7402618 -1.454772,-5.1516365 -3.53125,-6.75 -2.076478,-1.5983635 -4.799465,-2.5 -7.75,-2.5 l -32.40625,0 z"
       id="J" />
    <path
       inkscape:connector-curvature="0"
       style="fill:#bbbbbb;stroke:#888888;stroke-width:0.4957808"
       d="m 31.892162,53.229917 -0.01459,5.769456"
       id="K" />
    <path
       inkscape:connector-curvature="0"
       style="filter:url(#A)"
       id="L"
       d="m 14.833801,-0.32283194 -2,61.65624994 3.96875,5.875 3.96875,5.906255 4.03125,-5.875005 4.03125,-5.84375 0,-0.0625 -2,-61.65624994 -12,0 z"
       transform="matrix(0.49943784,0,0,0.49313624,21.479682,18.86688)" />
    <path
       inkscape:connector-curvature="0"
       style="fill:#323232"
       d="m 28.888244,18.70768 -0.998877,30.404932 1.982146,2.897175 1.982142,2.91259 2.013358,-2.897181 2.013359,-2.881763 0,-0.03082 -0.998875,-30.404932 -5.993253,0 z"
       id="M" />
    <path
       inkscape:connector-curvature="0"
       style="fill:#555555"
       id="N"
       d="m 29.668616,19.509027 -0.952054,29.372426 1.826069,2.681429 1.311024,1.926311 1.34224,-1.926311 1.857285,-2.666016 -0.952053,-29.387839 -4.432511,0 z" />
    <path
       inkscape:connector-curvature="0"
       style="fill:#323232"
       id="O"
       d="m 37.513342,18.785327 a 5.6284729,3.7284197 0 0 1 -11.256945,0 5.6284729,3.7284197 0 1 1 11.256945,0 z" />
    <path
       inkscape:connector-curvature="0"
       style="fill:#555555"
       id="P"
       d="m 31.886383,16.442334 c -1.298144,0 -2.455187,0.370462 -3.199524,0.86299 -0.744336,0.49253 -1.03009,1.012675 -1.03009,1.479411 0,0.466734 0.285754,0.986876 1.03009,1.479407 0.744337,0.49253 1.90138,0.862989 3.199524,0.862989 1.298143,0 2.455188,-0.370459 3.199524,-0.862989 0.744335,-0.492531 1.03009,-1.012673 1.03009,-1.479407 0,-0.466736 -0.285755,-0.986881 -1.03009,-1.479411 -0.744336,-0.492528 -1.901381,-0.86299 -3.199524,-0.86299 z" />
    <path
       inkscape:connector-curvature="0"
       style="fill:#bbbbbb"
       id="Q"
       d="m 23.784612,5.1464357 c -1.473607,0 -2.821414,0.4433817 -3.855034,1.2328402 -1.033623,0.7894586 -1.76364,1.9807364 -1.76364,3.3286684 l 0,1.3098927 a 1.2355094,1.2199205 0 0 0 0.187288,0.647242 l 7.11699,11.26508 a 1.2355094,1.2199205 0 0 0 1.045697,0.570189 l 0.140467,0 a 1.2355094,1.2199205 0 0 0 1.014484,-0.523956 l 4.214006,-5.933046 4.214005,5.933046 a 1.2355094,1.2199205 0 0 0 1.014484,0.523956 l 0.140468,0 a 1.2355094,1.2199205 0 0 0 1.045698,-0.570189 l 7.116988,-11.26508 a 1.2355094,1.2199205 0 0 0 0.187291,-0.647242 l 0,-1.3098927 c 0,-1.351321 -0.72657,-2.540457 -1.763641,-3.3286684 C 42.803092,5.5910647 41.443129,5.1464357 39.969521,5.1464357 l -16.184909,0 z" />
    <path
       inkscape:connector-curvature="0"
       style="fill:url(#8)"
       id="R"
       d="m 23.784612,6.7799492 c -1.128783,0 -2.132073,0.3526874 -2.840552,0.8938093 -0.708478,0.5411218 -1.123736,1.256572 -1.123736,2.0341858 l 0,1.1866107 6.773626,10.741123 4.947556,-6.96555 a 0.42752165,0.42212744 0 0 1 0.686729,0 l 4.947557,6.96555 6.773624,-10.741123 0,-1.1866107 c 0,-0.7764414 -0.411198,-1.4926321 -1.123736,-2.0341858 C 42.113141,7.1322048 41.098305,6.7799492 39.969521,6.7799492 l -16.184909,0 z" />
    <rect
       style="fill:#eeeeee"
       y="8.5821705"
       x="23.451157"
       height="4.6981087"
       width="16.87051"
       id="S"
       rx="1.9977515" />
    <rect
       style="fill:#323232"
       id="T"
       width="16.87051"
       height="4.6981087"
       x="23.451157"
       y="8.1378546"
       rx="1.9977515" />
    <path
       inkscape:connector-curvature="0"
       style="fill:#888888"
       d="m 29.552415,22.17276 -0.07803,2.049596 4.807089,2.219114 -0.06244,-2.342399 -3.714569,-1.710565 c -0.330154,-0.0553 -0.64804,-0.123717 -0.952054,-0.215746 z m -0.156074,4.345762 -0.06244,2.280754 5.103632,2.342397 -0.07802,-2.326987 -4.963162,-2.296164 z m -0.140468,4.576921 -0.07802,2.265343 5.415777,2.481091 -0.07802,-2.326986 -5.259706,-2.419448 z m -0.140465,4.499867 -0.07802,2.280754 5.71232,2.635197 -0.07802,-2.342397 -5.556247,-2.573554 z m -0.156074,4.623151 -0.07803,2.280757 6.008863,2.758481 -0.06244,-2.342398 -5.868394,-2.69684 z m -0.140468,4.530689 -0.07803,2.265346 5.743535,2.635197 0.530654,-0.755115 -0.04682,-1.309895 -6.149328,-2.835533 z m 0.296542,4.777258 1.389061,2.034187 0.889625,1.309895 0.639903,0.292798 1.123735,-1.602693 0.09364,-0.138693 -4.13597,-1.895494 z"
       id="U" />
    <rect
       style="filter:url(#C)"
       y="18.266281"
       x="35.712391"
       height="19.18"
       width="20.816"
       id="V"
       rx="4"
       transform="matrix(0.49943784,0,0,0.49313624,21.479682,18.86688)" />
    <rect
       style="fill:#bbbbbb"
       id="W"
       width="10.396298"
       height="9.4583521"
       x="39.315796"
       y="27.825333"
       rx="1.9977515" />
    <path
       inkscape:connector-curvature="0"
       style="fill:url(#B)"
       id="X"
       d="m 41.311759,28.539585 c -0.723826,0 -1.27981,0.548968 -1.27981,1.263659 l 0,5.501554 c 0,0.714691 0.555984,1.263662 1.27981,1.263662 l 6.399048,0 c 0.723828,0 1.279808,-0.548971 1.279808,-1.263662 l 0,-5.501554 c 0,-0.714691 -0.55598,-1.263659 -1.279808,-1.263659 l -6.399048,0 z" />
    <path
       inkscape:connector-curvature="0"
       style="filter:url(#D)"
       id="Y"
       d="m 39.566116,15.741668 c -2.197444,0 -3.966505,1.512059 -3.966505,3.390268 l 0,2.25135 4.896155,2.383783 3.780575,1.854053 3.68761,0 3.780576,-1.854053 4.896154,-2.383783 0,-2.25135 c 0,-1.878209 -1.769061,-3.390268 -3.966505,-3.390268 l -13.10806,0 z"
       transform="matrix(0.49943784,0,0,0.49313624,21.479682,18.86688)" />
    <path
       inkscape:connector-curvature="0"
       style="fill:#bbbbbb"
       d="m 41.240496,26.580254 c -1.097487,0 -1.98102,0.745651 -1.98102,1.671863 l 0,1.110223 2.445325,1.175528 1.88816,0.914302 1.841734,0 1.888161,-0.914302 2.445325,-1.175528 0,-1.110223 c 0,-0.926212 -0.883537,-1.671863 -1.981022,-1.671863 l -6.546663,0 z"
       id="Z" />
    <path
       inkscape:connector-curvature="0"
       style="fill:url(#F)"
       id="a"
       d="m 41.233721,27.245101 c -0.795259,0 -1.295415,0.481347 -1.295415,1.001684 l 0,0.708884 2.060179,1.001681 1.732426,0.832168 1.560744,0 1.732424,-0.832168 2.075789,-1.001681 0,-0.708884 c 0,-0.513047 -0.515764,-1.001684 -1.311024,-1.001684 l -6.555123,0 z" />
  </g>
</svg>
