<?xml version="1.0" encoding="UTF-8" standalone="no"?>
<svg
   xmlns:dc="http://purl.org/dc/elements/1.1/"
   xmlns:cc="http://creativecommons.org/ns#"
   xmlns:rdf="http://www.w3.org/1999/02/22-rdf-syntax-ns#"
   xmlns:svg="http://www.w3.org/2000/svg"
   xmlns="http://www.w3.org/2000/svg"
   xmlns:xlink="http://www.w3.org/1999/xlink"
   xmlns:sodipodi="http://sodipodi.sourceforge.net/DTD/sodipodi-0.dtd"
   xmlns:inkscape="http://www.inkscape.org/namespaces/inkscape"
   id="svg6333"
   height="64"
   width="64"
   version="1.1"
   inkscape:version="0.91 r"
   sodipodi:docname="gbrainy.svg">
  <sodipodi:namedview
     pagecolor="#ffffff"
     bordercolor="#666666"
     borderopacity="1"
     objecttolerance="10"
     gridtolerance="10"
     guidetolerance="10"
     inkscape:pageopacity="0"
     inkscape:pageshadow="2"
     inkscape:window-width="1327"
     inkscape:window-height="789"
     id="namedview4299"
     showgrid="true"
     inkscape:zoom="16.139131"
     inkscape:cx="32.000054"
     inkscape:cy="31.249999"
     inkscape:window-x="591"
     inkscape:window-y="262"
     inkscape:window-maximized="0"
     inkscape:current-layer="svg6333">
    <inkscape:grid
       type="xygrid"
       id="grid4468" />
  </sodipodi:namedview>
  <defs
     id="defs6335">
    <linearGradient
       gradientTransform="translate(-130,1.759402e-6)"
       gradientUnits="userSpaceOnUse"
       xlink:href="#linearGradient5803"
       id="linearGradient5809"
       y2="54.780239"
       x2="167.98311"
       y1="8.50811"
       x1="167.98311" />
    <linearGradient
       id="linearGradient5803">
      <stop
         offset="0"
         style="stop-color:#fff5ef;stop-opacity:1"
         id="stop5805" />
      <stop
         offset="1"
         style="stop-color:#fef8dd;stop-opacity:1"
         id="stop5807" />
    </linearGradient>
    <linearGradient
       gradientTransform="matrix(1.4102564,0,0,1.4102564,0.391129,-2.2559982)"
       gradientUnits="userSpaceOnUse"
       xlink:href="#linearGradient3895-9-0-3-5-2-0-4-9"
       id="linearGradient5801"
       y2="39.150768"
       x2="27.096104"
       y1="10.880992"
       x1="27.096104" />
    <linearGradient
       id="linearGradient3895-9-0-3-5-2-0-4-9">
      <stop
         offset="0"
         style="stop-color:#dc5639;stop-opacity:1"
         id="stop3897-0-5-7-89-6-6-7-0" />
      <stop
         offset="1"
         style="stop-color:#9d0f0f;stop-opacity:1"
         id="stop3899-8-7-06-3-8-3-8-0" />
    </linearGradient>
    <linearGradient
       gradientTransform="matrix(1.4324324,0,0,1.4362832,-2.378381,-2.4707782)"
       gradientUnits="userSpaceOnUse"
       xlink:href="#linearGradient3924-2-2-5-8"
       id="linearGradient3381-5-4"
       y2="43"
       x2="23.99999"
       y1="4.999989"
       x1="23.99999" />
    <linearGradient
       id="linearGradient3924-2-2-5-8">
      <stop
         offset="0"
         style="stop-color:#ffffff;stop-opacity:1"
         id="stop3926-9-4-9-6" />
      <stop
         offset="0.06316455"
         style="stop-color:#ffffff;stop-opacity:0.23529412"
         id="stop3928-9-8-6-5" />
      <stop
         offset="0.95056331"
         style="stop-color:#ffffff;stop-opacity:0.15686275"
         id="stop3930-3-5-1-7" />
      <stop
         offset="1"
         style="stop-color:#ffffff;stop-opacity:0.39215687"
         id="stop3932-8-0-4-8" />
    </linearGradient>
    <radialGradient
       gradientTransform="matrix(0,13.393984,-16.443533,0,124.90205,-114.89368)"
       gradientUnits="userSpaceOnUse"
       xlink:href="#linearGradient2867-449-88-871-390-598-476-591-434-148-57-177-8-3-3-6-4-8-8-8"
       id="radialGradient3402-7-1-6"
       fy="9.9571075"
       fx="6.2001843"
       r="12.671875"
       cy="9.9571075"
       cx="6.7304144" />
    <linearGradient
       id="linearGradient2867-449-88-871-390-598-476-591-434-148-57-177-8-3-3-6-4-8-8-8">
      <stop
         offset="0"
         style="stop-color:#ffcd7d;stop-opacity:1"
         id="stop3750-1-0-7-6-6-1-3-9" />
      <stop
         offset="0.26238"
         style="stop-color:#fc8f36;stop-opacity:1"
         id="stop3752-3-7-4-0-32-8-923-0" />
      <stop
         offset="0.704952"
         style="stop-color:#e23a0e;stop-opacity:1"
         id="stop3754-1-8-5-2-7-6-7-1" />
      <stop
         offset="1"
         style="stop-color:#ac441f;stop-opacity:1"
         id="stop3756-1-6-2-6-6-1-96-6" />
    </linearGradient>
    <radialGradient
       gradientTransform="matrix(2.003784,0,0,1.4,27.98813,-17.4)"
       gradientUnits="userSpaceOnUse"
       xlink:href="#linearGradient3688-166-749-4-0-3-8"
       id="radialGradient3337-2-2"
       fy="43.5"
       fx="4.9929786"
       r="2.5"
       cy="43.5"
       cx="4.9929786" />
    <linearGradient
       id="linearGradient3688-166-749-4-0-3-8">
      <stop
         offset="0"
         style="stop-color:#181818;stop-opacity:1"
         id="stop2883-4-0-1-8" />
      <stop
         offset="1"
         style="stop-color:#181818;stop-opacity:0"
         id="stop2885-9-2-9-6" />
    </linearGradient>
    <radialGradient
       gradientTransform="matrix(2.003784,0,0,1.4,-20.01187,-104.4)"
       gradientUnits="userSpaceOnUse"
       xlink:href="#linearGradient3688-464-309-9-2-4-2"
       id="radialGradient3339-1-4"
       fy="43.5"
       fx="4.9929786"
       r="2.5"
       cy="43.5"
       cx="4.9929786" />
    <linearGradient
       id="linearGradient3688-464-309-9-2-4-2">
      <stop
         offset="0"
         style="stop-color:#181818;stop-opacity:1"
         id="stop2889-7-9-6-9" />
      <stop
         offset="1"
         style="stop-color:#181818;stop-opacity:0"
         id="stop2891-6-6-1-7" />
    </linearGradient>
    <linearGradient
       id="linearGradient3702-501-757-8-4-1-1">
      <stop
         offset="0"
         style="stop-color:#181818;stop-opacity:0"
         id="stop2895-8-9-9-1" />
      <stop
         offset="0.5"
         style="stop-color:#181818;stop-opacity:1"
         id="stop2897-7-8-7-7" />
      <stop
         offset="1"
         style="stop-color:#181818;stop-opacity:0"
         id="stop2899-4-5-1-5" />
    </linearGradient>
    <linearGradient
       gradientUnits="userSpaceOnUse"
       xlink:href="#linearGradient3702-501-757-8-4-1-1"
       id="linearGradient6394"
       y2="39.999443"
       x2="25.058096"
       y1="47.027729"
       x1="25.058096" />
    <linearGradient
       x1="167.98311"
       y1="8.50811"
       x2="167.98311"
       y2="54.780239"
       id="linearGradient5414"
       xlink:href="#linearGradient5803"
       gradientUnits="userSpaceOnUse"
       gradientTransform="matrix(0.71090703,0,0,0.71090703,-91.334988,2.139763)" />
    <linearGradient
       x1="23.99999"
       y1="4.999989"
       x2="23.99999"
       y2="43"
       id="linearGradient3058"
       xlink:href="#linearGradient3924-2-2-5-8"
       gradientUnits="userSpaceOnUse"
       gradientTransform="translate(-54.836255,10.850489)" />
    <radialGradient
       cx="7.8500957"
       cy="9.9571075"
       r="12.671875"
       fx="7.3198657"
       fy="9.9571075"
       id="radialGradient5521-1"
       xlink:href="#linearGradient2867-449-88-871-390-598-476-591-434-148-57-177-3-8"
       gradientUnits="userSpaceOnUse"
       gradientTransform="matrix(0,8.3467704,-16.443533,0,196.90203,-78.651143)" />
    <radialGradient
       cx="4.9929786"
       cy="43.5"
       r="2.5"
       fx="4.9929786"
       fy="43.5"
       id="radialGradient3013"
       xlink:href="#linearGradient3688-166-749-4-0-3-8"
       gradientUnits="userSpaceOnUse"
       gradientTransform="matrix(2.003784,0,0,1.4,27.98813,-17.4)" />
    <radialGradient
       cx="4.9929786"
       cy="43.5"
       r="2.5"
       fx="4.9929786"
       fy="43.5"
       id="radialGradient3015"
       xlink:href="#linearGradient3688-166-749-4-0-3-8"
       gradientUnits="userSpaceOnUse"
       gradientTransform="matrix(2.003784,0,0,1.4,-20.01187,-104.4)" />
    <linearGradient
       x1="25.058096"
       y1="47.027729"
       x2="25.058096"
       y2="39.999443"
       id="linearGradient6647"
       xlink:href="#linearGradient3702-501-757-8-4-1-1"
       gradientUnits="userSpaceOnUse" />
    <linearGradient
       id="linearGradient4168">
      <stop
         offset="0"
         style="stop-color:#f8b17e;stop-opacity:1"
         id="stop4170" />
      <stop
         offset="0.23208089"
         style="stop-color:#e35d4f;stop-opacity:1"
         id="stop4172" />
      <stop
         offset="0.5908742"
         style="stop-color:#c6262e;stop-opacity:1"
         id="stop4174" />
      <stop
         offset="1"
         style="stop-color:#690b54;stop-opacity:1"
         id="stop4176" />
    </linearGradient>
    <linearGradient
       id="linearGradient3957">
      <stop
         offset="0"
         style="stop-color:#ffffff;stop-opacity:1"
         id="stop3959" />
      <stop
         offset="1"
         style="stop-color:#c1c1c1;stop-opacity:1"
         id="stop3961" />
    </linearGradient>
    <linearGradient
       id="linearGradient4011">
      <stop
         offset="0"
         style="stop-color:#ffffff;stop-opacity:1"
         id="stop4013" />
      <stop
         offset="0.507761"
         style="stop-color:#ffffff;stop-opacity:0.23529412"
         id="stop4015" />
      <stop
         offset="0.83456558"
         style="stop-color:#ffffff;stop-opacity:0.15686275"
         id="stop4017" />
      <stop
         offset="1"
         style="stop-color:#ffffff;stop-opacity:0.39215687"
         id="stop4019" />
    </linearGradient>
    <linearGradient
       id="linearGradient2867-449-88-871-390-598-476-591-434-148-57-177-3-8">
      <stop
         offset="0"
         style="stop-color:#90dbec;stop-opacity:1"
         id="stop3750-8-9" />
      <stop
         offset="0.26238"
         style="stop-color:#42baea;stop-opacity:1"
         id="stop3752-3-2" />
      <stop
         offset="0.704952"
         style="stop-color:#3689e6;stop-opacity:1"
         id="stop3754-7-2" />
      <stop
         offset="1"
         style="stop-color:#2b63a0;stop-opacity:1"
         id="stop3756-9-3" />
    </linearGradient>
    <linearGradient
       id="linearGradient3820-7-2-1">
      <stop
         offset="0"
         style="stop-color:#3d3d3d;stop-opacity:1"
         id="stop3822-2-6-3" />
      <stop
         offset="0.5"
         style="stop-color:#686868;stop-opacity:0.49803922"
         id="stop3864-8-7-7" />
      <stop
         offset="1"
         style="stop-color:#686868;stop-opacity:0"
         id="stop3824-1-2-5" />
    </linearGradient>
    <linearGradient
       gradientTransform="matrix(1.054054,0,0,1.054054,-102.25507,-3.7285663)"
       gradientUnits="userSpaceOnUse"
       xlink:href="#linearGradient4011"
       id="linearGradient3012"
       y2="44.340794"
       x2="71.204407"
       y1="6.2375584"
       x1="71.204407" />
    <radialGradient
       gradientTransform="matrix(0,2.4988347,-2.6434689,-6.8014435e-8,-4.307254,-13.181133)"
       gradientUnits="userSpaceOnUse"
       xlink:href="#linearGradient2867-449-88-871-390-598-476-591-434-148-57-177-3-8"
       id="radialGradient3015-5"
       fy="8.4497671"
       fx="3.9722471"
       r="19.99999"
       cy="8.4497671"
       cx="3.9722471" />
    <radialGradient
       gradientTransform="matrix(0.27083381,0,0,0.08762273,-53.49914,24.186563)"
       gradientUnits="userSpaceOnUse"
       xlink:href="#linearGradient3820-7-2-1"
       id="radialGradient3018"
       fy="186.17059"
       fx="99.157013"
       r="62.769119"
       cy="186.17059"
       cx="99.157013" />
    <linearGradient
       gradientUnits="userSpaceOnUse"
       xlink:href="#linearGradient4168"
       id="linearGradient3951"
       y2="22.986004"
       x2="33.447899"
       y1="15.149301"
       x1="27.92535"
       gradientTransform="translate(-50.644068,-1.0006654)" />
    <linearGradient
       gradientUnits="userSpaceOnUse"
       xlink:href="#linearGradient3957"
       id="linearGradient3963"
       y2="26"
       x2="24"
       y1="22"
       x1="24"
       gradientTransform="matrix(0.75,0,0,0.75,-44.644068,4.9993337)" />
    <linearGradient
       gradientUnits="userSpaceOnUse"
       xlink:href="#linearGradient3957"
       id="linearGradient3963-7"
       y2="27.343702"
       x2="22.805599"
       y1="25.433903"
       x1="21.013996"
       gradientTransform="translate(-50.644068,-1.0006654)" />
    <radialGradient
       gradientTransform="matrix(0.27083381,0,0,0.08762273,69.882216,24.500789)"
       gradientUnits="userSpaceOnUse"
       xlink:href="#linearGradient3820-7-2-1"
       id="radialGradient3018-3"
       fy="186.17059"
       fx="99.157013"
       r="62.769119"
       cy="186.17059"
       cx="99.157013" />
    <linearGradient
       id="linearGradient8838-4">
      <stop
         offset="0"
         style="stop-color:#000000;stop-opacity:1"
         id="stop8840-4" />
      <stop
         offset="1"
         style="stop-color:#000000;stop-opacity:0"
         id="stop8842-8" />
    </linearGradient>
    <linearGradient
       gradientTransform="matrix(0.5135135,0,0,0.5135135,71.901156,22.292277)"
       gradientUnits="userSpaceOnUse"
       xlink:href="#linearGradient4011"
       id="linearGradient3741"
       y2="42.883553"
       x2="71.204407"
       y1="7.8309216"
       x1="71.204407" />
    <radialGradient
       gradientTransform="matrix(1.1294118,0,0,0.2823525,38.007874,43.007679)"
       gradientUnits="userSpaceOnUse"
       xlink:href="#linearGradient8838-4"
       id="radialGradient3748"
       fy="4.625"
       fx="62.625"
       r="10.625"
       cy="4.625"
       cx="62.625" />
    <linearGradient
       id="linearGradient4632-92-3-0-8-1-6-6">
      <stop
         offset="0"
         style="stop-color:#fafafa;stop-opacity:1"
         id="stop4634-68-8-0-2-9-1-1" />
      <stop
         offset="1"
         style="stop-color:#e1e1e1;stop-opacity:1"
         id="stop4636-8-21-7-1-4-9-4" />
    </linearGradient>
    <linearGradient
       id="linearGradient3870">
      <stop
         offset="0"
         style="stop-color:#55c1ec;stop-opacity:1"
         id="stop3874" />
      <stop
         offset="1"
         style="stop-color:#3278c6;stop-opacity:1;"
         id="stop3876" />
    </linearGradient>
    <linearGradient
       id="linearGradient4865">
      <stop
         style="stop-color:#e1e1e1;stop-opacity:1;"
         offset="0"
         id="stop4867" />
      <stop
         style="stop-color:#ffffff;stop-opacity:1"
         offset="1"
         id="stop4869" />
    </linearGradient>
    <linearGradient
       inkscape:collect="always"
       xlink:href="#linearGradient8589-8"
       id="linearGradient3395"
       gradientUnits="userSpaceOnUse"
       gradientTransform="matrix(0,1.4065103,-1.4683011,0,61.903758,1.2270008)"
       x1="32.892288"
       y1="8.0590115"
       x2="36.358372"
       y2="5.4565363" />
    <linearGradient
       id="linearGradient8589-8">
      <stop
         offset="0"
         style="stop-color:#fefefe;stop-opacity:1"
         id="stop8591-1" />
      <stop
         offset="1"
         style="stop-color:#cbcbcb;stop-opacity:1"
         id="stop8593-2" />
    </linearGradient>
  </defs>
  <metadata
     id="metadata6338">
    <rdf:RDF>
      <cc:Work
         rdf:about="">
        <dc:format>image/svg+xml</dc:format>
        <dc:type
           rdf:resource="http://purl.org/dc/dcmitype/StillImage" />
        <dc:title></dc:title>
      </cc:Work>
    </rdf:RDF>
  </metadata>
  <g
     transform="matrix(1.5789502,0,0,0.7142857,-5.894751,27.928572)"
     id="g3712-8-2-4-4"
     style="opacity:0.6">
    <rect
       width="5"
       height="7"
       x="38"
       y="40"
       id="rect2801-5-5-7-9"
       style="fill:url(#radialGradient3337-2-2);fill-opacity:1;stroke:none" />
    <rect
       width="5"
       height="7"
       x="-10"
       y="-47"
       transform="scale(-1,-1)"
       id="rect3696-3-0-3-7"
       style="fill:url(#radialGradient3339-1-4);fill-opacity:1;stroke:none" />
    <rect
       width="28"
       height="7.0000005"
       x="10"
       y="40"
       id="rect3700-5-6-8-4"
       style="fill:url(#linearGradient6394);fill-opacity:1;stroke:none" />
  </g>
  <rect
     width="55"
     height="55"
     rx="2.8205128"
     ry="2.8205128"
     x="4.4999986"
     y="4.5000019"
     id="rect5505-21"
     style="color:#000000;display:inline;overflow:visible;visibility:visible;fill:url(#radialGradient5521-1);fill-opacity:1;fill-rule:nonzero;stroke:none;stroke-width:0.99999994;marker:none;enable-background:accumulate" />
  <rect
     width="53"
     height="53.142479"
     rx="2"
     ry="2"
     x="5.4999986"
     y="5.4287739"
     id="rect6741-5-0-2-3"
     style="opacity:0.5;fill:none;stroke:url(#linearGradient3381-5-4);stroke-width:1;stroke-linecap:round;stroke-linejoin:round;stroke-miterlimit:4;stroke-dasharray:none;stroke-dashoffset:0;stroke-opacity:1" />
  <rect
     width="55"
     height="55"
     rx="3"
     ry="3"
     x="4.4999986"
     y="4.5000019"
     id="rect5505-21-3-8-9-1-1"
     style="color:#000000;display:inline;overflow:visible;visibility:visible;opacity:0.4;fill:#000000;stroke:#004264;stroke-width:1;stroke-linecap:round;stroke-linejoin:round;stroke-miterlimit:4;stroke-dasharray:none;stroke-dashoffset:0;stroke-opacity:1;marker:none;enable-background:accumulate;clip-rule:nonzero;isolation:auto;mix-blend-mode:normal;color-interpolation:sRGB;color-interpolation-filters:linearRGB;solid-color:#000000;solid-opacity:1;fill-opacity:0;fill-rule:nonzero;filter-blend-mode:normal;filter-gaussianBlur-deviation:0;color-rendering:auto;image-rendering:auto;shape-rendering:auto;text-rendering:auto" />
  <g
     id="g5007"
     transform="translate(-1.4305115e-6,0)">
    <circle
       id="path3920"
       style="opacity:0.2;fill:#ffffff;fill-opacity:1;fill-rule:nonzero;stroke:#000000;stroke-width:2;stroke-miterlimit:4;stroke-dasharray:none;stroke-opacity:1"
       cx="51"
       cy="13.070615"
       r="2" />
    <circle
       style="fill:#ffffff;fill-opacity:1;fill-rule:nonzero;stroke:none"
       id="path3897"
       cx="51"
       cy="13.070615"
       r="2" />
    <circle
       style="opacity:0.2;fill:#ffffff;fill-opacity:1;fill-rule:nonzero;stroke:#000000;stroke-width:2;stroke-miterlimit:4;stroke-dasharray:none;stroke-opacity:1"
       id="path3922"
       cx="13"
       cy="13.070615"
       r="2" />
    <circle
       id="path3899"
       style="fill:#ffffff;fill-opacity:1;fill-rule:nonzero;stroke:none"
       cx="13"
       cy="13.070615"
       r="2" />
    <g
       id="text3990"
       style="font-style:normal;font-variant:normal;font-weight:normal;font-stretch:normal;font-size:17.07653046px;line-height:125%;font-family:'Droid Sans';-inkscape-font-specification:Sans;letter-spacing:0px;word-spacing:0px;opacity:0.3;fill:#000000;fill-opacity:1;stroke:none"
       transform="matrix(1.0052662,0,0,0.99476139,1.9446021e-6,16.070611)">
      <path
         id="path3930"
         style="font-size:31.30696106px;fill:#000000"
         d="m 31.374846,10.322642 c -1.5e-5,0.743964 -0.117212,1.421669 -0.351592,2.033118 -0.234408,0.611478 -0.565618,1.141413 -0.993629,1.589806 -0.417847,0.44842 -0.922304,0.820394 -1.513373,1.115922 -0.591094,0.285362 -1.248417,0.489183 -1.971972,0.611464 l 0,0.09172 c 1.803807,0.224215 3.174505,0.80001 4.112096,1.727386 0.937563,0.917205 1.406352,2.114654 1.406367,3.592351 -1.5e-5,0.978348 -0.168168,1.875161 -0.504458,2.690442 -0.326128,0.815289 -0.82549,1.518472 -1.498087,2.109552 -0.672623,0.591082 -1.523576,1.04968 -2.552862,1.375794 -1.029308,0.326114 -2.247139,0.489171 -3.653498,0.489171 -1.110833,0 -2.160512,-0.08662 -3.14904,-0.259872 -0.978346,-0.173248 -1.900636,-0.489171 -2.766875,-0.94777 l 0,-2.598722 c 0.886621,0.468792 1.84458,0.830575 2.873881,1.085349 1.039484,0.254779 2.033112,0.382167 2.980888,0.382165 0.93757,2e-6 1.747759,-0.101909 2.430569,-0.305732 0.682792,-0.203819 1.2433,-0.494264 1.681526,-0.871336 0.448396,-0.377066 0.77451,-0.84076 0.978343,-1.391081 0.214,-0.550313 0.321006,-1.166872 0.321019,-1.849679 -1.3e-5,-0.692986 -0.137592,-1.284067 -0.412739,-1.773246 -0.264979,-0.499354 -0.647144,-0.906996 -1.146495,-1.222928 -0.499373,-0.326105 -1.110836,-0.565594 -1.834392,-0.71847 -0.713383,-0.152856 -1.523572,-0.229289 -2.43057,-0.229299 l -2.033118,0 0,-2.308277 2.033118,0 c 0.825469,1.2e-5 1.559225,-0.101898 2.201271,-0.305732 0.642028,-0.203809 1.177058,-0.494254 1.605093,-0.871337 0.438205,-0.377055 0.769415,-0.825462 0.993629,-1.345221 0.224192,-0.519728 0.336294,-1.090428 0.336306,-1.712099 C 28.51624,9.9761628 28.42452,9.5022786 28.241093,9.0844268 28.057642,8.6666118 27.79777,8.3150203 27.461476,8.0296513 27.12516,7.73413 26.722614,7.5099268 26.253834,7.3570408 25.785036,7.204195 25.265292,7.1277621 24.694601,7.1277418 23.60415,7.1277621 22.641095,7.3010101 21.805433,7.6474862 20.979952,7.983811 20.190145,8.427122 19.43601,8.9774206 L 18.029643,7.0665954 c 0.387258,-0.3159024 0.815283,-0.6114431 1.284074,-0.886623 0.478977,-0.2751373 0.998721,-0.5146271 1.559234,-0.7184703 0.560504,-0.2139902 1.15668,-0.3821426 1.788532,-0.5044578 0.642031,-0.1222702 1.319736,-0.1834166 2.033118,-0.1834392 1.100626,2.26e-5 2.063681,0.1376019 2.889168,0.4127382 0.835656,0.2751808 1.533743,0.662441 2.094264,1.1617818 0.560495,0.4891918 0.983424,1.0751777 1.268788,1.7579592 0.285336,0.6726292 0.42801,1.4114809 0.428025,2.2165577"
         inkscape:connector-curvature="0" />
      <path
         id="path3932"
         style="font-size:31.30696106px;fill:#000000"
         d="m 44.796484,27.443636 -2.690442,0 0,-13.956668 c -8e-6,-0.438201 -8e-6,-0.90699 0,-1.406367 0.01018,-0.499347 0.02037,-0.993613 0.03057,-1.482801 0.02037,-0.499345 0.03566,-0.9732287 0.04586,-1.4216535 0.02037,-0.4585794 0.03566,-0.8611262 0.04586,-1.2076416 -0.173257,0.1834585 -0.326123,0.3414199 -0.458599,0.4738847 -0.132491,0.1325027 -0.27007,0.2598909 -0.412738,0.382165 -0.132491,0.1223113 -0.275166,0.2547951 -0.428025,0.3974517 -0.152873,0.1325019 -0.336312,0.2904633 -0.550317,0.4738846 l -2.262417,1.8496791 -1.467514,-1.8802523 5.854768,-4.570694 2.292991,0 0,22.3490123"
         inkscape:connector-curvature="0" />
    </g>
    <g
       id="text3955"
       style="font-style:normal;font-variant:normal;font-weight:normal;font-stretch:normal;font-size:17.07653046px;line-height:125%;font-family:'Droid Sans';-inkscape-font-specification:Sans;letter-spacing:0px;word-spacing:0px;fill:#ffffff;fill-opacity:1;stroke:none"
       transform="matrix(1.0052662,0,0,0.99476142,1.9446021e-6,16.070611)">
      <path
         id="path3157"
         style="font-size:31.30696106px;fill:#ffffff;fill-opacity:1"
         d="m 31.374846,11.343321 c -1.5e-5,0.743964 -0.117212,1.42167 -0.351592,2.033118 -0.234408,0.611479 -0.565618,1.141414 -0.993629,1.589807 -0.417847,0.44842 -0.922304,0.820393 -1.513373,1.115922 -0.591094,0.285362 -1.248417,0.489183 -1.971972,0.611464 l 0,0.09172 c 1.803807,0.224215 3.174505,0.80001 4.112096,1.727386 0.937563,0.917206 1.406352,2.114655 1.406367,3.592352 -1.5e-5,0.978348 -0.168168,1.875161 -0.504458,2.690442 -0.326128,0.815288 -0.82549,1.518471 -1.498087,2.109551 -0.672623,0.591083 -1.523576,1.049681 -2.552862,1.375794 -1.029308,0.326114 -2.247139,0.489171 -3.653498,0.489171 -1.110833,0 -2.160512,-0.08662 -3.14904,-0.259872 -0.978346,-0.173248 -1.900636,-0.489171 -2.766875,-0.947769 l 0,-2.598722 c 0.886621,0.468792 1.84458,0.830574 2.873881,1.085348 1.039484,0.254779 2.033112,0.382167 2.980888,0.382165 0.93757,2e-6 1.747759,-0.101908 2.430569,-0.305732 0.682792,-0.203819 1.2433,-0.494264 1.681526,-0.871336 0.448396,-0.377066 0.77451,-0.840759 0.978343,-1.391081 0.214,-0.550312 0.321006,-1.166871 0.321019,-1.849679 -1.3e-5,-0.692985 -0.137592,-1.284067 -0.412739,-1.773246 -0.264979,-0.499353 -0.647144,-0.906995 -1.146495,-1.222928 -0.499373,-0.326104 -1.110836,-0.565594 -1.834392,-0.71847 -0.713383,-0.152856 -1.523572,-0.229289 -2.43057,-0.229299 l -2.033118,0 0,-2.308277 2.033118,0 c 0.825469,1.3e-5 1.559225,-0.101898 2.201271,-0.305732 0.642028,-0.203808 1.177058,-0.494253 1.605093,-0.871336 0.438205,-0.377056 0.769415,-0.825462 0.993629,-1.345221 0.224192,-0.519729 0.336294,-1.090428 0.336306,-1.7121 -1.2e-5,-0.529918 -0.09173,-1.003802 -0.275159,-1.421654 C 28.057642,9.6872913 27.79777,9.3356998 27.461476,9.0503308 27.12516,8.7548095 26.722614,8.5306062 26.253834,8.3777203 25.785036,8.2248745 25.265292,8.1484416 24.694601,8.1484213 23.60415,8.1484416 22.641095,8.3216895 21.805433,8.6681657 20.979952,9.0044904 20.190145,9.4478014 19.43601,9.9981001 L 18.029643,8.0872748 c 0.387258,-0.3159024 0.815283,-0.6114431 1.284074,-0.8866229 0.478977,-0.2751373 0.998721,-0.5146271 1.559234,-0.7184703 0.560504,-0.2139902 1.15668,-0.3821427 1.788532,-0.5044578 0.642031,-0.1222703 1.319736,-0.1834166 2.033118,-0.1834393 1.100626,2.27e-5 2.063681,0.137602 2.889168,0.4127383 0.835656,0.2751808 1.533743,0.662441 2.094264,1.1617817 0.560495,0.4891919 0.983424,1.0751777 1.268788,1.7579593 0.285336,0.6726291 0.42801,1.4114812 0.428025,2.2165572"
         inkscape:connector-curvature="0" />
      <path
         id="path3159"
         style="font-size:31.30696106px;fill:#ffffff;fill-opacity:1"
         d="m 44.796484,28.464315 -2.690442,0 0,-13.956667 c -8e-6,-0.438202 -8e-6,-0.90699 0,-1.406368 0.01018,-0.499346 0.02037,-0.993612 0.03057,-1.4828 0.02037,-0.499345 0.03566,-0.973229 0.04586,-1.421654 0.02037,-0.4585794 0.03566,-0.8611262 0.04586,-1.2076416 -0.173257,0.1834585 -0.326123,0.3414199 -0.458599,0.4738846 -0.132491,0.1325028 -0.27007,0.259891 -0.412738,0.3821651 -0.132491,0.1223113 -0.275166,0.2547949 -0.428025,0.3974519 -0.152873,0.132502 -0.336312,0.290463 -0.550317,0.473884 l -2.262417,1.849679 -1.467514,-1.880252 5.854768,-4.5706938 2.292991,0 0,22.3490118"
         inkscape:connector-curvature="0" />
    </g>
  </g>
  <path
     style="opacity:0.1;fill:#000000;fill-opacity:1;stroke:none"
     d="m 46.109241,58.787304 12.698066,-15.507105 0,14.097375 -1.410892,1.40973 z"
     id="path3477"
     inkscape:connector-curvature="0" />
  <path
     style="display:inline;fill:url(#linearGradient3395);fill-opacity:1;fill-rule:evenodd;stroke:none"
     id="path4474"
     d="m 59.043792,41.339384 c 0,4.492175 -10.810119,3.292852 -10.810119,3.292852 0,0 1.384167,14.344437 -5.135715,14.344437 1.588581,0 2.726199,0.121114 3.221907,-0.1886 3.561359,-2.225025 11.552991,-11.835614 12.600422,-15.306121 0.07842,-0.259707 0.123582,-0.835573 0.123582,-2.142568 z"
     inkscape:connector-curvature="0" />
</svg>
