<?xml version="1.0" encoding="UTF-8" standalone="no"?>
<!-- Created with Inkscape (http://www.inkscape.org/) -->

<svg
   xmlns:dc="http://purl.org/dc/elements/1.1/"
   xmlns:cc="http://creativecommons.org/ns#"
   xmlns:rdf="http://www.w3.org/1999/02/22-rdf-syntax-ns#"
   xmlns:svg="http://www.w3.org/2000/svg"
   xmlns="http://www.w3.org/2000/svg"
   xmlns:xlink="http://www.w3.org/1999/xlink"
   xmlns:sodipodi="http://sodipodi.sourceforge.net/DTD/sodipodi-0.dtd"
   xmlns:inkscape="http://www.inkscape.org/namespaces/inkscape"
   width="96"
   height="96"
   id="svg2"
   version="1.1"
   inkscape:version="0.91 r13725"
   sodipodi:docname="folder-download.svg">
  <defs
     id="defs4">
    <linearGradient
       id="linearGradient4473"
       inkscape:collect="always">
      <stop
         id="stop4475"
         offset="0"
         style="stop-color:#6ec07a;stop-opacity:1" />
      <stop
         style="stop-color:#81c986;stop-opacity:1"
         offset="0.32745385"
         id="stop4477" />
      <stop
         id="stop4479"
         offset="1"
         style="stop-color:#97d297;stop-opacity:1" />
    </linearGradient>
    <linearGradient
       inkscape:collect="always"
       id="linearGradient4465">
      <stop
         style="stop-color:#509953;stop-opacity:0.95294118"
         offset="0"
         id="stop4467" />
      <stop
         id="stop4469"
         offset="0.75095326"
         style="stop-color:#b4ddb6;stop-opacity:1" />
      <stop
         style="stop-color:#bee4c0;stop-opacity:1"
         offset="1"
         id="stop4471" />
    </linearGradient>
    <linearGradient
       id="linearGradient4455">
      <stop
         offset="0"
         style="stop-color:#75c477;stop-opacity:0.99607843"
         id="stop4457" />
      <stop
         id="stop4459"
         style="stop-color:#7fc888;stop-opacity:1"
         offset="0.16937648" />
      <stop
         offset="0.78501636"
         style="stop-color:#afdbab;stop-opacity:1"
         id="stop4461" />
      <stop
         offset="1"
         style="stop-color:#afdcae;stop-opacity:1"
         id="stop4463" />
    </linearGradient>
    <linearGradient
       id="linearGradient3240">
      <stop
         id="stop3242"
         style="stop-color:#23df28;stop-opacity:1"
         offset="0" />
      <stop
         offset="0.16937648"
         style="stop-color:#33e036;stop-opacity:1"
         id="stop3244" />
      <stop
         id="stop3246"
         style="stop-color:#77fb69;stop-opacity:1"
         offset="1" />
    </linearGradient>
    <linearGradient
       inkscape:collect="always"
       id="linearGradient3176">
      <stop
         style="stop-color:#6288c0;stop-opacity:1"
         offset="0"
         id="stop3178" />
      <stop
         style="stop-color:#90abd3;stop-opacity:1"
         offset="1"
         id="stop3180" />
    </linearGradient>
    <linearGradient
       inkscape:collect="always"
       id="linearGradient3048">
      <stop
         style="stop-color:#c16d16;stop-opacity:1"
         offset="0"
         id="stop3050" />
      <stop
         style="stop-color:#ff8e31;stop-opacity:1"
         offset="1"
         id="stop3052" />
    </linearGradient>
    <linearGradient
       inkscape:collect="always"
       id="linearGradient3119">
      <stop
         style="stop-color:#92948f;stop-opacity:0"
         offset="0"
         id="stop3121" />
      <stop
         id="stop3123"
         offset="0.4283945"
         style="stop-color:#9b9e98;stop-opacity:1" />
      <stop
         style="stop-color:#939690;stop-opacity:0"
         offset="1"
         id="stop3125" />
    </linearGradient>
    <linearGradient
       id="linearGradient3073"
       inkscape:collect="always">
      <stop
         id="stop3075"
         offset="0"
         style="stop-color:#ffffff;stop-opacity:0" />
      <stop
         style="stop-color:#ffffff;stop-opacity:1"
         offset="0.45872402"
         id="stop3085" />
      <stop
         id="stop3083"
         offset="1"
         style="stop-color:#ffffff;stop-opacity:0" />
    </linearGradient>
    <linearGradient
       inkscape:collect="always"
       id="linearGradient3061">
      <stop
         style="stop-color:#8fabd3;stop-opacity:1"
         offset="0"
         id="stop3063" />
      <stop
         style="stop-color:#cad7ea;stop-opacity:1"
         offset="1"
         id="stop3065" />
    </linearGradient>
    <linearGradient
       inkscape:collect="always"
       id="linearGradient3047">
      <stop
         style="stop-color:#000000;stop-opacity:1"
         offset="0"
         id="stop3049" />
      <stop
         id="stop3055"
         offset="0.06123874"
         style="stop-color:#1a1a1a;stop-opacity:1" />
      <stop
         style="stop-color:#333333;stop-opacity:1"
         offset="0.16480456"
         id="stop3057" />
      <stop
         id="stop3059"
         offset="0.55385184"
         style="stop-color:#4d4d4d;stop-opacity:1" />
      <stop
         style="stop-color:#999999;stop-opacity:1"
         offset="1"
         id="stop3051" />
    </linearGradient>
    <linearGradient
       id="linearGradient3041"
       inkscape:collect="always">
      <stop
         id="stop3043"
         offset="0"
         style="stop-color:#1a1a1a;stop-opacity:1" />
      <stop
         id="stop3045"
         offset="1"
         style="stop-color:#808080;stop-opacity:1" />
    </linearGradient>
    <linearGradient
       inkscape:collect="always"
       id="linearGradient3029">
      <stop
         style="stop-color:#333333;stop-opacity:1"
         offset="0"
         id="stop3031" />
      <stop
         style="stop-color:#e0e0dd;stop-opacity:0;"
         offset="1"
         id="stop3033" />
    </linearGradient>
    <linearGradient
       inkscape:collect="always"
       xlink:href="#linearGradient3029"
       id="linearGradient3035"
       x1="35.355339"
       y1="1030.3622"
       x2="35.355339"
       y2="975.33282"
       gradientUnits="userSpaceOnUse"
       gradientTransform="matrix(1.1638085,0,0,1.1638085,-7.862809,-164.23642)" />
    <linearGradient
       inkscape:collect="always"
       xlink:href="#linearGradient3041"
       id="linearGradient3039"
       gradientUnits="userSpaceOnUse"
       x1="35.355339"
       y1="1030.3622"
       x2="35.355339"
       y2="975.33282"
       gradientTransform="matrix(1.1218695,0,0,1.1218695,-5.8497348,-122.18782)" />
    <linearGradient
       inkscape:collect="always"
       xlink:href="#linearGradient3047"
       id="linearGradient3053"
       x1="40"
       y1="1043.4336"
       x2="39.285713"
       y2="972.33325"
       gradientUnits="userSpaceOnUse" />
    <linearGradient
       inkscape:collect="always"
       xlink:href="#linearGradient3061"
       id="linearGradient3067"
       x1="17.67767"
       y1="1046.1118"
       x2="17.67767"
       y2="962.21893"
       gradientUnits="userSpaceOnUse"
       gradientTransform="translate(0,-956.36218)" />
    <linearGradient
       inkscape:collect="always"
       xlink:href="#linearGradient3073"
       id="linearGradient3113"
       gradientUnits="userSpaceOnUse"
       gradientTransform="translate(0,-956.36218)"
       x1="14.869445"
       y1="978.90387"
       x2="24.52651"
       y2="969.24683" />
    <linearGradient
       inkscape:collect="always"
       xlink:href="#linearGradient3073"
       id="linearGradient3115"
       gradientUnits="userSpaceOnUse"
       gradientTransform="matrix(-1,0,0,1,96,-956.36218)"
       x1="15.152279"
       y1="978.62103"
       x2="26.263966"
       y2="967.50934" />
    <linearGradient
       inkscape:collect="always"
       xlink:href="#linearGradient3119"
       id="linearGradient3117"
       gradientUnits="userSpaceOnUse"
       gradientTransform="translate(0,-956.36218)"
       x1="13.131983"
       y1="980.64136"
       x2="25.549681"
       y2="967.86646" />
    <linearGradient
       inkscape:collect="always"
       xlink:href="#linearGradient3119"
       id="linearGradient3129"
       gradientUnits="userSpaceOnUse"
       gradientTransform="matrix(-1,0,0,1,96,0)"
       x1="13.131983"
       y1="980.64136"
       x2="25.549681"
       y2="967.86646" />
    <linearGradient
       inkscape:collect="always"
       xlink:href="#linearGradient4075"
       id="linearGradient3992"
       gradientUnits="userSpaceOnUse"
       x1="29.673231"
       y1="1042.892"
       x2="29.673231"
       y2="965.32623"
       gradientTransform="translate(0,-956.36218)" />
    <linearGradient
       inkscape:collect="always"
       xlink:href="#linearGradient3048"
       id="linearGradient3054"
       x1="49.267925"
       y1="996.57349"
       x2="49.267925"
       y2="1045.8627"
       gradientUnits="userSpaceOnUse" />
    <linearGradient
       x1="90"
       y1="88"
       x2="48"
       y2="88"
       id="linearGradient4086"
       xlink:href="#linearGradient3892"
       gradientUnits="userSpaceOnUse"
       gradientTransform="translate(0,10)"
       spreadMethod="reflect" />
    <linearGradient
       id="linearGradient3892">
      <stop
         id="stop3894"
         style="stop-color:#000000;stop-opacity:0.58823532"
         offset="0" />
      <stop
         id="stop3896"
         style="stop-color:#000000;stop-opacity:0.47058824"
         offset="0.11780351" />
      <stop
         id="stop3898"
         style="stop-color:#000000;stop-opacity:0.39215687"
         offset="0.23809524" />
      <stop
         id="stop3900"
         style="stop-color:#000000;stop-opacity:0.3137255"
         offset="1" />
    </linearGradient>
    <linearGradient
       x1="48"
       y1="78"
       x2="48"
       y2="5.9877172"
       id="linearGradient3706"
       xlink:href="#linearGradient4075"
       gradientUnits="userSpaceOnUse"
       gradientTransform="translate(0,8)" />
    <linearGradient
       id="linearGradient4075">
      <stop
         id="stop4077"
         style="stop-color:#6e92c6;stop-opacity:1"
         offset="0" />
      <stop
         id="stop4079"
         style="stop-color:#afc2df;stop-opacity:1"
         offset="1" />
    </linearGradient>
    <linearGradient
       x1="48"
       y1="75.08329"
       x2="48"
       y2="-40"
       id="linearGradient3094"
       xlink:href="#linearGradient4384"
       gradientUnits="userSpaceOnUse"
       gradientTransform="matrix(1,0,0,-1,0,92)" />
    <linearGradient
       id="linearGradient4384">
      <stop
         id="stop4386"
         style="stop-color:#ffffff;stop-opacity:1"
         offset="0" />
      <stop
         id="stop4388"
         style="stop-color:#ffffff;stop-opacity:0"
         offset="1" />
    </linearGradient>
    <linearGradient
       x1="48.035713"
       y1="25.910715"
       x2="48.035713"
       y2="85.821426"
       id="linearGradient3361"
       xlink:href="#linearGradient3317"
       gradientUnits="userSpaceOnUse" />
    <linearGradient
       x1="11.794092"
       y1="3.2126782"
       x2="11.794092"
       y2="20.137329"
       id="linearGradient3317"
       gradientUnits="userSpaceOnUse"
       gradientTransform="scale(1.0598527,0.9435274)">
      <stop
         id="stop3319"
         style="stop-color:#c6953a;stop-opacity:1"
         offset="0" />
      <stop
         id="stop3321"
         style="stop-color:#ab7a1f;stop-opacity:1"
         offset="1" />
    </linearGradient>
    <linearGradient
       x1="34.85965"
       y1="16.275133"
       x2="34.85965"
       y2="26.986736"
       id="linearGradient3105"
       xlink:href="#linearGradient4008"
       gradientUnits="userSpaceOnUse"
       gradientTransform="matrix(0.72,0,0,0.72,1.92,-5.52)" />
    <linearGradient
       id="linearGradient4008">
      <stop
         id="stop4010"
         style="stop-color:#99b2d7;stop-opacity:1"
         offset="0" />
      <stop
         id="stop3895"
         style="stop-color:#7e9dcc;stop-opacity:1"
         offset="0.75" />
      <stop
         id="stop4014"
         style="stop-color:#5880bc;stop-opacity:1"
         offset="1" />
    </linearGradient>
    <linearGradient
       x1="45"
       y1="92"
       x2="45"
       y2="7"
       id="linearGradient3986"
       xlink:href="#ButtonShadow"
       gradientUnits="userSpaceOnUse" />
    <linearGradient
       x1="45.447727"
       y1="80.471962"
       x2="45.447727"
       y2="7.0165396"
       id="ButtonShadow"
       gradientUnits="userSpaceOnUse"
       gradientTransform="matrix(1.0058652,0,0,0.994169,0,12)">
      <stop
         id="stop3750"
         style="stop-color:#000000;stop-opacity:1"
         offset="0" />
      <stop
         id="stop3752"
         style="stop-color:#000000;stop-opacity:0.58823532"
         offset="1" />
    </linearGradient>
    <linearGradient
       x1="45"
       y1="92"
       x2="45"
       y2="7"
       id="linearGradient3977"
       xlink:href="#ButtonShadow"
       gradientUnits="userSpaceOnUse" />
    <linearGradient
       x1="45.447727"
       y1="80.471962"
       x2="45.447727"
       y2="7.0165396"
       id="linearGradient3091"
       gradientUnits="userSpaceOnUse"
       gradientTransform="matrix(1.0058652,0,0,0.994169,0,12)">
      <stop
         id="stop3093"
         style="stop-color:#000000;stop-opacity:1"
         offset="0" />
      <stop
         id="stop3095"
         style="stop-color:#000000;stop-opacity:0.58823532"
         offset="1" />
    </linearGradient>
    <linearGradient
       x1="45"
       y1="92"
       x2="45"
       y2="7"
       id="linearGradient3969"
       xlink:href="#ButtonShadow"
       gradientUnits="userSpaceOnUse" />
    <linearGradient
       x1="45.447727"
       y1="80.471962"
       x2="45.447727"
       y2="7.0165396"
       id="linearGradient3098"
       gradientUnits="userSpaceOnUse"
       gradientTransform="matrix(1.0058652,0,0,0.994169,0,12)">
      <stop
         id="stop3100"
         style="stop-color:#000000;stop-opacity:1"
         offset="0" />
      <stop
         id="stop3102"
         style="stop-color:#000000;stop-opacity:0.58823532"
         offset="1" />
    </linearGradient>
    <linearGradient
       x1="45"
       y1="92"
       x2="45"
       y2="7"
       id="linearGradient3961"
       xlink:href="#ButtonShadow"
       gradientUnits="userSpaceOnUse" />
    <linearGradient
       x1="45.447727"
       y1="80.471962"
       x2="45.447727"
       y2="7.0165396"
       id="linearGradient3106"
       gradientUnits="userSpaceOnUse"
       gradientTransform="matrix(1.0058652,0,0,0.994169,0,12)">
      <stop
         id="stop3108"
         style="stop-color:#000000;stop-opacity:1"
         offset="0" />
      <stop
         id="stop3110"
         style="stop-color:#000000;stop-opacity:0.58823532"
         offset="1" />
    </linearGradient>
    <linearGradient
       x1="43"
       y1="91"
       x2="43"
       y2="7"
       id="linearGradient3952"
       xlink:href="#ButtonShadow"
       gradientUnits="userSpaceOnUse" />
    <linearGradient
       x1="45.447727"
       y1="80.471962"
       x2="45.447727"
       y2="7.0165396"
       id="linearGradient3113-4"
       gradientUnits="userSpaceOnUse"
       gradientTransform="matrix(1.0058652,0,0,0.994169,0,12)">
      <stop
         id="stop3115"
         style="stop-color:#000000;stop-opacity:1"
         offset="0" />
      <stop
         id="stop3117"
         style="stop-color:#000000;stop-opacity:0.58823532"
         offset="1" />
    </linearGradient>
    <linearGradient
       y2="7"
       x2="43"
       y1="91"
       x1="43"
       gradientUnits="userSpaceOnUse"
       id="linearGradient3139"
       xlink:href="#ButtonShadow"
       inkscape:collect="always" />
    <linearGradient
       inkscape:collect="always"
       xlink:href="#linearGradient4384"
       id="linearGradient3169"
       gradientUnits="userSpaceOnUse"
       gradientTransform="matrix(1,0,0,-1,112.10719,1049.644)"
       x1="48"
       y1="75.08329"
       x2="48"
       y2="-40" />
    <linearGradient
       inkscape:collect="always"
       xlink:href="#linearGradient4075"
       id="linearGradient3172"
       gradientUnits="userSpaceOnUse"
       gradientTransform="translate(112.10719,965.64399)"
       x1="48"
       y1="78"
       x2="48"
       y2="5.9877172" />
    <linearGradient
       inkscape:collect="always"
       xlink:href="#linearGradient3176"
       id="linearGradient3182"
       x1="75.713211"
       y1="980.17303"
       x2="77.886795"
       y2="965.05652"
       gradientUnits="userSpaceOnUse" />
    <linearGradient
       inkscape:collect="always"
       xlink:href="#linearGradient4075"
       id="linearGradient3196"
       gradientUnits="userSpaceOnUse"
       gradientTransform="translate(0,-2)"
       x1="29.673231"
       y1="1042.892"
       x2="29.673231"
       y2="965.32623" />
    <linearGradient
       inkscape:collect="always"
       xlink:href="#linearGradient4075"
       id="linearGradient3198"
       gradientUnits="userSpaceOnUse"
       gradientTransform="translate(0,-956.36218)"
       x1="29.673231"
       y1="1042.892"
       x2="29.673231"
       y2="965.32623" />
    <linearGradient
       inkscape:collect="always"
       xlink:href="#linearGradient4075"
       id="linearGradient3203"
       gradientUnits="userSpaceOnUse"
       gradientTransform="translate(0,-1)"
       x1="29.673231"
       y1="1042.892"
       x2="29.673231"
       y2="965.32623" />
    <linearGradient
       inkscape:collect="always"
       xlink:href="#linearGradient3101"
       id="linearGradient3083"
       gradientUnits="userSpaceOnUse"
       x1="29.673231"
       y1="1044.7706"
       x2="29.673231"
       y2="965.32623" />
    <linearGradient
       id="linearGradient3101">
      <stop
         offset="0"
         style="stop-color:#aec2d4;stop-opacity:1"
         id="stop3103" />
      <stop
         id="stop3137"
         style="stop-color:#c2d5e5;stop-opacity:1"
         offset="0.07155552" />
      <stop
         offset="1"
         style="stop-color:#98bbd8;stop-opacity:0.96078432"
         id="stop3105" />
    </linearGradient>
    <linearGradient
       inkscape:collect="always"
       xlink:href="#linearGradient3114"
       id="linearGradient3086"
       gradientUnits="userSpaceOnUse"
       x1="17.67767"
       y1="1046.1118"
       x2="17.67767"
       y2="962.21893" />
    <linearGradient
       id="linearGradient3114"
       inkscape:collect="always">
      <stop
         id="stop3116"
         offset="0"
         style="stop-color:#98aec1;stop-opacity:1" />
      <stop
         id="stop3118"
         offset="1"
         style="stop-color:#dde9f5;stop-opacity:1" />
    </linearGradient>
    <linearGradient
       inkscape:collect="always"
       xlink:href="#linearGradient3120"
       id="linearGradient3091-2"
       gradientUnits="userSpaceOnUse"
       x1="75.713211"
       y1="980.17303"
       x2="77.886795"
       y2="965.05652"
       gradientTransform="matrix(1,0,0,1.0010727,0,-1.1213134)" />
    <linearGradient
       id="linearGradient3120"
       inkscape:collect="always">
      <stop
         id="stop3122"
         offset="0"
         style="stop-color:#7895b1;stop-opacity:0.80000001" />
      <stop
         id="stop3124"
         offset="1"
         style="stop-color:#a1bad1;stop-opacity:0.80000001" />
    </linearGradient>
    <linearGradient
       inkscape:collect="always"
       xlink:href="#linearGradient3101"
       id="linearGradient3102"
       gradientUnits="userSpaceOnUse"
       x1="29.673231"
       y1="1044.7706"
       x2="29.673231"
       y2="965.32623" />
    <linearGradient
       inkscape:collect="always"
       xlink:href="#linearGradient3114"
       id="linearGradient3107"
       gradientUnits="userSpaceOnUse"
       x1="17.67767"
       y1="1046.1118"
       x2="17.67767"
       y2="962.21893" />
    <linearGradient
       inkscape:collect="always"
       xlink:href="#linearGradient3120"
       id="linearGradient3116"
       gradientUnits="userSpaceOnUse"
       gradientTransform="matrix(1,0,0,1.0000142,-7.7685547e-6,-0.01484566)"
       x1="75.713211"
       y1="980.17303"
       x2="77.886795"
       y2="965.05652" />
    <linearGradient
       inkscape:collect="always"
       xlink:href="#linearGradient3120"
       id="linearGradient3272"
       x1="72.20755"
       y1="976.46783"
       x2="74.147171"
       y2="964.87537"
       gradientUnits="userSpaceOnUse" />
    <linearGradient
       inkscape:collect="always"
       xlink:href="#linearGradient3120"
       id="linearGradient3276"
       gradientUnits="userSpaceOnUse"
       x1="72.20755"
       y1="976.46783"
       x2="74.147171"
       y2="964.87537" />
    <linearGradient
       id="linearGradient3101-95-8">
      <stop
         offset="0"
         style="stop-color:#aec2d4;stop-opacity:1"
         id="stop3103-1-5" />
      <stop
         id="stop3137-6-4"
         style="stop-color:#c2d5e5;stop-opacity:1"
         offset="0.07155552" />
      <stop
         offset="1"
         style="stop-color:#98bbd8;stop-opacity:0.96078432"
         id="stop3105-7-1" />
    </linearGradient>
    <linearGradient
       inkscape:collect="always"
       xlink:href="#linearGradient4455"
       id="linearGradient3215"
       gradientUnits="userSpaceOnUse"
       x1="29.673231"
       y1="1044.5526"
       x2="29.673231"
       y2="965.32623" />
    <linearGradient
       inkscape:collect="always"
       xlink:href="#linearGradient4465"
       id="linearGradient3218"
       gradientUnits="userSpaceOnUse"
       x1="17.67767"
       y1="1046.1118"
       x2="17.67767"
       y2="962.21893" />
    <linearGradient
       inkscape:collect="always"
       xlink:href="#linearGradient4473"
       id="linearGradient3224"
       gradientUnits="userSpaceOnUse"
       gradientTransform="matrix(1,0,0,1.0000142,-7.8e-6,-0.01484962)"
       x1="75.713211"
       y1="976.2356"
       x2="75.713211"
       y2="969.29907" />
    <linearGradient
       inkscape:collect="always"
       id="linearGradient4332">
      <stop
         style="stop-color:#731800;stop-opacity:1"
         offset="0"
         id="stop4334" />
      <stop
         style="stop-color:#390008;stop-opacity:1"
         offset="1"
         id="stop4336" />
    </linearGradient>
    <linearGradient
       id="linearGradient4314"
       inkscape:collect="always">
      <stop
         id="stop4316"
         offset="0"
         style="stop-color:#634d52;stop-opacity:1" />
      <stop
         style="stop-color:#4a2839;stop-opacity:1"
         offset="0.21750407"
         id="stop4318" />
      <stop
         style="stop-color:#633839;stop-opacity:1"
         offset="0.47722748"
         id="stop4320" />
      <stop
         style="stop-color:#844d4a;stop-opacity:1"
         offset="0.81679243"
         id="stop4322" />
      <stop
         id="stop4324"
         offset="1"
         style="stop-color:#844d4a;stop-opacity:1" />
    </linearGradient>
    <linearGradient
       inkscape:collect="always"
       id="linearGradient4295">
      <stop
         style="stop-color:#fffbef;stop-opacity:1"
         offset="0"
         id="stop4297" />
      <stop
         id="stop4305"
         offset="0.15653789"
         style="stop-color:#fff3cf;stop-opacity:1;" />
      <stop
         id="stop4299"
         offset="0.48936182"
         style="stop-color:#ffcd2d;stop-opacity:1" />
      <stop
         id="stop4301"
         offset="0.81679243"
         style="stop-color:#f79e29;stop-opacity:1" />
      <stop
         style="stop-color:#ff8a01;stop-opacity:1"
         offset="1"
         id="stop4303" />
    </linearGradient>
    <linearGradient
       inkscape:collect="always"
       id="linearGradient3436">
      <stop
         style="stop-color:#6c3a23;stop-opacity:1"
         offset="0"
         id="stop3438" />
      <stop
         style="stop-color:#6c3922;stop-opacity:1"
         offset="1"
         id="stop3440" />
    </linearGradient>
    <linearGradient
       inkscape:collect="always"
       id="linearGradient3426">
      <stop
         style="stop-color:#ad7531;stop-opacity:1"
         offset="0"
         id="stop3428" />
      <stop
         id="stop3430"
         offset="0.96762669"
         style="stop-color:#b5864a;stop-opacity:1" />
      <stop
         style="stop-color:#bd8e6b;stop-opacity:1"
         offset="1"
         id="stop3434" />
    </linearGradient>
    <linearGradient
       id="linearGradient3374"
       inkscape:collect="always">
      <stop
         id="stop3376"
         offset="0"
         style="stop-color:#eeca93;stop-opacity:1" />
      <stop
         style="stop-color:#de9642;stop-opacity:1"
         offset="0.18839115"
         id="stop3384" />
      <stop
         id="stop3419"
         offset="0.84121668"
         style="stop-color:#efb673;stop-opacity:1" />
      <stop
         id="stop3382"
         offset="1"
         style="stop-color:#efc39c;stop-opacity:1" />
    </linearGradient>
    <linearGradient
       inkscape:collect="always"
       id="linearGradient3404">
      <stop
         style="stop-color:#efaa5a;stop-opacity:1"
         offset="0"
         id="stop3406" />
      <stop
         id="stop3414"
         offset="0.24540888"
         style="stop-color:#d68e39;stop-opacity:1" />
      <stop
         id="stop3412"
         offset="0.62982047"
         style="stop-color:#de9a42;stop-opacity:1" />
      <stop
         style="stop-color:#efbe9c;stop-opacity:1"
         offset="1"
         id="stop3408" />
    </linearGradient>
    <linearGradient
       inkscape:collect="always"
       xlink:href="#linearGradient3404"
       id="linearGradient3795"
       gradientUnits="userSpaceOnUse"
       gradientTransform="translate(110.5,0)"
       x1="53.796227"
       y1="1044.8951"
       x2="53.796227"
       y2="962.97437" />
    <linearGradient
       inkscape:collect="always"
       xlink:href="#linearGradient3374"
       id="linearGradient3797"
       gradientUnits="userSpaceOnUse"
       gradientTransform="translate(110.5,0)"
       x1="44.370949"
       y1="1044.2305"
       x2="44.370949"
       y2="964.27063" />
    <linearGradient
       inkscape:collect="always"
       xlink:href="#linearGradient3426"
       id="linearGradient3799"
       gradientUnits="userSpaceOnUse"
       gradientTransform="matrix(0.9285714,0,0,0.9285714,113.92857,71.74018)"
       x1="53.796227"
       y1="1044.8951"
       x2="53.796227"
       y2="962.97437" />
    <linearGradient
       inkscape:collect="always"
       xlink:href="#linearGradient3436"
       id="linearGradient3801"
       gradientUnits="userSpaceOnUse"
       gradientTransform="translate(110.5,0)"
       x1="12.551146"
       y1="1038.3176"
       x2="12.551146"
       y2="968.83313" />
    <radialGradient
       inkscape:collect="always"
       xlink:href="#linearGradient4295"
       id="radialGradient3803"
       gradientUnits="userSpaceOnUse"
       gradientTransform="matrix(0.66277974,-0.6627818,0.69172758,0.69172905,-574.48185,331.40532)"
       cx="54.708103"
       cy="1016.3925"
       fx="54.708103"
       fy="1016.3925"
       r="41" />
    <linearGradient
       inkscape:collect="always"
       xlink:href="#linearGradient4314"
       id="linearGradient3805"
       gradientUnits="userSpaceOnUse"
       gradientTransform="translate(110.5,0)"
       x1="49.5"
       y1="1034.1122"
       x2="49.25"
       y2="1013.5125" />
    <radialGradient
       inkscape:collect="always"
       xlink:href="#linearGradient4332"
       id="radialGradient3807"
       gradientUnits="userSpaceOnUse"
       gradientTransform="matrix(0.47529064,0.47529064,-0.48392392,0.48392554,175.96889,955.60438)"
       cx="46.676998"
       cy="67.158691"
       fx="46.676998"
       fy="67.158691"
       r="30.5" />
    <linearGradient
       gradientTransform="matrix(-1,0,0,-1,-21.53201,2078.5576)"
       y2="1028.1566"
       x2="48.870052"
       y1="978.07318"
       x1="48.870052"
       gradientUnits="userSpaceOnUse"
       id="linearGradient3123"
       xlink:href="#linearGradient3875"
       inkscape:collect="always" />
    <linearGradient
       id="linearGradient3875"
       inkscape:collect="always">
      <stop
         id="stop3877"
         offset="0"
         style="stop-color:#cbffa5;stop-opacity:1" />
      <stop
         id="stop3879"
         offset="1"
         style="stop-color:#f2ffef;stop-opacity:1" />
    </linearGradient>
    <linearGradient
       inkscape:collect="always"
       xlink:href="#linearGradient3533"
       id="linearGradient3521"
       gradientUnits="userSpaceOnUse"
       x1="22.54203"
       y1="1043.3966"
       x2="22.54203"
       y2="964.45898"
       gradientTransform="translate(-122.5,70.49999)" />
    <linearGradient
       id="linearGradient3533"
       inkscape:collect="always">
      <stop
         id="stop3535"
         offset="0"
         style="stop-color:#397908;stop-opacity:1" />
      <stop
         id="stop3537"
         offset="1"
         style="stop-color:#6bae10;stop-opacity:1" />
    </linearGradient>
    <linearGradient
       inkscape:collect="always"
       xlink:href="#linearGradient3539"
       id="linearGradient3524"
       gradientUnits="userSpaceOnUse"
       x1="53.796227"
       y1="1046.0226"
       x2="53.796227"
       y2="962.97437"
       gradientTransform="translate(-122.5,70.5)" />
    <linearGradient
       inkscape:collect="always"
       id="linearGradient3539">
      <stop
         style="stop-color:#397110;stop-opacity:1"
         offset="0"
         id="stop3541" />
      <stop
         style="stop-color:#7ab531;stop-opacity:1"
         offset="1"
         id="stop3543" />
    </linearGradient>
    <linearGradient
       id="linearGradient3240-5">
      <stop
         id="stop3242-4"
         style="stop-color:#7599c4;stop-opacity:0.99607843"
         offset="0" />
      <stop
         offset="0.16937648"
         style="stop-color:#7fa9c8;stop-opacity:1"
         id="stop3244-5" />
      <stop
         id="stop3167-1"
         style="stop-color:#abc6db;stop-opacity:1"
         offset="0.78501636" />
      <stop
         id="stop3246-54"
         style="stop-color:#aec8dc;stop-opacity:1"
         offset="1" />
    </linearGradient>
  </defs>
  <sodipodi:namedview
     id="base"
     pagecolor="#ffffff"
     bordercolor="#666666"
     borderopacity="1.0"
     inkscape:pageopacity="0.0"
     inkscape:pageshadow="2"
     inkscape:zoom="1.0000001"
     inkscape:cx="-184.25294"
     inkscape:cy="82.778481"
     inkscape:document-units="px"
     inkscape:current-layer="layer1"
     showgrid="false"
     inkscape:window-width="1366"
     inkscape:window-height="713"
     inkscape:window-x="0"
     inkscape:window-y="29"
     inkscape:window-maximized="1"
     showguides="true"
     inkscape:guide-bbox="true" />
  <metadata
     id="metadata7">
    <rdf:RDF>
      <cc:Work
         rdf:about="">
        <dc:format>image/svg+xml</dc:format>
        <dc:type
           rdf:resource="http://purl.org/dc/dcmitype/StillImage" />
        <dc:title />
      </cc:Work>
    </rdf:RDF>
  </metadata>
  <g
     inkscape:label="Layer 1"
     inkscape:groupmode="layer"
     id="layer1"
     transform="translate(0,-956.36218)">
    <rect
       style="opacity:0.05;fill:#000000;fill-opacity:1;stroke:none"
       id="rect3826-3"
       width="89"
       height="89"
       x="3.5"
       y="960.86218"
       rx="10.595235"
       ry="10.595235" />
    <g
       id="g3041-3">
      <rect
         style="opacity:0.05;fill:#000000;fill-opacity:1;stroke:none"
         id="rect3824-7"
         width="88"
         height="88"
         x="4"
         y="961.36218"
         rx="10.476188"
         ry="10.476188" />
      <rect
         ry="10.357141"
         rx="10.357141"
         y="961.86218"
         x="4.5"
         height="87"
         width="87"
         id="rect3822-5"
         style="opacity:0.05;fill:#000000;fill-opacity:1;stroke:none" />
      <rect
         style="opacity:0.1;fill:#000000;fill-opacity:1;stroke:none"
         id="rect3820-9"
         width="86"
         height="86"
         x="5"
         y="962.36218"
         rx="10.238094"
         ry="10.238094" />
      <rect
         ry="10.119047"
         rx="10.119047"
         y="962.86218"
         x="5.5"
         height="85"
         width="85"
         id="rect3818-8"
         style="opacity:0.1;fill:#000000;fill-opacity:1;stroke:none" />
      <rect
         style="opacity:0.3;fill:#000000;fill-opacity:1;stroke:none"
         id="rect3131-9"
         width="84"
         height="84"
         x="6"
         y="963.36218"
         rx="10"
         ry="10" />
    </g>
    <rect
       ry="10"
       rx="10"
       y="962.36218"
       x="6"
       height="84"
       width="84"
       id="rect3036-3"
       style="opacity:0.69999999999999996;fill:#adfbb0;fill-opacity:1;stroke:none" />
    <rect
       style="fill:url(#linearGradient3224);fill-opacity:1;stroke:none"
       id="rect3034-5"
       width="82"
       height="82"
       x="7"
       y="963.36218"
       rx="9.7619047"
       ry="9.762044" />
    <path
       style="opacity:0.03;fill:#000000;fill-opacity:1;stroke:none"
       d="m 16,962.36218 c -3.758224,0 -7.0097577,2.04397 -8.71875,5.09375 -0.00877,0.0208 -0.022613,0.0416 -0.03125,0.0625 -0.011347,0.0206 -0.020044,0.0418 -0.03125,0.0625 C 6.7468374,968.74451 6.5,970.02534 6.5,971.36218 l 0,64.00002 c 0,5.54 4.46,10 10,10 l 64,0 c 3.758224,0 7.009758,-2.044 8.71875,-5.0938 0.01755,-0.042 0.0455,-0.083 0.0625,-0.125 C 89.753163,1038.9799 90,1037.699 90,1036.3622 l 0,-58.89814 c 0,-0.96494 -1.03855,-2.19563 -2.377354,-2.19563 l -39.747646,0 -6.548508,-11.31604 c -0.662685,-1.14781 -2.034917,-1.57024 -3.452543,-1.59021 z"
       id="path3828-4"
       inkscape:connector-curvature="0"
       sodipodi:nodetypes="scccssssccscccccs" />
    <path
       inkscape:connector-curvature="0"
       style="opacity:0.2;fill:#ffffff;fill-opacity:1;stroke:none"
       d="m 16.75,963.36218 c -5.408095,0 -9.75,4.3419 -9.75,9.75 l 0,1 c 0,-5.4081 4.341905,-9.75 9.75,-9.75 l 62.5,0 c 5.408095,0 9.75,4.3419 9.75,9.75 l 0,-1 c 0,-5.4081 -4.341905,-9.75 -9.75,-9.75 l -62.5,0 z"
       id="rect3126-1" />
    <path
       id="path3837-1"
       d="m 15.75,962.86216 c -3.758224,0 -7.0097577,2.04397 -8.71875,5.09375 -0.00877,0.0208 -0.022613,0.0416 -0.03125,0.0625 -0.011347,0.0206 -0.020044,0.0418 -0.03125,0.0625 C 6.4968374,969.24449 6.25,970.52532 6.25,971.86216 l 0,64.00004 c 0,5.54 4.46,10 10,10 l 64,0 c 3.758224,0 7.009758,-2.044 8.71875,-5.0938 0.01755,-0.042 0.0455,-0.083 0.0625,-0.125 0.471913,-1.1635 0.71875,-2.4444 0.71875,-3.7812 l 0,-58.42455 c 0,-1.79197 -1.171338,-2.66924 -2.240562,-2.66924 l -39.884438,0 -6.368419,-11.00484 c -0.908856,-1.57419 -2.410265,-1.90141 -3.716957,-1.90141 z"
       style="opacity:0.03;fill:#000000;fill-opacity:1;stroke:none"
       inkscape:connector-curvature="0"
       sodipodi:nodetypes="scccssssccscccccs" />
    <path
       style="fill:url(#linearGradient3218);fill-opacity:1;stroke:none"
       d="m 16,962.36218 c -5.54,0 -10,4.46 -10,10 l 0,11.71875 0,52.28127 c 0,5.54 4.46,10 10,10 l 64,0 c 5.54,0 10,-4.46 10,-10 l 0,-57.68752 c 0,-1.24897 -0.965552,-2.40625 -2.46875,-2.40625 l -39.25,0 c -0.861394,0.094 -1.116154,-0.35591 -1.34375,-0.75 l -0.1875,-0.34375 -1.96875,-3.40625 -3.506358,-6.0475 c -0.99194,-1.71809 -2.986415,-3.35875 -6.228912,-3.35875 l -0.82723,0 z"
       id="rect2985-8"
       inkscape:connector-curvature="0"
       sodipodi:nodetypes="sscsssssscccccccs" />
    <path
       style="fill:url(#linearGradient3215);fill-opacity:1;stroke:none"
       d="m 16.75,963.36218 c -5.408095,0 -9.75,4.3419 -9.75,9.75 l 0,10.96875 0,51.53127 c 0,5.4081 4.341905,9.75 9.75,9.75 l 62.5,0 c 5.408095,0 9.75,-4.3419 9.75,-9.75 l 0,-56.25002 c 0,-1.20195 -0.924024,-2.09375 -2.0625,-2.09375 l -38.90625,0 c -0.864689,0 -1.854193,-0.63531 -2.28125,-1.375 l -1,-1.71875 -4.1875,-7.25 -0.342904,-0.6183 c -1.49949,-2.55523 -3.790144,-2.94415 -6.121482,-2.94415 l -0.941864,0 z"
       id="rect3021-9"
       inkscape:connector-curvature="0"
       sodipodi:nodetypes="sscsssssssccccccs" />
    <g
       id="g4384"
       transform="matrix(1.0576923,0,0,1.0576923,-2.7692304,-59.40551)">
      <path
         id="path4401"
         transform="translate(0,956.36218)"
         d="M 48,29 A 25.999999,25.999999 0 0 0 22,55 25.999999,25.999999 0 0 0 48,81 25.999999,25.999999 0 0 0 74,55 25.999999,25.999999 0 0 0 48,29 Z m 0,2.888672 A 23.11111,23.11111 0 0 0 46.041016,31.986328 23.11111,23.11111 0 0 1 48,31.888672 Z m 1.958984,0.09766 a 23.11111,23.11111 0 0 1 1.160157,0.140625 23.11111,23.11111 0 0 0 -1.160157,-0.140625 z m -5.078125,0.140625 a 23.11111,23.11111 0 0 0 -1.144531,0.173828 23.11111,23.11111 0 0 1 1.144531,-0.173828 z m 7.382813,0.173828 a 23.11111,23.11111 0 0 1 1.097656,0.246094 23.11111,23.11111 0 0 0 -1.097656,-0.246094 z m -9.625,0.246094 a 23.11111,23.11111 0 0 0 -1.15625,0.294922 23.11111,23.11111 0 0 1 1.15625,-0.294922 z m 11.878906,0.294922 a 23.11111,23.11111 0 0 1 1.052734,0.349609 23.11111,23.11111 0 0 0 -1.052734,-0.349609 z m -14.08789,0.349609 a 23.11111,23.11111 0 0 0 -1.119141,0.408203 23.11111,23.11111 0 0 1 1.119141,-0.408203 z m 16.259765,0.408203 a 23.11111,23.11111 0 0 1 1.03125,0.460938 23.11111,23.11111 0 0 0 -1.03125,-0.460938 z m -18.410156,0.460938 a 23.11111,23.11111 0 0 0 -1.064453,0.515625 23.11111,23.11111 0 0 1 1.064453,-0.515625 z m 20.505859,0.515625 a 23.11111,23.11111 0 0 1 0.978516,0.5625 23.11111,23.11111 0 0 0 -0.978516,-0.5625 z m -22.548828,0.5625 A 23.11111,23.11111 0 0 0 35.238281,35.75 23.11111,23.11111 0 0 1 36.236328,35.138672 Z M 60.761719,35.75 a 23.11111,23.11111 0 0 1 0.9375,0.669922 23.11111,23.11111 0 0 0 -0.9375,-0.669922 z m -26.460938,0.669922 a 23.11111,23.11111 0 0 0 -0.917969,0.697266 23.11111,23.11111 0 0 1 0.917969,-0.697266 z m 28.316407,0.697266 a 23.11111,23.11111 0 0 1 0.875,0.769531 23.11111,23.11111 0 0 0 -0.875,-0.769531 z m -30.109376,0.769531 a 23.11111,23.11111 0 0 0 -0.839843,0.78125 23.11111,23.11111 0 0 1 0.839843,-0.78125 z m 31.824219,0.78125 a 23.11111,23.11111 0 0 1 0.78125,0.839843 23.11111,23.11111 0 0 0 -0.78125,-0.839843 z m -33.445312,0.839843 a 23.11111,23.11111 0 0 0 -0.769531,0.875 23.11111,23.11111 0 0 1 0.769531,-0.875 z m 34.996093,0.875 a 23.11111,23.11111 0 0 1 0.697266,0.917969 23.11111,23.11111 0 0 0 -0.697266,-0.917969 z m -23.660156,0.171876 11.554688,0 0,14.445312 8.667968,0 L 48,73.054688 33.554688,55 l 8.667968,0 0,-14.445312 z m -12.802734,0.746093 a 23.11111,23.11111 0 0 0 -0.669922,0.9375 23.11111,23.11111 0 0 1 0.669922,-0.9375 z M 67.25,42.238281 A 23.11111,23.11111 0 0 1 67.861328,43.236328 23.11111,23.11111 0 0 0 67.25,42.238281 Z m -39.111328,0.998047 a 23.11111,23.11111 0 0 0 -0.5625,0.978516 23.11111,23.11111 0 0 1 0.5625,-0.978516 z m 40.285156,0.978516 a 23.11111,23.11111 0 0 1 0.515625,1.064453 23.11111,23.11111 0 0 0 -0.515625,-1.064453 z m -41.363281,1.064453 a 23.11111,23.11111 0 0 0 -0.460938,1.03125 23.11111,23.11111 0 0 1 0.460938,-1.03125 z m 42.339844,1.03125 a 23.11111,23.11111 0 0 1 0.408203,1.119141 23.11111,23.11111 0 0 0 -0.408203,-1.119141 z m -43.208985,1.119141 a 23.11111,23.11111 0 0 0 -0.349609,1.052734 23.11111,23.11111 0 0 1 0.349609,-1.052734 z m 43.966797,1.052734 a 23.11111,23.11111 0 0 1 0.294922,1.15625 23.11111,23.11111 0 0 0 -0.294922,-1.15625 z m -44.611328,1.15625 a 23.11111,23.11111 0 0 0 -0.246094,1.097656 23.11111,23.11111 0 0 1 0.246094,-1.097656 z m 45.152344,1.097656 a 23.11111,23.11111 0 0 1 0.173828,1.144531 23.11111,23.11111 0 0 0 -0.173828,-1.144531 z m -45.572266,1.144531 a 23.11111,23.11111 0 0 0 -0.140625,1.160157 23.11111,23.11111 0 0 1 0.140625,-1.160157 z m 45.886719,1.160157 A 23.11111,23.11111 0 0 1 71.111328,55 23.11111,23.11111 0 0 0 71.013672,53.041016 Z M 24.888672,55 a 23.11111,23.11111 0 0 0 0.09766,1.958984 A 23.11111,23.11111 0 0 1 24.888672,55 Z m 46.125,1.958984 a 23.11111,23.11111 0 0 1 -0.140625,1.160157 23.11111,23.11111 0 0 0 0.140625,-1.160157 z m -45.886719,1.160157 a 23.11111,23.11111 0 0 0 0.173828,1.144531 23.11111,23.11111 0 0 1 -0.173828,-1.144531 z m 45.572266,1.144531 a 23.11111,23.11111 0 0 1 -0.246094,1.097656 23.11111,23.11111 0 0 0 0.246094,-1.097656 z m -45.152344,1.097656 a 23.11111,23.11111 0 0 0 0.294922,1.15625 23.11111,23.11111 0 0 1 -0.294922,-1.15625 z m 44.611328,1.15625 a 23.11111,23.11111 0 0 1 -0.349609,1.052734 23.11111,23.11111 0 0 0 0.349609,-1.052734 z m -43.966797,1.052734 a 23.11111,23.11111 0 0 0 0.408203,1.119141 23.11111,23.11111 0 0 1 -0.408203,-1.119141 z m 43.208985,1.119141 a 23.11111,23.11111 0 0 1 -0.460938,1.03125 23.11111,23.11111 0 0 0 0.460938,-1.03125 z m -42.339844,1.03125 a 23.11111,23.11111 0 0 0 0.515625,1.064453 23.11111,23.11111 0 0 1 -0.515625,-1.064453 z m 41.363281,1.064453 a 23.11111,23.11111 0 0 1 -0.5625,0.978516 23.11111,23.11111 0 0 0 0.5625,-0.978516 z M 28.138672,66.763672 A 23.11111,23.11111 0 0 0 28.75,67.761719 23.11111,23.11111 0 0 1 28.138672,66.763672 Z M 67.25,67.761719 a 23.11111,23.11111 0 0 1 -0.669922,0.9375 23.11111,23.11111 0 0 0 0.669922,-0.9375 z m -37.830078,0.9375 a 23.11111,23.11111 0 0 0 0.697266,0.917969 23.11111,23.11111 0 0 1 -0.697266,-0.917969 z m 36.46289,0.917969 a 23.11111,23.11111 0 0 1 -0.769531,0.875 23.11111,23.11111 0 0 0 0.769531,-0.875 z m -34.996093,0.875 a 23.11111,23.11111 0 0 0 0.78125,0.839843 23.11111,23.11111 0 0 1 -0.78125,-0.839843 z m 33.445312,0.839843 a 23.11111,23.11111 0 0 1 -0.839843,0.78125 23.11111,23.11111 0 0 0 0.839843,-0.78125 z m -31.824219,0.78125 a 23.11111,23.11111 0 0 0 0.875,0.769531 23.11111,23.11111 0 0 1 -0.875,-0.769531 z m 30.109376,0.769531 a 23.11111,23.11111 0 0 1 -0.917969,0.697266 23.11111,23.11111 0 0 0 0.917969,-0.697266 z m -28.316407,0.697266 a 23.11111,23.11111 0 0 0 0.9375,0.669922 23.11111,23.11111 0 0 1 -0.9375,-0.669922 z M 60.761719,74.25 A 23.11111,23.11111 0 0 1 59.763672,74.861328 23.11111,23.11111 0 0 0 60.761719,74.25 Z m -24.525391,0.611328 a 23.11111,23.11111 0 0 0 0.978516,0.5625 23.11111,23.11111 0 0 1 -0.978516,-0.5625 z m 22.548828,0.5625 a 23.11111,23.11111 0 0 1 -1.064453,0.515625 23.11111,23.11111 0 0 0 1.064453,-0.515625 z m -20.505859,0.515625 a 23.11111,23.11111 0 0 0 1.03125,0.460938 23.11111,23.11111 0 0 1 -1.03125,-0.460938 z m 18.410156,0.460938 a 23.11111,23.11111 0 0 1 -1.119141,0.408203 23.11111,23.11111 0 0 0 1.119141,-0.408203 z m -16.259765,0.408203 a 23.11111,23.11111 0 0 0 1.052734,0.349609 23.11111,23.11111 0 0 1 -1.052734,-0.349609 z m 14.08789,0.349609 a 23.11111,23.11111 0 0 1 -1.15625,0.294922 23.11111,23.11111 0 0 0 1.15625,-0.294922 z m -11.878906,0.294922 a 23.11111,23.11111 0 0 0 1.097656,0.246094 23.11111,23.11111 0 0 1 -1.097656,-0.246094 z m 9.625,0.246094 a 23.11111,23.11111 0 0 1 -1.144531,0.173828 23.11111,23.11111 0 0 0 1.144531,-0.173828 z m -7.382813,0.173828 a 23.11111,23.11111 0 0 0 1.160157,0.140625 23.11111,23.11111 0 0 1 -1.160157,-0.140625 z m 5.078125,0.140625 A 23.11111,23.11111 0 0 1 48,78.111328 a 23.11111,23.11111 0 0 0 1.958984,-0.09766 z"
         style="opacity:0.1;fill:#000000;fill-opacity:1;stroke:none"
         inkscape:connector-curvature="0" />
      <path
         id="path4374"
         transform="translate(0,956.36218)"
         d="M 48,29 A 25.999999,25.999999 0 0 0 22,55 25.999999,25.999999 0 0 0 22.021484,55.410156 25.999999,25.999999 0 0 1 48,30 25.999999,25.999999 0 0 1 73.978516,55.589844 25.999999,25.999999 0 0 0 74,55 25.999999,25.999999 0 0 0 48,29 Z M 33.554688,56 48,74.054688 62.445312,56 61.644531,56 48,73.054688 34.355469,56 33.554688,56 Z"
         style="opacity:0.1;fill:#000000;fill-opacity:1;stroke:none"
         inkscape:connector-curvature="0" />
      <path
         id="path4379"
         transform="translate(0,956.36218)"
         d="m 42.222656,40.554688 0,1 11.554688,0 0,-1 -11.554688,0 z M 33.554688,55 l 0.800781,1 7.867187,0 0,-1 -8.667968,0 z m 20.222656,0 0,1 7.867187,0 0.800781,-1 -8.667968,0 z m -31.75586,0.410156 A 25.999999,25.999999 0 0 0 22,56 25.999999,25.999999 0 0 0 48,82 25.999999,25.999999 0 0 0 74,56 25.999999,25.999999 0 0 0 73.978516,55.589844 25.999999,25.999999 0 0 1 48,81 25.999999,25.999999 0 0 1 22.021484,55.410156 Z"
         style="opacity:0.2;fill:#ffffff;fill-opacity:1;stroke:none"
         inkscape:connector-curvature="0" />
    </g>
  </g>
</svg>
