<?xml version="1.0" encoding="UTF-8" standalone="no"?>
<!-- Created with Inkscape (http://www.inkscape.org/) -->

<svg
   xmlns:dc="http://purl.org/dc/elements/1.1/"
   xmlns:cc="http://creativecommons.org/ns#"
   xmlns:rdf="http://www.w3.org/1999/02/22-rdf-syntax-ns#"
   xmlns:svg="http://www.w3.org/2000/svg"
   xmlns="http://www.w3.org/2000/svg"
   xmlns:xlink="http://www.w3.org/1999/xlink"
   xmlns:sodipodi="http://sodipodi.sourceforge.net/DTD/sodipodi-0.dtd"
   xmlns:inkscape="http://www.inkscape.org/namespaces/inkscape"
   width="96"
   height="96"
   id="svg2"
   version="1.1"
   inkscape:version="0.91 r13725"
   sodipodi:docname="folder-pictures.svg">
  <defs
     id="defs4">
    <linearGradient
       id="linearGradient3240">
      <stop
         id="stop3242"
         style="stop-color:#6dc5ed;stop-opacity:1"
         offset="0" />
      <stop
         offset="0.16937648"
         style="stop-color:#7cd4fc;stop-opacity:1"
         id="stop3244" />
      <stop
         id="stop3246"
         style="stop-color:#6cc9f5;stop-opacity:1"
         offset="1" />
    </linearGradient>
    <linearGradient
       inkscape:collect="always"
       id="linearGradient3234">
      <stop
         style="stop-color:#94ddff;stop-opacity:1"
         offset="0"
         id="stop3236" />
      <stop
         style="stop-color:#9cdffc;stop-opacity:1"
         offset="1"
         id="stop3238" />
    </linearGradient>
    <linearGradient
       inkscape:collect="always"
       id="linearGradient3176">
      <stop
         style="stop-color:#6288c0;stop-opacity:1"
         offset="0"
         id="stop3178" />
      <stop
         style="stop-color:#90abd3;stop-opacity:1"
         offset="1"
         id="stop3180" />
    </linearGradient>
    <linearGradient
       inkscape:collect="always"
       id="linearGradient3048">
      <stop
         style="stop-color:#c16d16;stop-opacity:1"
         offset="0"
         id="stop3050" />
      <stop
         style="stop-color:#ff8e31;stop-opacity:1"
         offset="1"
         id="stop3052" />
    </linearGradient>
    <linearGradient
       inkscape:collect="always"
       id="linearGradient3119">
      <stop
         style="stop-color:#92948f;stop-opacity:0"
         offset="0"
         id="stop3121" />
      <stop
         id="stop3123"
         offset="0.4283945"
         style="stop-color:#9b9e98;stop-opacity:1" />
      <stop
         style="stop-color:#939690;stop-opacity:0"
         offset="1"
         id="stop3125" />
    </linearGradient>
    <linearGradient
       id="linearGradient3073"
       inkscape:collect="always">
      <stop
         id="stop3075"
         offset="0"
         style="stop-color:#ffffff;stop-opacity:0" />
      <stop
         style="stop-color:#ffffff;stop-opacity:1"
         offset="0.45872402"
         id="stop3085" />
      <stop
         id="stop3083"
         offset="1"
         style="stop-color:#ffffff;stop-opacity:0" />
    </linearGradient>
    <linearGradient
       inkscape:collect="always"
       id="linearGradient3061">
      <stop
         style="stop-color:#8fabd3;stop-opacity:1"
         offset="0"
         id="stop3063" />
      <stop
         style="stop-color:#cad7ea;stop-opacity:1"
         offset="1"
         id="stop3065" />
    </linearGradient>
    <linearGradient
       inkscape:collect="always"
       id="linearGradient3047">
      <stop
         style="stop-color:#000000;stop-opacity:1"
         offset="0"
         id="stop3049" />
      <stop
         id="stop3055"
         offset="0.06123874"
         style="stop-color:#1a1a1a;stop-opacity:1" />
      <stop
         style="stop-color:#333333;stop-opacity:1"
         offset="0.16480456"
         id="stop3057" />
      <stop
         id="stop3059"
         offset="0.55385184"
         style="stop-color:#4d4d4d;stop-opacity:1" />
      <stop
         style="stop-color:#999999;stop-opacity:1"
         offset="1"
         id="stop3051" />
    </linearGradient>
    <linearGradient
       id="linearGradient3041"
       inkscape:collect="always">
      <stop
         id="stop3043"
         offset="0"
         style="stop-color:#1a1a1a;stop-opacity:1" />
      <stop
         id="stop3045"
         offset="1"
         style="stop-color:#808080;stop-opacity:1" />
    </linearGradient>
    <linearGradient
       inkscape:collect="always"
       id="linearGradient3029">
      <stop
         style="stop-color:#333333;stop-opacity:1"
         offset="0"
         id="stop3031" />
      <stop
         style="stop-color:#e0e0dd;stop-opacity:0;"
         offset="1"
         id="stop3033" />
    </linearGradient>
    <linearGradient
       inkscape:collect="always"
       xlink:href="#linearGradient3029"
       id="linearGradient3035"
       x1="35.355339"
       y1="1030.3622"
       x2="35.355339"
       y2="975.33282"
       gradientUnits="userSpaceOnUse"
       gradientTransform="matrix(1.1638085,0,0,1.1638085,-7.862809,-164.23642)" />
    <linearGradient
       inkscape:collect="always"
       xlink:href="#linearGradient3041"
       id="linearGradient3039"
       gradientUnits="userSpaceOnUse"
       x1="35.355339"
       y1="1030.3622"
       x2="35.355339"
       y2="975.33282"
       gradientTransform="matrix(1.1218695,0,0,1.1218695,-5.8497348,-122.18782)" />
    <linearGradient
       inkscape:collect="always"
       xlink:href="#linearGradient3047"
       id="linearGradient3053"
       x1="40"
       y1="1043.4336"
       x2="39.285713"
       y2="972.33325"
       gradientUnits="userSpaceOnUse" />
    <linearGradient
       inkscape:collect="always"
       xlink:href="#linearGradient3061"
       id="linearGradient3067"
       x1="17.67767"
       y1="1046.1118"
       x2="17.67767"
       y2="962.21893"
       gradientUnits="userSpaceOnUse"
       gradientTransform="translate(0,-956.36218)" />
    <linearGradient
       inkscape:collect="always"
       xlink:href="#linearGradient3073"
       id="linearGradient3113"
       gradientUnits="userSpaceOnUse"
       gradientTransform="translate(0,-956.36218)"
       x1="14.869445"
       y1="978.90387"
       x2="24.52651"
       y2="969.24683" />
    <linearGradient
       inkscape:collect="always"
       xlink:href="#linearGradient3073"
       id="linearGradient3115"
       gradientUnits="userSpaceOnUse"
       gradientTransform="matrix(-1,0,0,1,96,-956.36218)"
       x1="15.152279"
       y1="978.62103"
       x2="26.263966"
       y2="967.50934" />
    <linearGradient
       inkscape:collect="always"
       xlink:href="#linearGradient3119"
       id="linearGradient3117"
       gradientUnits="userSpaceOnUse"
       gradientTransform="translate(0,-956.36218)"
       x1="13.131983"
       y1="980.64136"
       x2="25.549681"
       y2="967.86646" />
    <linearGradient
       inkscape:collect="always"
       xlink:href="#linearGradient3119"
       id="linearGradient3129"
       gradientUnits="userSpaceOnUse"
       gradientTransform="matrix(-1,0,0,1,96,0)"
       x1="13.131983"
       y1="980.64136"
       x2="25.549681"
       y2="967.86646" />
    <linearGradient
       inkscape:collect="always"
       xlink:href="#linearGradient4075"
       id="linearGradient3992"
       gradientUnits="userSpaceOnUse"
       x1="29.673231"
       y1="1042.892"
       x2="29.673231"
       y2="965.32623"
       gradientTransform="translate(0,-956.36218)" />
    <linearGradient
       inkscape:collect="always"
       xlink:href="#linearGradient3048"
       id="linearGradient3054"
       x1="49.267925"
       y1="996.57349"
       x2="49.267925"
       y2="1045.8627"
       gradientUnits="userSpaceOnUse" />
    <linearGradient
       x1="90"
       y1="88"
       x2="48"
       y2="88"
       id="linearGradient4086"
       xlink:href="#linearGradient3892"
       gradientUnits="userSpaceOnUse"
       gradientTransform="translate(0,10)"
       spreadMethod="reflect" />
    <linearGradient
       id="linearGradient3892">
      <stop
         id="stop3894"
         style="stop-color:#000000;stop-opacity:0.58823532"
         offset="0" />
      <stop
         id="stop3896"
         style="stop-color:#000000;stop-opacity:0.47058824"
         offset="0.11780351" />
      <stop
         id="stop3898"
         style="stop-color:#000000;stop-opacity:0.39215687"
         offset="0.23809524" />
      <stop
         id="stop3900"
         style="stop-color:#000000;stop-opacity:0.3137255"
         offset="1" />
    </linearGradient>
    <linearGradient
       x1="48"
       y1="78"
       x2="48"
       y2="5.9877172"
       id="linearGradient3706"
       xlink:href="#linearGradient4075"
       gradientUnits="userSpaceOnUse"
       gradientTransform="translate(0,8)" />
    <linearGradient
       id="linearGradient4075">
      <stop
         id="stop4077"
         style="stop-color:#6e92c6;stop-opacity:1"
         offset="0" />
      <stop
         id="stop4079"
         style="stop-color:#afc2df;stop-opacity:1"
         offset="1" />
    </linearGradient>
    <linearGradient
       x1="48"
       y1="75.08329"
       x2="48"
       y2="-40"
       id="linearGradient3094"
       xlink:href="#linearGradient4384"
       gradientUnits="userSpaceOnUse"
       gradientTransform="matrix(1,0,0,-1,0,92)" />
    <linearGradient
       id="linearGradient4384">
      <stop
         id="stop4386"
         style="stop-color:#ffffff;stop-opacity:1"
         offset="0" />
      <stop
         id="stop4388"
         style="stop-color:#ffffff;stop-opacity:0"
         offset="1" />
    </linearGradient>
    <linearGradient
       x1="48.035713"
       y1="25.910715"
       x2="48.035713"
       y2="85.821426"
       id="linearGradient3361"
       xlink:href="#linearGradient3317"
       gradientUnits="userSpaceOnUse" />
    <linearGradient
       x1="11.794092"
       y1="3.2126782"
       x2="11.794092"
       y2="20.137329"
       id="linearGradient3317"
       gradientUnits="userSpaceOnUse"
       gradientTransform="scale(1.0598527,0.9435274)">
      <stop
         id="stop3319"
         style="stop-color:#c6953a;stop-opacity:1"
         offset="0" />
      <stop
         id="stop3321"
         style="stop-color:#ab7a1f;stop-opacity:1"
         offset="1" />
    </linearGradient>
    <linearGradient
       x1="34.85965"
       y1="16.275133"
       x2="34.85965"
       y2="26.986736"
       id="linearGradient3105"
       xlink:href="#linearGradient4008"
       gradientUnits="userSpaceOnUse"
       gradientTransform="matrix(0.72,0,0,0.72,1.92,-5.52)" />
    <linearGradient
       id="linearGradient4008">
      <stop
         id="stop4010"
         style="stop-color:#99b2d7;stop-opacity:1"
         offset="0" />
      <stop
         id="stop3895"
         style="stop-color:#7e9dcc;stop-opacity:1"
         offset="0.75" />
      <stop
         id="stop4014"
         style="stop-color:#5880bc;stop-opacity:1"
         offset="1" />
    </linearGradient>
    <linearGradient
       x1="45"
       y1="92"
       x2="45"
       y2="7"
       id="linearGradient3986"
       xlink:href="#ButtonShadow"
       gradientUnits="userSpaceOnUse" />
    <linearGradient
       x1="45.447727"
       y1="80.471962"
       x2="45.447727"
       y2="7.0165396"
       id="ButtonShadow"
       gradientUnits="userSpaceOnUse"
       gradientTransform="matrix(1.0058652,0,0,0.994169,0,12)">
      <stop
         id="stop3750"
         style="stop-color:#000000;stop-opacity:1"
         offset="0" />
      <stop
         id="stop3752"
         style="stop-color:#000000;stop-opacity:0.58823532"
         offset="1" />
    </linearGradient>
    <linearGradient
       x1="45"
       y1="92"
       x2="45"
       y2="7"
       id="linearGradient3977"
       xlink:href="#ButtonShadow"
       gradientUnits="userSpaceOnUse" />
    <linearGradient
       x1="45.447727"
       y1="80.471962"
       x2="45.447727"
       y2="7.0165396"
       id="linearGradient3091"
       gradientUnits="userSpaceOnUse"
       gradientTransform="matrix(1.0058652,0,0,0.994169,0,12)">
      <stop
         id="stop3093"
         style="stop-color:#000000;stop-opacity:1"
         offset="0" />
      <stop
         id="stop3095"
         style="stop-color:#000000;stop-opacity:0.58823532"
         offset="1" />
    </linearGradient>
    <linearGradient
       x1="45"
       y1="92"
       x2="45"
       y2="7"
       id="linearGradient3969"
       xlink:href="#ButtonShadow"
       gradientUnits="userSpaceOnUse" />
    <linearGradient
       x1="45.447727"
       y1="80.471962"
       x2="45.447727"
       y2="7.0165396"
       id="linearGradient3098"
       gradientUnits="userSpaceOnUse"
       gradientTransform="matrix(1.0058652,0,0,0.994169,0,12)">
      <stop
         id="stop3100"
         style="stop-color:#000000;stop-opacity:1"
         offset="0" />
      <stop
         id="stop3102"
         style="stop-color:#000000;stop-opacity:0.58823532"
         offset="1" />
    </linearGradient>
    <linearGradient
       x1="45"
       y1="92"
       x2="45"
       y2="7"
       id="linearGradient3961"
       xlink:href="#ButtonShadow"
       gradientUnits="userSpaceOnUse" />
    <linearGradient
       x1="45.447727"
       y1="80.471962"
       x2="45.447727"
       y2="7.0165396"
       id="linearGradient3106"
       gradientUnits="userSpaceOnUse"
       gradientTransform="matrix(1.0058652,0,0,0.994169,0,12)">
      <stop
         id="stop3108"
         style="stop-color:#000000;stop-opacity:1"
         offset="0" />
      <stop
         id="stop3110"
         style="stop-color:#000000;stop-opacity:0.58823532"
         offset="1" />
    </linearGradient>
    <linearGradient
       x1="43"
       y1="91"
       x2="43"
       y2="7"
       id="linearGradient3952"
       xlink:href="#ButtonShadow"
       gradientUnits="userSpaceOnUse" />
    <linearGradient
       x1="45.447727"
       y1="80.471962"
       x2="45.447727"
       y2="7.0165396"
       id="linearGradient3113-4"
       gradientUnits="userSpaceOnUse"
       gradientTransform="matrix(1.0058652,0,0,0.994169,0,12)">
      <stop
         id="stop3115"
         style="stop-color:#000000;stop-opacity:1"
         offset="0" />
      <stop
         id="stop3117"
         style="stop-color:#000000;stop-opacity:0.58823532"
         offset="1" />
    </linearGradient>
    <linearGradient
       y2="7"
       x2="43"
       y1="91"
       x1="43"
       gradientUnits="userSpaceOnUse"
       id="linearGradient3139"
       xlink:href="#ButtonShadow"
       inkscape:collect="always" />
    <linearGradient
       inkscape:collect="always"
       xlink:href="#linearGradient4384"
       id="linearGradient3169"
       gradientUnits="userSpaceOnUse"
       gradientTransform="matrix(1,0,0,-1,112.10719,1049.644)"
       x1="48"
       y1="75.08329"
       x2="48"
       y2="-40" />
    <linearGradient
       inkscape:collect="always"
       xlink:href="#linearGradient4075"
       id="linearGradient3172"
       gradientUnits="userSpaceOnUse"
       gradientTransform="translate(112.10719,965.64399)"
       x1="48"
       y1="78"
       x2="48"
       y2="5.9877172" />
    <linearGradient
       inkscape:collect="always"
       xlink:href="#linearGradient3176"
       id="linearGradient3182"
       x1="75.713211"
       y1="980.17303"
       x2="77.886795"
       y2="965.05652"
       gradientUnits="userSpaceOnUse" />
    <linearGradient
       inkscape:collect="always"
       xlink:href="#linearGradient4075"
       id="linearGradient3196"
       gradientUnits="userSpaceOnUse"
       gradientTransform="translate(0,-2)"
       x1="29.673231"
       y1="1042.892"
       x2="29.673231"
       y2="965.32623" />
    <linearGradient
       inkscape:collect="always"
       xlink:href="#linearGradient4075"
       id="linearGradient3198"
       gradientUnits="userSpaceOnUse"
       gradientTransform="translate(0,-956.36218)"
       x1="29.673231"
       y1="1042.892"
       x2="29.673231"
       y2="965.32623" />
    <linearGradient
       inkscape:collect="always"
       xlink:href="#linearGradient4075"
       id="linearGradient3203"
       gradientUnits="userSpaceOnUse"
       gradientTransform="translate(0,-1)"
       x1="29.673231"
       y1="1042.892"
       x2="29.673231"
       y2="965.32623" />
    <linearGradient
       inkscape:collect="always"
       xlink:href="#linearGradient3101"
       id="linearGradient3083"
       gradientUnits="userSpaceOnUse"
       x1="29.673231"
       y1="1044.7706"
       x2="29.673231"
       y2="965.32623" />
    <linearGradient
       id="linearGradient3101">
      <stop
         offset="0"
         style="stop-color:#aec2d4;stop-opacity:1"
         id="stop3103" />
      <stop
         id="stop3137"
         style="stop-color:#c2d5e5;stop-opacity:1"
         offset="0.07155552" />
      <stop
         offset="1"
         style="stop-color:#98bbd8;stop-opacity:0.96078432"
         id="stop3105" />
    </linearGradient>
    <linearGradient
       inkscape:collect="always"
       xlink:href="#linearGradient3114"
       id="linearGradient3086"
       gradientUnits="userSpaceOnUse"
       x1="17.67767"
       y1="1046.1118"
       x2="17.67767"
       y2="962.21893" />
    <linearGradient
       id="linearGradient3114"
       inkscape:collect="always">
      <stop
         id="stop3116"
         offset="0"
         style="stop-color:#98aec1;stop-opacity:1" />
      <stop
         id="stop3118"
         offset="1"
         style="stop-color:#dde9f5;stop-opacity:1" />
    </linearGradient>
    <linearGradient
       inkscape:collect="always"
       xlink:href="#linearGradient3120"
       id="linearGradient3091-2"
       gradientUnits="userSpaceOnUse"
       x1="75.713211"
       y1="980.17303"
       x2="77.886795"
       y2="965.05652"
       gradientTransform="matrix(1,0,0,1.0010727,0,-1.1213134)" />
    <linearGradient
       id="linearGradient3120"
       inkscape:collect="always">
      <stop
         id="stop3122"
         offset="0"
         style="stop-color:#7895b1;stop-opacity:0.80000001" />
      <stop
         id="stop3124"
         offset="1"
         style="stop-color:#a1bad1;stop-opacity:0.80000001" />
    </linearGradient>
    <linearGradient
       inkscape:collect="always"
       xlink:href="#linearGradient3101"
       id="linearGradient3102"
       gradientUnits="userSpaceOnUse"
       x1="29.673231"
       y1="1044.7706"
       x2="29.673231"
       y2="965.32623" />
    <linearGradient
       inkscape:collect="always"
       xlink:href="#linearGradient3114"
       id="linearGradient3107"
       gradientUnits="userSpaceOnUse"
       x1="17.67767"
       y1="1046.1118"
       x2="17.67767"
       y2="962.21893" />
    <linearGradient
       inkscape:collect="always"
       xlink:href="#linearGradient3120"
       id="linearGradient3116"
       gradientUnits="userSpaceOnUse"
       gradientTransform="matrix(1,0,0,1.0000142,-7.7685547e-6,-0.01484566)"
       x1="75.713211"
       y1="980.17303"
       x2="77.886795"
       y2="965.05652" />
    <linearGradient
       inkscape:collect="always"
       xlink:href="#linearGradient3120"
       id="linearGradient3272"
       x1="72.20755"
       y1="976.46783"
       x2="74.147171"
       y2="964.87537"
       gradientUnits="userSpaceOnUse" />
    <linearGradient
       inkscape:collect="always"
       xlink:href="#linearGradient3120"
       id="linearGradient3276"
       gradientUnits="userSpaceOnUse"
       x1="72.20755"
       y1="976.46783"
       x2="74.147171"
       y2="964.87537" />
    <linearGradient
       id="linearGradient3114-50-3"
       inkscape:collect="always">
      <stop
         id="stop3116-6-2"
         offset="0"
         style="stop-color:#6eabc7;stop-opacity:1" />
      <stop
         id="stop3118-8-8"
         offset="1"
         style="stop-color:#6bc6f2;stop-opacity:1" />
    </linearGradient>
    <linearGradient
       id="linearGradient3101-95-8">
      <stop
         offset="0"
         style="stop-color:#aec2d4;stop-opacity:1"
         id="stop3103-1-5" />
      <stop
         id="stop3137-6-4"
         style="stop-color:#c2d5e5;stop-opacity:1"
         offset="0.07155552" />
      <stop
         offset="1"
         style="stop-color:#98bbd8;stop-opacity:0.96078432"
         id="stop3105-7-1" />
    </linearGradient>
    <linearGradient
       inkscape:collect="always"
       xlink:href="#linearGradient3240"
       id="linearGradient3215"
       gradientUnits="userSpaceOnUse"
       x1="29.673231"
       y1="1044.5526"
       x2="29.673231"
       y2="965.32623" />
    <linearGradient
       inkscape:collect="always"
       xlink:href="#linearGradient3114-50-3"
       id="linearGradient3218"
       gradientUnits="userSpaceOnUse"
       x1="17.67767"
       y1="1046.1118"
       x2="17.67767"
       y2="962.21893" />
    <linearGradient
       inkscape:collect="always"
       xlink:href="#linearGradient3234"
       id="linearGradient3224"
       gradientUnits="userSpaceOnUse"
       gradientTransform="matrix(1,0,0,1.0000142,-7.8e-6,-0.01484962)"
       x1="75.713211"
       y1="975.1731"
       x2="77.886795"
       y2="965.05652" />
    <linearGradient
       gradientUnits="userSpaceOnUse"
       y2="971.16656"
       x2="41.436974"
       y1="1045.574"
       x1="74.798561"
       id="linearGradient3060"
       xlink:href="#linearGradient3062"
       inkscape:collect="always" />
    <linearGradient
       gradientTransform="translate(-122.11643,5.2360346)"
       gradientUnits="userSpaceOnUse"
       y2="983.19916"
       x2="162.40508"
       y1="1009.3275"
       x1="179.3116"
       id="linearGradient3072"
       xlink:href="#linearGradient3066"
       inkscape:collect="always" />
    <linearGradient
       id="linearGradient3052"
       inkscape:collect="always">
      <stop
         id="stop3054"
         offset="0"
         style="stop-color:#5abaff;stop-opacity:1" />
      <stop
         style="stop-color:#008eff;stop-opacity:1"
         offset="0.75832671"
         id="stop3058" />
      <stop
         id="stop3056"
         offset="1"
         style="stop-color:#008eff;stop-opacity:1" />
    </linearGradient>
    <linearGradient
       gradientUnits="userSpaceOnUse"
       y2="1039.0419"
       x2="71.724648"
       y1="968.34186"
       x1="14.857245"
       id="linearGradient3058-4"
       xlink:href="#linearGradient3052"
       inkscape:collect="always"
       gradientTransform="translate(0,-2.6171874e-6)" />
    <linearGradient
       y2="1025.3639"
       x2="115.80308"
       y1="985.47241"
       x1="115.80308"
       gradientTransform="matrix(1.4144782,0,0,1.4144782,-119.78686,-1375.4171)"
       gradientUnits="userSpaceOnUse"
       id="linearGradient3093"
       xlink:href="#linearGradient3076"
       inkscape:collect="always" />
    <linearGradient
       y2="1025.3639"
       x2="115.80308"
       y1="985.47241"
       x1="115.80308"
       gradientTransform="matrix(1.4144782,0,0,1.4144782,-119.78686,-418.126)"
       gradientUnits="userSpaceOnUse"
       id="linearGradient3091-5"
       xlink:href="#linearGradient3076"
       inkscape:collect="always" />
    <linearGradient
       y2="1025.3639"
       x2="115.80308"
       y1="985.47241"
       x1="115.80308"
       gradientTransform="matrix(1.4144782,0,0,1.4144782,-119.78686,-417.12598)"
       gradientUnits="userSpaceOnUse"
       id="linearGradient3086-4"
       xlink:href="#linearGradient3076"
       inkscape:collect="always" />
    <linearGradient
       gradientTransform="matrix(1.4144782,0,0,1.4144782,-119.78686,-419.05496)"
       y2="1025.3639"
       x2="115.80308"
       y1="985.47241"
       x1="115.80308"
       gradientUnits="userSpaceOnUse"
       id="linearGradient3055"
       xlink:href="#linearGradient3222"
       inkscape:collect="always" />
    <linearGradient
       gradientUnits="userSpaceOnUse"
       y2="1033.5543"
       x2="115.80308"
       y1="985.47241"
       x1="115.80308"
       id="linearGradient3058"
       xlink:href="#linearGradient3048-8"
       inkscape:collect="always" />
    <linearGradient
       gradientUnits="userSpaceOnUse"
       y2="1045.8627"
       x2="49.267925"
       y1="996.57349"
       x1="49.267925"
       id="linearGradient3054-3"
       xlink:href="#linearGradient3048-8"
       inkscape:collect="always" />
    <linearGradient
       y2="967.86646"
       x2="25.549681"
       y1="980.64136"
       x1="13.131983"
       gradientTransform="matrix(-1,0,0,1,96,0)"
       gradientUnits="userSpaceOnUse"
       id="linearGradient3129-2"
       xlink:href="#linearGradient3119-3"
       inkscape:collect="always" />
    <linearGradient
       y2="967.86646"
       x2="25.549681"
       y1="980.64136"
       x1="13.131983"
       gradientTransform="translate(0,-956.36218)"
       gradientUnits="userSpaceOnUse"
       id="linearGradient3117-5"
       xlink:href="#linearGradient3119-3"
       inkscape:collect="always" />
    <linearGradient
       y2="967.50934"
       x2="26.263966"
       y1="978.62103"
       x1="15.152279"
       gradientTransform="matrix(-1,0,0,1,96,-956.36218)"
       gradientUnits="userSpaceOnUse"
       id="linearGradient3115-8"
       xlink:href="#linearGradient3073-4"
       inkscape:collect="always" />
    <linearGradient
       y2="969.24683"
       x2="24.52651"
       y1="978.90387"
       x1="14.869445"
       gradientTransform="translate(0,-956.36218)"
       gradientUnits="userSpaceOnUse"
       id="linearGradient3113-8"
       xlink:href="#linearGradient3073-4"
       inkscape:collect="always" />
    <linearGradient
       gradientUnits="userSpaceOnUse"
       y2="972.33325"
       x2="39.285713"
       y1="1043.4336"
       x1="40"
       id="linearGradient3053-7"
       xlink:href="#linearGradient3047-6"
       inkscape:collect="always" />
    <linearGradient
       gradientTransform="matrix(1.1218695,0,0,1.1218695,-5.8497348,-122.18782)"
       y2="975.33282"
       x2="35.355339"
       y1="1030.3622"
       x1="35.355339"
       gradientUnits="userSpaceOnUse"
       id="linearGradient3039-0"
       xlink:href="#linearGradient3041-6"
       inkscape:collect="always" />
    <linearGradient
       gradientTransform="matrix(1.1638085,0,0,1.1638085,-7.862809,-164.23642)"
       gradientUnits="userSpaceOnUse"
       y2="975.33282"
       x2="35.355339"
       y1="1030.3622"
       x1="35.355339"
       id="linearGradient3035-8"
       xlink:href="#linearGradient3029-0"
       inkscape:collect="always" />
    <linearGradient
       id="linearGradient3029-0"
       inkscape:collect="always">
      <stop
         id="stop3031-1"
         offset="0"
         style="stop-color:#333333;stop-opacity:1" />
      <stop
         id="stop3033-8"
         offset="1"
         style="stop-color:#e0e0dd;stop-opacity:0;" />
    </linearGradient>
    <linearGradient
       inkscape:collect="always"
       id="linearGradient3041-6">
      <stop
         style="stop-color:#1a1a1a;stop-opacity:1"
         offset="0"
         id="stop3043-8" />
      <stop
         style="stop-color:#808080;stop-opacity:1"
         offset="1"
         id="stop3045-7" />
    </linearGradient>
    <linearGradient
       id="linearGradient3047-6"
       inkscape:collect="always">
      <stop
         id="stop3049-7"
         offset="0"
         style="stop-color:#000000;stop-opacity:1" />
      <stop
         style="stop-color:#1a1a1a;stop-opacity:1"
         offset="0.06123874"
         id="stop3055-1" />
      <stop
         id="stop3057-6"
         offset="0.16480456"
         style="stop-color:#333333;stop-opacity:1" />
      <stop
         style="stop-color:#4d4d4d;stop-opacity:1"
         offset="0.55385184"
         id="stop3059-0" />
      <stop
         id="stop3051-2"
         offset="1"
         style="stop-color:#999999;stop-opacity:1" />
    </linearGradient>
    <linearGradient
       inkscape:collect="always"
       id="linearGradient3073-4">
      <stop
         style="stop-color:#ffffff;stop-opacity:0"
         offset="0"
         id="stop3075-4" />
      <stop
         id="stop3085-3"
         offset="0.45872402"
         style="stop-color:#ffffff;stop-opacity:1" />
      <stop
         style="stop-color:#ffffff;stop-opacity:0"
         offset="1"
         id="stop3083-3" />
    </linearGradient>
    <linearGradient
       id="linearGradient3119-3"
       inkscape:collect="always">
      <stop
         id="stop3121-7"
         offset="0"
         style="stop-color:#92948f;stop-opacity:0" />
      <stop
         style="stop-color:#9b9e98;stop-opacity:1"
         offset="0.4283945"
         id="stop3123-2" />
      <stop
         id="stop3125-5"
         offset="1"
         style="stop-color:#939690;stop-opacity:0" />
    </linearGradient>
    <linearGradient
       id="linearGradient3048-8"
       inkscape:collect="always">
      <stop
         id="stop3050-1"
         offset="0"
         style="stop-color:#c16d16;stop-opacity:1" />
      <stop
         id="stop3052-1"
         offset="1"
         style="stop-color:#ff8e31;stop-opacity:1" />
    </linearGradient>
    <linearGradient
       inkscape:collect="always"
       id="linearGradient3076">
      <stop
         style="stop-color:#ffe7f7;stop-opacity:1"
         offset="0"
         id="stop3078" />
      <stop
         style="stop-color:#ffc3ef;stop-opacity:1"
         offset="1"
         id="stop3080" />
    </linearGradient>
    <linearGradient
       id="linearGradient3222"
       inkscape:collect="always">
      <stop
         id="stop3224"
         offset="0"
         style="stop-color:#de005a;stop-opacity:1" />
      <stop
         id="stop3226"
         offset="1"
         style="stop-color:#a30444;stop-opacity:1" />
    </linearGradient>
    <linearGradient
       id="linearGradient3066"
       inkscape:collect="always">
      <stop
         id="stop3068"
         offset="0"
         style="stop-color:#deebff;stop-opacity:1" />
      <stop
         id="stop3070"
         offset="1"
         style="stop-color:#efefff;stop-opacity:1" />
    </linearGradient>
    <linearGradient
       inkscape:collect="always"
       id="linearGradient3062">
      <stop
         style="stop-color:#1065b6;stop-opacity:1"
         offset="0"
         id="stop3064" />
      <stop
         id="stop3066"
         offset="0.43454874"
         style="stop-color:#008eff;stop-opacity:1" />
      <stop
         style="stop-color:#5abaff;stop-opacity:1"
         offset="1"
         id="stop3069" />
    </linearGradient>
    <linearGradient
       y2="1025.3639"
       x2="115.80308"
       y1="985.47241"
       x1="115.80308"
       gradientTransform="matrix(1.4144782,0,0,1.4144782,-119.78686,-1375.4171)"
       gradientUnits="userSpaceOnUse"
       id="linearGradient3093-9"
       xlink:href="#linearGradient3076-0"
       inkscape:collect="always" />
    <linearGradient
       y2="1025.3639"
       x2="115.80308"
       y1="985.47241"
       x1="115.80308"
       gradientTransform="matrix(1.4144782,0,0,1.4144782,-119.78686,-418.126)"
       gradientUnits="userSpaceOnUse"
       id="linearGradient3091-26"
       xlink:href="#linearGradient3076-0"
       inkscape:collect="always" />
    <linearGradient
       y2="1025.3639"
       x2="115.80308"
       y1="985.47241"
       x1="115.80308"
       gradientTransform="matrix(1.4144782,0,0,1.4144782,-119.78686,-417.12598)"
       gradientUnits="userSpaceOnUse"
       id="linearGradient3086-43"
       xlink:href="#linearGradient3076-0"
       inkscape:collect="always" />
    <linearGradient
       gradientUnits="userSpaceOnUse"
       y2="962.97437"
       x2="53.796227"
       y1="1046.0226"
       x1="53.796227"
       id="linearGradient3068"
       xlink:href="#linearGradient3070"
       inkscape:collect="always" />
    <linearGradient
       gradientUnits="userSpaceOnUse"
       y2="964.45898"
       x2="22.54203"
       y1="1043.3966"
       x1="22.54203"
       id="linearGradient3066-6"
       xlink:href="#linearGradient3059"
       inkscape:collect="always" />
    <linearGradient
       gradientTransform="matrix(1.4144782,0,0,1.4144782,-119.78686,-419.05496)"
       y2="1025.3639"
       x2="115.80308"
       y1="985.47241"
       x1="115.80308"
       gradientUnits="userSpaceOnUse"
       id="linearGradient3055-4"
       xlink:href="#linearGradient3076-0"
       inkscape:collect="always" />
    <linearGradient
       gradientUnits="userSpaceOnUse"
       y2="1033.5543"
       x2="115.80308"
       y1="985.47241"
       x1="115.80308"
       id="linearGradient3058-2"
       xlink:href="#linearGradient3048-1"
       inkscape:collect="always" />
    <linearGradient
       gradientUnits="userSpaceOnUse"
       y2="1045.8627"
       x2="49.267925"
       y1="996.57349"
       x1="49.267925"
       id="linearGradient3054-4"
       xlink:href="#linearGradient3048-1"
       inkscape:collect="always" />
    <linearGradient
       y2="967.86646"
       x2="25.549681"
       y1="980.64136"
       x1="13.131983"
       gradientTransform="matrix(-1,0,0,1,96,0)"
       gradientUnits="userSpaceOnUse"
       id="linearGradient3129-27"
       xlink:href="#linearGradient3119-0"
       inkscape:collect="always" />
    <linearGradient
       y2="967.86646"
       x2="25.549681"
       y1="980.64136"
       x1="13.131983"
       gradientTransform="translate(0,-956.36218)"
       gradientUnits="userSpaceOnUse"
       id="linearGradient3117-3"
       xlink:href="#linearGradient3119-0"
       inkscape:collect="always" />
    <linearGradient
       y2="967.50934"
       x2="26.263966"
       y1="978.62103"
       x1="15.152279"
       gradientTransform="matrix(-1,0,0,1,96,-956.36218)"
       gradientUnits="userSpaceOnUse"
       id="linearGradient3115-3"
       xlink:href="#linearGradient3073-2"
       inkscape:collect="always" />
    <linearGradient
       y2="969.24683"
       x2="24.52651"
       y1="978.90387"
       x1="14.869445"
       gradientTransform="translate(0,-956.36218)"
       gradientUnits="userSpaceOnUse"
       id="linearGradient3113-0"
       xlink:href="#linearGradient3073-2"
       inkscape:collect="always" />
    <linearGradient
       gradientUnits="userSpaceOnUse"
       y2="972.33325"
       x2="39.285713"
       y1="1043.4336"
       x1="40"
       id="linearGradient3053-6"
       xlink:href="#linearGradient3047-4"
       inkscape:collect="always" />
    <linearGradient
       gradientTransform="matrix(1.1218695,0,0,1.1218695,-5.8497348,-122.18782)"
       y2="975.33282"
       x2="35.355339"
       y1="1030.3622"
       x1="35.355339"
       gradientUnits="userSpaceOnUse"
       id="linearGradient3039-3"
       xlink:href="#linearGradient3041-8"
       inkscape:collect="always" />
    <linearGradient
       gradientTransform="matrix(1.1638085,0,0,1.1638085,-7.862809,-164.23642)"
       gradientUnits="userSpaceOnUse"
       y2="975.33282"
       x2="35.355339"
       y1="1030.3622"
       x1="35.355339"
       id="linearGradient3035-4"
       xlink:href="#linearGradient3029-4"
       inkscape:collect="always" />
    <linearGradient
       id="linearGradient3029-4"
       inkscape:collect="always">
      <stop
         id="stop3031-6"
         offset="0"
         style="stop-color:#333333;stop-opacity:1" />
      <stop
         id="stop3033-5"
         offset="1"
         style="stop-color:#e0e0dd;stop-opacity:0;" />
    </linearGradient>
    <linearGradient
       inkscape:collect="always"
       id="linearGradient3041-8">
      <stop
         style="stop-color:#1a1a1a;stop-opacity:1"
         offset="0"
         id="stop3043-9" />
      <stop
         style="stop-color:#808080;stop-opacity:1"
         offset="1"
         id="stop3045-9" />
    </linearGradient>
    <linearGradient
       id="linearGradient3047-4"
       inkscape:collect="always">
      <stop
         id="stop3049-6"
         offset="0"
         style="stop-color:#000000;stop-opacity:1" />
      <stop
         style="stop-color:#1a1a1a;stop-opacity:1"
         offset="0.06123874"
         id="stop3055-6" />
      <stop
         id="stop3057-3"
         offset="0.16480456"
         style="stop-color:#333333;stop-opacity:1" />
      <stop
         style="stop-color:#4d4d4d;stop-opacity:1"
         offset="0.55385184"
         id="stop3059-4" />
      <stop
         id="stop3051-4"
         offset="1"
         style="stop-color:#999999;stop-opacity:1" />
    </linearGradient>
    <linearGradient
       inkscape:collect="always"
       id="linearGradient3073-2">
      <stop
         style="stop-color:#ffffff;stop-opacity:0"
         offset="0"
         id="stop3075-6" />
      <stop
         id="stop3085-8"
         offset="0.45872402"
         style="stop-color:#ffffff;stop-opacity:1" />
      <stop
         style="stop-color:#ffffff;stop-opacity:0"
         offset="1"
         id="stop3083-4" />
    </linearGradient>
    <linearGradient
       id="linearGradient3119-0"
       inkscape:collect="always">
      <stop
         id="stop3121-2"
         offset="0"
         style="stop-color:#92948f;stop-opacity:0" />
      <stop
         style="stop-color:#9b9e98;stop-opacity:1"
         offset="0.4283945"
         id="stop3123-9" />
      <stop
         id="stop3125-6"
         offset="1"
         style="stop-color:#939690;stop-opacity:0" />
    </linearGradient>
    <linearGradient
       id="linearGradient3048-1"
       inkscape:collect="always">
      <stop
         id="stop3050-9"
         offset="0"
         style="stop-color:#c16d16;stop-opacity:1" />
      <stop
         id="stop3052-5"
         offset="1"
         style="stop-color:#ff8e31;stop-opacity:1" />
    </linearGradient>
    <linearGradient
       id="linearGradient3059"
       inkscape:collect="always">
      <stop
         id="stop3061"
         offset="0"
         style="stop-color:#a50042;stop-opacity:1" />
      <stop
         id="stop3064-3"
         offset="1"
         style="stop-color:#de005a;stop-opacity:1" />
    </linearGradient>
    <linearGradient
       inkscape:collect="always"
       id="linearGradient3070">
      <stop
         style="stop-color:#9c0c4a;stop-opacity:1"
         offset="0"
         id="stop3072" />
      <stop
         style="stop-color:#e61c72;stop-opacity:1"
         offset="1"
         id="stop3074" />
    </linearGradient>
    <linearGradient
       inkscape:collect="always"
       id="linearGradient3076-0">
      <stop
         style="stop-color:#ffe7f7;stop-opacity:1"
         offset="0"
         id="stop3078-5" />
      <stop
         style="stop-color:#ffc3ef;stop-opacity:1"
         offset="1"
         id="stop3080-0" />
    </linearGradient>
    <linearGradient
       y2="974.48969"
       x2="60.965946"
       y1="1019.5738"
       x1="60.965946"
       gradientTransform="translate(0.701036,3.1045074)"
       gradientUnits="userSpaceOnUse"
       id="linearGradient3986-2"
       xlink:href="#linearGradient3071"
       inkscape:collect="always" />
    <linearGradient
       y2="974.48969"
       x2="60.965946"
       y1="1019.5738"
       x1="60.965946"
       gradientTransform="translate(0.701036,3.1045074)"
       gradientUnits="userSpaceOnUse"
       id="linearGradient3915"
       xlink:href="#linearGradient3071"
       inkscape:collect="always" />
    <linearGradient
       y2="1025.3639"
       x2="115.80308"
       y1="985.47241"
       x1="115.80308"
       gradientTransform="matrix(1.4144782,0,0,1.4144782,-119.78686,-1375.4171)"
       gradientUnits="userSpaceOnUse"
       id="linearGradient3093-92"
       xlink:href="#linearGradient3076-2"
       inkscape:collect="always" />
    <linearGradient
       y2="1025.3639"
       x2="115.80308"
       y1="985.47241"
       x1="115.80308"
       gradientTransform="matrix(1.4144782,0,0,1.4144782,-119.78686,-418.126)"
       gradientUnits="userSpaceOnUse"
       id="linearGradient3091-8"
       xlink:href="#linearGradient3076-2"
       inkscape:collect="always" />
    <linearGradient
       y2="1025.3639"
       x2="115.80308"
       y1="985.47241"
       x1="115.80308"
       gradientTransform="matrix(1.4144782,0,0,1.4144782,-119.78686,-417.12598)"
       gradientUnits="userSpaceOnUse"
       id="linearGradient3086-47"
       xlink:href="#linearGradient3076-2"
       inkscape:collect="always" />
    <linearGradient
       gradientUnits="userSpaceOnUse"
       y2="1033.5543"
       x2="115.80308"
       y1="985.47241"
       x1="115.80308"
       id="linearGradient3058-1"
       xlink:href="#linearGradient3048-85"
       inkscape:collect="always" />
    <linearGradient
       gradientUnits="userSpaceOnUse"
       y2="1045.8627"
       x2="49.267925"
       y1="996.57349"
       x1="49.267925"
       id="linearGradient3054-37"
       xlink:href="#linearGradient3048-85"
       inkscape:collect="always" />
    <linearGradient
       y2="967.86646"
       x2="25.549681"
       y1="980.64136"
       x1="13.131983"
       gradientTransform="matrix(-1,0,0,1,96,0)"
       gradientUnits="userSpaceOnUse"
       id="linearGradient3129-7"
       xlink:href="#linearGradient3119-6"
       inkscape:collect="always" />
    <linearGradient
       y2="967.86646"
       x2="25.549681"
       y1="980.64136"
       x1="13.131983"
       gradientTransform="translate(0,-956.36218)"
       gradientUnits="userSpaceOnUse"
       id="linearGradient3117-6"
       xlink:href="#linearGradient3119-6"
       inkscape:collect="always" />
    <linearGradient
       y2="967.50934"
       x2="26.263966"
       y1="978.62103"
       x1="15.152279"
       gradientTransform="matrix(-1,0,0,1,96,-956.36218)"
       gradientUnits="userSpaceOnUse"
       id="linearGradient3115-36"
       xlink:href="#linearGradient3073-1"
       inkscape:collect="always" />
    <linearGradient
       y2="969.24683"
       x2="24.52651"
       y1="978.90387"
       x1="14.869445"
       gradientTransform="translate(0,-956.36218)"
       gradientUnits="userSpaceOnUse"
       id="linearGradient3113-08"
       xlink:href="#linearGradient3073-1"
       inkscape:collect="always" />
    <linearGradient
       gradientUnits="userSpaceOnUse"
       y2="972.33325"
       x2="39.285713"
       y1="1043.4336"
       x1="40"
       id="linearGradient3053-0"
       xlink:href="#linearGradient3047-1"
       inkscape:collect="always" />
    <linearGradient
       gradientTransform="matrix(1.1218695,0,0,1.1218695,-5.8497348,-122.18782)"
       y2="975.33282"
       x2="35.355339"
       y1="1030.3622"
       x1="35.355339"
       gradientUnits="userSpaceOnUse"
       id="linearGradient3039-4"
       xlink:href="#linearGradient3041-89"
       inkscape:collect="always" />
    <linearGradient
       gradientTransform="matrix(1.1638085,0,0,1.1638085,-7.862809,-164.23642)"
       gradientUnits="userSpaceOnUse"
       y2="975.33282"
       x2="35.355339"
       y1="1030.3622"
       x1="35.355339"
       id="linearGradient3035-2"
       xlink:href="#linearGradient3029-05"
       inkscape:collect="always" />
    <linearGradient
       id="linearGradient3029-05"
       inkscape:collect="always">
      <stop
         id="stop3031-19"
         offset="0"
         style="stop-color:#333333;stop-opacity:1" />
      <stop
         id="stop3033-0"
         offset="1"
         style="stop-color:#e0e0dd;stop-opacity:0;" />
    </linearGradient>
    <linearGradient
       inkscape:collect="always"
       id="linearGradient3041-89">
      <stop
         style="stop-color:#1a1a1a;stop-opacity:1"
         offset="0"
         id="stop3043-91" />
      <stop
         style="stop-color:#808080;stop-opacity:1"
         offset="1"
         id="stop3045-92" />
    </linearGradient>
    <linearGradient
       id="linearGradient3047-1"
       inkscape:collect="always">
      <stop
         id="stop3049-8"
         offset="0"
         style="stop-color:#000000;stop-opacity:1" />
      <stop
         style="stop-color:#1a1a1a;stop-opacity:1"
         offset="0.06123874"
         id="stop3055-9" />
      <stop
         id="stop3057-5"
         offset="0.16480456"
         style="stop-color:#333333;stop-opacity:1" />
      <stop
         style="stop-color:#4d4d4d;stop-opacity:1"
         offset="0.55385184"
         id="stop3059-3" />
      <stop
         id="stop3051-3"
         offset="1"
         style="stop-color:#999999;stop-opacity:1" />
    </linearGradient>
    <linearGradient
       inkscape:collect="always"
       id="linearGradient3073-1">
      <stop
         style="stop-color:#ffffff;stop-opacity:0"
         offset="0"
         id="stop3075-69" />
      <stop
         id="stop3085-4"
         offset="0.45872402"
         style="stop-color:#ffffff;stop-opacity:1" />
      <stop
         style="stop-color:#ffffff;stop-opacity:0"
         offset="1"
         id="stop3083-40" />
    </linearGradient>
    <linearGradient
       id="linearGradient3119-6"
       inkscape:collect="always">
      <stop
         id="stop3121-1"
         offset="0"
         style="stop-color:#92948f;stop-opacity:0" />
      <stop
         style="stop-color:#9b9e98;stop-opacity:1"
         offset="0.4283945"
         id="stop3123-3" />
      <stop
         id="stop3125-68"
         offset="1"
         style="stop-color:#939690;stop-opacity:0" />
    </linearGradient>
    <linearGradient
       id="linearGradient3048-85"
       inkscape:collect="always">
      <stop
         id="stop3050-95"
         offset="0"
         style="stop-color:#c16d16;stop-opacity:1" />
      <stop
         id="stop3052-8"
         offset="1"
         style="stop-color:#ff8e31;stop-opacity:1" />
    </linearGradient>
    <linearGradient
       inkscape:collect="always"
       id="linearGradient3076-2">
      <stop
         style="stop-color:#ffe7f7;stop-opacity:1"
         offset="0"
         id="stop3078-52" />
      <stop
         style="stop-color:#ffc3ef;stop-opacity:1"
         offset="1"
         id="stop3080-3" />
    </linearGradient>
    <linearGradient
       id="linearGradient3071"
       inkscape:collect="always">
      <stop
         id="stop3073"
         offset="0"
         style="stop-color:#d0dfda;stop-opacity:1" />
      <stop
         id="stop3076"
         offset="1"
         style="stop-color:#f5f8fd;stop-opacity:1" />
    </linearGradient>
    <linearGradient
       id="linearGradient3240-7">
      <stop
         id="stop3242-2"
         style="stop-color:#6dc5ed;stop-opacity:1"
         offset="0" />
      <stop
         offset="0.16937648"
         style="stop-color:#7cd4fc;stop-opacity:1"
         id="stop3244-7" />
      <stop
         id="stop3167"
         style="stop-color:#5fc0fa;stop-opacity:1"
         offset="0.78501636" />
      <stop
         id="stop3246-5"
         style="stop-color:#6cc9f5;stop-opacity:1"
         offset="1" />
    </linearGradient>
    <linearGradient
       inkscape:collect="always"
       xlink:href="#linearGradient3234-0"
       id="linearGradient3224-7"
       gradientUnits="userSpaceOnUse"
       gradientTransform="matrix(1,0,0,1.0000142,-7.8e-6,-0.01484962)"
       x1="77.886795"
       y1="975.79181"
       x2="77.886795"
       y2="969.90741" />
    <linearGradient
       inkscape:collect="always"
       id="linearGradient3234-0">
      <stop
         style="stop-color:#6e9dc0;stop-opacity:1"
         offset="0"
         id="stop3236-9" />
      <stop
         id="stop4286"
         offset="0.32745385"
         style="stop-color:#81aac9;stop-opacity:1" />
      <stop
         style="stop-color:#97bad2;stop-opacity:1"
         offset="1"
         id="stop3238-6" />
    </linearGradient>
    <linearGradient
       inkscape:collect="always"
       xlink:href="#linearGradient3114-50-3-8"
       id="linearGradient3218-7"
       gradientUnits="userSpaceOnUse"
       x1="17.67767"
       y1="1046.1118"
       x2="17.67767"
       y2="962.21893" />
    <linearGradient
       id="linearGradient3114-50-3-8"
       inkscape:collect="always">
      <stop
         id="stop3116-6-2-3"
         offset="0"
         style="stop-color:#507099;stop-opacity:0.95294118" />
      <stop
         style="stop-color:#b4c6dd;stop-opacity:1"
         offset="0.75095326"
         id="stop4288" />
      <stop
         id="stop3118-8-8-7"
         offset="1"
         style="stop-color:#becfe4;stop-opacity:1" />
    </linearGradient>
    <linearGradient
       inkscape:collect="always"
       xlink:href="#linearGradient3240-5"
       id="linearGradient3215-5"
       gradientUnits="userSpaceOnUse"
       x1="29.673231"
       y1="1044.5526"
       x2="29.673231"
       y2="965.32623" />
    <linearGradient
       id="linearGradient3240-5">
      <stop
         id="stop3242-4"
         style="stop-color:#7599c4;stop-opacity:0.99607843"
         offset="0" />
      <stop
         offset="0.16937648"
         style="stop-color:#7fa9c8;stop-opacity:1"
         id="stop3244-5" />
      <stop
         id="stop3167-1"
         style="stop-color:#abc6db;stop-opacity:1"
         offset="0.78501636" />
      <stop
         id="stop3246-54"
         style="stop-color:#aec8dc;stop-opacity:1"
         offset="1" />
    </linearGradient>
  </defs>
  <sodipodi:namedview
     id="base"
     pagecolor="#ffffff"
     bordercolor="#666666"
     borderopacity="1.0"
     inkscape:pageopacity="0.0"
     inkscape:pageshadow="2"
     inkscape:zoom="2.8284272"
     inkscape:cx="-9.979175"
     inkscape:cy="96.510428"
     inkscape:document-units="px"
     inkscape:current-layer="layer1"
     showgrid="false"
     inkscape:window-width="1366"
     inkscape:window-height="713"
     inkscape:window-x="0"
     inkscape:window-y="29"
     inkscape:window-maximized="1"
     showguides="true"
     inkscape:guide-bbox="true" />
  <metadata
     id="metadata7">
    <rdf:RDF>
      <cc:Work
         rdf:about="">
        <dc:format>image/svg+xml</dc:format>
        <dc:type
           rdf:resource="http://purl.org/dc/dcmitype/StillImage" />
        <dc:title></dc:title>
      </cc:Work>
    </rdf:RDF>
  </metadata>
  <g
     inkscape:label="Layer 1"
     inkscape:groupmode="layer"
     id="layer1"
     transform="translate(0,-956.36218)">
    <rect
       style="opacity:0.05;fill:#000000;fill-opacity:1;stroke:none"
       id="rect3826-3"
       width="89"
       height="89"
       x="3.5"
       y="960.86218"
       rx="10.595235"
       ry="10.595235" />
    <rect
       ry="10.476188"
       rx="10.476188"
       y="961.36218"
       x="4"
       height="88"
       width="88"
       id="rect3824-7"
       style="opacity:0.05;fill:#000000;fill-opacity:1;stroke:none" />
    <rect
       style="opacity:0.05;fill:#000000;fill-opacity:1;stroke:none"
       id="rect3822-5"
       width="87"
       height="87"
       x="4.5"
       y="961.86218"
       rx="10.357141"
       ry="10.357141" />
    <rect
       ry="10.238094"
       rx="10.238094"
       y="962.36218"
       x="5"
       height="86"
       width="86"
       id="rect3820-9"
       style="opacity:0.1;fill:#000000;fill-opacity:1;stroke:none" />
    <rect
       style="opacity:0.1;fill:#000000;fill-opacity:1;stroke:none"
       id="rect3818-8"
       width="85"
       height="85"
       x="5.5"
       y="962.86218"
       rx="10.119047"
       ry="10.119047" />
    <rect
       ry="10"
       rx="10"
       y="963.36218"
       x="6"
       height="84"
       width="84"
       id="rect3131-9"
       style="opacity:0.3;fill:#000000;fill-opacity:1;stroke:none" />
    <rect
       ry="10"
       rx="10"
       y="962.36218"
       x="6"
       height="84"
       width="84"
       id="rect3036-3"
       style="opacity:0.7;fill:#97b2d3;fill-opacity:0.76078433;stroke:none" />
    <rect
       style="fill:url(#linearGradient3224-7);fill-opacity:1;stroke:none"
       id="rect3034-5"
       width="82"
       height="82"
       x="7"
       y="963.36218"
       rx="9.7619047"
       ry="9.762044" />
    <path
       style="opacity:0.02999998;fill:#000000;fill-opacity:1;stroke:none"
       d="m 16,962.36218 c -3.758224,0 -7.0097577,2.04397 -8.71875,5.09375 -0.00877,0.0208 -0.022613,0.0416 -0.03125,0.0625 -0.011347,0.0206 -0.020044,0.0418 -0.03125,0.0625 C 6.7468374,968.74451 6.5,970.02534 6.5,971.36218 l 0,64.00002 c 0,5.54 4.46,10 10,10 l 64,0 c 3.758224,0 7.009758,-2.044 8.71875,-5.0938 0.01755,-0.042 0.0455,-0.083 0.0625,-0.125 C 89.753163,1038.9799 90,1037.699 90,1036.3622 l 0,-58.89814 c 0,-0.96494 -1.03855,-2.19563 -2.377354,-2.19563 l -39.747646,0 -6.548508,-11.31604 c -0.662685,-1.14781 -2.034917,-1.57024 -3.452543,-1.59021 z"
       id="path3828-4"
       inkscape:connector-curvature="0"
       sodipodi:nodetypes="scccssssccscccccs" />
    <path
       id="path3837-1"
       d="m 15.75,962.86216 c -3.758224,0 -7.0097577,2.04397 -8.71875,5.09375 -0.00877,0.0208 -0.022613,0.0416 -0.03125,0.0625 -0.011347,0.0206 -0.020044,0.0418 -0.03125,0.0625 C 6.4968374,969.24449 6.25,970.52532 6.25,971.86216 l 0,64.00004 c 0,5.54 4.46,10 10,10 l 64,0 c 3.758224,0 7.009758,-2.044 8.71875,-5.0938 0.01755,-0.042 0.0455,-0.083 0.0625,-0.125 0.471913,-1.1635 0.71875,-2.4444 0.71875,-3.7812 l 0,-58.42455 c 0,-1.79197 -1.171338,-2.66924 -2.240562,-2.66924 l -39.884438,0 -6.368419,-11.00484 c -0.908856,-1.57419 -2.410265,-1.90141 -3.716957,-1.90141 z"
       style="opacity:0.02999998;fill:#000000;fill-opacity:1;stroke:none"
       inkscape:connector-curvature="0"
       sodipodi:nodetypes="scccssssccscccccs" />
    <path
       style="fill:url(#linearGradient3218-7);fill-opacity:1;stroke:none"
       d="m 16,962.36218 c -5.54,0 -10,4.46 -10,10 l 0,11.71875 0,52.28127 c 0,5.54 4.46,10 10,10 l 64,0 c 5.54,0 10,-4.46 10,-10 l 0,-57.68752 c 0,-1.24897 -0.965552,-2.40625 -2.46875,-2.40625 l -39.25,0 c -0.861394,0.094 -1.116154,-0.35591 -1.34375,-0.75 l -0.1875,-0.34375 -1.96875,-3.40625 -3.506358,-6.0475 c -0.99194,-1.71809 -2.986415,-3.35875 -6.228912,-3.35875 l -0.82723,0 z"
       id="rect2985-8"
       inkscape:connector-curvature="0"
       sodipodi:nodetypes="sscsssssscccccccs" />
    <path
       style="fill:url(#linearGradient3215-5);fill-opacity:1;stroke:none"
       d="m 16.75,963.36218 c -5.408095,0 -9.75,4.3419 -9.75,9.75 l 0,10.96875 0,51.53127 c 0,5.4081 4.341905,9.75 9.75,9.75 l 62.5,0 c 5.408095,0 9.75,-4.3419 9.75,-9.75 l 0,-56.25002 c 0,-1.20195 -0.924024,-2.09375 -2.0625,-2.09375 l -38.90625,0 c -0.864689,0 -1.854193,-0.63531 -2.28125,-1.375 l -1,-1.71875 -4.1875,-7.25 -0.342904,-0.6183 c -1.49949,-2.55523 -3.790144,-2.94415 -6.121482,-2.94415 l -0.941864,0 z"
       id="rect3021-9"
       inkscape:connector-curvature="0"
       sodipodi:nodetypes="sscsssssssccccccs" />
    <path
       style="opacity:0.1;fill:#000000;fill-opacity:1;stroke:none"
       d="m 41.066205,987.67545 c -3.05766,0 -4.84616,0.3319 -6.6477,2.1335 -1.80155,1.8015 -2.8411,4.7422 -5.35066,4.7422 l -2.04135,0 c -3.61503,0 -6.52649,2.9114 -6.52649,6.52655 l 0,24.7605 c 0,3.615 2.91146,6.524 6.52649,6.524 l 41.94701,0 c 3.615,0 6.52649,-2.909 6.52649,-6.524 l 0,-24.7605 c 0,-3.61515 -2.91149,-6.52655 -6.52649,-6.52655 l -2.04134,0 c -2.50957,0 -3.54669,-2.9407 -5.34822,-4.7422 -1.80155,-1.8016 -3.59246,-2.1335 -6.65014,-2.1335 l -13.8676,0 z m 6.93381,6.723 a 17.187152,17.187152 0 0 1 17.18659,17.18665 17.187152,17.187152 0 0 1 -17.18659,17.189 17.187152,17.187152 0 0 1 -17.18661,-17.189 17.187152,17.187152 0 0 1 17.18661,-17.18665 z m 0,8.59465 a 8.5935763,8.5935763 0 0 0 -8.5921,8.592 8.5935763,8.5935763 0 0 0 8.5921,8.5946 8.5935763,8.5935763 0 0 0 8.5945,-8.5946 8.5935763,8.5935763 0 0 0 -8.5945,-8.592 z m 0,3.4377 a 5.1561457,5.1561457 0 0 0 -0.42913,0.019 5.1561457,5.1561457 0 0 1 0.42913,-0.019 z m 0.43152,0.019 a 5.1561457,5.1561457 0 0 1 0.30549,0.038 5.1561457,5.1561457 0 0 0 -0.30549,-0.038 z m -1.16613,0.038 a 5.1561457,5.1561457 0 0 0 -0.20122,0.029 5.1561457,5.1561457 0 0 1 0.20122,-0.029 z m 1.67042,0.029 a 5.1561457,5.1561457 0 0 1 0.26669,0.061 5.1561457,5.1561457 0 0 0 -0.26669,-0.061 z m -2.12621,0.059 a 5.1561457,5.1561457 0 0 0 -0.2788,0.071 5.1561457,5.1561457 0 0 1 0.2788,-0.071 z m 2.6523,0.068 a 5.1561457,5.1561457 0 0 1 0.19395,0.066 5.1561457,5.1561457 0 0 0 -0.19395,-0.066 z m -3.11293,0.064 a 5.1561457,5.1561457 0 0 0 -0.29819,0.1093 5.1561457,5.1561457 0 0 1 0.29819,-0.1093 z m 3.61237,0.1142 a 5.1561457,5.1561457 0 0 1 0.1697,0.076 5.1561457,5.1561457 0 0 0 -0.1697,-0.076 z m -4.11664,0.087 a 5.1561457,5.1561457 0 0 0 -0.24729,0.1216 5.1561457,5.1561457 0 0 1 0.24729,-0.1216 z m 4.5603,0.1216 a 5.1561457,5.1561457 0 0 1 0.24244,0.1383 5.1561457,5.1561457 0 0 0 -0.24244,-0.1383 z m -5.04034,0.1335 a 5.1561457,5.1561457 0 0 0 -0.20607,0.1241 5.1561457,5.1561457 0 0 1 0.20607,-0.1241 z m 5.47431,0.1216 a 5.1561457,5.1561457 0 0 1 0.21092,0.1504 5.1561457,5.1561457 0 0 0 -0.21092,-0.1504 z m -5.88887,0.1504 a 5.1561457,5.1561457 0 0 0 -0.22305,0.1721 5.1561457,5.1561457 0 0 1 0.22305,-0.1721 z m 6.32284,0.1721 a 5.1561457,5.1561457 0 0 1 0.16485,0.1431 5.1561457,5.1561457 0 0 0 -0.16485,-0.1431 z m -6.6962,0.1334 a 5.1561457,5.1561457 0 0 0 -0.23518,0.2181 5.1561457,5.1561457 0 0 1 0.23518,-0.2181 z m 7.06955,0.206 a 5.1561457,5.1561457 0 0 1 0.16244,0.1745 5.1561457,5.1561457 0 0 0 -0.16244,-0.1745 z m -7.45262,0.1697 a 5.1561457,5.1561457 0 0 0 -0.17213,0.1963 5.1561457,5.1561457 0 0 1 0.17213,-0.1963 z m 7.79688,0.211 a 5.1561457,5.1561457 0 0 1 0.18669,0.2448 5.1561457,5.1561457 0 0 0 -0.18669,-0.2448 z m -8.15811,0.2351 a 5.1561457,5.1561457 0 0 0 -0.12122,0.1697 5.1561457,5.1561457 0 0 1 0.12122,-0.1697 z m 8.44662,0.1528 a 5.1561457,5.1561457 0 0 1 0.16487,0.2666 5.1561457,5.1561457 0 0 0 -0.16487,-0.2666 z m -8.71087,0.2497 a 5.1561457,5.1561457 0 0 0 -0.12608,0.2206 5.1561457,5.1561457 0 0 1 0.12608,-0.2206 z m 8.98967,0.2181 a 5.1561457,5.1561457 0 0 1 0.10911,0.2231 5.1561457,5.1561457 0 0 0 -0.10911,-0.2231 z m -9.21514,0.2061 a 5.1561457,5.1561457 0 0 0 -0.12365,0.2764 5.1561457,5.1561457 0 0 1 0.12365,-0.2764 z m 9.43819,0.274 a 5.1561457,5.1561457 0 0 1 0.0679,0.1891 5.1561457,5.1561457 0 0 0 -0.0679,-0.1891 z m -9.62973,0.1891 a 5.1561457,5.1561457 0 0 0 -0.0994,0.3007 5.1561457,5.1561457 0 0 1 0.0994,-0.3007 z m 9.79945,0.3055 a 5.1561457,5.1561457 0 0 1 0.0461,0.1769 5.1561457,5.1561457 0 0 0 -0.0461,-0.1769 z m -9.95945,0.2279 a 5.1561457,5.1561457 0 0 0 -0.0533,0.2376 5.1561457,5.1561457 0 0 1 0.0533,-0.2376 z m 10.07581,0.2642 a 5.1561457,5.1561457 0 0 1 0.0388,0.2594 5.1561457,5.1561457 0 0 0 -0.0388,-0.2594 z m -10.17037,0.2545 a 5.1561457,5.1561457 0 0 0 -0.0315,0.2522 5.1561457,5.1561457 0 0 1 0.0315,-0.2522 z m 10.23583,0.2231 a 5.1561457,5.1561457 0 0 1 0.0243,0.4583 5.1561457,5.1561457 0 0 0 -0.0243,-0.4583 z m -10.28916,0.4583 a 5.1561457,5.1561457 0 0 0 0.0218,0.4315 5.1561457,5.1561457 0 0 1 -0.0218,-0.4315 z m 10.28916,0.4607 a 5.1561457,5.1561457 0 0 1 -0.0267,0.218 5.1561457,5.1561457 0 0 0 0.0267,-0.218 z m -10.23583,0.2229 a 5.1561457,5.1561457 0 0 0 0.0412,0.2812 5.1561457,5.1561457 0 0 1 -0.0412,-0.2812 z m 10.17037,0.2546 a 5.1561457,5.1561457 0 0 1 -0.0703,0.3152 5.1561457,5.1561457 0 0 0 0.0703,-0.3152 z m -10.07581,0.2642 a 5.1561457,5.1561457 0 0 0 0.0606,0.2328 5.1561457,5.1561457 0 0 1 -0.0606,-0.2328 z m 9.95945,0.228 a 5.1561457,5.1561457 0 0 1 -0.10178,0.3054 5.1561457,5.1561457 0 0 0 0.10178,-0.3054 z m -9.79945,0.3054 a 5.1561457,5.1561457 0 0 0 0.0679,0.1868 5.1561457,5.1561457 0 0 1 -0.0679,-0.1868 z m 9.62973,0.189 a 5.1561457,5.1561457 0 0 1 -0.11394,0.2572 5.1561457,5.1561457 0 0 0 0.11394,-0.2572 z m -9.43819,0.2741 a 5.1561457,5.1561457 0 0 0 0.0994,0.2036 5.1561457,5.1561457 0 0 1 -0.0994,-0.2036 z m 9.21514,0.2061 a 5.1561457,5.1561457 0 0 1 -0.11393,0.2012 5.1561457,5.1561457 0 0 0 0.11393,-0.2012 z m -8.98967,0.2181 a 5.1561457,5.1561457 0 0 0 0.14061,0.2304 5.1561457,5.1561457 0 0 1 -0.14061,-0.2304 z m 8.7133,0.2474 a 5.1561457,5.1561457 0 0 1 -0.1285,0.1746 5.1561457,5.1561457 0 0 0 0.1285,-0.1746 z m -8.43208,0.1794 a 5.1561457,5.1561457 0 0 0 0.16001,0.2109 5.1561457,5.1561457 0 0 1 -0.16001,-0.2109 z m 8.15328,0.1963 a 5.1561457,5.1561457 0 0 1 -0.20366,0.2328 5.1561457,5.1561457 0 0 0 0.20366,-0.2328 z m -7.79446,0.2401 a 5.1561457,5.1561457 0 0 0 0.13333,0.143 5.1561457,5.1561457 0 0 1 -0.13333,-0.143 z m 7.43806,0.1552 a 5.1561457,5.1561457 0 0 1 -0.19153,0.1794 5.1561457,5.1561457 0 0 0 0.19153,-0.1794 z m -7.08896,0.1914 a 5.1561457,5.1561457 0 0 0 0.18669,0.1625 5.1561457,5.1561457 0 0 1 -0.18669,-0.1625 z m 6.69864,0.1625 a 5.1561457,5.1561457 0 0 1 -0.17456,0.1309 5.1561457,5.1561457 0 0 0 0.17456,-0.1309 z m -6.33739,0.1309 a 5.1561457,5.1561457 0 0 0 0.24486,0.177 5.1561457,5.1561457 0 0 1 -0.24486,-0.177 z m 5.91553,0.177 a 5.1561457,5.1561457 0 0 1 -0.18667,0.1167 5.1561457,5.1561457 0 0 0 0.18667,-0.1167 z m -5.4549,0.1309 a 5.1561457,5.1561457 0 0 0 0.20365,0.1192 5.1561457,5.1561457 0 0 1 -0.20365,-0.1192 z m 5.02579,0.1241 a 5.1561457,5.1561457 0 0 1 -0.27396,0.1335 5.1561457,5.1561457 0 0 0 0.27396,-0.1335 z m -4.54091,0.1309 a 5.1561457,5.1561457 0 0 0 0.18425,0.079 5.1561457,5.1561457 0 0 1 -0.18425,-0.079 z m 4.09725,0.077 a 5.1561457,5.1561457 0 0 1 -0.30549,0.1117 5.1561457,5.1561457 0 0 0 0.30549,-0.1117 z m -3.61237,0.1142 a 5.1561457,5.1561457 0 0 0 0.18183,0.061 5.1561457,5.1561457 0 0 1 -0.18183,-0.061 z m 3.11293,0.064 a 5.1561457,5.1561457 0 0 1 -0.2594,0.066 5.1561457,5.1561457 0 0 0 0.2594,-0.066 z m -2.6523,0.068 a 5.1561457,5.1561457 0 0 0 0.25457,0.059 5.1561457,5.1561457 0 0 1 -0.25457,-0.059 z m 2.12621,0.059 a 5.1561457,5.1561457 0 0 1 -0.1988,0.03 5.1561457,5.1561457 0 0 0 0.1988,-0.03 z m -1.67042,0.03 a 5.1561457,5.1561457 0 0 0 0.30548,0.038 5.1561457,5.1561457 0 0 1 -0.30548,-0.038 z m 1.16613,0.038 a 5.1561457,5.1561457 0 0 1 -0.43152,0.019 5.1561457,5.1561457 0 0 0 0.43152,-0.019 z"
       id="path8213"
       inkscape:connector-curvature="0" />
    <path
       style="opacity:0.2;fill:#ffffff;fill-opacity:1;stroke:none"
       d="M 48 38.037109 A 17.187152 17.187152 0 0 0 30.8125 55.222656 A 17.187152 17.187152 0 0 0 30.833984 55.808594 A 17.187152 17.187152 0 0 1 48 39.037109 A 17.187152 17.187152 0 0 1 65.166016 55.636719 A 17.187152 17.187152 0 0 0 65.1875 55.222656 A 17.187152 17.187152 0 0 0 48 38.037109 z M 39.429688 55.636719 A 8.5935763 8.5935763 0 0 0 39.408203 56.222656 A 8.5935763 8.5935763 0 0 0 48 64.818359 A 8.5935763 8.5935763 0 0 0 56.59375 56.222656 A 8.5935763 8.5935763 0 0 0 56.572266 55.810547 A 8.5935763 8.5935763 0 0 1 48 63.818359 A 8.5935763 8.5935763 0 0 1 39.429688 55.636719 z M 20.5 69.476562 L 20.5 70.476562 C 20.5 74.091563 23.412314 77 27.027344 77 L 68.972656 77 C 72.587656 77 75.5 74.091562 75.5 70.476562 L 75.5 69.476562 C 75.5 73.091562 72.587656 76 68.972656 76 L 27.027344 76 C 23.412314 76 20.5 73.091563 20.5 69.476562 z "
       transform="translate(0,956.36218)"
       id="path4703" />
    <path
       style="opacity:0.1;fill:#000000;fill-opacity:1;stroke:none"
       d="M 41.066406 31.3125 C 38.008746 31.3125 36.219509 31.645666 34.417969 33.447266 C 32.616419 35.248766 31.577919 38.189453 29.068359 38.189453 L 27.027344 38.189453 C 23.412314 38.189453 20.5 41.099694 20.5 44.714844 L 20.5 45.714844 C 20.5 42.099674 23.412314 39.189453 27.027344 39.189453 L 29.068359 39.189453 C 31.577919 39.189453 32.616419 36.248766 34.417969 34.447266 C 36.219509 32.645666 38.008746 32.3125 41.066406 32.3125 L 54.933594 32.3125 C 57.991274 32.3125 59.782434 32.645666 61.583984 34.447266 C 63.385514 36.248766 64.422071 39.189453 66.931641 39.189453 L 68.972656 39.189453 C 72.587656 39.189453 75.5 42.099674 75.5 45.714844 L 75.5 44.714844 C 75.5 41.099694 72.587656 38.189453 68.972656 38.189453 L 66.931641 38.189453 C 64.422071 38.189453 63.385514 35.248766 61.583984 33.447266 C 59.782434 31.645666 57.991274 31.3125 54.933594 31.3125 L 41.066406 31.3125 z M 48 46.630859 A 8.5935763 8.5935763 0 0 0 39.408203 55.222656 A 8.5935763 8.5935763 0 0 0 39.429688 55.636719 A 8.5935763 8.5935763 0 0 1 48 47.630859 A 8.5935763 8.5935763 0 0 1 56.572266 55.810547 A 8.5935763 8.5935763 0 0 0 56.59375 55.222656 A 8.5935763 8.5935763 0 0 0 48 46.630859 z M 65.166016 55.636719 A 17.187152 17.187152 0 0 1 48 72.412109 A 17.187152 17.187152 0 0 1 30.833984 55.808594 A 17.187152 17.187152 0 0 0 30.8125 56.222656 A 17.187152 17.187152 0 0 0 48 73.412109 A 17.187152 17.187152 0 0 0 65.1875 56.222656 A 17.187152 17.187152 0 0 0 65.166016 55.636719 z "
       transform="translate(0,956.36218)"
       id="path4708" />
  </g>
</svg>
