<svg xmlns="http://www.w3.org/2000/svg" width="48" height="48">
<defs>
  <path
     d="M 5.125 8 C 3.391658 8 2 9.304406 2 10.9375 L 2.125 37.0625 C 2.125 38.695593 3.51666 39.999996 5.25 40 L 42.875 40 C 44.608342 40 46.000002 38.695593 46 37.0625 L 46 16.25 C 46 14.616907 44.608338 13.28125 42.875 13.28125 L 26.1875 13.28125 L 24.9375 10.9375 C 24.220631 9.042752 23.15482 7.9345843 21.8125 8 L 5.125 8 z M 13.40625 18.0625 C 13.41525 18.062162 13.42839 18.0625 13.4375 18.0625 L 17.4375 18.0625 C 17.824036 18.0625 18.093748 18.394713 18.09375 18.78125 L 18.09375 19.5 L 34.71875 19.5 C 35.491824 19.5 36.124998 20.133175 36.125 20.90625 L 36.125 32.5 C 36.125003 33.273077 35.491824 33.90625 34.71875 33.90625 L 12.53125 33.90625 C 11.758174 33.90625 11.125 33.273077 11.125 32.5 L 11.125 20.90625 C 11.125 20.151198 11.75207 19.528111 12.5 19.5 C 12.51197 19.499695 12.51915 19.5 12.53125 19.5 L 12.75 19.5 L 12.75 18.78125 C 12.75 18.403771 13.032346 18.07663 13.40625 18.0625 z M 30.90625 20.53125 C 30.743852 20.54543 30.59375 20.646311 30.59375 20.8125 L 30.59375 22.5625 C 30.59375 22.7382 30.761799 22.843751 30.9375 22.84375 L 34.4375 22.84375 C 34.613196 22.84375 34.718748 22.738197 34.71875 22.5625 L 34.71875 20.8125 C 34.71875 20.636803 34.613196 20.53125 34.4375 20.53125 L 30.9375 20.53125 C 30.9307 20.53125 30.91305 20.530823 30.90625 20.53125 z M 23.5 21.625 C 20.759098 21.6942 18.531251 23.961265 18.53125 26.71875 C 18.53125 29.519788 20.823965 31.8125 23.625 31.8125 C 26.426036 31.8125 28.718748 29.519787 28.71875 26.71875 C 28.71875 23.917712 26.426041 21.625 23.625 21.625 C 23.60314 21.625 23.58432 21.624725 23.5625 21.625 C 23.55178 21.625203 23.51074 21.624728 23.5 21.625 z M 23.625 23.4375 C 25.428167 23.437502 26.90625 24.915579 26.90625 26.71875 C 26.90625 28.521918 25.428169 29.96875 23.625 29.96875 C 21.821826 29.96875 20.375 28.521919 20.375 26.71875 C 20.375 24.915579 21.821827 23.4375 23.625 23.4375 z "
     id="path-main" />
</defs>
<acyl-settings>
<linearGradient
     id="linearGradient4321">
    <stop
       style="stop-color:#89F6FB;stop-opacity:1.0;"
       offset="0.5"
       id="stop1" />
    <stop
       style="stop-color:#10A1AA;stop-opacity:1.0;"
       offset="1.0"
       id="stop2" />
  </linearGradient>
<radialGradient
       inkscape:collect="always"
       xlink:href="#linearGradient4321"
       id="acyl_gradient"
       cx="50.0%"
       cy="50.0%"
       fx="50.0%"
       fy="50.0%"
       r="50.0%"
/>
<filter id="filter1111" x="-50%" y="-50%" width="200%" height="200%">
	<feImage
	id="feImage2"
	xlink:href="#1"
	result="result1" />
	<feComposite
	id="feComposite3633"
	in="result1"
	in2="SourceGraphic"
	operator="xor" />
</filter>
	<rect
	style="fill:#1A4B4F;fill-opacity:1.0;filter:url(#filter1111)"
	id="rect2835"
	width="48"
	height="48"
	x="0"
	y="0"
	rx="3.5"
	ry="3.5" />
	<rect
	style="fill:url(#acyl_gradient);filter:url(#filter1111)"
	id="rect2835"
	width="44"
	height="44"
	x="2"
	y="2"
	rx="3.5"
	ry="3.5" />
<defs>
<use id="1" transform="translate(22.5,22.5) scale(0.85) translate(-22.5,-22.5)" style="fill:#000000" xlink:href="#path-main" />
</defs>
	<use id="2" transform="translate(22.5,22.5) scale(0.85) translate(-22.5,-22.5)" style="fill:#1A4B4F;fill-opacity:1.0" xlink:href="#path-main" />
</acyl-settings>
</svg>
