<svg xmlns="http://www.w3.org/2000/svg" width="48" height="48">
<defs>
  <path
     d="M 5.125 8 C 3.391658 8 2 9.304406 2 10.9375 L 2.125 37.0625 C 2.125 38.695593 3.51666 39.999996 5.25 40 L 23.0625 40 L 23.0625 40.71875 C 22.47483 40.979166 21.984907 41.461568 21.75 42.0625 L 3 42.0625 C 2.96947 42.061 2.93678 42.061 2.90625 42.0625 C 2.366389 42.08781 1.974694 42.553888 2 43.09375 C 2.02531 43.633612 2.460139 44.056556 3 44.03125 L 21.8125 44.03125 C 22.20961 44.844062 23.066226 45.406249 24.03125 45.40625 C 24.996275 45.40625 25.82164 44.844062 26.21875 44.03125 L 45 44.03125 C 45.352524 44.03625 45.697282 43.835741 45.875 43.53125 C 46.052716 43.226759 46.052716 42.86699 45.875 42.5625 C 45.697282 42.25801 45.352524 42.057515 45 42.0625 L 26.3125 42.0625 C 26.077594 41.461568 25.587671 40.979166 25 40.71875 L 25 40 L 42.875 40 C 44.608342 40 46.000002 38.695593 46 37.0625 L 46 16.25 C 46 14.616907 44.608338 13.28125 42.875 13.28125 L 26.1875 13.28125 L 24.9375 10.9375 C 24.220631 9.042752 23.15482 7.9345843 21.8125 8 L 5.125 8 z M 17.53125 14.9375 C 18.048037 14.93105 18.598418 14.961152 19.1875 15.03125 C 20.365663 15.17137 21.650397 15.529898 23.0625 16.125 C 23.342848 16.243144 23.57583 16.266421 23.84375 16.375 C 25.999721 17.248748 27.823706 17.89349 29.1875 18.09375 C 30.694333 18.315015 31.630533 18.095588 32.4375 17.5625 C 32.862615 17.22646 33.450066 17.169496 33.9375 17.40625 C 34.424936 17.643005 34.751306 18.14561 34.75 18.6875 L 34.8125 26.84375 C 34.85614 27.042908 34.85614 27.269591 34.8125 27.46875 L 34.9375 34.84375 C 34.96237 34.995239 34.96237 35.161012 34.9375 35.3125 C 34.937626 35.32342 34.937625 35.33286 34.9375 35.34375 C 34.9282 35.38232 34.91874 35.431103 34.90625 35.46875 C 34.88229 35.55892 34.822487 35.603809 34.78125 35.6875 C 34.77595 35.69842 34.78685 35.70793 34.78125 35.71875 C 34.76619 35.75205 34.76761 35.811713 34.75 35.84375 C 34.7445 35.84925 34.693 35.83825 34.6875 35.84375 C 34.66709 35.87732 34.64814 35.936992 34.625 35.96875 C 34.60423 35.99677 34.55404 36.00483 34.53125 36.03125 C 34.52058 36.04229 34.51107 36.08303 34.5 36.09375 C 34.47359 36.11654 34.46553 36.13548 34.4375 36.15625 C 34.304102 36.277161 34.137567 36.374926 33.96875 36.4375 C 33.95421 36.4461 33.95209 36.46029 33.9375 36.46875 C 32.557056 37.269404 30.929799 37.517304 29.1875 37.28125 C 27.283902 37.023341 25.159593 36.295158 22.53125 35.1875 C 18.297992 33.403483 15.49557 34.458297 14.96875 34.6875 C 14.96325 34.693 14.943 34.71335 14.9375 34.71875 C 14.57302 34.977778 14.112656 35.044748 13.6875 34.90625 C 13.262341 34.767752 12.923224 34.424009 12.78125 34 C 12.77565 33.98921 12.75531 34.01092 12.75 34 C 12.72644 33.91992 12.72782 33.801736 12.71875 33.71875 C 12.71065 33.67006 12.69037 33.611777 12.6875 33.5625 L 12.6875 33.4375 L 12.46875 17.34375 C 12.46495 17.283903 12.46495 17.216101 12.46875 17.15625 C 12.46725 17.118138 12.46725 17.069362 12.46875 17.03125 C 12.47967 16.800635 12.569694 16.636054 12.6875 16.4375 C 12.693 16.43204 12.71325 16.380409 12.71875 16.375 C 12.79048 16.259462 12.898359 16.152855 13 16.0625 C 13.176174 15.90306 13.362581 15.804952 13.59375 15.75 C 13.983937 15.567801 14.779481 15.246951 16.09375 15.0625 C 16.525703 15.001884 17.014462 14.943939 17.53125 14.9375 z M 17.5625 17.78125 C 17.169939 17.791795 16.79077 17.798555 16.46875 17.84375 C 15.943674 17.917442 15.612427 18.030676 15.3125 18.125 L 15.40625 23.6875 C 16.932904 23.331041 19.154407 23.101148 21.96875 23.9375 L 21.9375 18.6875 C 20.795841 18.213936 19.746055 17.919553 18.84375 17.8125 C 18.383112 17.757851 17.955061 17.770717 17.5625 17.78125 z M 24.75 19.75 L 24.8125 24.9375 C 26.689079 25.683909 28.287329 26.306728 29.46875 26.5 C 30.585393 26.682676 31.334412 26.562075 32 26.28125 L 31.90625 20.78125 C 30.919529 20.998582 29.888252 21.037554 28.78125 20.875 C 27.563467 20.696179 26.189186 20.263756 24.75 19.75 z M 17.875 26.125 C 17.497361 26.1236 17.123859 26.14693 16.8125 26.1875 C 16.201087 26.26716 15.78442 26.380861 15.4375 26.5 L 15.5 31.6875 C 17.040574 31.375924 19.303737 31.227858 22.09375 32.0625 L 22.03125 26.96875 C 20.419739 26.34864 19.007916 26.128981 17.875 26.125 z M 24.84375 28.03125 L 24.9375 33.0625 C 26.811176 33.796772 28.362933 34.341712 29.53125 34.5 C 30.644473 34.650825 31.408487 34.496153 32.09375 34.1875 L 32.03125 29.21875 C 31.083977 29.412859 30.076059 29.420923 29.03125 29.25 C 27.777387 29.044876 26.359793 28.601913 24.84375 28.03125 z "
     id="path-main" />
</defs>
<acyl-settings>
<linearGradient
     id="linearGradient4321">
    <stop
       style="stop-color:#89F6FB;stop-opacity:1.0;"
       offset="0.5"
       id="stop1" />
    <stop
       style="stop-color:#10A1AA;stop-opacity:1.0;"
       offset="1.0"
       id="stop2" />
  </linearGradient>
<radialGradient
       inkscape:collect="always"
       xlink:href="#linearGradient4321"
       id="acyl_gradient"
       cx="50.0%"
       cy="50.0%"
       fx="50.0%"
       fy="50.0%"
       r="50.0%"
/>
<filter id="filter1111" x="-50%" y="-50%" width="200%" height="200%">
	<feImage
	id="feImage2"
	xlink:href="#1"
	result="result1" />
	<feComposite
	id="feComposite3633"
	in="result1"
	in2="SourceGraphic"
	operator="xor" />
</filter>
	<rect
	style="fill:#1A4B4F;fill-opacity:1.0;filter:url(#filter1111)"
	id="rect2835"
	width="48"
	height="48"
	x="0"
	y="0"
	rx="3.5"
	ry="3.5" />
	<rect
	style="fill:url(#acyl_gradient);filter:url(#filter1111)"
	id="rect2835"
	width="44"
	height="44"
	x="2"
	y="2"
	rx="3.5"
	ry="3.5" />
<defs>
<use id="1" transform="translate(22.5,22.5) scale(0.85) translate(-22.5,-22.5)" style="fill:#000000" xlink:href="#path-main" />
</defs>
	<use id="2" transform="translate(22.5,22.5) scale(0.85) translate(-22.5,-22.5)" style="fill:#1A4B4F;fill-opacity:1.0" xlink:href="#path-main" />
</acyl-settings>
</svg>
