<svg xmlns="http://www.w3.org/2000/svg" width="48" height="48">
<defs>
    <path
       d="M 34.90625,5.03125 C 34.276002,5.0756129 33.683924,5.410804 33.34375,6 L 28.8125,13.84375 C 28.268222,14.786464 28.557285,16.018222 29.5,16.5625 L 30.4375,17.09375 C 30.447084,17.074638 30.458655,17.05047 30.46875,17.03125 C 30.607339,17.125605 30.7229,17.224685 30.875,17.3125 C 31.512844,17.68076 32.168185,17.839597 32.84375,17.96875 C 33.466347,20.473538 32.170267,24.204734 29.15625,27.21875 C 26.15369,30.22131 22.442174,31.511799 19.9375,30.90625 C 19.801329,30.229508 19.612785,29.565862 19.25,28.9375 C 19.235725,28.912775 19.20218,28.899712 19.1875,28.875 C 19.146062,28.750839 19.068035,28.617839 19,28.5 L 18.5,27.59375 C 17.955723,26.651035 16.723965,26.299474 15.78125,26.84375 L 7.9375,31.375 C 6.9947847,31.919276 6.6744735,33.182284 7.21875,34.125 L 7.71875,35 C 7.7547899,35.062423 7.801984,35.130718 7.84375,35.1875 C 7.8821785,35.263881 7.9245398,35.329674 7.96875,35.40625 C 8.7489832,36.757652 9.9823781,37.737231 11.34375,38.25 C 11.386968,38.266278 11.425213,38.297174 11.46875,38.3125 C 14.040183,40.090539 17.655683,40.203332 21.53125,39 C 25.464662,37.778707 29.676193,35.198807 33.40625,31.46875 C 37.1563,27.7187 39.752691,23.485496 40.96875,19.53125 C 42.167143,15.634447 42.012002,11.96741 40.1875,9.40625 C 40.171421,9.3625513 40.142023,9.3246065 40.125,9.28125 C 39.605738,7.9587399 38.66614,6.794732 37.34375,6.03125 C 37.203453,5.9502494 37.077416,5.8759551 36.9375,5.8125 C 36.916317,5.8028933 36.89619,5.790563 36.875,5.78125 L 36.03125,5.28125 C 35.677732,5.0771462 35.284399,5.0046322 34.90625,5.03125 z M 34.78125,6.03125 C 35.017854,5.9678522 35.292292,6.0182877 35.53125,6.15625 L 30.03125,15.75 L 30,15.71875 C 29.522082,15.442824 29.411576,14.821665 29.6875,14.34375 L 34.21875,6.5 C 34.356714,6.2610423 34.544646,6.0946478 34.78125,6.03125 z M 16.65625,27.59375 C 17.03537,27.550276 17.418056,27.735311 17.625,28.09375 L 8.09375,33.625 C 7.8178254,33.147084 7.959584,32.525926 8.4375,32.25 L 16.28125,27.71875 C 16.400729,27.649769 16.529877,27.608241 16.65625,27.59375 z"
       id="path-main"
        />
</defs>
<acyl-settings>
<linearGradient
     id="linearGradient4321">
    <stop
       style="stop-color:#89F6FB;stop-opacity:1.0;"
       offset="0.5"
       id="stop1" />
    <stop
       style="stop-color:#10A1AA;stop-opacity:1.0;"
       offset="1.0"
       id="stop2" />
  </linearGradient>
<radialGradient
       inkscape:collect="always"
       xlink:href="#linearGradient4321"
       id="acyl_gradient"
       cx="50.0%"
       cy="50.0%"
       fx="50.0%"
       fy="50.0%"
       r="50.0%"
/>
<filter id="filter1111" x="-50%" y="-50%" width="200%" height="200%">
	<feImage
	id="feImage2"
	xlink:href="#1"
	result="result1" />
	<feComposite
	id="feComposite3633"
	in="result1"
	in2="SourceGraphic"
	operator="xor" />
</filter>
	<rect
	style="fill:#1A4B4F;fill-opacity:1.0;filter:url(#filter1111)"
	id="rect2835"
	width="48"
	height="48"
	x="0"
	y="0"
	rx="3.5"
	ry="3.5" />
	<rect
	style="fill:url(#acyl_gradient);filter:url(#filter1111)"
	id="rect2835"
	width="44"
	height="44"
	x="2"
	y="2"
	rx="3.5"
	ry="3.5" />
<defs>
<use id="1" transform="translate(22.5,22.5) scale(0.85) translate(-22.5,-22.5)" style="fill:#000000" xlink:href="#path-main" />
</defs>
	<use id="2" transform="translate(22.5,22.5) scale(0.85) translate(-22.5,-22.5)" style="fill:#1A4B4F;fill-opacity:1.0" xlink:href="#path-main" />
</acyl-settings>
</svg>
