<svg xmlns="http://www.w3.org/2000/svg" width="48" height="48">
<defs>
  <path
     d="m 8.1591853,2.0017242 c -2.495566,-0.01908 -4.766155,1.484246 -5.710582,3.795312 -0.944425,2.311065 -0.363605,4.9596738 1.421722,6.6892378 L 15.38627,23.990814 3.8703253,35.495355 c -2.386565,2.389115 -2.386565,6.292661 0,8.681776 2.386563,2.389116 6.2622427,2.389114 8.6488057,0 l 11.515945,-11.50454 11.492249,11.50454 c 1.535925,1.581461 3.775279,2.180684 5.900144,1.613008 2.128468,-0.56863 3.835864,-2.238446 4.383642,-4.38833 0.545439,-2.140691 -0.110653,-4.387614 -1.706066,-5.906454 L 32.612796,23.990814 44.105045,12.486274 c 1.802414,-1.744874 2.393614,-4.4338298 1.421721,-6.7603998 -0.971891,-2.326568 -3.302275,-3.783096 -5.805363,-3.72415 -1.592601,0.06296 -3.099512,0.737876 -4.194078,1.897656 L 24.035076,15.40392 12.519131,3.8756602 C 11.37844,2.6695062 9.8183153,2.0141882 8.1591853,2.0017242 z"
     id="path-main"
      />
</defs>
<acyl-settings>
<linearGradient
     id="linearGradient4321">
    <stop
       style="stop-color:#89F6FB;stop-opacity:1.0;"
       offset="0.5"
       id="stop1" />
    <stop
       style="stop-color:#10A1AA;stop-opacity:1.0;"
       offset="1.0"
       id="stop2" />
  </linearGradient>
<radialGradient
       inkscape:collect="always"
       xlink:href="#linearGradient4321"
       id="acyl_gradient"
       cx="50.0%"
       cy="50.0%"
       fx="50.0%"
       fy="50.0%"
       r="50.0%"
/>
<filter id="filter1111" x="-50%" y="-50%" width="200%" height="200%">
	<feImage
	id="feImage2"
	xlink:href="#1"
	result="result1" />
	<feComposite
	id="feComposite3633"
	in="result1"
	in2="SourceGraphic"
	operator="xor" />
</filter>
	<rect
	style="fill:#1A4B4F;fill-opacity:1.0;filter:url(#filter1111)"
	id="rect2835"
	width="48"
	height="48"
	x="0"
	y="0"
	rx="3.5"
	ry="3.5" />
	<rect
	style="fill:url(#acyl_gradient);filter:url(#filter1111)"
	id="rect2835"
	width="44"
	height="44"
	x="2"
	y="2"
	rx="3.5"
	ry="3.5" />
<defs>
<use id="1" transform="translate(22.5,22.5) scale(0.85) translate(-22.5,-22.5)" style="fill:#000000" xlink:href="#path-main" />
</defs>
	<use id="2" transform="translate(22.5,22.5) scale(0.85) translate(-22.5,-22.5)" style="fill:#1A4B4F;fill-opacity:1.0" xlink:href="#path-main" />
</acyl-settings>
</svg>
