<svg xmlns="http://www.w3.org/2000/svg" width="48" height="48">
<defs>
<defs
     id="defs1308">
  </defs>
  <path
     d="M 7.893631,9.5580449 2,26.227775 l 4.1313198,0 1.0111621,-3.033486 6.4425481,0 0.982271,3.033486 4.16021,0 -5.922521,-16.6697301 -4.911359,0 z m 12.509521,0.173342 0,16.4963881 3.842416,0 0,-1.791201 c 0.526875,0.729865 1.323724,1.267824 1.964544,1.617859 0.640792,0.342588 1.391488,0.520027 2.224556,0.520027 1.473861,0 2.693183,-0.627578 3.640184,-1.848983 0.946962,-1.228846 1.415614,-2.809089 1.415627,-4.738017 -1.4e-5,-1.928914 -0.468666,-3.487715 -1.415627,-4.709126 -0.947,-1.228841 -2.166322,-1.848969 -3.640184,-1.848983 -0.833069,1.4e-5 -1.583764,0.170004 -2.224556,0.520027 -0.64082,0.3426 -1.437669,0.888008 -1.964544,1.617859 l 0,-5.8358501 -3.842416,0 z m 21.927774,3.6979641 c -2.1574,1.4e-5 -3.867154,0.57161 -5.084701,1.733421 -1.217532,1.154384 -1.820093,2.761717 -1.820092,4.824688 0,2.062985 0.602562,3.691758 1.820092,4.853579 1.217545,1.154375 2.9273,1.733421 5.084701,1.733421 0.619445,0 1.207751,-0.08308 1.820092,-0.202233 C 44.770451,26.260514 45.401901,26.111966 46,25.881091 l 0,-3.293499 c -0.455688,0.364934 -0.961185,0.651634 -1.502298,0.83782 -0.534019,0.18619 -1.106457,0.288905 -1.704531,0.288903 -1.068025,3e-6 -1.886481,-0.334328 -2.48457,-0.982272 -0.590979,-0.655383 -0.895601,-1.575308 -0.8956,-2.744583 0,-1.169263 0.304623,-2.067743 0.8956,-2.715692 0.598087,-0.655377 1.416545,-0.982262 2.48457,-0.982272 0.562475,1.1e-5 1.098079,0.08128 1.61786,0.260013 0.526886,0.178752 1.06919,0.465452 1.588969,0.83782 L 46,14.12272 C 45.394781,13.891857 44.763329,13.714418 44.151018,13.602693 43.545799,13.483545 42.95749,13.429365 42.330926,13.429351 z m -31.981615,0.02889 2.195666,6.355876 -4.3624425,0 2.1667765,-6.355876 z m 16.66973,2.860144 c 0.818818,10e-6 1.421762,0.327796 1.848983,0.953382 0.434314,0.625605 0.664465,1.524087 0.664478,2.715692 -1.3e-5,1.191617 -0.230163,2.118989 -0.664478,2.744583 -0.427222,0.6256 -1.030165,0.924493 -1.848983,0.924491 -0.818816,3e-6 -1.696451,-0.298891 -2.137885,-0.924491 -0.434341,-0.63304 -0.6356,-1.560411 -0.635588,-2.744583 -1.2e-5,-1.184158 0.201247,-2.090087 0.635588,-2.715692 0.441434,-0.633037 1.319069,-0.953372 2.137885,-0.953382 z M 16.242942,33.21924 c -0.171188,0.02644 -0.320799,0.153465 -0.375575,0.317793 -0.05478,0.164331 -0.0055,0.338383 0.115561,0.462246 l 7.858175,8.32042 c 0.08776,0.09949 0.214024,0.144452 0.346684,0.144452 0.13266,10e-7 0.258927,-0.04497 0.346684,-0.144452 l 7.858175,-8.32042 c 0.128377,-0.135557 0.162497,-0.349419 0.08667,-0.520026 -0.07582,-0.170607 -0.24671,-0.264466 -0.433355,-0.260013 l -15.716349,0 c -0.02883,-0.0027 -0.05785,-0.0027 -0.08667,0 z"
     id="path-main"
      />
</defs>
<acyl-settings>
<linearGradient
     id="linearGradient4321">
    <stop
       style="stop-color:#89F6FB;stop-opacity:1.0;"
       offset="0.5"
       id="stop1" />
    <stop
       style="stop-color:#10A1AA;stop-opacity:1.0;"
       offset="1.0"
       id="stop2" />
  </linearGradient>
<radialGradient
       inkscape:collect="always"
       xlink:href="#linearGradient4321"
       id="acyl_gradient"
       cx="50.0%"
       cy="50.0%"
       fx="50.0%"
       fy="50.0%"
       r="50.0%"
/>
<filter id="filter1111" x="-50%" y="-50%" width="200%" height="200%">
	<feImage
	id="feImage2"
	xlink:href="#1"
	result="result1" />
	<feComposite
	id="feComposite3633"
	in="result1"
	in2="SourceGraphic"
	operator="xor" />
</filter>
	<rect
	style="fill:#1A4B4F;fill-opacity:1.0;filter:url(#filter1111)"
	id="rect2835"
	width="48"
	height="48"
	x="0"
	y="0"
	rx="3.5"
	ry="3.5" />
	<rect
	style="fill:url(#acyl_gradient);filter:url(#filter1111)"
	id="rect2835"
	width="44"
	height="44"
	x="2"
	y="2"
	rx="3.5"
	ry="3.5" />
<defs>
<use id="1" transform="translate(22.5,22.5) scale(0.85) translate(-22.5,-22.5)" style="fill:#000000" xlink:href="#path-main" />
</defs>
	<use id="2" transform="translate(22.5,22.5) scale(0.85) translate(-22.5,-22.5)" style="fill:#1A4B4F;fill-opacity:1.0" xlink:href="#path-main" />
</acyl-settings>
</svg>
