<svg xmlns="http://www.w3.org/2000/svg" width="48" height="48">
<defs>
  <path
     d="m 23.966649,3 c -1.279366,10e-8 -2.426931,0.7553955 -3.051201,1.875 l 0,0.03125 L 2.390305,40.0625 C 1.8721968,41.094092 1.8371985,42.423318 2.483709,43.46875 3.1107974,44.482781 4.20302,45 5.4103702,45 l 37.1748248,0 c 1.229658,10e-7 2.353704,-0.619892 2.895526,-1.65625 l 0.03113,0.03125 c 0.01095,-0.01747 -0.01058,-0.04489 0,-0.0625 0.610698,-1.016823 0.631914,-2.257815 0.155673,-3.34375 l -0.03113,-0.03125 0,-0.03125 L 26.986714,4.75 C 26.364492,3.6171084 25.207745,3 23.966649,3 z m 0.03113,10.6875 13.20111,24.78125 c 0.07102,0.119113 0.0487,0.115984 0.06227,0.09375 0.01357,-0.02223 0.0062,0 -0.0934,0 l -26.339951,0 c -0.09961,0 -0.0793,-0.03026 -0.06227,0 0.01703,0.03026 -0.01379,0.03201 0.06227,-0.09375 L 23.997783,13.6875 z m -2.303967,6.65625 0.06227,0.46875 1.120849,8.9375 0,0.125 0.0934,0.125 1.307657,1.4375 0.622694,0.71875 0.0934,-0.96875 1.120849,-10.375 0.03113,-0.46875 -0.46702,0 -3.487086,0 -0.498155,0 z m 3.206873,11.8125 c -0.318913,-0.144184 -0.572595,-0.375 -0.965175,-0.375 -0.705876,0 -1.335313,0.239368 -1.774678,0.6875 -0.439366,0.448132 -0.653828,1.061289 -0.653828,1.78125 -10e-7,1.387413 1.068235,2.53125 2.428506,2.53125 1.432214,10e-7 2.428505,-1.166315 2.428506,-2.53125 -0.04918,-0.70223 -0.259828,-1.333645 -0.684963,-1.78125 -0.188692,-0.198665 -0.523861,-0.197434 -0.778368,-0.3125 z"
     id="path-main" />
</defs>
<acyl-settings>
<linearGradient
     id="linearGradient4321">
    <stop
       style="stop-color:#89F6FB;stop-opacity:1.0;"
       offset="0.5"
       id="stop1" />
    <stop
       style="stop-color:#10A1AA;stop-opacity:1.0;"
       offset="1.0"
       id="stop2" />
  </linearGradient>
<radialGradient
       inkscape:collect="always"
       xlink:href="#linearGradient4321"
       id="acyl_gradient"
       cx="50.0%"
       cy="50.0%"
       fx="50.0%"
       fy="50.0%"
       r="50.0%"
/>
<filter id="filter1111" x="-50%" y="-50%" width="200%" height="200%">
	<feImage
	id="feImage2"
	xlink:href="#1"
	result="result1" />
	<feComposite
	id="feComposite3633"
	in="result1"
	in2="SourceGraphic"
	operator="xor" />
</filter>
	<rect
	style="fill:#1A4B4F;fill-opacity:1.0;filter:url(#filter1111)"
	id="rect2835"
	width="48"
	height="48"
	x="0"
	y="0"
	rx="3.5"
	ry="3.5" />
	<rect
	style="fill:url(#acyl_gradient);filter:url(#filter1111)"
	id="rect2835"
	width="44"
	height="44"
	x="2"
	y="2"
	rx="3.5"
	ry="3.5" />
<defs>
<use id="1" transform="translate(22.5,22.5) scale(0.85) translate(-22.5,-22.5)" style="fill:#000000" xlink:href="#path-main" />
</defs>
	<use id="2" transform="translate(22.5,22.5) scale(0.85) translate(-22.5,-22.5)" style="fill:#1A4B4F;fill-opacity:1.0" xlink:href="#path-main" />
</acyl-settings>
</svg>
