<svg xmlns="http://www.w3.org/2000/svg" width="48" height="48">
<defs>
<defs
     id="defs4910">
  </defs>
  <path
     d="m 7.6565,4.65625 c -2.0829,0 -3.8125,1.729597 -3.8125,3.8125 l 0,31.0625 c 0,2.082903 1.7296,3.8125 3.8125,3.8125 l 33.71875,0 c 2.0829,0 3.8125,-1.729597 3.8125,-3.8125 l 0,-31.0625 c 0,-2.082903 -1.7296,-3.8125 -3.8125,-3.8125 l -33.71875,0 z m 0.90625,2.375 31.84375,0 c 1.002859,0 1.8125,0.8096414 1.8125,1.8125 l 0.03125,30.0625 c 0.019,0.01423 -0.09473,1.374423 -1.5,1.46875 -1.275905,0.08564 -3.008148,0.148347 -5,0.1875 l 0,-28.15625 4.65625,0 c 0.466156,0 0.8125,-0.346344 0.8125,-0.8125 l 0,-2.75 c 0,-0.4661558 -0.346344,-0.8125 -0.8125,-0.8125 l -31.84375,0 c -0.4661558,0 -0.8125,0.3463442 -0.8125,0.8125 l 0,2.75 c 0,0.466156 0.3463442,0.8125 0.8125,0.8125 l 3.4375,0 0,28.15625 C 11.241511,40.5583 9.7763401,40.5319 9.18775,40.53125 7.5802884,40.52945 6.9746436,38.901455 6.969,38.90625 l -0.21875,-27.3125 0,-2.75 c 0,-1.0028586 0.8096414,-1.8125 1.8125,-1.8125 z m 5.9375,5.375 4.5,0 0,28.1875 c -1.481099,-0.0096 -3.191046,-0.02201 -4.5,-0.03125 l 0,-28.15625 z m 7,0 4.5,0 0,28.21875 c -1.564093,-0.0023 -2.963438,-0.02319 -4.5,-0.03125 l 0,-28.1875 z m 7,0 4.75,0 0,28.1875 c -1.541988,0.01776 -3.060045,0.02837 -4.75,0.03125 l 0,-28.21875 z"
     id="path-main"
      />
</defs>
<acyl-settings>
<linearGradient
     id="linearGradient4321">
    <stop
       style="stop-color:#89F6FB;stop-opacity:1.0;"
       offset="0.5"
       id="stop1" />
    <stop
       style="stop-color:#10A1AA;stop-opacity:1.0;"
       offset="1.0"
       id="stop2" />
  </linearGradient>
<radialGradient
       inkscape:collect="always"
       xlink:href="#linearGradient4321"
       id="acyl_gradient"
       cx="50.0%"
       cy="50.0%"
       fx="50.0%"
       fy="50.0%"
       r="50.0%"
/>
<filter id="filter1111" x="-50%" y="-50%" width="200%" height="200%">
	<feImage
	id="feImage2"
	xlink:href="#1"
	result="result1" />
	<feComposite
	id="feComposite3633"
	in="result1"
	in2="SourceGraphic"
	operator="xor" />
</filter>
	<rect
	style="fill:#1A4B4F;fill-opacity:1.0;filter:url(#filter1111)"
	id="rect2835"
	width="48"
	height="48"
	x="0"
	y="0"
	rx="3.5"
	ry="3.5" />
	<rect
	style="fill:url(#acyl_gradient);filter:url(#filter1111)"
	id="rect2835"
	width="44"
	height="44"
	x="2"
	y="2"
	rx="3.5"
	ry="3.5" />
<defs>
<use id="1" transform="translate(22.5,22.5) scale(0.85) translate(-22.5,-22.5)" style="fill:#000000" xlink:href="#path-main" />
</defs>
	<use id="2" transform="translate(22.5,22.5) scale(0.85) translate(-22.5,-22.5)" style="fill:#1A4B4F;fill-opacity:1.0" xlink:href="#path-main" />
</acyl-settings>
</svg>
