{ 
   "shell-theme": {
   "name": "Orta", 
   "author": "Half-Left", 
   "version": "1.0",
   "type":   "custom",
   "thumbnail": "preview-orta.jpg", 
   "url": "http://half-left.deviantart.com/art/GNOME-Shell-Orta-207047273" 
    }
}
