<svg xmlns="http://www.w3.org/2000/svg" width="48" height="48">
<defs>
  <path
     d="M 11.5 3.53125 C 10.266505 3.53125 9.28125 4.5747806 9.28125 5.84375 L 9.28125 43.25 C 9.28125 44.51897 10.266505 45.53125 11.5 45.53125 L 39 45.53125 C 40.233493 45.53125 41.25 44.51897 41.25 43.25 L 41.28125 14.65625 L 30.4375 3.53125 L 11.5 3.53125 z M 24.125 8.5 C 28.750038 8.5 28.8125 11.95898 28.8125 12.03125 L 28.8125 16.03125 C 28.8125 16.03125 29.856123 16.136938 29.75 17.03125 C 29.709729 17.370625 29.70309 17.357714 29.59375 17.5625 C 29.484409 17.767285 29.15625 18.1875 29.15625 18.1875 L 29.03125 20.15625 C 29.783226 19.75832 30.531428 19.382965 31.1875 19.03125 C 31.843572 18.679534 32.395892 18.331893 32.5625 18.1875 C 33.081211 17.737949 33.21811 17.43943 33.25 17.34375 L 33.03125 17.15625 L 33.40625 16.9375 C 33.40625 16.9375 34.832536 16.013146 35.625 15.46875 L 36.1875 15.09375 L 36.59375 15.78125 C 36.741506 16.104581 37.303293 16.879936 37.8125 17.53125 C 38.321706 18.182564 38.78125 18.75 38.78125 18.75 L 39.1875 19.46875 L 38.59375 19.8125 C 38.59375 19.8125 37.986978 20.181999 37.34375 20.5625 C 37.022136 20.752751 36.683591 20.967498 36.40625 21.125 C 36.128909 21.282502 35.930582 21.37777 35.78125 21.4375 L 35.53125 21.53125 L 35.375 21.28125 C 35.313872 21.158921 35.256733 21.09673 35.15625 21.0625 C 35.055767 21.02826 34.923934 21.04462 34.78125 21.0625 C 34.495882 21.098254 34.21875 21.21875 34.21875 21.21875 L 30.71875 23.34375 C 31.785899 25.267346 32.84144 27.618701 32.21875 29.53125 C 31.685445 31.169256 31.004184 32.569224 29.875 33.59375 C 30.157417 33.769629 30.538667 33.992744 30.9375 34.21875 C 31.491711 34.532804 31.899218 34.814874 32.1875 35.0625 C 32.475781 35.310126 32.64143 35.526104 32.71875 35.78125 C 32.7574 35.908823 32.7687 36.056647 32.71875 36.1875 C 32.668806 36.318352 32.570929 36.40364 32.46875 36.46875 C 32.264391 36.598979 32.034182 36.65625 31.78125 36.65625 C 31.474384 36.65625 31.169424 36.546765 30.875 36.40625 C 30.81517 36.536943 30.749043 36.67717 30.625 36.75 C 30.462825 36.845224 30.281378 36.89748 30.03125 36.9375 C 29.146007 37.079139 28.495304 36.721423 28.03125 36.34375 C 28.01572 36.407767 28.02897 36.4675 28 36.53125 C 27.877954 36.799752 27.644726 37.037834 27.28125 37.1875 C 26.88033 37.352584 26.469954 37.315772 26.125 37.15625 C 25.780048 36.996727 25.467017 36.727907 25.21875 36.46875 C 24.722216 35.950433 24.40625 35.375 24.40625 35.375 C 23.912746 35.376085 23.4375 35.331985 23 35.28125 C 22.961854 35.530319 22.818041 36.221714 22.25 36.71875 C 21.864195 37.056329 21.311657 37.14625 20.8125 37.15625 C 20.313341 37.166233 19.862525 37.095851 19.53125 36.875 C 19.396351 36.785066 19.39124 36.658848 19.375 36.53125 C 18.914583 36.850752 18.438998 37.07483 18 37.125 C 17.643741 37.16572 17.327667 37.14065 17.0625 37.0625 C 16.797333 36.984346 16.53705 36.861147 16.4375 36.5625 C 16.42385 36.521586 16.47415 36.50739 16.46875 36.46875 C 16.309263 36.552139 16.180872 36.6745 16 36.71875 C 15.616455 36.812596 15.181691 36.775965 14.78125 36.53125 C 14.555743 36.393441 14.36847 36.130448 14.40625 35.875 C 14.444025 35.619553 14.63236 35.439674 14.8125 35.28125 C 15.616317 34.744509 16.449499 34.276566 17.375 33.96875 C 14.207215 33.667552 12.21145 30.749901 12.21875 28.1875 C 12.23597 26.748814 12.26154 26.185632 13.09375 25.03125 C 14.162538 23.893065 15.146678 22.532738 16.5625 21.84375 L 18.0625 21 L 18.84375 18.40625 C 18.84375 18.40625 18.25977 18.013679 18.1875 17.21875 C 18.115233 16.423821 19 16.25 19 16.25 L 18.9375 11.59375 C 18.9375 11.59375 19.49996 8.5 24.125 8.5 z M 25.90625 11.46875 C 25.798839 11.47542 25.679933 11.50415 25.5625 11.53125 C 23.683577 11.964847 24.125 14.71875 24.125 14.71875 C 25.678848 14.760681 26.07687 15.473389 26.71875 16.0625 C 26.71875 16.0625 27.730468 15.148445 27.875 14.28125 C 28.010499 13.468256 27.517421 11.368714 25.90625 11.46875 z M 21.84375 11.59375 C 21.217347 11.692551 20.627931 12.389392 20.375 13.84375 C 20.085934 15.505874 21.4375 16.0625 21.4375 16.0625 C 22.000185 15.534326 22.339631 14.82991 23.625 14.84375 C 23.625 14.84375 24.029299 14.851574 23.8125 13.40625 C 23.595701 11.960924 22.816412 11.66602 22.09375 11.59375 C 22.003417 11.58475 21.93324 11.57964 21.84375 11.59375 z M 25.84375 12.96875 C 26.494146 12.896484 26.71875 13.306636 26.71875 13.8125 C 26.71875 14.318363 26.568364 14.554685 26.0625 14.84375 C 26.0625 14.84375 25.816542 14.536495 25.15625 14.1875 C 25.142493 13.597549 25.193353 13.04102 25.84375 12.96875 z M 22.25 13 C 22.25 13 23.19727 13.080072 23.125 13.875 C 23.052733 14.66993 22.726439 14.329226 21.96875 14.9375 C 21.96875 14.9375 21.375 14.691412 21.375 13.96875 C 21.375 13.246088 22.25 13 22.25 13 z M 23.9375 15.875 C 22.679336 15.812091 22 17 22 17 L 19.875 17.0625 C 19.547984 16.993355 18.971431 17.173647 19.46875 17.9375 C 20.133284 18.307177 21.611328 19.386295 22.125 20.03125 C 22.217017 20.146783 22.165447 20.41794 22.3125 20.53125 C 22.698769 21.376693 25.059282 21.129517 25.28125 20.75 C 25.503218 20.370483 25.543762 20.242494 25.78125 19.9375 C 26.505681 19.007148 27.664467 18.367046 28.53125 17.375 C 29.034516 16.557192 27.8125 16.84375 27.8125 16.84375 L 25.78125 16.9375 C 25.78125 16.9375 25.195664 15.93791 23.9375 15.875 z M 35.96875 16.53125 C 35.215068 17.033471 34.326301 17.581586 34.15625 17.6875 C 34.15309 17.754902 34.14995 17.8314 34.125 17.90625 C 34.030427 18.189972 33.784033 18.510089 33.21875 19 C 32.924419 19.255088 32.395574 19.54341 31.71875 19.90625 C 31.041927 20.269091 25.21875 23.03125 25.21875 23.03125 C 25.21875 23.03125 24.705092 21.441403 23.1875 21.875 C 21.669908 22.308597 21.3125 22.90625 21.3125 22.90625 C 22.327945 23.993278 24.71312 26.845221 22.03125 28.75 C 21.809769 28.907307 20.93572 28.873043 20.5625 28.46875 C 20.145 28.016493 19.959453 27.70243 19.84375 27.78125 C 19.297431 28.153401 18.661839 28.12075 18.25 28.0625 C 16.54853 27.821848 15.160737 26.575263 14.78125 25.03125 C 14.78125 25.03125 11.553768 28.106477 15.09375 31.6875 C 17.066865 33.087659 19.450155 32.864436 20.71875 31.53125 C 20.71875 31.53125 22.26562 29.24023 22.84375 29.3125 C 23.42188 29.384766 25.197257 29.240244 26.28125 28.15625 C 27.365244 27.072257 25.712897 28.160163 25.0625 27.4375 C 24.412104 26.714838 25.34375 25.46875 25.34375 25.46875 L 33.78125 20.1875 L 33.8125 20.1875 C 33.8125 20.1875 34.150749 20.02034 34.5625 19.96875 C 34.768375 19.94295 34.984455 19.95143 35.21875 20.03125 C 35.344222 20.073996 35.453309 20.2146 35.5625 20.3125 C 35.657349 20.2642 35.769211 20.238318 35.96875 20.125 C 36.240181 19.970855 36.555251 19.751648 36.875 19.5625 C 37.348793 19.28223 37.58016 19.15266 37.78125 19.03125 C 37.624822 18.843197 37.450685 18.590269 37.0625 18.09375 C 36.627563 17.537432 36.239213 17.003768 35.96875 16.53125 z M 18.625 22.34375 C 17.515931 22.362261 16.234488 23.178384 15.53125 24.375 C 15.599845 25.960989 17.624726 27.552991 18.8125 27.375 C 20.024161 27.193429 20.225142 26.460559 21.03125 27.84375 C 22.599082 28.576743 22.75298 25.877934 21.84375 25.03125 C 20.853252 23.574545 20.385294 22.31437 18.625 22.34375 z M 29.34375 34.03125 C 28.395845 34.711904 27.163857 35.169522 25.5625 35.3125 C 25.423413 35.32492 25.291672 35.3043 25.15625 35.3125 C 25.280972 35.501506 25.447694 35.749672 25.6875 36 C 25.901027 36.222893 26.143259 36.455332 26.375 36.5625 C 26.606741 36.66967 26.817905 36.6816 27.03125 36.59375 C 27.282037 36.490484 27.35892 36.385371 27.40625 36.28125 C 27.611219 35.976859 27.443949 35.569709 27.125 35.28125 L 27.71875 34.96875 C 27.8863 35.250163 27.982669 35.567013 28.25 35.78125 C 28.606405 36.129735 29.109792 36.408684 29.90625 36.28125 C 30.015289 36.241078 30.3583 36.250749 30.3125 36.125 C 29.940956 35.832525 29.558259 35.542603 29.1875 35.25 L 29.5625 34.71875 C 30.281668 35.176816 30.932724 35.806933 31.78125 36 C 31.941303 36 32.01885 35.95654 32.0625 35.9375 C 32.037457 35.880526 31.970298 35.75173 31.75 35.5625 C 31.509834 35.356203 31.154783 35.08146 30.625 34.78125 C 30.146305 34.509988 29.645683 34.236193 29.34375 34.03125 z M 18.78125 34.21875 C 18.209056 34.22719 17.578578 34.451329 16.5625 35.03125 C 16.004734 35.284695 15.469861 35.560411 15.21875 35.78125 C 15.039284 36.131634 15.496678 36.222804 15.84375 36.0625 C 16.097052 36.000521 16.354797 35.841644 16.59375 35.65625 C 16.880649 35.362654 17.201588 35.095874 17.46875 34.78125 L 17.9375 35.1875 C 17.648954 35.509342 17.358832 35.822333 17.125 36.1875 C 17.09315 36.248564 17.068 36.31295 17.0625 36.34375 C 17.091152 36.36318 17.16804 36.38209 17.25 36.40625 C 17.413913 36.4546 17.661429 36.5003 17.9375 36.46875 C 18.489641 36.405648 19.132917 36.125832 19.65625 35.40625 C 19.808749 35.192751 19.967488 34.97462 20.125 34.78125 C 20.12505 34.781212 20.65625 35.031214 20.65625 35.03125 C 20.441675 35.421169 20.24083 35.82195 20.03125 36.21875 C 20.00668 36.282025 19.97825 36.30233 19.96875 36.34375 C 20.109751 36.411664 20.444703 36.5074 20.8125 36.5 C 21.21667 36.491917 21.620175 36.387035 21.8125 36.21875 C 22.223174 35.859411 22.32466 35.307508 22.34375 35.1875 C 20.481383 34.769327 19.734907 34.204684 18.78125 34.21875 z M 33.875 39.5625 C 34.160153 39.562504 34.431638 39.617192 34.6875 39.6875 C 34.945309 39.757817 35.189449 39.863285 35.40625 40 L 35.40625 40.625 C 35.187496 40.439457 34.93359 40.281254 34.6875 40.1875 C 34.441403 40.093754 34.177732 40.062504 33.90625 40.0625 C 33.371092 40.062504 32.98828 40.201176 32.71875 40.5 C 32.451171 40.798831 32.312499 41.251956 32.3125 41.84375 C 32.312499 42.433595 32.451171 42.888673 32.71875 43.1875 C 32.98828 43.486329 33.371092 43.625 33.90625 43.625 C 34.115232 43.625 34.304685 43.597657 34.46875 43.5625 C 34.632809 43.525391 34.775387 43.482422 34.90625 43.40625 L 34.90625 42.21875 L 33.96875 42.21875 L 33.96875 41.75 L 35.5 41.75 L 35.5 43.625 C 35.27148 43.78711 35.025387 43.916016 34.75 44 C 34.474606 44.082031 34.187497 44.125 33.875 44.125 C 33.191404 44.125 32.636717 43.898438 32.25 43.5 C 31.865234 43.09961 31.6875 42.556642 31.6875 41.84375 C 31.6875 41.128909 31.865234 40.585941 32.25 40.1875 C 32.636717 39.787114 33.191404 39.562504 33.875 39.5625 z M 36.59375 39.65625 L 37.9375 39.65625 C 38.427732 39.656254 38.781247 39.777348 39.03125 40 C 39.2832 40.220707 39.406247 40.541019 39.40625 40.96875 C 39.406247 41.400393 39.2832 41.716799 39.03125 41.9375 C 38.781247 42.158205 38.427732 42.281252 37.9375 42.28125 L 37.1875 42.28125 L 37.1875 44.03125 L 36.59375 44.03125 L 36.59375 39.65625 z M 37.1875 40.125 L 37.1875 41.78125 L 37.9375 41.78125 C 38.212888 41.781252 38.412107 41.70508 38.5625 41.5625 C 38.712888 41.419924 38.781247 41.232425 38.78125 40.96875 C 38.781247 40.707035 38.712888 40.486332 38.5625 40.34375 C 38.412107 40.201176 38.212888 40.125004 37.9375 40.125 L 37.1875 40.125 z "
     id="path-main" />
</defs>
<acyl-settings>
<linearGradient
     id="linearGradient4321">
    <stop
       style="stop-color:#89F6FB;stop-opacity:1.0;"
       offset="0.5"
       id="stop1" />
    <stop
       style="stop-color:#10A1AA;stop-opacity:1.0;"
       offset="1.0"
       id="stop2" />
  </linearGradient>
<radialGradient
       inkscape:collect="always"
       xlink:href="#linearGradient4321"
       id="acyl_gradient"
       cx="50.0%"
       cy="50.0%"
       fx="50.0%"
       fy="50.0%"
       r="50.0%"
/>
<filter id="filter1111" x="-50%" y="-50%" width="200%" height="200%">
	<feImage
	id="feImage2"
	xlink:href="#1"
	result="result1" />
	<feComposite
	id="feComposite3633"
	in="result1"
	in2="SourceGraphic"
	operator="xor" />
</filter>
	<rect
	style="fill:#1A4B4F;fill-opacity:1.0;filter:url(#filter1111)"
	id="rect2835"
	width="48"
	height="48"
	x="0"
	y="0"
	rx="3.5"
	ry="3.5" />
	<rect
	style="fill:url(#acyl_gradient);filter:url(#filter1111)"
	id="rect2835"
	width="44"
	height="44"
	x="2"
	y="2"
	rx="3.5"
	ry="3.5" />
<defs>
<use id="1" transform="translate(22.5,22.5) scale(0.85) translate(-22.5,-22.5)" style="fill:#000000" xlink:href="#path-main" />
</defs>
	<use id="2" transform="translate(22.5,22.5) scale(0.85) translate(-22.5,-22.5)" style="fill:#1A4B4F;fill-opacity:1.0" xlink:href="#path-main" />
</acyl-settings>
</svg>
