<svg xmlns="http://www.w3.org/2000/svg" width="48" height="48">
<defs>
<defs
     id="defs1874">
  </defs>
  <path
     d="M 24,2 C 11.85121,2 2,11.832965 2,23.985612 2,36.138259 11.85121,46 24,46 36.14879,46 45.999999,36.138259 46,23.985612 46,11.832965 36.14879,2 24,2 z m -0.658854,9.266187 c 0.454238,-0.053 0.74545,0.181371 1.03125,0.201439 0.381067,0.02676 0.813183,0.143554 1.03125,0.201439 0.218067,0.05789 0.334423,0.392454 0.372396,0.66187 l 0.05729,0.08633 c 0.04119,0.209066 0.140098,0.490651 0.08594,0.892087 -0.0323,0.329679 -0.25564,0.569972 -0.458334,0.690647 -0.202693,0.120675 -0.384611,0.150354 -0.572916,0.172662 l -0.02865,0 c -1.098015,-0.08174 -1.925897,-0.15337 -2.635417,-1.122302 -0.137408,-0.198993 -0.216107,-0.415702 -0.200521,-0.690648 0.01619,-0.285536 0.196334,-0.633387 0.515625,-0.776978 l 0.286459,-0.143885 c 0.196456,-0.09746 0.364212,-0.154996 0.515625,-0.172662 z m -13.205729,1.410072 c 1.345151,-0.176821 4.516723,3.261143 7.390625,8.057554 2.106874,3.51628 3.468779,6.806815 3.752604,8.776978 1.461068,0.444963 3.014107,0.782271 4.210937,1.697842 1.206442,0.878693 1.240085,2.494099 0.630209,3.683453 -0.688797,1.292313 -1.390867,2.788346 -0.859375,4.230216 -0.204508,0.02017 -0.425239,0.04354 -0.630209,0.02878 -1.850765,-0.27224 -3.599823,-0.995621 -5.070312,-2.043165 -1.18951,-0.681859 -1.613897,-2.135922 -1.203125,-3.309353 0.40202,-0.963655 0.973248,-1.931843 1.088541,-2.964029 C 17.84439,29.737169 15.488525,26.922308 13.315104,23.294964 10.24961,18.178791 8.7139756,13.472987 9.8776042,12.76259 9.9502212,12.71801 10.04574,12.68805 10.135417,12.67626 z m 23.91927,2.618705 c 0.122709,3.05e-4 0.255816,0.01658 0.372396,0.02878 0.466322,0.0488 0.877508,0.169245 1.174479,0.172662 0.429748,0.119276 0.82151,0.152982 1.17448,0.345324 0.35297,0.192341 0.319989,0.512775 0.34375,0.892086 l 0.143229,1.496403 c -0.03344,0.434914 -0.270692,0.799635 -0.544271,1.007194 -0.273579,0.207559 -0.56116,0.304629 -0.830729,0.345324 -1.333196,0.185627 -2.78109,-0.486827 -3.466146,-1.81295 -0.0133,-0.02575 -0.04457,-0.03128 -0.05729,-0.05755 -0.154926,-0.293517 -0.245406,-0.613327 -0.229166,-0.978417 0.01725,-0.387908 0.203401,-0.890061 0.658854,-1.151079 l 0.02865,-0.02878 0.05729,0 c 0.424029,-0.188166 0.806353,-0.259908 1.174479,-0.258993 z m -5.471354,8.086331 c 0.319482,-0.02508 0.62265,-0.02564 0.916667,0 0.588034,0.05127 1.122587,0.165334 1.546875,0.172662 l 0.630208,0.172662 c 0.316644,0.02747 0.665177,0.121027 0.888021,0.345323 0.23158,0.233088 0.345437,0.512709 0.401042,0.719425 0.09385,0.348908 0.08041,0.532744 0.08594,0.633093 0.04589,0.396049 0.205514,0.85395 0.08594,1.294964 -0.09671,0.456653 -0.387916,0.957178 -0.888021,1.237411 l -0.08594,0.02878 -0.08594,0.02878 c -2.027189,0.391996 -3.890126,0.01086 -5.070313,-1.755395 -0.267075,-0.365097 -0.424814,-0.776626 -0.401041,-1.23741 0.215023,-0.598778 0.334134,-1.145045 0.973958,-1.438849 0.347326,-0.12678 0.683122,-0.176366 1.002604,-0.201439 z"
     id="path-main"
      />
</defs>
<acyl-settings>
<linearGradient
     id="linearGradient4321">
    <stop
       style="stop-color:#89F6FB;stop-opacity:1.0;"
       offset="0.5"
       id="stop1" />
    <stop
       style="stop-color:#10A1AA;stop-opacity:1.0;"
       offset="1.0"
       id="stop2" />
  </linearGradient>
<radialGradient
       inkscape:collect="always"
       xlink:href="#linearGradient4321"
       id="acyl_gradient"
       cx="50.0%"
       cy="50.0%"
       fx="50.0%"
       fy="50.0%"
       r="50.0%"
/>
<filter id="filter1111" x="-50%" y="-50%" width="200%" height="200%">
	<feImage
	id="feImage2"
	xlink:href="#1"
	result="result1" />
	<feComposite
	id="feComposite3633"
	in="result1"
	in2="SourceGraphic"
	operator="xor" />
</filter>
	<rect
	style="fill:#1A4B4F;fill-opacity:1.0;filter:url(#filter1111)"
	id="rect2835"
	width="48"
	height="48"
	x="0"
	y="0"
	rx="3.5"
	ry="3.5" />
	<rect
	style="fill:url(#acyl_gradient);filter:url(#filter1111)"
	id="rect2835"
	width="44"
	height="44"
	x="2"
	y="2"
	rx="3.5"
	ry="3.5" />
<defs>
<use id="1" transform="translate(22.5,22.5) scale(0.85) translate(-22.5,-22.5)" style="fill:#000000" xlink:href="#path-main" />
</defs>
	<use id="2" transform="translate(22.5,22.5) scale(0.85) translate(-22.5,-22.5)" style="fill:#1A4B4F;fill-opacity:1.0" xlink:href="#path-main" />
</acyl-settings>
</svg>
