<svg xmlns="http://www.w3.org/2000/svg" width="48" height="48">
<defs>
  <path
     d="M 36.40625 7 C 36.406188 9.9999725 34.304499 10.056797 31.96875 10.09375 L 7.625 10.09375 C 7.0330035 10.08525 6.5 10.595626 6.5 11.1875 C 6.5 11.779374 7.0330035 12.32097 7.625 12.3125 L 31.96875 12.3125 C 35.382521 12.3125 38.34375 11.347808 38.4375 9.25 L 43.75 9.25 L 43.75 34.34375 C 43.75 35.614803 43.338785 36.602102 42.15625 37.40625 C 41.821928 37.63355 41.41755 37.817897 40.9375 38 C 41.150614 37.467325 41.25 36.882022 41.25 36.21875 L 41.25 13.6875 L 2 13.6875 L 2 35.46875 C 2 38.51966 4.4481547 40.973501 7.5 40.96875 C 17.139776 40.95374 26.798885 41.03034 36.4375 40.96875 C 39.510336 40.94346 41.791703 40.347879 43.40625 39.25 C 45.151268 38.063368 46 36.217045 46 34.34375 L 46 7 L 36.40625 7 z M 11.6875 19.65625 C 11.696 19.655931 11.71015 19.65625 11.71875 19.65625 L 15.5 19.65625 C 15.864624 19.65625 16.124999 19.947876 16.125 20.3125 L 16.125 21.03125 L 31.84375 21.03125 C 32.573001 21.03125 33.156249 21.614499 33.15625 22.34375 L 33.15625 33.3125 C 33.156251 34.041751 32.573001 34.625 31.84375 34.625 L 10.90625 34.625 C 10.176999 34.625 9.5625 34.041751 9.5625 33.3125 L 9.5625 22.34375 C 9.5625 21.631501 10.138219 21.05777 10.84375 21.03125 C 10.84935 21.03104 10.8695 21.031389 10.875 21.03125 C 10.88633 21.030963 10.89483 21.03125 10.90625 21.03125 L 11.09375 21.03125 L 11.09375 20.3125 C 11.09375 19.95642 11.334792 19.66958 11.6875 19.65625 z M 28.21875 21.96875 C 28.065558 21.98213 27.9375 22.093225 27.9375 22.25 L 27.9375 23.875 C 27.9375 24.040739 28.084261 24.187501 28.25 24.1875 L 31.53125 24.1875 C 31.696987 24.1875 31.843748 24.040738 31.84375 23.875 L 31.84375 22.25 C 31.84375 22.084262 31.69699 21.96875 31.53125 21.96875 L 28.25 21.96875 C 28.2436 21.96875 28.22515 21.968347 28.21875 21.96875 z M 21.21875 23.03125 C 18.633227 23.09653 16.562501 25.211333 16.5625 27.8125 C 16.5625 30.45475 18.701502 32.625 21.34375 32.625 C 23.985998 32.625 26.156248 30.454749 26.15625 27.8125 C 26.15625 25.17025 23.986002 23.03125 21.34375 23.03125 C 21.32313 23.03125 21.30183 23.030991 21.28125 23.03125 C 21.27105 23.031379 21.26013 23.031057 21.25 23.03125 C 21.23984 23.031442 21.22889 23.030993 21.21875 23.03125 z M 21.34375 24.75 C 23.044699 24.750001 24.4375 26.111549 24.4375 27.8125 C 24.4375 29.513449 23.044702 30.90625 21.34375 30.90625 C 19.642798 30.90625 18.28125 29.51345 18.28125 27.8125 C 18.28125 26.111549 19.642799 24.75 21.34375 24.75 z "
     id="path-main" />
</defs>
<acyl-settings>
<linearGradient
     id="linearGradient4321">
    <stop
       style="stop-color:#89F6FB;stop-opacity:1.0;"
       offset="0.5"
       id="stop1" />
    <stop
       style="stop-color:#10A1AA;stop-opacity:1.0;"
       offset="1.0"
       id="stop2" />
  </linearGradient>
<radialGradient
       inkscape:collect="always"
       xlink:href="#linearGradient4321"
       id="acyl_gradient"
       cx="50.0%"
       cy="50.0%"
       fx="50.0%"
       fy="50.0%"
       r="50.0%"
/>
<filter id="filter1111" x="-50%" y="-50%" width="200%" height="200%">
	<feImage
	id="feImage2"
	xlink:href="#1"
	result="result1" />
	<feComposite
	id="feComposite3633"
	in="result1"
	in2="SourceGraphic"
	operator="xor" />
</filter>
	<rect
	style="fill:#1A4B4F;fill-opacity:1.0;filter:url(#filter1111)"
	id="rect2835"
	width="48"
	height="48"
	x="0"
	y="0"
	rx="3.5"
	ry="3.5" />
	<rect
	style="fill:url(#acyl_gradient);filter:url(#filter1111)"
	id="rect2835"
	width="44"
	height="44"
	x="2"
	y="2"
	rx="3.5"
	ry="3.5" />
<defs>
<use id="1" transform="translate(22.5,22.5) scale(0.85) translate(-22.5,-22.5)" style="fill:#000000" xlink:href="#path-main" />
</defs>
	<use id="2" transform="translate(22.5,22.5) scale(0.85) translate(-22.5,-22.5)" style="fill:#1A4B4F;fill-opacity:1.0" xlink:href="#path-main" />
</acyl-settings>
</svg>
