<svg xmlns="http://www.w3.org/2000/svg" width="48" height="48">
<defs>
  <path
     d="M 36.40625 7 C 36.406188 9.9999725 34.304499 10.056797 31.96875 10.09375 L 7.625 10.09375 C 7.0330035 10.08525 6.5 10.595626 6.5 11.1875 C 6.5 11.779374 7.0330035 12.32097 7.625 12.3125 L 31.96875 12.3125 C 35.382521 12.3125 38.34375 11.347808 38.4375 9.25 L 43.75 9.25 L 43.75 34.34375 C 43.75 35.614803 43.338785 36.602102 42.15625 37.40625 C 41.821928 37.63355 41.41755 37.817897 40.9375 38 C 41.150614 37.467325 41.25 36.882022 41.25 36.21875 L 41.25 13.6875 L 2 13.6875 L 2 35.46875 C 2 38.51966 4.4481547 40.973501 7.5 40.96875 C 17.139776 40.95374 26.798885 41.03034 36.4375 40.96875 C 39.510336 40.94346 41.791703 40.347879 43.40625 39.25 C 45.151268 38.063368 46 36.217045 46 34.34375 L 46 7 L 36.40625 7 z M 23.21875 20.34375 C 24.184787 20.34375 24.9375 21.244163 24.9375 22.3125 C 24.9375 22.515783 24.865162 22.686311 24.8125 22.875 C 25.145644 23.08655 25.434918 23.307626 25.71875 23.59375 C 26.062344 23.30202 26.477287 23.125 26.9375 23.125 C 28.040658 23.125 28.9375 24.092797 28.9375 25.3125 C 28.9375 25.438437 28.89413 25.539807 28.875 25.65625 C 29.491651 25.937147 29.985554 26.387344 30.34375 27 C 30.447129 26.9836 30.548274 26.96875 30.65625 26.96875 C 31.738108 26.96875 32.596989 27.8093 32.8125 28.9375 C 33.408371 29.047898 33.90625 29.561943 33.90625 30.25 C 33.906251 31.015611 33.316791 31.65625 32.625 31.65625 C 32.363496 31.65625 32.141045 31.559921 31.9375 31.40625 C 31.567593 31.704358 31.149297 31.9375 30.65625 31.9375 C 30.307251 31.9375 30.042365 31.718877 29.75 31.5625 C 29.187261 32.087757 28.484123 32.5 27.6875 32.5 C 27.00756 32.5 26.395513 32.207952 25.875 31.8125 C 24.925766 32.860661 23.663404 33.5625 22.21875 33.5625 C 21.134162 33.5625 20.149506 33.157641 19.3125 32.53125 C 18.805588 32.976396 18.201911 33.312499 17.5 33.3125 C 16.417739 33.3125 15.492975 32.639253 14.96875 31.6875 C 14.67462 31.826181 14.374008 31.9375 14.03125 31.9375 C 13.247483 31.9375 12.614503 31.470511 12.15625 30.84375 C 11.896353 31.008433 11.598479 31.125 11.28125 31.125 C 10.315212 31.125 9.53125 30.224585 9.53125 29.15625 C 9.53125 28.087915 10.315212 27.218749 11.28125 27.21875 C 11.595878 27.21875 11.897818 27.306575 12.15625 27.46875 C 12.614503 26.841987 13.247483 26.406249 14.03125 26.40625 C 14.243718 26.40625 14.399088 26.505882 14.59375 26.5625 C 14.61848 26.39205 14.63628 26.251787 14.6875 26.09375 C 14.286445 25.788771 14 25.351587 14 24.78125 C 14 23.864279 14.671086 23.125 15.5 23.125 C 16.139909 23.125 16.593307 23.59185 16.8125 24.21875 C 16.8777 24.21095 16.897455 24.21875 16.96875 24.21875 C 17.313985 24.21875 17.632652 24.390345 17.9375 24.53125 C 18.746368 23.245353 20.005056 22.359216 21.46875 22.125 C 21.55549 21.14368 22.310049 20.34375 23.21875 20.34375 z "
     id="path-main" />
</defs>
<acyl-settings>
<linearGradient
     id="linearGradient4321">
    <stop
       style="stop-color:#89F6FB;stop-opacity:1.0;"
       offset="0.5"
       id="stop1" />
    <stop
       style="stop-color:#10A1AA;stop-opacity:1.0;"
       offset="1.0"
       id="stop2" />
  </linearGradient>
<radialGradient
       inkscape:collect="always"
       xlink:href="#linearGradient4321"
       id="acyl_gradient"
       cx="50.0%"
       cy="50.0%"
       fx="50.0%"
       fy="50.0%"
       r="50.0%"
/>
<filter id="filter1111" x="-50%" y="-50%" width="200%" height="200%">
	<feImage
	id="feImage2"
	xlink:href="#1"
	result="result1" />
	<feComposite
	id="feComposite3633"
	in="result1"
	in2="SourceGraphic"
	operator="xor" />
</filter>
	<rect
	style="fill:#1A4B4F;fill-opacity:1.0;filter:url(#filter1111)"
	id="rect2835"
	width="48"
	height="48"
	x="0"
	y="0"
	rx="3.5"
	ry="3.5" />
	<rect
	style="fill:url(#acyl_gradient);filter:url(#filter1111)"
	id="rect2835"
	width="44"
	height="44"
	x="2"
	y="2"
	rx="3.5"
	ry="3.5" />
<defs>
<use id="1" transform="translate(22.5,22.5) scale(0.85) translate(-22.5,-22.5)" style="fill:#000000" xlink:href="#path-main" />
</defs>
	<use id="2" transform="translate(22.5,22.5) scale(0.85) translate(-22.5,-22.5)" style="fill:#1A4B4F;fill-opacity:1.0" xlink:href="#path-main" />
</acyl-settings>
</svg>
