<svg xmlns="http://www.w3.org/2000/svg" width="48" height="48">
<defs>
  <path
     d="m 36.40625,6.34375 c -6.2e-5,2.9999725 -2.101751,3.056797 -4.4375,3.09375 l -24.34375,0 C 7.0330035,9.429 6.5,9.939376 6.5,10.53125 c 0,0.591874 0.5330035,1.13347 1.125,1.125 l 24.34375,0 c 3.413771,0 6.375,-0.964692 6.46875,-3.0625 l 5.3125,0 0,25.09375 c 0,1.271053 -0.411215,2.258352 -1.59375,3.0625 -0.334322,0.2273 -0.7387,0.411647 -1.21875,0.59375 0.213114,-0.532675 0.3125,-1.117978 0.3125,-1.78125 l 0,-22.53125 -39.25,0 0,21.78125 c 0,3.05091 2.4481547,5.504751 5.5,5.5 5.184241,-0.0081 10.373271,0.02208 15.5625,0.03125 l 0,1 c -0.587677,0.260417 -1.077596,0.742817 -1.3125,1.34375 l -18.75,0 c -0.03054,-0.0015 -0.06322,-0.0015 -0.09375,0 C 2.366383,42.712808 1.974692,43.178888 2,43.71875 2.02531,44.258613 2.460134,44.650306 3,44.625 l 18.8125,0 c 0.397112,0.812813 1.253727,1.374999 2.21875,1.375 0.965024,10e-7 1.790388,-0.562188 2.1875,-1.375 L 45,44.625 c 0.352518,0.005 0.69728,-0.164259 0.875,-0.46875 0.17771,-0.30449 0.17771,-0.69551 0,-1 C 45.697279,42.851761 45.352518,42.682515 45,42.6875 l -18.6875,0 C 26.077596,42.086568 25.587667,41.604166 25,41.34375 l 0,-1 c 3.813596,0.0046 7.627848,-0.0069 11.4375,-0.03125 3.072836,-0.02529 5.354203,-0.620871 6.96875,-1.71875 C 45.151268,37.407118 46,35.560795 46,33.6875 l 0,-27.34375 -9.59375,0 z"
     id="path-main" />
</defs>
<acyl-settings>
<linearGradient
     id="linearGradient4321">
    <stop
       style="stop-color:#89F6FB;stop-opacity:1.0;"
       offset="0.5"
       id="stop1" />
    <stop
       style="stop-color:#10A1AA;stop-opacity:1.0;"
       offset="1.0"
       id="stop2" />
  </linearGradient>
<radialGradient
       inkscape:collect="always"
       xlink:href="#linearGradient4321"
       id="acyl_gradient"
       cx="50.0%"
       cy="50.0%"
       fx="50.0%"
       fy="50.0%"
       r="50.0%"
/>
<filter id="filter1111" x="-50%" y="-50%" width="200%" height="200%">
	<feImage
	id="feImage2"
	xlink:href="#1"
	result="result1" />
	<feComposite
	id="feComposite3633"
	in="result1"
	in2="SourceGraphic"
	operator="xor" />
</filter>
	<rect
	style="fill:#1A4B4F;fill-opacity:1.0;filter:url(#filter1111)"
	id="rect2835"
	width="48"
	height="48"
	x="0"
	y="0"
	rx="3.5"
	ry="3.5" />
	<rect
	style="fill:url(#acyl_gradient);filter:url(#filter1111)"
	id="rect2835"
	width="44"
	height="44"
	x="2"
	y="2"
	rx="3.5"
	ry="3.5" />
<defs>
<use id="1" transform="translate(22.5,22.5) scale(0.85) translate(-22.5,-22.5)" style="fill:#000000" xlink:href="#path-main" />
</defs>
	<use id="2" transform="translate(22.5,22.5) scale(0.85) translate(-22.5,-22.5)" style="fill:#1A4B4F;fill-opacity:1.0" xlink:href="#path-main" />
</acyl-settings>
</svg>
