<?xml version="1.0" encoding="UTF-8" standalone="no"?>
<svg width="48" height="48">
<path id="0" style="opacity:1;fill:#555555;stroke:#000000;stroke-width:1" d="M 16.9,38.2 L 16,41.1 L 31.9,41.1 L 31.1,38.2 L 16.9,38.2 z " />
<rect id="1" style="opacity:1;fill:#555555;stroke:#000000;stroke-width:1" width="8.2" height="7.6" x="19.9" y="31.6" />
<rect id="2" style="opacity:1;fill:#555555;stroke:#000000;stroke-width:1" width="45" height="30" x="1.5" y="4.2" rx="0" ry="0" />
<rect id="8" style="opacity:1;fill:#77cc33;stroke:#000000;stroke-width:1" width="39" height="20" x="4.6" y="7"/>

<g id="g1879" transform="matrix(0.844217,0,0,0.844217,-10.91037,-12.77493)">
<path id="path2086" style="fill:#000000;fill-opacity:1;fill-rule:evenodd;stroke:none;stroke-width:1.1845268;stroke-linecap:butt;stroke-linejoin:miter;stroke-miterlimit:4;stroke-dasharray:none;stroke-opacity:1"
d="M 35.275695,34.125575 L 35.275695,30.781795 C 35.275695,27.357261 37.690472,25.796017 41.281079,25.838785 C 44.891223,25.881551 47.274731,27.371498 47.274731,30.836319 L 47.268763,34.125575 L 45.066128,34.125575 L 45.066128,31.697454 C 45.006991,30.854597 45.311898,28.031344 41.30637,28.031344 C 37.273214,28.031344 37.510279,30.864798 37.524731,31.714234 L 37.524731,34.125575 L 35.275695,34.125575 z" />
<rect id="rect6903" style="fill:#000000;fill-opacity:1;fill-rule:evenodd;stroke:none;stroke-width:1.18452835;stroke-linecap:round;stroke-linejoin:round;stroke-miterlimit:4;stroke-dasharray:none;stroke-dashoffset:0;stroke-opacity:0.60109289" width="17.642147" height="8.3657598" x="32.446667" y="35.336262" rx="0" ry="0" /></g>

<!-- Lapo Calamandrei, Jakub Steiner - http://creativecommons.org/licenses/by-nc-sa/2.0/" -->
</svg>
