<?xml version="1.0" encoding="UTF-8" standalone="no"?>
<svg width="48" height="48">
<circle id="e1" style="fill:#77cc33;stroke:none;fill-opacity:1" cx="24" cy="24" r="22.5" />
<path id="a" style="fill:#555555;stroke:none;fill-opacity:1"
d="M 15.8,9.8 L 15.8,18.7 L 8.5,18.7 L 23.1,35.6 L 14.7,35.6 L 14.7,40.3 L 33.8,40.3 L 33.8,35.6 L 25.4,35.6 L 40.1,18.7 L 32.8,18.7 L 32.8,9.8 L 15.8,9.8 z" />
</svg>

