<?xml version="1.0" encoding="UTF-8" standalone="no"?>
<svg width="48" height="48">
<circle id="0" style="fill:#77cc33;stroke:none;opacity:1" cx="24" cy="24" r="22.5" />
<path id="1" style="fill:#555555;opacity:1;stroke:none" d="M 26.8,8.6 L 7.5,25.3 L 26.8,41.9 L 26.8,34.2 L 36.1,34.2 L 36.1,16.3 L 26.8,16.3 L 26.8,8.6 z" />
</svg>
