<?xml version="1.0" encoding="UTF-8" standalone="no"?>
<svg width="48" height="48">
<circle id="0" style="fill:#77cc33;stroke:none;opacity:1" cx="24" cy="24" r="22.5" />
<path id="1" style="fill:#555555;opacity:1;stroke:none" d="M 41.3,22.6 L 24.6,41.9 L 8,22.6 L 15.7,22.6 L 15.7,13.2 L 33.6,13.2 L 33.6,22.6 L 41.3,22.6 z " />
</svg>
