<svg xmlns="http://www.w3.org/2000/svg" width="48" height="48">
<defs>
  <path
     id="path-main"
     d="m 11.420213,9.5895106 c -2.3374492,0 -4.2420215,1.3048124 -4.2420215,2.9255324 l 31.5372345,0 c 0,-1.620719 -1.904574,-2.9255324 -4.242022,-2.9255324 l -23.053191,0 z M 7.8803191,13.275681 C 4.6150646,13.275681 2,15.534536 2,18.336851 L 2,36.09483 c 0,2.802315 2.6150646,5.061169 5.8803191,5.06117 l 32.2393619,0 C 43.384935,41.156 46,38.897145 46,36.09483 l 0,-17.757979 c 0,-2.802315 -2.615065,-5.06117 -5.880319,-5.06117 l -32.2393619,0 z m 15.7393619,5.675532 0.380319,0 c 2.738298,0 4.710106,1.562208 4.710106,4.300532 l 0,2.369681 L 29.5,25.59217 c 0.782371,0 1.170213,0.417098 1.170213,1.199468 l 0,6.640958 c 0,0.383488 -0.391787,1.166468 -1.023936,1.170213 l -11.526596,0 c -0.782371,0 -1.140958,-0.786724 -1.140958,-1.170213 l 0,-6.640958 c 0,-0.78237 0.358587,-1.170212 1.140958,-1.170212 l 0.789893,0 0,-2.369681 c 0,-2.670269 1.971809,-4.300532 4.710107,-4.300532 z m 0,1.960106 c -2.738344,0 -2.75,2.347949 -2.75,3.130319 l 0,1.579788 5.880319,0 0,-1.579788 c 0,-0.78237 -0.0117,-3.130319 -2.75,-3.130319 l -0.380319,0 z m 0.117021,5.851064 c -0.985915,0 -1.726064,0.798659 -1.726064,1.784574 0,0.557556 0.24319,1.01838 0.643617,1.345745 l 0,1.989362 c 0,0.642836 0.498122,1.170213 1.140958,1.170213 0.642835,0 1.170213,-0.527377 1.170213,-1.170213 l 0,-2.018617 c 0.356272,-0.326365 0.555851,-0.795247 0.555851,-1.31649 0,-0.985915 -0.798659,-1.784574 -1.784575,-1.784574 z" />
</defs>
<acyl-settings>
<linearGradient
     id="linearGradient4321">
    <stop
       style="stop-color:#89F6FB;stop-opacity:1.0;"
       offset="0.5"
       id="stop1" />
    <stop
       style="stop-color:#10A1AA;stop-opacity:1.0;"
       offset="1.0"
       id="stop2" />
  </linearGradient>
<radialGradient
       inkscape:collect="always"
       xlink:href="#linearGradient4321"
       id="acyl_gradient"
       cx="50.0%"
       cy="50.0%"
       fx="50.0%"
       fy="50.0%"
       r="50.0%"
/>
<filter id="filter1111" x="-50%" y="-50%" width="200%" height="200%">
	<feImage
	id="feImage2"
	xlink:href="#1"
	result="result1" />
	<feComposite
	id="feComposite3633"
	in="result1"
	in2="SourceGraphic"
	operator="xor" />
</filter>
	<rect
	style="fill:#1A4B4F;fill-opacity:1.0;filter:url(#filter1111)"
	id="rect2835"
	width="48"
	height="48"
	x="0"
	y="0"
	rx="3.5"
	ry="3.5" />
	<rect
	style="fill:url(#acyl_gradient);filter:url(#filter1111)"
	id="rect2835"
	width="44"
	height="44"
	x="2"
	y="2"
	rx="3.5"
	ry="3.5" />
<defs>
<use id="1" transform="translate(22.5,22.5) scale(0.85) translate(-22.5,-22.5)" style="fill:#000000" xlink:href="#path-main" />
</defs>
	<use id="2" transform="translate(22.5,22.5) scale(0.85) translate(-22.5,-22.5)" style="fill:#1A4B4F;fill-opacity:1.0" xlink:href="#path-main" />
</acyl-settings>
</svg>
