<svg xmlns="http://www.w3.org/2000/svg" width="48" height="48">
<defs>
<defs
     id="defs4291">
  </defs>
  <path
     d="M 30.90625 2 C 29.510633 2.0047 28.423528 2.0064 28 2.03125 C 26.305889 2.13069 25.459867 3.189065 25.125 4.75 C 25.08256 5.535203 25.125 18.5 25.125 18.5 C 25.124999 20.098342 26.401659 21.40625 28 21.40625 L 39.375 21.40625 C 38.156127 22.42822 37.567907 24.072485 38 25.71875 C 38.597645 27.995765 40.910485 29.378895 43.1875 28.78125 C 45.464515 28.183605 46.816395 25.839515 46.21875 23.5625 C 45.938084 22.493169 45.263971 21.646118 44.40625 21.09375 C 45.33933 20.611692 45.968749 19.625835 45.96875 18.5 C 45.968751 16.901658 46.163141 4.959408 45.75 3.875 C 45.336859 2.790591 44.330188 2.03125 43.09375 2.03125 C 42.166421 2.03125 35.093101 1.98602 30.90625 2 z M 29.03125 4.28125 L 42.03125 4.28125 C 42.959317 4.28125 43.71875 5.009431 43.71875 5.9375 L 43.71875 17.5 C 43.71875 18.428066 42.959319 19.15625 42.03125 19.15625 L 29.03125 19.15625 C 28.10318 19.156248 27.34375 18.428069 27.34375 17.5 L 27.34375 5.9375 C 27.34375 5.009431 28.103181 4.28125 29.03125 4.28125 z M 22.09375 4.46875 C 21.958804 4.4761573 21.823315 4.4956029 21.6875 4.53125 C 20.60098 4.8164271 19.964823 5.9134802 20.25 7 C 20.535177 8.0865198 21.63223 8.7539271 22.71875 8.46875 C 23.80527 8.1835729 24.472677 7.0552698 24.1875 5.96875 C 23.93797 5.0180452 23.038372 4.4168991 22.09375 4.46875 z M 12.78125 8.875 C 11.991912 8.9897333 11.447767 9.7419115 11.5625 10.53125 C 11.677233 11.320588 12.398162 11.864733 13.1875 11.75 C 13.976838 11.635267 14.520983 10.883088 14.40625 10.09375 C 14.291517 9.3044115 13.570588 8.7602667 12.78125 8.875 z M 7.78125 26.59375 C 6.385633 26.59845 5.329777 26.60015 4.90625 26.625 C 3.212139 26.72444 2.334867 27.782815 2 29.34375 C 1.95756 30.128953 2 43.09375 2 43.09375 C 1.999999 44.692092 3.307909 46 4.90625 46 L 19.96875 46 C 21.56709 46 22.843749 44.692092 22.84375 43.09375 C 22.843751 41.495408 23.069391 29.553158 22.65625 28.46875 C 22.243109 27.384341 21.205188 26.625 19.96875 26.625 C 19.041421 26.625 11.9681 26.57977 7.78125 26.59375 z M 5.90625 28.875 L 18.90625 28.875 C 19.834317 28.875 20.59375 29.603181 20.59375 30.53125 L 20.59375 42.09375 C 20.59375 43.021816 19.834319 43.75 18.90625 43.75 L 5.90625 43.75 C 4.978179 43.749998 4.21875 43.021819 4.21875 42.09375 L 4.21875 30.53125 C 4.21875 29.603181 4.978181 28.875 5.90625 28.875 z M 6.46875 31.09375 L 6.46875 41.53125 L 18.375 41.53125 L 18.375 31.09375 L 6.46875 31.09375 z "
     id="path-main" />
</defs>
<acyl-settings>
<linearGradient
     id="linearGradient4321">
    <stop
       style="stop-color:#89F6FB;stop-opacity:1.0;"
       offset="0.5"
       id="stop1" />
    <stop
       style="stop-color:#10A1AA;stop-opacity:1.0;"
       offset="1.0"
       id="stop2" />
  </linearGradient>
<radialGradient
       inkscape:collect="always"
       xlink:href="#linearGradient4321"
       id="acyl_gradient"
       cx="50.0%"
       cy="50.0%"
       fx="50.0%"
       fy="50.0%"
       r="50.0%"
/>
<filter id="filter1111" x="-50%" y="-50%" width="200%" height="200%">
	<feImage
	id="feImage2"
	xlink:href="#1"
	result="result1" />
	<feComposite
	id="feComposite3633"
	in="result1"
	in2="SourceGraphic"
	operator="xor" />
</filter>
	<rect
	style="fill:#1A4B4F;fill-opacity:1.0;filter:url(#filter1111)"
	id="rect2835"
	width="48"
	height="48"
	x="0"
	y="0"
	rx="3.5"
	ry="3.5" />
	<rect
	style="fill:url(#acyl_gradient);filter:url(#filter1111)"
	id="rect2835"
	width="44"
	height="44"
	x="2"
	y="2"
	rx="3.5"
	ry="3.5" />
<defs>
<use id="1" transform="translate(22.5,22.5) scale(0.85) translate(-22.5,-22.5)" style="fill:#000000" xlink:href="#path-main" />
</defs>
	<use id="2" transform="translate(22.5,22.5) scale(0.85) translate(-22.5,-22.5)" style="fill:#1A4B4F;fill-opacity:1.0" xlink:href="#path-main" />
</acyl-settings>
</svg>
