<svg xmlns="http://www.w3.org/2000/svg" width="48" height="48">
<defs>
  <defs
     id="defs4">
  </defs>
    <path
         d="M 33.684783,4.3722826 17.065217,13.967391 15.570652,11.1875 3.7038043,18.032609 5.2282609,20.8125 l -2.3913044,1.375 1.7934783,3.108696 -1.8532609,1.046195 -0.5081522,0.298913 0.388587,0.44837 1.763587,1.883152 L 2.5679348,30.019022 2,30.347826 2.4483696,30.766304 14.793478,43.05163 15.0625,43.320652 15.182065,43.5 46,25.714674 33.684783,4.3722826 z M 21.578804,14.505435 c 0.247911,0.02572 0.475136,0.243869 0.6875,0.538043 l 0.896739,1.345109 c 0.369058,-0.01247 0.763434,-0.0062 1.13587,0.05978 l 0.627717,-1.195653 c 0.159597,-0.28934 0.47094,-0.585447 0.836957,-0.388587 l 1.793478,0.986413 c 0.366017,0.196862 0.47604,0.611358 0.478261,1.076087 l -0.02989,1.554348 c 0.31595,0.304232 0.616411,0.624678 0.896739,0.986413 L 30.1875,19.288043 c 0.310862,-0.02701 0.735621,0.08301 0.92663,0.508153 l 0.956522,2.092391 c 0.191008,0.425145 0.04088,0.781207 -0.23913,1.046196 l -0.986413,0.836956 c 0.08493,0.453086 0.132143,0.903776 0.149456,1.345109 l 1.165761,0.986413 c 0.345978,0.310287 0.604041,0.701592 0.508152,1.105978 l -0.478261,2.002718 c -0.09589,0.404386 -0.514646,0.431521 -0.836956,0.358695 l -1.345109,-0.328804 c -0.196325,0.317968 -0.40617,0.602309 -0.657609,0.866848 l 0.388587,1.554347 c 0.102756,0.461149 0.09601,0.860914 -0.209239,1.016305 -0.0061,0.0031 -0.02358,0.02699 -0.02989,0.02989 -0.0013,5.82e-4 -0.02862,-5.72e-4 -0.02989,0 L 27.88587,33.42663 c -0.326617,0.146744 -0.697452,-0.190681 -0.926631,-0.508152 L 26.0625,31.603261 c -0.369011,0.01245 -0.763483,-0.02367 -1.13587,-0.08967 l -0.627717,1.195652 c -0.197185,0.357481 -0.470941,0.585447 -0.836956,0.388587 l -1.793479,-0.956522 c -0.366017,-0.196859 -0.506355,-0.699942 -0.508152,-1.076087 l 0.05978,-1.554347 C 20.904065,29.206546 20.60377,28.856425 20.32337,28.494565 l -1.285327,0.179348 c -0.384071,0.03337 -0.735622,-0.08301 -0.92663,-0.508152 l -0.92663,-2.092391 c -0.191009,-0.425146 0.01249,-0.831716 0.23913,-1.046196 l 0.956522,-0.836957 C 18.29678,23.743725 18.248956,23.31014 18.230978,22.875 l -1.165761,-0.986413 c -0.28003,-0.251142 -0.604039,-0.701592 -0.508152,-1.105978 l 0.478261,-1.972826 c 0.09589,-0.404387 0.438737,-0.478564 0.836957,-0.388587 l 1.315217,0.358695 c 0.199533,-0.326432 0.430261,-0.656008 0.6875,-0.92663 l -0.388587,-1.554348 c -0.08516,-0.382178 -0.08749,-0.869561 0.23913,-1.016304 l 1.614131,-0.717392 c 0.08165,-0.03669 0.156494,-0.06835 0.23913,-0.05978 z m 2.51087,4.692935 c -0.520241,-0.04237 -1.013479,0.02299 -1.494565,0.23913 -1.924347,0.86457 -2.590064,3.59295 -1.464674,6.097826 1.12539,2.504874 3.605544,3.853701 5.529891,2.989131 1.924346,-0.864571 2.560174,-3.592952 1.434783,-6.097827 -0.844043,-1.878657 -2.444713,-3.101168 -4.005435,-3.22826 z m -18.9809783,6.934782 8.1603263,14.048913 -9.6847829,-9.625 1.8233696,-1.076087 0.5081522,-0.298913 -0.388587,-0.448369 -1.7336956,-1.853261 1.3152174,-0.747283 z"
       id="path-main" />
</defs>
<acyl-settings>
<linearGradient
     id="linearGradient4321">
    <stop
       style="stop-color:#89F6FB;stop-opacity:1.0;"
       offset="0.5"
       id="stop1" />
    <stop
       style="stop-color:#10A1AA;stop-opacity:1.0;"
       offset="1.0"
       id="stop2" />
  </linearGradient>
<radialGradient
       inkscape:collect="always"
       xlink:href="#linearGradient4321"
       id="acyl_gradient"
       cx="50.0%"
       cy="50.0%"
       fx="50.0%"
       fy="50.0%"
       r="50.0%"
/>
<filter id="filter1111" x="-50%" y="-50%" width="200%" height="200%">
	<feImage
	id="feImage2"
	xlink:href="#1"
	result="result1" />
	<feComposite
	id="feComposite3633"
	in="result1"
	in2="SourceGraphic"
	operator="xor" />
</filter>
	<rect
	style="fill:#1A4B4F;fill-opacity:1.0;filter:url(#filter1111)"
	id="rect2835"
	width="48"
	height="48"
	x="0"
	y="0"
	rx="3.5"
	ry="3.5" />
	<rect
	style="fill:url(#acyl_gradient);filter:url(#filter1111)"
	id="rect2835"
	width="44"
	height="44"
	x="2"
	y="2"
	rx="3.5"
	ry="3.5" />
<defs>
<use id="1" transform="translate(22.5,22.5) scale(0.85) translate(-22.5,-22.5)" style="fill:#000000" xlink:href="#path-main" />
</defs>
	<use id="2" transform="translate(22.5,22.5) scale(0.85) translate(-22.5,-22.5)" style="fill:#1A4B4F;fill-opacity:1.0" xlink:href="#path-main" />
</acyl-settings>
</svg>
