<?xml version="1.0" encoding="UTF-8" standalone="no"?>
<!-- Created with Inkscape (http://www.inkscape.org/) -->

<svg
   xmlns:dc="http://purl.org/dc/elements/1.1/"
   xmlns:cc="http://creativecommons.org/ns#"
   xmlns:rdf="http://www.w3.org/1999/02/22-rdf-syntax-ns#"
   xmlns:svg="http://www.w3.org/2000/svg"
   xmlns="http://www.w3.org/2000/svg"
   xmlns:xlink="http://www.w3.org/1999/xlink"
   xmlns:sodipodi="http://sodipodi.sourceforge.net/DTD/sodipodi-0.dtd"
   xmlns:inkscape="http://www.inkscape.org/namespaces/inkscape"
   version="1.1"
   width="48"
   height="48"
   id="svg4951"
   inkscape:version="0.91 r"
   sodipodi:docname="audacious.svg">
  <sodipodi:namedview
     pagecolor="#009acb"
     bordercolor="#666666"
     borderopacity="1"
     objecttolerance="10"
     gridtolerance="10"
     guidetolerance="10"
     inkscape:pageopacity="0.74509804"
     inkscape:pageshadow="2"
     inkscape:window-width="1600"
     inkscape:window-height="845"
     id="namedview154"
     showgrid="false"
     inkscape:zoom="9.28"
     inkscape:cx="24.717673"
     inkscape:cy="21.499686"
     inkscape:window-x="0"
     inkscape:window-y="30"
     inkscape:window-maximized="1"
     inkscape:current-layer="svg4951" />
  <defs
     id="defs4953">
    <linearGradient
       id="linearGradient4411">
      <stop
         id="stop4413"
         offset="0"
         style="stop-color:#ffffff;stop-opacity:1" />
      <stop
         id="stop4415"
         offset="1"
         style="stop-color:#ffffff;stop-opacity:0" />
    </linearGradient>
    <linearGradient
       x1="38.851257"
       y1="41.608219"
       x2="34.130882"
       y2="37.809635"
       id="linearGradient4761"
       xlink:href="#linearGradient6455-7-3"
       gradientUnits="userSpaceOnUse" />
    <linearGradient
       id="linearGradient6455-7-3">
      <stop
         id="stop6457-5-1"
         style="stop-color:#fbac9b;stop-opacity:1"
         offset="0" />
      <stop
         id="stop6459-8-9"
         style="stop-color:#fcfafc;stop-opacity:1"
         offset="1" />
    </linearGradient>
    <linearGradient
       x1="38.851257"
       y1="41.608219"
       x2="34.130882"
       y2="37.809635"
       id="linearGradient4763"
       xlink:href="#linearGradient6413-0-0"
       gradientUnits="userSpaceOnUse" />
    <linearGradient
       id="linearGradient6413-0-0">
      <stop
         id="stop6415-1-7"
         style="stop-color:#feffff;stop-opacity:1"
         offset="0" />
      <stop
         id="stop6417-4-9"
         style="stop-color:#fe70ca;stop-opacity:1"
         offset="1" />
    </linearGradient>
    <radialGradient
       cx="36.49107"
       cy="39.708927"
       r="3.1589286"
       fx="36.49107"
       fy="39.708927"
       id="radialGradient4765"
       xlink:href="#linearGradient6303-33-0-2"
       gradientUnits="userSpaceOnUse" />
    <linearGradient
       id="linearGradient6303-33-0-2">
      <stop
         id="stop6305-1-0-2"
         style="stop-color:#ffffff;stop-opacity:1"
         offset="0" />
      <stop
         id="stop6307-5-0-6"
         style="stop-color:#ffffff;stop-opacity:0"
         offset="1" />
    </linearGradient>
    <radialGradient
       cx="36.49107"
       cy="39.708927"
       r="3.1589286"
       fx="36.49107"
       fy="39.708927"
       id="radialGradient4767"
       xlink:href="#linearGradient6303-3-2-1"
       gradientUnits="userSpaceOnUse" />
    <linearGradient
       id="linearGradient6303-3-2-1">
      <stop
         id="stop6305-3-0-9"
         style="stop-color:#ffffff;stop-opacity:1"
         offset="0" />
      <stop
         id="stop6307-1-0-1"
         style="stop-color:#ffffff;stop-opacity:0"
         offset="1" />
    </linearGradient>
    <radialGradient
       cx="36.49107"
       cy="39.708927"
       r="3.1589286"
       fx="36.49107"
       fy="39.708927"
       id="radialGradient4769"
       xlink:href="#linearGradient6303-4-8"
       gradientUnits="userSpaceOnUse" />
    <linearGradient
       id="linearGradient6303-4-8">
      <stop
         id="stop6305-33-3"
         style="stop-color:#ffffff;stop-opacity:1"
         offset="0" />
      <stop
         id="stop6307-9-3"
         style="stop-color:#ffffff;stop-opacity:0"
         offset="1" />
    </linearGradient>
    <radialGradient
       cx="32.372566"
       cy="31.405056"
       r="3.857446"
       fx="32.372566"
       fy="31.405056"
       id="radialGradient4771"
       xlink:href="#linearGradient6088-6-1-0"
       gradientUnits="userSpaceOnUse"
       gradientTransform="matrix(2.0664963,0,0,2.0664963,-34.525221,-33.493375)" />
    <linearGradient
       id="linearGradient6088-6-1-0">
      <stop
         id="stop6090-2-0-4"
         style="stop-color:#ff54d2;stop-opacity:0"
         offset="0" />
      <stop
         id="stop6257-4-6-1"
         style="stop-color:#ff54d2;stop-opacity:0"
         offset="0.32368398" />
      <stop
         id="stop6255-3-6-7"
         style="stop-color:#ff54d2;stop-opacity:0.2521739"
         offset="0.56140333" />
      <stop
         id="stop6092-9-6-8"
         style="stop-color:#ff54d2;stop-opacity:0.47826087"
         offset="1" />
    </linearGradient>
    <radialGradient
       cx="32.372566"
       cy="31.405056"
       r="3.857446"
       fx="32.372566"
       fy="31.405056"
       id="radialGradient4773"
       xlink:href="#linearGradient6191-8-3-4"
       gradientUnits="userSpaceOnUse"
       gradientTransform="matrix(2.0676498,0.55402509,-0.5348486,1.9960821,-17.765612,-49.217228)" />
    <linearGradient
       id="linearGradient6191-8-3-4">
      <stop
         id="stop6193-75-7-6"
         style="stop-color:#ffffff;stop-opacity:0"
         offset="0" />
      <stop
         id="stop6197-3-4-1"
         style="stop-color:#ffffff;stop-opacity:0"
         offset="0.40531859" />
      <stop
         id="stop6195-7-2-5"
         style="stop-color:#ffffff;stop-opacity:0.47826087"
         offset="1" />
    </linearGradient>
    <radialGradient
       cx="32.372566"
       cy="31.405056"
       r="3.857446"
       fx="32.372566"
       fy="31.405056"
       id="radialGradient4775"
       xlink:href="#linearGradient6191-7-9-4"
       gradientUnits="userSpaceOnUse"
       gradientTransform="matrix(2.0676498,0.55402509,-0.5348486,1.9960821,-17.765612,-49.217228)" />
    <linearGradient
       id="linearGradient6191-7-9-4">
      <stop
         id="stop6193-7-3-6"
         style="stop-color:#ffffff;stop-opacity:0"
         offset="0" />
      <stop
         id="stop6197-2-2-0"
         style="stop-color:#ffffff;stop-opacity:0"
         offset="0.40531859" />
      <stop
         id="stop6195-2-1-9"
         style="stop-color:#ffffff;stop-opacity:0.47826087"
         offset="1" />
    </linearGradient>
    <radialGradient
       cx="32.372566"
       cy="31.405056"
       r="3.857446"
       fx="32.372566"
       fy="31.405056"
       id="radialGradient4777"
       xlink:href="#linearGradient6191-9-9"
       gradientUnits="userSpaceOnUse"
       gradientTransform="matrix(2.0676498,0.55402509,-0.5348486,1.9960821,-17.765612,-49.217228)" />
    <linearGradient
       id="linearGradient6191-9-9">
      <stop
         id="stop6193-8-1"
         style="stop-color:#ffffff;stop-opacity:0"
         offset="0" />
      <stop
         id="stop6197-8-8"
         style="stop-color:#ffffff;stop-opacity:0"
         offset="0.40531859" />
      <stop
         id="stop6195-9-3"
         style="stop-color:#ffffff;stop-opacity:0.47826087"
         offset="1" />
    </linearGradient>
    <linearGradient
       x1="68.313301"
       y1="52.925316"
       x2="68.313301"
       y2="65.922028"
       id="linearGradient4730"
       xlink:href="#linearGradient3990-3-1-7"
       gradientUnits="userSpaceOnUse"
       gradientTransform="matrix(0.11534799,0,0,0.0865106,16.28139,17.444973)" />
    <linearGradient
       id="linearGradient3990-3-1-7">
      <stop
         id="stop3992-0-0-1"
         style="stop-color:#ffffff;stop-opacity:1"
         offset="0" />
      <stop
         id="stop3994-2-1-8"
         style="stop-color:#ffffff;stop-opacity:0"
         offset="1" />
    </linearGradient>
    <linearGradient
       x1="92.696327"
       y1="16.554602"
       x2="92.696327"
       y2="48.983677"
       id="linearGradient4779"
       xlink:href="#linearGradient4316-4-6-6-4"
       gradientUnits="userSpaceOnUse" />
    <linearGradient
       id="linearGradient4316-4-6-6-4">
      <stop
         id="stop4318-4-4-6-5"
         style="stop-color:#ffffff;stop-opacity:1"
         offset="0" />
      <stop
         id="stop4320-2-2-6-59"
         style="stop-color:#ffffff;stop-opacity:0.23529412"
         offset="0.33799788" />
      <stop
         id="stop4322-4-5-5-0"
         style="stop-color:#ffffff;stop-opacity:0.15686275"
         offset="0.61996669" />
      <stop
         id="stop4324-4-1-5-5"
         style="stop-color:#ffffff;stop-opacity:0.39215687"
         offset="1" />
    </linearGradient>
    <radialGradient
       cx="32.372566"
       cy="31.405056"
       r="3.857446"
       fx="32.372566"
       fy="31.405056"
       id="radialGradient4781"
       xlink:href="#linearGradient6088-74-4"
       gradientUnits="userSpaceOnUse"
       gradientTransform="matrix(2.0664963,0,0,2.0664963,-34.525221,-33.493375)" />
    <linearGradient
       id="linearGradient6088-74-4">
      <stop
         id="stop6090-5-66"
         style="stop-color:#ff54d2;stop-opacity:0"
         offset="0" />
      <stop
         id="stop6257-5-4"
         style="stop-color:#f62b68;stop-opacity:1"
         offset="0.32368398" />
      <stop
         id="stop6255-6-7"
         style="stop-color:#ff0105;stop-opacity:1"
         offset="0.56140333" />
      <stop
         id="stop6092-0-22"
         style="stop-color:#ff54d2;stop-opacity:0.47826087"
         offset="1" />
    </linearGradient>
    <linearGradient
       x1="92.696327"
       y1="16.554602"
       x2="92.696327"
       y2="48.983677"
       id="linearGradient4783"
       xlink:href="#linearGradient4316-4-0-7"
       gradientUnits="userSpaceOnUse" />
    <linearGradient
       id="linearGradient4316-4-0-7">
      <stop
         id="stop4318-4-5-3"
         style="stop-color:#ffffff;stop-opacity:1"
         offset="0" />
      <stop
         id="stop4320-2-9-4"
         style="stop-color:#ffffff;stop-opacity:0.23529412"
         offset="0.33799788" />
      <stop
         id="stop4322-4-1-3"
         style="stop-color:#ffffff;stop-opacity:0.15686275"
         offset="0.61996669" />
      <stop
         id="stop4324-4-8-66"
         style="stop-color:#ffffff;stop-opacity:0.39215687"
         offset="1" />
    </linearGradient>
    <radialGradient
       cx="95.838364"
       cy="95.388451"
       r="9.4981718"
       fx="95.838364"
       fy="95.388451"
       id="radialGradient4738"
       xlink:href="#linearGradient4278-3-5"
       gradientUnits="userSpaceOnUse"
       gradientTransform="matrix(0.40504519,-6.0397343e-8,5.6748136e-8,0.38056881,-14.881685,-12.451151)" />
    <linearGradient
       id="linearGradient4278-3-5">
      <stop
         id="stop4280-6-90"
         style="stop-color:#000000;stop-opacity:0"
         offset="0" />
      <stop
         id="stop4286-1-9"
         style="stop-color:#000000;stop-opacity:0"
         offset="0.5" />
      <stop
         id="stop4282-24-4"
         style="stop-color:#000000;stop-opacity:1"
         offset="1" />
    </linearGradient>
    <radialGradient
       cx="23.896"
       cy="3.99"
       r="20.396999"
       id="radialGradient4741"
       xlink:href="#linearGradient2867-449-88-871-390-598-476-591-434-148-57-177-691-4-22"
       gradientUnits="userSpaceOnUse"
       gradientTransform="matrix(0,0.41038782,-0.54170722,0,26.16143,10.43124)" />
    <linearGradient
       id="linearGradient2867-449-88-871-390-598-476-591-434-148-57-177-691-4-22">
      <stop
         id="stop7191-4-6"
         style="stop-color:#612f91;stop-opacity:1"
         offset="0" />
      <stop
         id="stop7197-2-8"
         style="stop-color:#1a4aa2;stop-opacity:1"
         offset="1" />
    </linearGradient>
    <linearGradient
       x1="7.0776"
       y1="3.0816"
       x2="7.0776"
       y2="45.368999"
       id="linearGradient4743"
       xlink:href="#linearGradient3087-408-5-3"
       gradientUnits="userSpaceOnUse"
       gradientTransform="matrix(0.17195169,0,0,0.17195091,19.87316,19.873055)" />
    <linearGradient
       x1="7.0776"
       y1="3.0816"
       x2="7.0776"
       y2="45.368999"
       id="linearGradient3087-408-5-3"
       gradientUnits="userSpaceOnUse"
       gradientTransform="matrix(0.22110724,0,0,0.22110728,6.6934256,6.693263)">
      <stop
         id="stop7201-5-71"
         style="stop-color:#170418;stop-opacity:1"
         offset="0" />
      <stop
         id="stop7203-2-8"
         style="stop-color:#50386b;stop-opacity:1"
         offset="1" />
    </linearGradient>
    <radialGradient
       cx="31.999998"
       cy="21.239277"
       r="10.498171"
       fx="31.999998"
       fy="21.239277"
       id="radialGradient4748"
       xlink:href="#linearGradient6042-1-7"
       gradientUnits="userSpaceOnUse"
       gradientTransform="matrix(0,1.4370509,-3.3103161,0,94.30873,-29.673199)" />
    <linearGradient
       id="linearGradient6042-1-7">
      <stop
         id="stop6044-9-6"
         style="stop-color:#07132d;stop-opacity:1"
         offset="0" />
      <stop
         id="stop6046-9-5"
         style="stop-color:#425479;stop-opacity:1"
         offset="1" />
    </linearGradient>
    <radialGradient
       cx="91.349998"
       cy="16.447752"
       r="15.639286"
       fx="91.349998"
       fy="16.447752"
       id="radialGradient4785"
       xlink:href="#linearGradient4507-6-5"
       gradientUnits="userSpaceOnUse"
       gradientTransform="matrix(0,1.9804002,-1.9804002,0,123.92313,-164.4618)" />
    <linearGradient
       id="linearGradient4507-6-5">
      <stop
         id="stop4509-3-8"
         style="stop-color:#2d3955;stop-opacity:1"
         offset="0" />
      <stop
         id="stop5959-4-45"
         style="stop-color:#2b3853;stop-opacity:1"
         offset="0.72468865" />
      <stop
         id="stop5961-1-7"
         style="stop-color:#192640;stop-opacity:1"
         offset="0.75" />
      <stop
         id="stop4511-1-0"
         style="stop-color:#08142e;stop-opacity:1"
         offset="1" />
    </linearGradient>
    <linearGradient
       x1="92.696327"
       y1="16.554602"
       x2="92.696327"
       y2="48.983677"
       id="linearGradient4787"
       xlink:href="#linearGradient4316-5-3"
       gradientUnits="userSpaceOnUse" />
    <linearGradient
       id="linearGradient4316-5-3">
      <stop
         id="stop4318-1-6"
         style="stop-color:#ffffff;stop-opacity:1"
         offset="0" />
      <stop
         id="stop4320-9-8"
         style="stop-color:#ffffff;stop-opacity:0.23529412"
         offset="0.33799788" />
      <stop
         id="stop4322-42-31"
         style="stop-color:#ffffff;stop-opacity:0.15686275"
         offset="0.61996669" />
      <stop
         id="stop4324-9-9"
         style="stop-color:#ffffff;stop-opacity:0.39215687"
         offset="1" />
    </linearGradient>
    <linearGradient
       x1="91.566116"
       y1="16.542858"
       x2="91.566116"
       y2="48.631081"
       id="linearGradient4789"
       xlink:href="#linearGradient4220-7-2"
       gradientUnits="userSpaceOnUse" />
    <linearGradient
       id="linearGradient4220-7-2">
      <stop
         id="stop4222-7-5"
         style="stop-color:#7a8498;stop-opacity:1"
         offset="0" />
      <stop
         id="stop4224-0-5"
         style="stop-color:#34405c;stop-opacity:1"
         offset="1" />
    </linearGradient>
    <linearGradient
       x1="51.199997"
       y1="8.1142893"
       x2="51.199997"
       y2="56.114563"
       id="linearGradient4756"
       xlink:href="#linearGradient4164-9"
       gradientUnits="userSpaceOnUse"
       gradientTransform="matrix(0.66665978,0,0,0.66665668,-10.209335,2.6672249)" />
    <linearGradient
       id="linearGradient4164-9">
      <stop
         id="stop4166-3"
         style="stop-color:#b6b6b6;stop-opacity:1"
         offset="0" />
      <stop
         id="stop4216-6"
         style="stop-color:#a4a4a4;stop-opacity:1"
         offset="0.33095336" />
      <stop
         id="stop4168-0"
         style="stop-color:#c5c5c5;stop-opacity:1"
         offset="1" />
    </linearGradient>
    <linearGradient
       x1="71.204407"
       y1="15.369057"
       x2="71.204407"
       y2="40.495617"
       id="linearGradient3177"
       xlink:href="#linearGradient4806-2"
       gradientUnits="userSpaceOnUse"
       gradientTransform="matrix(1.6169806,0,0,1.6169806,-92.707374,-21.060237)" />
    <linearGradient
       id="linearGradient4806-2">
      <stop
         id="stop4808-4"
         style="stop-color:#ffffff;stop-opacity:1"
         offset="0" />
      <stop
         id="stop4810-0"
         style="stop-color:#ffffff;stop-opacity:0.23529412"
         offset="0.42447853" />
      <stop
         id="stop4812-8"
         style="stop-color:#ffffff;stop-opacity:0.15686275"
         offset="0.82089913" />
      <stop
         id="stop4814-0"
         style="stop-color:#ffffff;stop-opacity:0.39215687"
         offset="1" />
    </linearGradient>
    <radialGradient
       cx="23.896"
       cy="3.99"
       r="20.396999"
       fx="23.896"
       fy="3.99"
       id="radialGradient4201"
       xlink:href="#radialGradient3093-0-3-6-6"
       gradientUnits="userSpaceOnUse"
       gradientTransform="matrix(0,2.8885219,-3.8127977,0,39.21344,-65.949504)" />
    <radialGradient
       cx="23.896"
       cy="3.99"
       r="20.396999"
       id="radialGradient3093-0-3-6-6"
       gradientUnits="userSpaceOnUse"
       gradientTransform="matrix(0,1.2316483,-1.625754,0,18.486966,-28.721977)">
      <stop
         id="stop3244-9-33-7-0-9"
         style="stop-color:#ffffff;stop-opacity:1"
         offset="0" />
      <stop
         id="stop3246-3-5-0-8-5"
         style="stop-color:#dddddd;stop-opacity:1"
         offset="0.26238" />
      <stop
         id="stop3248-1-7-8-8-1"
         style="stop-color:#abacae;stop-opacity:1"
         offset="0.66093999" />
      <stop
         id="stop3250-9-3-0-5-1"
         style="stop-color:#89898b;stop-opacity:1"
         offset="1" />
    </radialGradient>
    <linearGradient
       id="linearGradient3820-7-2-1">
      <stop
         id="stop3822-2-6-3"
         style="stop-color:#3d3d3d;stop-opacity:1"
         offset="0" />
      <stop
         id="stop3864-8-7-7"
         style="stop-color:#686868;stop-opacity:0.49803922"
         offset="0.5" />
      <stop
         id="stop3824-1-2-5"
         style="stop-color:#686868;stop-opacity:0"
         offset="1" />
    </linearGradient>
    <radialGradient
       cx="99.157013"
       cy="186.17059"
       r="62.769119"
       fx="99.157013"
       fy="186.17059"
       id="radialGradient4949"
       xlink:href="#linearGradient3820-7-2-1"
       gradientUnits="userSpaceOnUse"
       gradientTransform="matrix(0.27083381,0,0,0.08762273,-2.85507,25.187228)" />
    <linearGradient
       id="linearGradient8838">
      <stop
         offset="0"
         style="stop-color:#000000;stop-opacity:1"
         id="stop8840" />
      <stop
         offset="1"
         style="stop-color:#000000;stop-opacity:0"
         id="stop8842" />
    </linearGradient>
    <linearGradient
       id="linearGradient4422">
      <stop
         id="stop4424"
         style="stop-color:#e4e4e4;stop-opacity:1;"
         offset="0" />
      <stop
         id="stop4426"
         style="stop-color:#d2d2d3;stop-opacity:1;"
         offset="0.37188172" />
      <stop
         id="stop4428"
         style="stop-color:#ababac;stop-opacity:1;"
         offset="0.81009638" />
      <stop
         id="stop4430"
         style="stop-color:#888889;stop-opacity:1;"
         offset="1" />
    </linearGradient>
    <linearGradient
       id="linearGradient5873">
      <stop
         style="stop-color:#8b8b8b;stop-opacity:1;"
         offset="0"
         id="stop5875" />
      <stop
         style="stop-color:#c0c0c0;stop-opacity:1;"
         offset="1"
         id="stop5877" />
    </linearGradient>
    <linearGradient
       id="linearGradient3162">
      <stop
         style="stop-color:#f9f9f9;stop-opacity:1;"
         offset="0"
         id="stop3164" />
      <stop
         style="stop-color:#d4d4d4;stop-opacity:1"
         offset="1"
         id="stop3166" />
    </linearGradient>
    <linearGradient
       id="linearGradient4436">
      <stop
         style="stop-color:#efefef;stop-opacity:1;"
         offset="0"
         id="stop4438" />
      <stop
         style="stop-color:#ffffff;stop-opacity:1;"
         offset="1"
         id="stop4440" />
    </linearGradient>
    <linearGradient
       id="linearGradient4965"
       inkscape:collect="always">
      <stop
         id="stop4967"
         offset="0"
         style="stop-color:#000000;stop-opacity:1;" />
      <stop
         id="stop4969"
         offset="1"
         style="stop-color:#000000;stop-opacity:0" />
    </linearGradient>
    <linearGradient
       inkscape:collect="always"
       xlink:href="#linearGradient4644-104-3-3-6-2-3-4"
       id="linearGradient10060"
       gradientUnits="userSpaceOnUse"
       gradientTransform="matrix(1.3333333,0,0,1.1052632,-8.0000008,-2.526316)"
       x1="24.25"
       y1="29.5"
       x2="24.25"
       y2="18.454639" />
    <linearGradient
       id="linearGradient4644-104-3-3-6-2-3-4">
      <stop
         offset="0"
         style="stop-color:#ff4035;stop-opacity:1;"
         id="stop5237-6-5-1-7-5-2" />
      <stop
         offset="1"
         style="stop-color:#dc311a;stop-opacity:1;"
         id="stop5239-4-6-4-8-4-8" />
    </linearGradient>
    <radialGradient
       inkscape:collect="always"
       xlink:href="#linearGradient3820-7-2-1"
       id="radialGradient3302"
       gradientUnits="userSpaceOnUse"
       gradientTransform="matrix(0.27083381,0,0,0.08762273,-2.85507,25.187228)"
       cx="99.157013"
       cy="186.17059"
       fx="99.157013"
       fy="186.17059"
       r="62.769119" />
    <radialGradient
       inkscape:collect="always"
       xlink:href="#linearGradient4422"
       id="radialGradient3392"
       gradientUnits="userSpaceOnUse"
       gradientTransform="matrix(0,2.4988347,-2.6434689,-6.8014435e-8,104.09953,-11.248822)"
       cx="5.3215203"
       cy="8.4497671"
       fx="5.3215203"
       fy="8.4497671"
       r="19.99999" />
    <linearGradient
       inkscape:collect="always"
       xlink:href="#linearGradient5873"
       id="linearGradient3394"
       gradientUnits="userSpaceOnUse"
       gradientTransform="translate(57.762712,0.93164569)"
       x1="23.75"
       y1="44.25"
       x2="24.000118"
       y2="1.1171311" />
    <radialGradient
       inkscape:collect="always"
       xlink:href="#linearGradient3162"
       id="radialGradient3396"
       gradientUnits="userSpaceOnUse"
       gradientTransform="matrix(9.7678889e-8,2.0000001,-2.7333333,1.3349447e-7,67.82222,-34.333337)"
       cx="25"
       cy="15.666667"
       fx="25"
       fy="15.666667"
       r="10" />
    <linearGradient
       inkscape:collect="always"
       xlink:href="#linearGradient4436"
       id="linearGradient3398"
       gradientUnits="userSpaceOnUse"
       x1="24.777349"
       y1="24.616444"
       x2="24.777349"
       y2="31.493454" />
    <linearGradient
       inkscape:collect="always"
       xlink:href="#linearGradient4965"
       id="linearGradient3400"
       gradientUnits="userSpaceOnUse"
       x1="24.777349"
       y1="18.226145"
       x2="24.777349"
       y2="22.31111" />
    <linearGradient
       inkscape:collect="always"
       xlink:href="#linearGradient4644-104-3-3-6-2-3-4"
       id="linearGradient3402"
       gradientUnits="userSpaceOnUse"
       gradientTransform="matrix(1.3333333,0,0,1.1052632,49.762711,-1.5946703)"
       x1="24.25"
       y1="29.5"
       x2="24.25"
       y2="18.454639" />
    <linearGradient
       id="linearGradient3765">
      <stop
         style="stop-color:#ffffff;stop-opacity:1;"
         offset="0"
         id="stop3767" />
      <stop
         style="stop-color:#e4e4e4;stop-opacity:1;"
         offset="1"
         id="stop3769" />
    </linearGradient>
    <linearGradient
       id="linearGradient3775">
      <stop
         style="stop-color:#ffffff;stop-opacity:0.58823532;"
         offset="0"
         id="stop3777" />
      <stop
         style="stop-color:#ffffff;stop-opacity:1;"
         offset="1"
         id="stop3779" />
    </linearGradient>
    <linearGradient
       id="linearGradient3772-6">
      <stop
         id="stop3774-6"
         style="stop-color:#b4b4b4;stop-opacity:1"
         offset="0" />
      <stop
         id="stop3776-4"
         style="stop-color:#969696;stop-opacity:1"
         offset="1" />
    </linearGradient>
    <linearGradient
       inkscape:collect="always"
       xlink:href="#linearGradient3768-2"
       id="linearGradient3963"
       gradientUnits="userSpaceOnUse"
       x1="20.117516"
       y1="-202.20998"
       x2="461.9924"
       y2="-202.20998" />
    <linearGradient
       id="linearGradient3768-2">
      <stop
         style="stop-color:#5587a3;stop-opacity:1;"
         offset="0"
         id="stop3770-4" />
      <stop
         style="stop-color:#457d8f;stop-opacity:1;"
         offset="1"
         id="stop3772-8" />
    </linearGradient>
    <linearGradient
       inkscape:collect="always"
       xlink:href="#linearGradient3768-2"
       id="linearGradient3954"
       gradientUnits="userSpaceOnUse"
       x1="20.117516"
       y1="-202.20998"
       x2="32.586807"
       y2="-123.50863" />
    <linearGradient
       id="linearGradient3180">
      <stop
         style="stop-color:#5587a3;stop-opacity:1;"
         offset="0"
         id="stop3182" />
      <stop
         style="stop-color:#457d8f;stop-opacity:1;"
         offset="1"
         id="stop3184" />
    </linearGradient>
    <linearGradient
       inkscape:collect="always"
       xlink:href="#linearGradient3768-2"
       id="linearGradient3956"
       gradientUnits="userSpaceOnUse"
       x1="20.117516"
       y1="-202.20998"
       x2="32.586807"
       y2="-123.50863" />
    <linearGradient
       id="linearGradient3187">
      <stop
         style="stop-color:#5587a3;stop-opacity:1;"
         offset="0"
         id="stop3189" />
      <stop
         style="stop-color:#457d8f;stop-opacity:1;"
         offset="1"
         id="stop3191" />
    </linearGradient>
    <linearGradient
       inkscape:collect="always"
       xlink:href="#linearGradient3768-2"
       id="linearGradient3958"
       gradientUnits="userSpaceOnUse"
       x1="20.117516"
       y1="-202.20998"
       x2="32.586807"
       y2="-123.50863" />
    <linearGradient
       id="linearGradient3194">
      <stop
         style="stop-color:#5587a3;stop-opacity:1;"
         offset="0"
         id="stop3196" />
      <stop
         style="stop-color:#457d8f;stop-opacity:1;"
         offset="1"
         id="stop3198" />
    </linearGradient>
    <linearGradient
       inkscape:collect="always"
       xlink:href="#linearGradient3768-2"
       id="linearGradient3961"
       gradientUnits="userSpaceOnUse"
       x1="20.117516"
       y1="-202.20998"
       x2="32.586807"
       y2="-123.50863" />
    <linearGradient
       id="linearGradient3201">
      <stop
         style="stop-color:#5587a3;stop-opacity:1;"
         offset="0"
         id="stop3203" />
      <stop
         style="stop-color:#457d8f;stop-opacity:1;"
         offset="1"
         id="stop3205" />
    </linearGradient>
    <linearGradient
       inkscape:collect="always"
       xlink:href="#linearGradient3800-7-2"
       id="linearGradient3973"
       gradientUnits="userSpaceOnUse"
       spreadMethod="pad"
       x1="457.9744"
       y1="-51.710907"
       x2="442.4953"
       y2="-202.20998" />
    <linearGradient
       id="linearGradient3800-7-2">
      <stop
         style="stop-color:#5ca2b8;stop-opacity:1;"
         offset="0"
         id="stop3802-4-8" />
      <stop
         style="stop-color:#5ca2b8;stop-opacity:1;"
         offset="1"
         id="stop3804-0-6" />
    </linearGradient>
    <linearGradient
       inkscape:collect="always"
       xlink:href="#linearGradient3800-7-2"
       id="linearGradient3965"
       gradientUnits="userSpaceOnUse"
       gradientTransform="translate(-3.6333562,-1.8175159)"
       spreadMethod="pad"
       x1="396.35013"
       y1="-224.8987"
       x2="378.80692"
       y2="-368.20535" />
    <linearGradient
       id="linearGradient3212">
      <stop
         style="stop-color:#5ca2b8;stop-opacity:1;"
         offset="0"
         id="stop3214" />
      <stop
         style="stop-color:#5ca2b8;stop-opacity:1;"
         offset="1"
         id="stop3216" />
    </linearGradient>
    <linearGradient
       inkscape:collect="always"
       xlink:href="#linearGradient3800-7-2"
       id="linearGradient3967"
       gradientUnits="userSpaceOnUse"
       gradientTransform="translate(-3.6333562,-1.8175159)"
       spreadMethod="pad"
       x1="450.1077"
       y1="-143.3038"
       x2="433.4119"
       y2="-242.45497" />
    <linearGradient
       id="linearGradient3219">
      <stop
         style="stop-color:#5ca2b8;stop-opacity:1;"
         offset="0"
         id="stop3221" />
      <stop
         style="stop-color:#5ca2b8;stop-opacity:1;"
         offset="1"
         id="stop3223" />
    </linearGradient>
    <linearGradient
       inkscape:collect="always"
       xlink:href="#linearGradient3800-7-2"
       id="linearGradient3969"
       gradientUnits="userSpaceOnUse"
       gradientTransform="translate(-3.6333562,-1.8175159)"
       spreadMethod="pad"
       x1="489.50595"
       y1="-113.46021"
       x2="442.4953"
       y2="-202.20998" />
    <linearGradient
       id="linearGradient3226">
      <stop
         style="stop-color:#5ca2b8;stop-opacity:1;"
         offset="0"
         id="stop3228" />
      <stop
         style="stop-color:#5ca2b8;stop-opacity:1;"
         offset="1"
         id="stop3230" />
    </linearGradient>
    <linearGradient
       inkscape:collect="always"
       xlink:href="#linearGradient3800-7-2"
       id="linearGradient3971"
       gradientUnits="userSpaceOnUse"
       gradientTransform="translate(-3.6333562,-1.8175159)"
       spreadMethod="pad"
       x1="446.69247"
       y1="-139.79538"
       x2="425.41571"
       y2="-267.90073" />
    <linearGradient
       id="linearGradient3233">
      <stop
         style="stop-color:#5ca2b8;stop-opacity:1;"
         offset="0"
         id="stop3235" />
      <stop
         style="stop-color:#5ca2b8;stop-opacity:1;"
         offset="1"
         id="stop3237" />
    </linearGradient>
    <radialGradient
       inkscape:collect="always"
       xlink:href="#linearGradient3765"
       id="radialGradient3280"
       gradientUnits="userSpaceOnUse"
       gradientTransform="matrix(-1.7922484,4.7450628e-8,-3.529013e-8,-1.3329366,41.58142,-41.248313)"
       cx="14.891734"
       cy="-17.680855"
       fx="14.891734"
       fy="-17.680855"
       r="25.570608" />
    <linearGradient
       inkscape:collect="always"
       xlink:href="#linearGradient3775"
       id="linearGradient3282"
       gradientUnits="userSpaceOnUse"
       x1="15.123692"
       y1="-18.801283"
       x2="15.123692"
       y2="32.56842" />
    <linearGradient
       inkscape:collect="always"
       xlink:href="#linearGradient3772-6"
       id="linearGradient3293"
       gradientUnits="userSpaceOnUse"
       gradientTransform="matrix(1.4102564,0,0,1.4102564,1.4050412,-4.5399056)"
       x1="27.096104"
       y1="10.880992"
       x2="27.096104"
       y2="39.150768" />
    <linearGradient
       inkscape:collect="always"
       xlink:href="#linearGradient3768-2"
       id="linearGradient4084"
       gradientUnits="userSpaceOnUse"
       x1="20.117516"
       y1="-202.20998"
       x2="461.9924"
       y2="-202.20998" />
    <linearGradient
       inkscape:collect="always"
       xlink:href="#linearGradient3800-7-2"
       id="linearGradient4086"
       gradientUnits="userSpaceOnUse"
       spreadMethod="pad"
       x1="457.9744"
       y1="-51.710907"
       x2="442.4953"
       y2="-202.20998" />
    <linearGradient
       inkscape:collect="always"
       xlink:href="#linearGradient3768-2"
       id="linearGradient4130"
       gradientUnits="userSpaceOnUse"
       x1="20.117516"
       y1="-202.20998"
       x2="32.586807"
       y2="-123.50863" />
    <linearGradient
       inkscape:collect="always"
       xlink:href="#linearGradient3768-2"
       id="linearGradient4132"
       gradientUnits="userSpaceOnUse"
       x1="20.117516"
       y1="-202.20998"
       x2="32.586807"
       y2="-123.50863" />
    <linearGradient
       inkscape:collect="always"
       xlink:href="#linearGradient3768-2"
       id="linearGradient4134"
       gradientUnits="userSpaceOnUse"
       x1="20.117516"
       y1="-202.20998"
       x2="32.586807"
       y2="-123.50863" />
    <linearGradient
       inkscape:collect="always"
       xlink:href="#linearGradient3768-2"
       id="linearGradient4136"
       gradientUnits="userSpaceOnUse"
       x1="20.117516"
       y1="-202.20998"
       x2="32.586807"
       y2="-123.50863" />
    <linearGradient
       inkscape:collect="always"
       xlink:href="#linearGradient3768-2"
       id="linearGradient4138"
       gradientUnits="userSpaceOnUse"
       x1="20.117516"
       y1="-202.20998"
       x2="461.9924"
       y2="-202.20998" />
    <linearGradient
       inkscape:collect="always"
       xlink:href="#linearGradient3800-7-2"
       id="linearGradient4140"
       gradientUnits="userSpaceOnUse"
       gradientTransform="translate(-3.6333562,-1.8175159)"
       spreadMethod="pad"
       x1="396.35013"
       y1="-224.8987"
       x2="378.80692"
       y2="-368.20535" />
    <linearGradient
       inkscape:collect="always"
       xlink:href="#linearGradient3800-7-2"
       id="linearGradient4142"
       gradientUnits="userSpaceOnUse"
       gradientTransform="translate(-3.6333562,-1.8175159)"
       spreadMethod="pad"
       x1="450.1077"
       y1="-143.3038"
       x2="433.4119"
       y2="-242.45497" />
    <linearGradient
       inkscape:collect="always"
       xlink:href="#linearGradient3800-7-2"
       id="linearGradient4144"
       gradientUnits="userSpaceOnUse"
       gradientTransform="translate(-3.6333562,-1.8175159)"
       spreadMethod="pad"
       x1="489.50595"
       y1="-113.46021"
       x2="442.4953"
       y2="-202.20998" />
    <linearGradient
       inkscape:collect="always"
       xlink:href="#linearGradient3800-7-2"
       id="linearGradient4146"
       gradientUnits="userSpaceOnUse"
       gradientTransform="translate(-3.6333562,-1.8175159)"
       spreadMethod="pad"
       x1="446.69247"
       y1="-139.79538"
       x2="425.41571"
       y2="-267.90073" />
    <linearGradient
       inkscape:collect="always"
       xlink:href="#linearGradient3800-7-2"
       id="linearGradient4148"
       gradientUnits="userSpaceOnUse"
       spreadMethod="pad"
       x1="457.9744"
       y1="-51.710907"
       x2="442.4953"
       y2="-202.20998" />
    <radialGradient
       inkscape:collect="always"
       xlink:href="#linearGradient3820-7-2-1-6"
       id="radialGradient3955"
       gradientUnits="userSpaceOnUse"
       gradientTransform="matrix(0.27083381,0,0,0.08762273,-62.985938,28.699317)"
       cx="99.157013"
       cy="186.17059"
       fx="99.157013"
       fy="186.17059"
       r="62.769119" />
    <linearGradient
       id="linearGradient3820-7-2-1-6">
      <stop
         id="stop3822-2-6-3-7"
         style="stop-color:#3d3d3d;stop-opacity:1"
         offset="0" />
      <stop
         id="stop3864-8-7-7-1"
         style="stop-color:#686868;stop-opacity:0.49803922"
         offset="0.5" />
      <stop
         id="stop3824-1-2-5-5"
         style="stop-color:#686868;stop-opacity:0"
         offset="1" />
    </linearGradient>
    <radialGradient
       inkscape:collect="always"
       xlink:href="#linearGradient2867-449-88-871-390-598-476-591-434-148-57-177-8-3-3-6-4-8-8-8-5"
       id="radialGradient3957"
       gradientUnits="userSpaceOnUse"
       gradientTransform="matrix(-1.7922484,4.7450628e-8,-3.529013e-8,-1.3329366,41.58142,-41.248313)"
       cx="14.891734"
       cy="-17.680855"
       fx="14.891734"
       fy="-17.680855"
       r="25.570608" />
    <linearGradient
       id="linearGradient2867-449-88-871-390-598-476-591-434-148-57-177-8-3-3-6-4-8-8-8-5">
      <stop
         id="stop3750-1-0-7-6-6-1-3-9-3"
         style="stop-color:#5f5f5f;stop-opacity:1;"
         offset="0" />
      <stop
         id="stop3752-3-7-4-0-32-8-923-0-7"
         style="stop-color:#515151;stop-opacity:1;"
         offset="0.26238" />
      <stop
         id="stop3754-1-8-5-2-7-6-7-1-9"
         style="stop-color:#404040;stop-opacity:1;"
         offset="0.704952" />
      <stop
         id="stop3756-1-6-2-6-6-1-96-6-0"
         style="stop-color:#343434;stop-opacity:1;"
         offset="1" />
    </linearGradient>
    <linearGradient
       inkscape:collect="always"
       xlink:href="#linearGradient3775-8"
       id="linearGradient3282-2"
       gradientUnits="userSpaceOnUse"
       x1="15.123692"
       y1="-18.801283"
       x2="15.123692"
       y2="32.56842" />
    <linearGradient
       id="linearGradient3775-8">
      <stop
         style="stop-color:#ffffff;stop-opacity:0.58823532;"
         offset="0"
         id="stop3777-3" />
      <stop
         style="stop-color:#ffffff;stop-opacity:1;"
         offset="1"
         id="stop3779-1" />
    </linearGradient>
    <radialGradient
       inkscape:collect="always"
       xlink:href="#linearGradient4234"
       id="radialGradient4178"
       gradientUnits="userSpaceOnUse"
       gradientTransform="matrix(-7.5339981e-8,1.108671,-1.6023204,-1.0888603e-7,-2.9588268,-10.297257)"
       cx="31.840776"
       cy="20.00672"
       fx="31.840776"
       fy="20.00672"
       r="5.9926605" />
    <linearGradient
       id="linearGradient4234">
      <stop
         offset="0"
         style="stop-color:#8badea;stop-opacity:1"
         id="stop4236" />
      <stop
         offset="0.26238"
         style="stop-color:#6396cd;stop-opacity:1"
         id="stop4238" />
      <stop
         offset="0.66093999"
         style="stop-color:#3b7caf;stop-opacity:1"
         id="stop4240" />
      <stop
         offset="1"
         style="stop-color:#194c70;stop-opacity:1"
         id="stop4242" />
    </linearGradient>
    <linearGradient
       inkscape:collect="always"
       xlink:href="#linearGradient4252"
       id="linearGradient4180"
       gradientUnits="userSpaceOnUse"
       gradientTransform="matrix(0.57825668,0,0,0.56936361,-53.42815,13.38376)"
       x1="29.329277"
       y1="29.777784"
       x2="29.329277"
       y2="20.041948" />
    <linearGradient
       id="linearGradient4252">
      <stop
         offset="0"
         style="stop-color:#1f4b6a;stop-opacity:1"
         id="stop4254" />
      <stop
         offset="1"
         style="stop-color:#4083c2;stop-opacity:1"
         id="stop4256" />
    </linearGradient>
    <linearGradient
       inkscape:collect="always"
       xlink:href="#linearGradient4368"
       id="linearGradient4175"
       gradientUnits="userSpaceOnUse"
       gradientTransform="matrix(0.45115764,0,0,0.45004823,-109.64701,12.92475)"
       x1="166.49399"
       y1="28.05773"
       x2="166.49399"
       y2="37.641525" />
    <linearGradient
       inkscape:collect="always"
       id="linearGradient4368">
      <stop
         style="stop-color:#ffffff;stop-opacity:1;"
         offset="0"
         id="stop4370" />
      <stop
         style="stop-color:#ffffff;stop-opacity:0;"
         offset="1"
         id="stop4372" />
    </linearGradient>
    <linearGradient
       y2="37.641525"
       x2="166.49399"
       y1="28.05773"
       x1="166.49399"
       gradientTransform="matrix(0.45115764,0,0,0.45004823,-109.64701,12.92475)"
       gradientUnits="userSpaceOnUse"
       id="linearGradient4267"
       xlink:href="#linearGradient4368"
       inkscape:collect="always" />
    <linearGradient
       inkscape:collect="always"
       xlink:href="#linearGradient4252"
       id="linearGradient4410"
       gradientUnits="userSpaceOnUse"
       gradientTransform="matrix(0.57825668,0,0,0.56936361,-53.42815,13.38376)"
       x1="29.329277"
       y1="29.777784"
       x2="29.329277"
       y2="20.041948" />
    <linearGradient
       inkscape:collect="always"
       xlink:href="#linearGradient4368"
       id="linearGradient4413"
       gradientUnits="userSpaceOnUse"
       gradientTransform="matrix(0.45115764,0,0,0.45004823,0.03004,8.4673906)"
       x1="166.49399"
       y1="28.05773"
       x2="166.49399"
       y2="37.641525" />
    <radialGradient
       inkscape:collect="always"
       xlink:href="#linearGradient4234"
       id="radialGradient4416"
       gradientUnits="userSpaceOnUse"
       gradientTransform="matrix(-7.5339981e-8,1.108671,-1.6023204,-1.0888603e-7,106.71822,-14.754616)"
       cx="31.840776"
       cy="20.00672"
       fx="31.840776"
       fy="20.00672"
       r="5.9926605" />
    <linearGradient
       inkscape:collect="always"
       xlink:href="#linearGradient4252"
       id="linearGradient4418"
       gradientUnits="userSpaceOnUse"
       gradientTransform="matrix(0.57825668,0,0,0.56936361,56.2489,8.9264006)"
       x1="29.329277"
       y1="29.777784"
       x2="29.329277"
       y2="20.041948" />
    <radialGradient
       inkscape:collect="always"
       xlink:href="#linearGradient3820-7-2-1-6"
       id="radialGradient4431"
       gradientUnits="userSpaceOnUse"
       gradientTransform="matrix(0.27083381,0,0,0.08762273,40.875833,32.565789)"
       cx="99.157013"
       cy="186.17059"
       fx="99.157013"
       fy="186.17059"
       r="62.769119" />
    <radialGradient
       inkscape:collect="always"
       xlink:href="#linearGradient3765"
       id="radialGradient4446"
       gradientUnits="userSpaceOnUse"
       gradientTransform="matrix(-1.7922484,4.7450628e-8,-3.529013e-8,-1.3329366,41.58142,-41.248313)"
       cx="14.891734"
       cy="-17.680855"
       fx="14.891734"
       fy="-17.680855"
       r="25.570608" />
    <radialGradient
       inkscape:collect="always"
       xlink:href="#linearGradient2867-449-88-871-390-598-476-591-434-148-57-177-8-3-3-6-4-8-8-8-5"
       id="radialGradient4448"
       gradientUnits="userSpaceOnUse"
       gradientTransform="matrix(-1.438655,3.8089076e-8,-2.8327727e-8,-1.069961,45.16851,-14.595754)"
       cx="14.891734"
       cy="-17.680855"
       fx="14.891734"
       fy="-17.680855"
       r="25.570608" />
    <linearGradient
       inkscape:collect="always"
       xlink:href="#linearGradient4411"
       id="linearGradient4450"
       gradientUnits="userSpaceOnUse"
       x1="15.123692"
       y1="-18.801283"
       x2="15.123692"
       y2="32.56842"
       gradientTransform="matrix(0.76417715,0,0,0.76417715,12.376786,18.77786)" />
    <radialGradient
       gradientUnits="userSpaceOnUse"
       xlink:href="#linearGradient4411"
       id="radialGradient4765-5"
       fy="39.708927"
       fx="36.49107"
       r="3.1589286"
       cy="39.708927"
       cx="36.49107" />
    <radialGradient
       gradientUnits="userSpaceOnUse"
       xlink:href="#linearGradient4411"
       id="radialGradient4767-7"
       fy="39.708927"
       fx="36.49107"
       r="3.1589286"
       cy="39.708927"
       cx="36.49107" />
    <radialGradient
       gradientUnits="userSpaceOnUse"
       xlink:href="#linearGradient4411"
       id="radialGradient4769-2"
       fy="39.708927"
       fx="36.49107"
       r="3.1589286"
       cy="39.708927"
       cx="36.49107" />
    <radialGradient
       gradientTransform="matrix(2.0664963,0,0,2.0664963,-34.525221,-33.493375)"
       gradientUnits="userSpaceOnUse"
       xlink:href="#linearGradient6088-6-1-0"
       id="radialGradient4771-4"
       fy="31.405056"
       fx="32.372566"
       r="3.857446"
       cy="31.405056"
       cx="32.372566" />
    <radialGradient
       gradientTransform="matrix(2.0676498,0.55402509,-0.5348486,1.9960821,-17.765612,-49.217228)"
       gradientUnits="userSpaceOnUse"
       xlink:href="#linearGradient6191-8-3-4"
       id="radialGradient4773-6"
       fy="31.405056"
       fx="32.372566"
       r="3.857446"
       cy="31.405056"
       cx="32.372566" />
    <radialGradient
       gradientTransform="matrix(2.0676498,0.55402509,-0.5348486,1.9960821,-17.765612,-49.217228)"
       gradientUnits="userSpaceOnUse"
       xlink:href="#linearGradient6191-8-3-4"
       id="radialGradient4775-3"
       fy="31.405056"
       fx="32.372566"
       r="3.857446"
       cy="31.405056"
       cx="32.372566" />
    <radialGradient
       gradientTransform="matrix(2.0676498,0.55402509,-0.5348486,1.9960821,-17.765612,-49.217228)"
       gradientUnits="userSpaceOnUse"
       xlink:href="#linearGradient6191-8-3-4"
       id="radialGradient4777-5"
       fy="31.405056"
       fx="32.372566"
       r="3.857446"
       cy="31.405056"
       cx="32.372566" />
    <radialGradient
       gradientTransform="matrix(2.0664963,0,0,2.0664963,-34.525221,-33.493375)"
       gradientUnits="userSpaceOnUse"
       xlink:href="#linearGradient6088-74-4"
       id="radialGradient4781-8"
       fy="31.405056"
       fx="32.372566"
       r="3.857446"
       cy="31.405056"
       cx="32.372566" />
    <radialGradient
       gradientTransform="matrix(0.40504519,-6.0397343e-8,5.6748136e-8,0.38056881,-14.881685,-12.451151)"
       gradientUnits="userSpaceOnUse"
       xlink:href="#linearGradient4278-3-5"
       id="radialGradient4738-4"
       fy="95.388451"
       fx="95.838364"
       r="9.4981718"
       cy="95.388451"
       cx="95.838364" />
    <radialGradient
       gradientTransform="matrix(0,0.41038782,-0.54170722,0,26.16143,10.43124)"
       gradientUnits="userSpaceOnUse"
       xlink:href="#linearGradient2867-449-88-871-390-598-476-591-434-148-57-177-691-4-22"
       id="radialGradient4741-0"
       r="20.396999"
       cy="3.99"
       cx="23.896" />
    <radialGradient
       gradientTransform="matrix(0,1.4370509,-3.3103161,0,94.30873,-29.673199)"
       gradientUnits="userSpaceOnUse"
       xlink:href="#linearGradient6042-1-7"
       id="radialGradient4748-6"
       fy="21.239277"
       fx="31.999998"
       r="10.498171"
       cy="21.239277"
       cx="31.999998" />
    <radialGradient
       gradientTransform="matrix(0,1.9804002,-1.9804002,0,123.92313,-164.4618)"
       gradientUnits="userSpaceOnUse"
       xlink:href="#linearGradient4507-6-5"
       id="radialGradient4785-3"
       fy="16.447752"
       fx="91.349998"
       r="15.639286"
       cy="16.447752"
       cx="91.349998" />
    <radialGradient
       gradientTransform="matrix(0,2.8885219,-3.8127977,0,39.21344,-65.949504)"
       gradientUnits="userSpaceOnUse"
       xlink:href="#radialGradient3093-0-3-6-6-0"
       id="radialGradient4201-1"
       fy="3.99"
       fx="23.896"
       r="20.396999"
       cy="3.99"
       cx="23.896" />
    <radialGradient
       gradientTransform="matrix(0,1.2316483,-1.625754,0,18.486966,-28.721977)"
       gradientUnits="userSpaceOnUse"
       id="radialGradient3093-0-3-6-6-0"
       r="20.396999"
       cy="3.99"
       cx="23.896">
      <stop
         offset="0"
         style="stop-color:#ffffff;stop-opacity:1"
         id="stop3244-9-33-7-0-9-7" />
      <stop
         offset="0.26238"
         style="stop-color:#dddddd;stop-opacity:1"
         id="stop3246-3-5-0-8-5-7" />
      <stop
         offset="0.66093999"
         style="stop-color:#abacae;stop-opacity:1"
         id="stop3248-1-7-8-8-1-7" />
      <stop
         offset="1"
         style="stop-color:#89898b;stop-opacity:1"
         id="stop3250-9-3-0-5-1-9" />
    </radialGradient>
    <radialGradient
       gradientTransform="matrix(0.27083381,0,0,0.08762273,-2.85507,25.187228)"
       gradientUnits="userSpaceOnUse"
       xlink:href="#linearGradient3820-7-2-1"
       id="radialGradient4949-1"
       fy="186.17059"
       fx="99.157013"
       r="62.769119"
       cy="186.17059"
       cx="99.157013" />
    <radialGradient
       r="19.99999"
       fy="8.4497671"
       fx="5.3215203"
       cy="8.4497671"
       cx="5.3215203"
       gradientTransform="matrix(0,2.4988347,-2.6434689,-6.8014435e-8,104.09953,-11.248822)"
       gradientUnits="userSpaceOnUse"
       id="radialGradient3392-9"
       xlink:href="#linearGradient4422"
       inkscape:collect="always" />
    <linearGradient
       y2="1.1171311"
       x2="24.000118"
       y1="44.25"
       x1="23.75"
       gradientTransform="translate(57.762712,0.93164569)"
       gradientUnits="userSpaceOnUse"
       id="linearGradient4686"
       xlink:href="#linearGradient5873"
       inkscape:collect="always" />
    <radialGradient
       r="10"
       fy="15.666667"
       fx="25"
       cy="15.666667"
       cx="25"
       gradientTransform="matrix(9.7678889e-8,2.0000001,-2.7333333,1.3349447e-7,67.82222,-34.333337)"
       gradientUnits="userSpaceOnUse"
       id="radialGradient3396-9"
       xlink:href="#linearGradient3162"
       inkscape:collect="always" />
    <linearGradient
       y2="31.493454"
       x2="24.777349"
       y1="24.616444"
       x1="24.777349"
       gradientUnits="userSpaceOnUse"
       id="linearGradient4689"
       xlink:href="#linearGradient4436"
       inkscape:collect="always" />
    <linearGradient
       y2="22.31111"
       x2="24.777349"
       y1="18.226145"
       x1="24.777349"
       gradientUnits="userSpaceOnUse"
       id="linearGradient4691"
       xlink:href="#linearGradient8838"
       inkscape:collect="always" />
    <linearGradient
       y2="18.454639"
       x2="24.25"
       y1="29.5"
       x1="24.25"
       gradientTransform="matrix(1.3333333,0,0,1.1052632,49.762711,-1.5946703)"
       gradientUnits="userSpaceOnUse"
       id="linearGradient4693"
       xlink:href="#linearGradient4644-104-3-3-6-2-3-4"
       inkscape:collect="always" />
    <linearGradient
       y2="-123.50863"
       x2="32.586807"
       y1="-202.20998"
       x1="20.117516"
       gradientUnits="userSpaceOnUse"
       id="linearGradient4695"
       xlink:href="#linearGradient3768-2"
       inkscape:collect="always" />
    <linearGradient
       y2="-123.50863"
       x2="32.586807"
       y1="-202.20998"
       x1="20.117516"
       gradientUnits="userSpaceOnUse"
       id="linearGradient4697"
       xlink:href="#linearGradient3768-2"
       inkscape:collect="always" />
    <linearGradient
       y2="-123.50863"
       x2="32.586807"
       y1="-202.20998"
       x1="20.117516"
       gradientUnits="userSpaceOnUse"
       id="linearGradient4699"
       xlink:href="#linearGradient3768-2"
       inkscape:collect="always" />
    <linearGradient
       y2="-123.50863"
       x2="32.586807"
       y1="-202.20998"
       x1="20.117516"
       gradientUnits="userSpaceOnUse"
       id="linearGradient4701"
       xlink:href="#linearGradient3768-2"
       inkscape:collect="always" />
    <linearGradient
       y2="-368.20535"
       x2="378.80692"
       y1="-224.8987"
       x1="396.35013"
       spreadMethod="pad"
       gradientTransform="translate(-3.6333562,-1.8175159)"
       gradientUnits="userSpaceOnUse"
       id="linearGradient4703"
       xlink:href="#linearGradient3800-7-2"
       inkscape:collect="always" />
    <linearGradient
       y2="-242.45497"
       x2="433.4119"
       y1="-143.3038"
       x1="450.1077"
       spreadMethod="pad"
       gradientTransform="translate(-3.6333562,-1.8175159)"
       gradientUnits="userSpaceOnUse"
       id="linearGradient4705"
       xlink:href="#linearGradient3800-7-2"
       inkscape:collect="always" />
    <linearGradient
       y2="-202.20998"
       x2="442.4953"
       y1="-113.46021"
       x1="489.50595"
       spreadMethod="pad"
       gradientTransform="translate(-3.6333562,-1.8175159)"
       gradientUnits="userSpaceOnUse"
       id="linearGradient4707"
       xlink:href="#linearGradient3800-7-2"
       inkscape:collect="always" />
    <linearGradient
       y2="-267.90073"
       x2="425.41571"
       y1="-139.79538"
       x1="446.69247"
       spreadMethod="pad"
       gradientTransform="translate(-3.6333562,-1.8175159)"
       gradientUnits="userSpaceOnUse"
       id="linearGradient4709"
       xlink:href="#linearGradient3800-7-2"
       inkscape:collect="always" />
    <radialGradient
       r="25.570608"
       fy="-17.680855"
       fx="14.891734"
       cy="-17.680855"
       cx="14.891734"
       gradientTransform="matrix(-1.7922484,4.7450628e-8,-3.529013e-8,-1.3329366,41.58142,-41.248313)"
       gradientUnits="userSpaceOnUse"
       id="radialGradient3280-5"
       xlink:href="#linearGradient3765"
       inkscape:collect="always" />
    <linearGradient
       y2="32.56842"
       x2="15.123692"
       y1="-18.801283"
       x1="15.123692"
       gradientUnits="userSpaceOnUse"
       id="linearGradient4712"
       xlink:href="#linearGradient4411"
       inkscape:collect="always" />
    <linearGradient
       y2="39.150768"
       x2="27.096104"
       y1="10.880992"
       x1="27.096104"
       gradientTransform="matrix(1.4102564,0,0,1.4102564,1.4050412,-4.5399056)"
       gradientUnits="userSpaceOnUse"
       id="linearGradient4714"
       xlink:href="#linearGradient3772-6"
       inkscape:collect="always" />
    <linearGradient
       y2="-202.20998"
       x2="461.9924"
       y1="-202.20998"
       x1="20.117516"
       gradientUnits="userSpaceOnUse"
       id="linearGradient4716"
       xlink:href="#linearGradient3768-2"
       inkscape:collect="always" />
    <linearGradient
       y2="-202.20998"
       x2="442.4953"
       y1="-51.710907"
       x1="457.9744"
       spreadMethod="pad"
       gradientUnits="userSpaceOnUse"
       id="linearGradient4718"
       xlink:href="#linearGradient3800-7-2"
       inkscape:collect="always" />
    <linearGradient
       y2="-123.50863"
       x2="32.586807"
       y1="-202.20998"
       x1="20.117516"
       gradientUnits="userSpaceOnUse"
       id="linearGradient4720"
       xlink:href="#linearGradient3768-2"
       inkscape:collect="always" />
    <linearGradient
       y2="-123.50863"
       x2="32.586807"
       y1="-202.20998"
       x1="20.117516"
       gradientUnits="userSpaceOnUse"
       id="linearGradient4722"
       xlink:href="#linearGradient3768-2"
       inkscape:collect="always" />
    <linearGradient
       y2="-123.50863"
       x2="32.586807"
       y1="-202.20998"
       x1="20.117516"
       gradientUnits="userSpaceOnUse"
       id="linearGradient4724"
       xlink:href="#linearGradient3768-2"
       inkscape:collect="always" />
    <linearGradient
       y2="-123.50863"
       x2="32.586807"
       y1="-202.20998"
       x1="20.117516"
       gradientUnits="userSpaceOnUse"
       id="linearGradient4726"
       xlink:href="#linearGradient3768-2"
       inkscape:collect="always" />
    <linearGradient
       y2="-202.20998"
       x2="461.9924"
       y1="-202.20998"
       x1="20.117516"
       gradientUnits="userSpaceOnUse"
       id="linearGradient4728"
       xlink:href="#linearGradient3768-2"
       inkscape:collect="always" />
    <linearGradient
       y2="-368.20535"
       x2="378.80692"
       y1="-224.8987"
       x1="396.35013"
       spreadMethod="pad"
       gradientTransform="translate(-3.6333562,-1.8175159)"
       gradientUnits="userSpaceOnUse"
       id="linearGradient4731"
       xlink:href="#linearGradient3800-7-2"
       inkscape:collect="always" />
    <linearGradient
       y2="-242.45497"
       x2="433.4119"
       y1="-143.3038"
       x1="450.1077"
       spreadMethod="pad"
       gradientTransform="translate(-3.6333562,-1.8175159)"
       gradientUnits="userSpaceOnUse"
       id="linearGradient4733"
       xlink:href="#linearGradient3800-7-2"
       inkscape:collect="always" />
    <linearGradient
       y2="-202.20998"
       x2="442.4953"
       y1="-113.46021"
       x1="489.50595"
       spreadMethod="pad"
       gradientTransform="translate(-3.6333562,-1.8175159)"
       gradientUnits="userSpaceOnUse"
       id="linearGradient4735"
       xlink:href="#linearGradient3800-7-2"
       inkscape:collect="always" />
    <linearGradient
       y2="-267.90073"
       x2="425.41571"
       y1="-139.79538"
       x1="446.69247"
       spreadMethod="pad"
       gradientTransform="translate(-3.6333562,-1.8175159)"
       gradientUnits="userSpaceOnUse"
       id="linearGradient4737"
       xlink:href="#linearGradient3800-7-2"
       inkscape:collect="always" />
    <linearGradient
       y2="-202.20998"
       x2="442.4953"
       y1="-51.710907"
       x1="457.9744"
       spreadMethod="pad"
       gradientUnits="userSpaceOnUse"
       id="linearGradient4739"
       xlink:href="#linearGradient3800-7-2"
       inkscape:collect="always" />
    <radialGradient
       r="62.769119"
       fy="186.17059"
       fx="99.157013"
       cy="186.17059"
       cx="99.157013"
       gradientTransform="matrix(0.27083381,0,0,0.08762273,-62.985938,28.699317)"
       gradientUnits="userSpaceOnUse"
       id="radialGradient3955-5"
       xlink:href="#linearGradient3820-7-2-1"
       inkscape:collect="always" />
    <radialGradient
       r="25.570608"
       fy="-17.680855"
       fx="14.891734"
       cy="-17.680855"
       cx="14.891734"
       gradientTransform="matrix(-1.7922484,4.7450628e-8,-3.529013e-8,-1.3329366,41.58142,-41.248313)"
       gradientUnits="userSpaceOnUse"
       id="radialGradient3957-4"
       xlink:href="#linearGradient2867-449-88-871-390-598-476-591-434-148-57-177-8-3-3-6-4-8-8-8-5"
       inkscape:collect="always" />
    <radialGradient
       r="5.9926605"
       fy="20.00672"
       fx="31.840776"
       cy="20.00672"
       cx="31.840776"
       gradientTransform="matrix(-7.5339981e-8,1.108671,-1.6023204,-1.0888603e-7,-2.9588268,-10.297257)"
       gradientUnits="userSpaceOnUse"
       id="radialGradient4178-1"
       xlink:href="#linearGradient4234"
       inkscape:collect="always" />
    <linearGradient
       inkscape:collect="always"
       xlink:href="#linearGradient4411"
       id="linearGradient4744"
       gradientUnits="userSpaceOnUse"
       gradientTransform="matrix(0.45115764,0,0,0.45004823,-109.64701,12.92475)"
       x1="166.49399"
       y1="28.05773"
       x2="166.49399"
       y2="37.641525" />
    <linearGradient
       y2="20.041948"
       x2="29.329277"
       y1="29.777784"
       x1="29.329277"
       gradientTransform="matrix(0.57825668,0,0,0.56936361,-53.42815,13.38376)"
       gradientUnits="userSpaceOnUse"
       id="linearGradient4746"
       xlink:href="#linearGradient4252"
       inkscape:collect="always" />
    <linearGradient
       y2="37.641525"
       x2="166.49399"
       y1="28.05773"
       x1="166.49399"
       gradientTransform="matrix(0.45115764,0,0,0.45004823,0.03004,8.4673906)"
       gradientUnits="userSpaceOnUse"
       id="linearGradient4748"
       xlink:href="#linearGradient4411"
       inkscape:collect="always" />
    <radialGradient
       r="5.9926605"
       fy="20.00672"
       fx="31.840776"
       cy="20.00672"
       cx="31.840776"
       gradientTransform="matrix(-7.5339981e-8,1.108671,-1.6023204,-1.0888603e-7,106.71822,-14.754616)"
       gradientUnits="userSpaceOnUse"
       id="radialGradient4416-5"
       xlink:href="#linearGradient4234"
       inkscape:collect="always" />
    <linearGradient
       y2="20.041948"
       x2="29.329277"
       y1="29.777784"
       x1="29.329277"
       gradientTransform="matrix(0.57825668,0,0,0.56936361,56.2489,8.9264006)"
       gradientUnits="userSpaceOnUse"
       id="linearGradient4751"
       xlink:href="#linearGradient4252"
       inkscape:collect="always" />
    <radialGradient
       r="62.769119"
       fy="186.17059"
       fx="99.157013"
       cy="186.17059"
       cx="99.157013"
       gradientTransform="matrix(0.27083381,0,0,0.08762273,40.875833,32.565789)"
       gradientUnits="userSpaceOnUse"
       id="radialGradient4431-6"
       xlink:href="#linearGradient3820-7-2-1"
       inkscape:collect="always" />
    <radialGradient
       r="25.570608"
       fy="-17.680855"
       fx="14.891734"
       cy="-17.680855"
       cx="14.891734"
       gradientTransform="matrix(-1.7922484,4.7450628e-8,-3.529013e-8,-1.3329366,41.58142,-41.248313)"
       gradientUnits="userSpaceOnUse"
       id="radialGradient4446-4"
       xlink:href="#linearGradient3765"
       inkscape:collect="always" />
    <linearGradient
       gradientTransform="matrix(0.76417715,0,0,0.76417715,12.376786,18.77786)"
       y2="32.56842"
       x2="15.123692"
       y1="-18.801283"
       x1="15.123692"
       gradientUnits="userSpaceOnUse"
       id="linearGradient4757"
       xlink:href="#linearGradient4411"
       inkscape:collect="always" />
    <radialGradient
       inkscape:collect="always"
       xlink:href="#linearGradient3765"
       id="radialGradient4455"
       gradientUnits="userSpaceOnUse"
       gradientTransform="matrix(-1.0513526,2.7835059e-8,-2.0701578e-8,-0.78191522,39.469702,-4.2053345)"
       cx="14.891734"
       cy="-17.680855"
       fx="14.891734"
       fy="-17.680855"
       r="25.570608" />
  </defs>
  <metadata
     id="metadata4956">
    <rdf:RDF>
      <cc:Work
         rdf:about="">
        <dc:format>image/svg+xml</dc:format>
        <dc:type
           rdf:resource="http://purl.org/dc/dcmitype/StillImage" />
        <dc:title />
      </cc:Work>
    </rdf:RDF>
  </metadata>
  <path
     style="fill:url(#radialGradient3302);fill-opacity:1;stroke:none"
     id="path3818-0-5"
     inkscape:connector-curvature="0"
     d="m 41,41.5 a 17,5.4999999 0 0 1 -34,0 17,5.4999999 0 1 1 34,0 z" />
  <circle
     r="20.525774"
     cy="24"
     cx="24"
     style="fill:url(#radialGradient4448);fill-opacity:1;stroke:none"
     id="path2985-6" />
  <circle
     r="20.525774"
     cy="24"
     cx="24"
     id="path3755-9"
     style="opacity:0.6;fill:none;stroke:#242424;stroke-width:0.94845384;stroke-miterlimit:4;stroke-dasharray:none;stroke-opacity:1" />
  <circle
     r="19.540474"
     cy="23.999884"
     cx="24"
     style="opacity:0.6;fill:none;stroke:url(#linearGradient4450);stroke-width:0.93261218;stroke-miterlimit:4;stroke-dasharray:none;stroke-opacity:0.58823529"
     id="path3773-9" />
  <path
     id="path4453"
     d="M 24,9 A 15,15 0 0 0 9,24 15,15 0 0 0 24,39 15,15 0 0 0 39,24 15,15 0 0 0 24,9 Z m 0.765625,8.060547 c 3.70393,0.122636 5.895112,2.314118 6.136719,5.509765 0.272354,3.602303 -0.939087,4.539783 -0.419922,5.263672 1.084059,1.511601 -0.451581,1.907899 -1.470703,2.646485 -0.63389,0.459402 -1.857857,0.249514 -2.464844,-0.404297 -1.844395,-0.933393 -1.134211,0.859487 -4.943359,0.867187 -1.980158,-0.07093 -3.795783,-1.321818 -4.308594,-3.007812 -0.78645,-2.585658 0.368159,-4.493941 3.580078,-5.394531 0.929002,-0.260501 2.769539,-0.104407 3.580078,-0.623047 0.765512,-0.489848 0.490788,-1.193386 -0.449219,-1.285157 -1.348164,-0.131631 -3.451332,0.403526 -4.695312,0.1875 -0.99856,-0.173362 -1.303965,-1.84286 -0.652344,-2.560546 1.066351,-1.174491 3.802378,-1.122937 5.347656,-1.185547 0.260232,-0.01058 0.512862,-0.02167 0.759766,-0.01367 z m -0.496094,7.720703 c -0.857903,0 -1.564453,0.562201 -1.564453,1.259766 0,0.697566 0.706551,1.273437 1.564453,1.273437 0.857894,0 1.533203,-0.575871 1.533203,-1.273437 0,-0.697565 -0.675311,-1.259766 -1.533203,-1.259766 z"
     style="fill:url(#radialGradient4455);fill-opacity:1;stroke:none"
     inkscape:connector-curvature="0" />
  <path
     style="opacity:0.15;fill:#000000;fill-opacity:1;stroke:none;stroke-width:2;stroke-linecap:round;stroke-linejoin:round;stroke-miterlimit:4;stroke-dasharray:none;stroke-opacity:1"
     d="m 24.765781,17.05996 c -0.246904,-0.008 -0.499533,0.0031 -0.759765,0.01367 -1.545278,0.06261 -4.281305,0.01106 -5.347657,1.185547 -0.65162,0.717686 -0.346216,2.387184 0.652344,2.560546 1.24398,0.216026 3.347149,-0.31913 4.695313,-0.1875 0.940007,0.09177 1.214731,0.795309 0.449219,1.285157 -0.810539,0.51864 -2.651077,0.362546 -3.580079,0.623047 -3.211919,0.90059 -4.366528,2.808873 -3.580078,5.394531 0.512811,1.685994 2.328436,2.936884 4.308594,3.007812 3.809148,-0.0077 3.098964,-1.80058 4.943359,-0.867187 0.606987,0.653811 1.830954,0.863699 2.464844,0.404297 1.019122,-0.738586 2.554762,-1.134884 1.470703,-2.646485 -0.519165,-0.723889 0.692276,-1.661368 0.419922,-5.263672 -0.241607,-3.195645 -2.432789,-5.387129 -6.136719,-5.509765 z m -0.0332,1 c 1.661586,0.05501 2.878508,0.557115 3.720703,1.335937 0.842196,0.778823 1.346206,1.861656 1.451172,3.25 0.127282,1.683505 -0.08062,2.655349 -0.271484,3.38086 -0.09543,0.362755 -0.20006,0.661063 -0.25586,1.039062 -0.0558,0.378 -0.0037,0.9359 0.292969,1.34961 0.145346,0.202667 0.167475,0.283706 0.173828,0.310546 -0.0066,0.0058 -0.0019,-2.57e-4 -0.01953,0.01758 -0.152394,0.154241 -0.766396,0.466307 -1.40039,0.925781 -0.01072,0.0078 -0.223013,0.08356 -0.490235,0.03906 -0.267222,-0.04449 -0.54253,-0.192111 -0.654297,-0.3125 a 1.0001,1.0001 0 0 0 -0.28125,-0.21289 c -0.553111,-0.279913 -1.084909,-0.432551 -1.611328,-0.355469 -0.526419,0.07708 -0.856879,0.324984 -1.107422,0.482422 -0.497281,0.312484 -0.935889,0.620726 -2.65039,0.628906 -1.57738,-0.06112 -3.016131,-1.108628 -3.376954,-2.294922 -0.333647,-1.096956 -0.24196,-1.855838 0.171876,-2.49414 0.413834,-0.638303 1.26154,-1.23735 2.720703,-1.646485 0.249197,-0.06988 0.940174,-0.12046 1.65039,-0.18164 0.710216,-0.06118 1.466135,-0.09342 2.199219,-0.5625 0.305789,-0.195674 0.571627,-0.449079 0.742188,-0.794922 0.170558,-0.345843 0.211188,-0.800002 0.07227,-1.181641 -0.277855,-0.763277 -1.000449,-1.077503 -1.707031,-1.146484 -0.854585,-0.08344 -1.74515,0.03737 -2.587891,0.126953 -0.84274,0.08958 -1.641962,0.140202 -2.033203,0.07227 0.01681,0.0029 -0.07962,-0.04305 -0.140625,-0.3125 -0.06101,-0.269453 0.04446,-0.576226 0.05859,-0.591797 0.242162,-0.26672 0.976554,-0.562905 1.892578,-0.691407 0.916024,-0.128501 1.946321,-0.133294 2.753906,-0.166015 0.262376,-0.01066 0.492587,-0.01999 0.6875,-0.01367 z m -0.46289,5.720703 c -1.294783,0 -2.564453,0.886947 -2.564453,2.259766 0,1.372819 1.259047,2.273437 2.564453,2.273437 1.305401,0 2.533203,-0.930476 2.533203,-2.273437 0,-1.342964 -1.238426,-2.259766 -2.533203,-2.259766 z m 0,1 c 0.857892,0 1.533203,0.562201 1.533203,1.259766 0,0.697566 -0.675309,1.273437 -1.533203,1.273437 -0.857902,0 -1.564453,-0.575871 -1.564453,-1.273437 0,-0.697565 0.70655,-1.259766 1.564453,-1.259766 z"
     id="path4451"
     inkscape:connector-curvature="0" />
</svg>
