<?xml version="1.0" encoding="UTF-8" standalone="no"?>
<!-- Created with Inkscape (http://www.inkscape.org/) -->

<svg
   xmlns:dc="http://purl.org/dc/elements/1.1/"
   xmlns:cc="http://creativecommons.org/ns#"
   xmlns:rdf="http://www.w3.org/1999/02/22-rdf-syntax-ns#"
   xmlns:svg="http://www.w3.org/2000/svg"
   xmlns="http://www.w3.org/2000/svg"
   xmlns:xlink="http://www.w3.org/1999/xlink"
   xmlns:sodipodi="http://sodipodi.sourceforge.net/DTD/sodipodi-0.dtd"
   xmlns:inkscape="http://www.inkscape.org/namespaces/inkscape"
   version="1.1"
   width="48"
   height="48"
   id="svg4951"
   inkscape:version="0.91 r"
   sodipodi:docname="blender.svg">
  <sodipodi:namedview
     pagecolor="#009acb"
     bordercolor="#666666"
     borderopacity="1"
     objecttolerance="10"
     gridtolerance="10"
     guidetolerance="10"
     inkscape:pageopacity="0.74509804"
     inkscape:pageshadow="2"
     inkscape:window-width="1600"
     inkscape:window-height="845"
     id="namedview154"
     showgrid="false"
     inkscape:zoom="4.64"
     inkscape:cx="27.829278"
     inkscape:cy="24.548466"
     inkscape:window-x="0"
     inkscape:window-y="30"
     inkscape:window-maximized="1"
     inkscape:current-layer="svg4951" />
  <defs
     id="defs4953">
    <linearGradient
       id="linearGradient4411">
      <stop
         id="stop4413"
         offset="0"
         style="stop-color:#ffffff;stop-opacity:1" />
      <stop
         id="stop4415"
         offset="1"
         style="stop-color:#ffffff;stop-opacity:0" />
    </linearGradient>
    <linearGradient
       x1="38.851257"
       y1="41.608219"
       x2="34.130882"
       y2="37.809635"
       id="linearGradient4761"
       xlink:href="#linearGradient6455-7-3"
       gradientUnits="userSpaceOnUse" />
    <linearGradient
       id="linearGradient6455-7-3">
      <stop
         id="stop6457-5-1"
         style="stop-color:#fbac9b;stop-opacity:1"
         offset="0" />
      <stop
         id="stop6459-8-9"
         style="stop-color:#fcfafc;stop-opacity:1"
         offset="1" />
    </linearGradient>
    <linearGradient
       x1="38.851257"
       y1="41.608219"
       x2="34.130882"
       y2="37.809635"
       id="linearGradient4763"
       xlink:href="#linearGradient6413-0-0"
       gradientUnits="userSpaceOnUse" />
    <linearGradient
       id="linearGradient6413-0-0">
      <stop
         id="stop6415-1-7"
         style="stop-color:#feffff;stop-opacity:1"
         offset="0" />
      <stop
         id="stop6417-4-9"
         style="stop-color:#fe70ca;stop-opacity:1"
         offset="1" />
    </linearGradient>
    <radialGradient
       cx="36.49107"
       cy="39.708927"
       r="3.1589286"
       fx="36.49107"
       fy="39.708927"
       id="radialGradient4765"
       xlink:href="#linearGradient6303-33-0-2"
       gradientUnits="userSpaceOnUse" />
    <linearGradient
       id="linearGradient6303-33-0-2">
      <stop
         id="stop6305-1-0-2"
         style="stop-color:#ffffff;stop-opacity:1"
         offset="0" />
      <stop
         id="stop6307-5-0-6"
         style="stop-color:#ffffff;stop-opacity:0"
         offset="1" />
    </linearGradient>
    <radialGradient
       cx="36.49107"
       cy="39.708927"
       r="3.1589286"
       fx="36.49107"
       fy="39.708927"
       id="radialGradient4767"
       xlink:href="#linearGradient6303-3-2-1"
       gradientUnits="userSpaceOnUse" />
    <linearGradient
       id="linearGradient6303-3-2-1">
      <stop
         id="stop6305-3-0-9"
         style="stop-color:#ffffff;stop-opacity:1"
         offset="0" />
      <stop
         id="stop6307-1-0-1"
         style="stop-color:#ffffff;stop-opacity:0"
         offset="1" />
    </linearGradient>
    <radialGradient
       cx="36.49107"
       cy="39.708927"
       r="3.1589286"
       fx="36.49107"
       fy="39.708927"
       id="radialGradient4769"
       xlink:href="#linearGradient6303-4-8"
       gradientUnits="userSpaceOnUse" />
    <linearGradient
       id="linearGradient6303-4-8">
      <stop
         id="stop6305-33-3"
         style="stop-color:#ffffff;stop-opacity:1"
         offset="0" />
      <stop
         id="stop6307-9-3"
         style="stop-color:#ffffff;stop-opacity:0"
         offset="1" />
    </linearGradient>
    <radialGradient
       cx="32.372566"
       cy="31.405056"
       r="3.857446"
       fx="32.372566"
       fy="31.405056"
       id="radialGradient4771"
       xlink:href="#linearGradient6088-6-1-0"
       gradientUnits="userSpaceOnUse"
       gradientTransform="matrix(2.0664963,0,0,2.0664963,-34.525221,-33.493375)" />
    <linearGradient
       id="linearGradient6088-6-1-0">
      <stop
         id="stop6090-2-0-4"
         style="stop-color:#ff54d2;stop-opacity:0"
         offset="0" />
      <stop
         id="stop6257-4-6-1"
         style="stop-color:#ff54d2;stop-opacity:0"
         offset="0.32368398" />
      <stop
         id="stop6255-3-6-7"
         style="stop-color:#ff54d2;stop-opacity:0.2521739"
         offset="0.56140333" />
      <stop
         id="stop6092-9-6-8"
         style="stop-color:#ff54d2;stop-opacity:0.47826087"
         offset="1" />
    </linearGradient>
    <radialGradient
       cx="32.372566"
       cy="31.405056"
       r="3.857446"
       fx="32.372566"
       fy="31.405056"
       id="radialGradient4773"
       xlink:href="#linearGradient6191-8-3-4"
       gradientUnits="userSpaceOnUse"
       gradientTransform="matrix(2.0676498,0.55402509,-0.5348486,1.9960821,-17.765612,-49.217228)" />
    <linearGradient
       id="linearGradient6191-8-3-4">
      <stop
         id="stop6193-75-7-6"
         style="stop-color:#ffffff;stop-opacity:0"
         offset="0" />
      <stop
         id="stop6197-3-4-1"
         style="stop-color:#ffffff;stop-opacity:0"
         offset="0.40531859" />
      <stop
         id="stop6195-7-2-5"
         style="stop-color:#ffffff;stop-opacity:0.47826087"
         offset="1" />
    </linearGradient>
    <radialGradient
       cx="32.372566"
       cy="31.405056"
       r="3.857446"
       fx="32.372566"
       fy="31.405056"
       id="radialGradient4775"
       xlink:href="#linearGradient6191-7-9-4"
       gradientUnits="userSpaceOnUse"
       gradientTransform="matrix(2.0676498,0.55402509,-0.5348486,1.9960821,-17.765612,-49.217228)" />
    <linearGradient
       id="linearGradient6191-7-9-4">
      <stop
         id="stop6193-7-3-6"
         style="stop-color:#ffffff;stop-opacity:0"
         offset="0" />
      <stop
         id="stop6197-2-2-0"
         style="stop-color:#ffffff;stop-opacity:0"
         offset="0.40531859" />
      <stop
         id="stop6195-2-1-9"
         style="stop-color:#ffffff;stop-opacity:0.47826087"
         offset="1" />
    </linearGradient>
    <radialGradient
       cx="32.372566"
       cy="31.405056"
       r="3.857446"
       fx="32.372566"
       fy="31.405056"
       id="radialGradient4777"
       xlink:href="#linearGradient6191-9-9"
       gradientUnits="userSpaceOnUse"
       gradientTransform="matrix(2.0676498,0.55402509,-0.5348486,1.9960821,-17.765612,-49.217228)" />
    <linearGradient
       id="linearGradient6191-9-9">
      <stop
         id="stop6193-8-1"
         style="stop-color:#ffffff;stop-opacity:0"
         offset="0" />
      <stop
         id="stop6197-8-8"
         style="stop-color:#ffffff;stop-opacity:0"
         offset="0.40531859" />
      <stop
         id="stop6195-9-3"
         style="stop-color:#ffffff;stop-opacity:0.47826087"
         offset="1" />
    </linearGradient>
    <linearGradient
       x1="68.313301"
       y1="52.925316"
       x2="68.313301"
       y2="65.922028"
       id="linearGradient4730"
       xlink:href="#linearGradient3990-3-1-7"
       gradientUnits="userSpaceOnUse"
       gradientTransform="matrix(0.11534799,0,0,0.0865106,16.28139,17.444973)" />
    <linearGradient
       id="linearGradient3990-3-1-7">
      <stop
         id="stop3992-0-0-1"
         style="stop-color:#ffffff;stop-opacity:1"
         offset="0" />
      <stop
         id="stop3994-2-1-8"
         style="stop-color:#ffffff;stop-opacity:0"
         offset="1" />
    </linearGradient>
    <linearGradient
       x1="92.696327"
       y1="16.554602"
       x2="92.696327"
       y2="48.983677"
       id="linearGradient4779"
       xlink:href="#linearGradient4316-4-6-6-4"
       gradientUnits="userSpaceOnUse" />
    <linearGradient
       id="linearGradient4316-4-6-6-4">
      <stop
         id="stop4318-4-4-6-5"
         style="stop-color:#ffffff;stop-opacity:1"
         offset="0" />
      <stop
         id="stop4320-2-2-6-59"
         style="stop-color:#ffffff;stop-opacity:0.23529412"
         offset="0.33799788" />
      <stop
         id="stop4322-4-5-5-0"
         style="stop-color:#ffffff;stop-opacity:0.15686275"
         offset="0.61996669" />
      <stop
         id="stop4324-4-1-5-5"
         style="stop-color:#ffffff;stop-opacity:0.39215687"
         offset="1" />
    </linearGradient>
    <radialGradient
       cx="32.372566"
       cy="31.405056"
       r="3.857446"
       fx="32.372566"
       fy="31.405056"
       id="radialGradient4781"
       xlink:href="#linearGradient6088-74-4"
       gradientUnits="userSpaceOnUse"
       gradientTransform="matrix(2.0664963,0,0,2.0664963,-34.525221,-33.493375)" />
    <linearGradient
       id="linearGradient6088-74-4">
      <stop
         id="stop6090-5-66"
         style="stop-color:#ff54d2;stop-opacity:0"
         offset="0" />
      <stop
         id="stop6257-5-4"
         style="stop-color:#f62b68;stop-opacity:1"
         offset="0.32368398" />
      <stop
         id="stop6255-6-7"
         style="stop-color:#ff0105;stop-opacity:1"
         offset="0.56140333" />
      <stop
         id="stop6092-0-22"
         style="stop-color:#ff54d2;stop-opacity:0.47826087"
         offset="1" />
    </linearGradient>
    <linearGradient
       x1="92.696327"
       y1="16.554602"
       x2="92.696327"
       y2="48.983677"
       id="linearGradient4783"
       xlink:href="#linearGradient4316-4-0-7"
       gradientUnits="userSpaceOnUse" />
    <linearGradient
       id="linearGradient4316-4-0-7">
      <stop
         id="stop4318-4-5-3"
         style="stop-color:#ffffff;stop-opacity:1"
         offset="0" />
      <stop
         id="stop4320-2-9-4"
         style="stop-color:#ffffff;stop-opacity:0.23529412"
         offset="0.33799788" />
      <stop
         id="stop4322-4-1-3"
         style="stop-color:#ffffff;stop-opacity:0.15686275"
         offset="0.61996669" />
      <stop
         id="stop4324-4-8-66"
         style="stop-color:#ffffff;stop-opacity:0.39215687"
         offset="1" />
    </linearGradient>
    <radialGradient
       cx="95.838364"
       cy="95.388451"
       r="9.4981718"
       fx="95.838364"
       fy="95.388451"
       id="radialGradient4738"
       xlink:href="#linearGradient4278-3-5"
       gradientUnits="userSpaceOnUse"
       gradientTransform="matrix(0.40504519,-6.0397343e-8,5.6748136e-8,0.38056881,-14.881685,-12.451151)" />
    <linearGradient
       id="linearGradient4278-3-5">
      <stop
         id="stop4280-6-90"
         style="stop-color:#000000;stop-opacity:0"
         offset="0" />
      <stop
         id="stop4286-1-9"
         style="stop-color:#000000;stop-opacity:0"
         offset="0.5" />
      <stop
         id="stop4282-24-4"
         style="stop-color:#000000;stop-opacity:1"
         offset="1" />
    </linearGradient>
    <radialGradient
       cx="23.896"
       cy="3.99"
       r="20.396999"
       id="radialGradient4741"
       xlink:href="#linearGradient2867-449-88-871-390-598-476-591-434-148-57-177-691-4-22"
       gradientUnits="userSpaceOnUse"
       gradientTransform="matrix(0,0.41038782,-0.54170722,0,26.16143,10.43124)" />
    <linearGradient
       id="linearGradient2867-449-88-871-390-598-476-591-434-148-57-177-691-4-22">
      <stop
         id="stop7191-4-6"
         style="stop-color:#612f91;stop-opacity:1"
         offset="0" />
      <stop
         id="stop7197-2-8"
         style="stop-color:#1a4aa2;stop-opacity:1"
         offset="1" />
    </linearGradient>
    <linearGradient
       x1="7.0776"
       y1="3.0816"
       x2="7.0776"
       y2="45.368999"
       id="linearGradient4743"
       xlink:href="#linearGradient3087-408-5-3"
       gradientUnits="userSpaceOnUse"
       gradientTransform="matrix(0.17195169,0,0,0.17195091,19.87316,19.873055)" />
    <linearGradient
       x1="7.0776"
       y1="3.0816"
       x2="7.0776"
       y2="45.368999"
       id="linearGradient3087-408-5-3"
       gradientUnits="userSpaceOnUse"
       gradientTransform="matrix(0.22110724,0,0,0.22110728,6.6934256,6.693263)">
      <stop
         id="stop7201-5-71"
         style="stop-color:#170418;stop-opacity:1"
         offset="0" />
      <stop
         id="stop7203-2-8"
         style="stop-color:#50386b;stop-opacity:1"
         offset="1" />
    </linearGradient>
    <radialGradient
       cx="31.999998"
       cy="21.239277"
       r="10.498171"
       fx="31.999998"
       fy="21.239277"
       id="radialGradient4748"
       xlink:href="#linearGradient6042-1-7"
       gradientUnits="userSpaceOnUse"
       gradientTransform="matrix(0,1.4370509,-3.3103161,0,94.30873,-29.673199)" />
    <linearGradient
       id="linearGradient6042-1-7">
      <stop
         id="stop6044-9-6"
         style="stop-color:#07132d;stop-opacity:1"
         offset="0" />
      <stop
         id="stop6046-9-5"
         style="stop-color:#425479;stop-opacity:1"
         offset="1" />
    </linearGradient>
    <radialGradient
       cx="91.349998"
       cy="16.447752"
       r="15.639286"
       fx="91.349998"
       fy="16.447752"
       id="radialGradient4785"
       xlink:href="#linearGradient4507-6-5"
       gradientUnits="userSpaceOnUse"
       gradientTransform="matrix(0,1.9804002,-1.9804002,0,123.92313,-164.4618)" />
    <linearGradient
       id="linearGradient4507-6-5">
      <stop
         id="stop4509-3-8"
         style="stop-color:#2d3955;stop-opacity:1"
         offset="0" />
      <stop
         id="stop5959-4-45"
         style="stop-color:#2b3853;stop-opacity:1"
         offset="0.72468865" />
      <stop
         id="stop5961-1-7"
         style="stop-color:#192640;stop-opacity:1"
         offset="0.75" />
      <stop
         id="stop4511-1-0"
         style="stop-color:#08142e;stop-opacity:1"
         offset="1" />
    </linearGradient>
    <linearGradient
       x1="92.696327"
       y1="16.554602"
       x2="92.696327"
       y2="48.983677"
       id="linearGradient4787"
       xlink:href="#linearGradient4316-5-3"
       gradientUnits="userSpaceOnUse" />
    <linearGradient
       id="linearGradient4316-5-3">
      <stop
         id="stop4318-1-6"
         style="stop-color:#ffffff;stop-opacity:1"
         offset="0" />
      <stop
         id="stop4320-9-8"
         style="stop-color:#ffffff;stop-opacity:0.23529412"
         offset="0.33799788" />
      <stop
         id="stop4322-42-31"
         style="stop-color:#ffffff;stop-opacity:0.15686275"
         offset="0.61996669" />
      <stop
         id="stop4324-9-9"
         style="stop-color:#ffffff;stop-opacity:0.39215687"
         offset="1" />
    </linearGradient>
    <linearGradient
       x1="91.566116"
       y1="16.542858"
       x2="91.566116"
       y2="48.631081"
       id="linearGradient4789"
       xlink:href="#linearGradient4220-7-2"
       gradientUnits="userSpaceOnUse" />
    <linearGradient
       id="linearGradient4220-7-2">
      <stop
         id="stop4222-7-5"
         style="stop-color:#7a8498;stop-opacity:1"
         offset="0" />
      <stop
         id="stop4224-0-5"
         style="stop-color:#34405c;stop-opacity:1"
         offset="1" />
    </linearGradient>
    <linearGradient
       x1="51.199997"
       y1="8.1142893"
       x2="51.199997"
       y2="56.114563"
       id="linearGradient4756"
       xlink:href="#linearGradient4164-9"
       gradientUnits="userSpaceOnUse"
       gradientTransform="matrix(0.66665978,0,0,0.66665668,-10.209335,2.6672249)" />
    <linearGradient
       id="linearGradient4164-9">
      <stop
         id="stop4166-3"
         style="stop-color:#b6b6b6;stop-opacity:1"
         offset="0" />
      <stop
         id="stop4216-6"
         style="stop-color:#a4a4a4;stop-opacity:1"
         offset="0.33095336" />
      <stop
         id="stop4168-0"
         style="stop-color:#c5c5c5;stop-opacity:1"
         offset="1" />
    </linearGradient>
    <linearGradient
       x1="71.204407"
       y1="15.369057"
       x2="71.204407"
       y2="40.495617"
       id="linearGradient3177"
       xlink:href="#linearGradient4806-2"
       gradientUnits="userSpaceOnUse"
       gradientTransform="matrix(1.6169806,0,0,1.6169806,-92.707374,-21.060237)" />
    <linearGradient
       id="linearGradient4806-2">
      <stop
         id="stop4808-4"
         style="stop-color:#ffffff;stop-opacity:1"
         offset="0" />
      <stop
         id="stop4810-0"
         style="stop-color:#ffffff;stop-opacity:0.23529412"
         offset="0.42447853" />
      <stop
         id="stop4812-8"
         style="stop-color:#ffffff;stop-opacity:0.15686275"
         offset="0.82089913" />
      <stop
         id="stop4814-0"
         style="stop-color:#ffffff;stop-opacity:0.39215687"
         offset="1" />
    </linearGradient>
    <radialGradient
       cx="23.896"
       cy="3.99"
       r="20.396999"
       fx="23.896"
       fy="3.99"
       id="radialGradient4201"
       xlink:href="#radialGradient3093-0-3-6-6"
       gradientUnits="userSpaceOnUse"
       gradientTransform="matrix(0,2.8885219,-3.8127977,0,39.21344,-65.949504)" />
    <radialGradient
       cx="23.896"
       cy="3.99"
       r="20.396999"
       id="radialGradient3093-0-3-6-6"
       gradientUnits="userSpaceOnUse"
       gradientTransform="matrix(0,1.2316483,-1.625754,0,18.486966,-28.721977)">
      <stop
         id="stop3244-9-33-7-0-9"
         style="stop-color:#ffffff;stop-opacity:1"
         offset="0" />
      <stop
         id="stop3246-3-5-0-8-5"
         style="stop-color:#dddddd;stop-opacity:1"
         offset="0.26238" />
      <stop
         id="stop3248-1-7-8-8-1"
         style="stop-color:#abacae;stop-opacity:1"
         offset="0.66093999" />
      <stop
         id="stop3250-9-3-0-5-1"
         style="stop-color:#89898b;stop-opacity:1"
         offset="1" />
    </radialGradient>
    <linearGradient
       id="linearGradient3820-7-2-1">
      <stop
         id="stop3822-2-6-3"
         style="stop-color:#3d3d3d;stop-opacity:1"
         offset="0" />
      <stop
         id="stop3864-8-7-7"
         style="stop-color:#686868;stop-opacity:0.49803922"
         offset="0.5" />
      <stop
         id="stop3824-1-2-5"
         style="stop-color:#686868;stop-opacity:0"
         offset="1" />
    </linearGradient>
    <radialGradient
       cx="99.157013"
       cy="186.17059"
       r="62.769119"
       fx="99.157013"
       fy="186.17059"
       id="radialGradient4949"
       xlink:href="#linearGradient3820-7-2-1"
       gradientUnits="userSpaceOnUse"
       gradientTransform="matrix(0.27083381,0,0,0.08762273,-2.85507,25.187228)" />
    <linearGradient
       id="linearGradient8838">
      <stop
         offset="0"
         style="stop-color:#000000;stop-opacity:1"
         id="stop8840" />
      <stop
         offset="1"
         style="stop-color:#000000;stop-opacity:0"
         id="stop8842" />
    </linearGradient>
    <linearGradient
       id="linearGradient4422">
      <stop
         id="stop4424"
         style="stop-color:#e4e4e4;stop-opacity:1;"
         offset="0" />
      <stop
         id="stop4426"
         style="stop-color:#d2d2d3;stop-opacity:1;"
         offset="0.37188172" />
      <stop
         id="stop4428"
         style="stop-color:#ababac;stop-opacity:1;"
         offset="0.81009638" />
      <stop
         id="stop4430"
         style="stop-color:#888889;stop-opacity:1;"
         offset="1" />
    </linearGradient>
    <linearGradient
       id="linearGradient5873">
      <stop
         style="stop-color:#8b8b8b;stop-opacity:1;"
         offset="0"
         id="stop5875" />
      <stop
         style="stop-color:#c0c0c0;stop-opacity:1;"
         offset="1"
         id="stop5877" />
    </linearGradient>
    <linearGradient
       id="linearGradient3162">
      <stop
         style="stop-color:#f9f9f9;stop-opacity:1;"
         offset="0"
         id="stop3164" />
      <stop
         style="stop-color:#d4d4d4;stop-opacity:1"
         offset="1"
         id="stop3166" />
    </linearGradient>
    <linearGradient
       id="linearGradient4436">
      <stop
         style="stop-color:#efefef;stop-opacity:1;"
         offset="0"
         id="stop4438" />
      <stop
         style="stop-color:#ffffff;stop-opacity:1;"
         offset="1"
         id="stop4440" />
    </linearGradient>
    <linearGradient
       id="linearGradient4965"
       inkscape:collect="always">
      <stop
         id="stop4967"
         offset="0"
         style="stop-color:#000000;stop-opacity:1;" />
      <stop
         id="stop4969"
         offset="1"
         style="stop-color:#000000;stop-opacity:0" />
    </linearGradient>
    <linearGradient
       inkscape:collect="always"
       xlink:href="#linearGradient4644-104-3-3-6-2-3-4"
       id="linearGradient10060"
       gradientUnits="userSpaceOnUse"
       gradientTransform="matrix(1.3333333,0,0,1.1052632,-8.0000008,-2.526316)"
       x1="24.25"
       y1="29.5"
       x2="24.25"
       y2="18.454639" />
    <linearGradient
       id="linearGradient4644-104-3-3-6-2-3-4">
      <stop
         offset="0"
         style="stop-color:#ff4035;stop-opacity:1;"
         id="stop5237-6-5-1-7-5-2" />
      <stop
         offset="1"
         style="stop-color:#dc311a;stop-opacity:1;"
         id="stop5239-4-6-4-8-4-8" />
    </linearGradient>
    <radialGradient
       inkscape:collect="always"
       xlink:href="#linearGradient3820-7-2-1"
       id="radialGradient3302"
       gradientUnits="userSpaceOnUse"
       gradientTransform="matrix(0.27083381,0,0,0.08762273,-2.85507,25.187228)"
       cx="99.157013"
       cy="186.17059"
       fx="99.157013"
       fy="186.17059"
       r="62.769119" />
    <radialGradient
       inkscape:collect="always"
       xlink:href="#linearGradient4422"
       id="radialGradient3392"
       gradientUnits="userSpaceOnUse"
       gradientTransform="matrix(0,2.4988347,-2.6434689,-6.8014435e-8,104.09953,-11.248822)"
       cx="5.3215203"
       cy="8.4497671"
       fx="5.3215203"
       fy="8.4497671"
       r="19.99999" />
    <linearGradient
       inkscape:collect="always"
       xlink:href="#linearGradient5873"
       id="linearGradient3394"
       gradientUnits="userSpaceOnUse"
       gradientTransform="translate(57.762712,0.93164569)"
       x1="23.75"
       y1="44.25"
       x2="24.000118"
       y2="1.1171311" />
    <radialGradient
       inkscape:collect="always"
       xlink:href="#linearGradient3162"
       id="radialGradient3396"
       gradientUnits="userSpaceOnUse"
       gradientTransform="matrix(9.7678889e-8,2.0000001,-2.7333333,1.3349447e-7,67.82222,-34.333337)"
       cx="25"
       cy="15.666667"
       fx="25"
       fy="15.666667"
       r="10" />
    <linearGradient
       inkscape:collect="always"
       xlink:href="#linearGradient4436"
       id="linearGradient3398"
       gradientUnits="userSpaceOnUse"
       x1="24.777349"
       y1="24.616444"
       x2="24.777349"
       y2="31.493454" />
    <linearGradient
       inkscape:collect="always"
       xlink:href="#linearGradient4965"
       id="linearGradient3400"
       gradientUnits="userSpaceOnUse"
       x1="24.777349"
       y1="18.226145"
       x2="24.777349"
       y2="22.31111" />
    <linearGradient
       inkscape:collect="always"
       xlink:href="#linearGradient4644-104-3-3-6-2-3-4"
       id="linearGradient3402"
       gradientUnits="userSpaceOnUse"
       gradientTransform="matrix(1.3333333,0,0,1.1052632,49.762711,-1.5946703)"
       x1="24.25"
       y1="29.5"
       x2="24.25"
       y2="18.454639" />
    <linearGradient
       id="linearGradient3765">
      <stop
         style="stop-color:#ffffff;stop-opacity:1;"
         offset="0"
         id="stop3767" />
      <stop
         style="stop-color:#e4e4e4;stop-opacity:1;"
         offset="1"
         id="stop3769" />
    </linearGradient>
    <linearGradient
       id="linearGradient3775">
      <stop
         style="stop-color:#ffffff;stop-opacity:0.58823532;"
         offset="0"
         id="stop3777" />
      <stop
         style="stop-color:#ffffff;stop-opacity:1;"
         offset="1"
         id="stop3779" />
    </linearGradient>
    <linearGradient
       id="linearGradient3772-6">
      <stop
         id="stop3774-6"
         style="stop-color:#b4b4b4;stop-opacity:1"
         offset="0" />
      <stop
         id="stop3776-4"
         style="stop-color:#969696;stop-opacity:1"
         offset="1" />
    </linearGradient>
    <linearGradient
       inkscape:collect="always"
       xlink:href="#linearGradient3768-2"
       id="linearGradient3963"
       gradientUnits="userSpaceOnUse"
       x1="20.117516"
       y1="-202.20998"
       x2="461.9924"
       y2="-202.20998" />
    <linearGradient
       id="linearGradient3768-2">
      <stop
         style="stop-color:#5587a3;stop-opacity:1;"
         offset="0"
         id="stop3770-4" />
      <stop
         style="stop-color:#457d8f;stop-opacity:1;"
         offset="1"
         id="stop3772-8" />
    </linearGradient>
    <linearGradient
       inkscape:collect="always"
       xlink:href="#linearGradient3768-2"
       id="linearGradient3954"
       gradientUnits="userSpaceOnUse"
       x1="20.117516"
       y1="-202.20998"
       x2="32.586807"
       y2="-123.50863" />
    <linearGradient
       id="linearGradient3180">
      <stop
         style="stop-color:#5587a3;stop-opacity:1;"
         offset="0"
         id="stop3182" />
      <stop
         style="stop-color:#457d8f;stop-opacity:1;"
         offset="1"
         id="stop3184" />
    </linearGradient>
    <linearGradient
       inkscape:collect="always"
       xlink:href="#linearGradient3768-2"
       id="linearGradient3956"
       gradientUnits="userSpaceOnUse"
       x1="20.117516"
       y1="-202.20998"
       x2="32.586807"
       y2="-123.50863" />
    <linearGradient
       id="linearGradient3187">
      <stop
         style="stop-color:#5587a3;stop-opacity:1;"
         offset="0"
         id="stop3189" />
      <stop
         style="stop-color:#457d8f;stop-opacity:1;"
         offset="1"
         id="stop3191" />
    </linearGradient>
    <linearGradient
       inkscape:collect="always"
       xlink:href="#linearGradient3768-2"
       id="linearGradient3958"
       gradientUnits="userSpaceOnUse"
       x1="20.117516"
       y1="-202.20998"
       x2="32.586807"
       y2="-123.50863" />
    <linearGradient
       id="linearGradient3194">
      <stop
         style="stop-color:#5587a3;stop-opacity:1;"
         offset="0"
         id="stop3196" />
      <stop
         style="stop-color:#457d8f;stop-opacity:1;"
         offset="1"
         id="stop3198" />
    </linearGradient>
    <linearGradient
       inkscape:collect="always"
       xlink:href="#linearGradient3768-2"
       id="linearGradient3961"
       gradientUnits="userSpaceOnUse"
       x1="20.117516"
       y1="-202.20998"
       x2="32.586807"
       y2="-123.50863" />
    <linearGradient
       id="linearGradient3201">
      <stop
         style="stop-color:#5587a3;stop-opacity:1;"
         offset="0"
         id="stop3203" />
      <stop
         style="stop-color:#457d8f;stop-opacity:1;"
         offset="1"
         id="stop3205" />
    </linearGradient>
    <linearGradient
       inkscape:collect="always"
       xlink:href="#linearGradient3800-7-2"
       id="linearGradient3973"
       gradientUnits="userSpaceOnUse"
       spreadMethod="pad"
       x1="457.9744"
       y1="-51.710907"
       x2="442.4953"
       y2="-202.20998" />
    <linearGradient
       id="linearGradient3800-7-2">
      <stop
         style="stop-color:#5ca2b8;stop-opacity:1;"
         offset="0"
         id="stop3802-4-8" />
      <stop
         style="stop-color:#5ca2b8;stop-opacity:1;"
         offset="1"
         id="stop3804-0-6" />
    </linearGradient>
    <linearGradient
       inkscape:collect="always"
       xlink:href="#linearGradient3800-7-2"
       id="linearGradient3965"
       gradientUnits="userSpaceOnUse"
       gradientTransform="translate(-3.6333562,-1.8175159)"
       spreadMethod="pad"
       x1="396.35013"
       y1="-224.8987"
       x2="378.80692"
       y2="-368.20535" />
    <linearGradient
       id="linearGradient3212">
      <stop
         style="stop-color:#5ca2b8;stop-opacity:1;"
         offset="0"
         id="stop3214" />
      <stop
         style="stop-color:#5ca2b8;stop-opacity:1;"
         offset="1"
         id="stop3216" />
    </linearGradient>
    <linearGradient
       inkscape:collect="always"
       xlink:href="#linearGradient3800-7-2"
       id="linearGradient3967"
       gradientUnits="userSpaceOnUse"
       gradientTransform="translate(-3.6333562,-1.8175159)"
       spreadMethod="pad"
       x1="450.1077"
       y1="-143.3038"
       x2="433.4119"
       y2="-242.45497" />
    <linearGradient
       id="linearGradient3219">
      <stop
         style="stop-color:#5ca2b8;stop-opacity:1;"
         offset="0"
         id="stop3221" />
      <stop
         style="stop-color:#5ca2b8;stop-opacity:1;"
         offset="1"
         id="stop3223" />
    </linearGradient>
    <linearGradient
       inkscape:collect="always"
       xlink:href="#linearGradient3800-7-2"
       id="linearGradient3969"
       gradientUnits="userSpaceOnUse"
       gradientTransform="translate(-3.6333562,-1.8175159)"
       spreadMethod="pad"
       x1="489.50595"
       y1="-113.46021"
       x2="442.4953"
       y2="-202.20998" />
    <linearGradient
       id="linearGradient3226">
      <stop
         style="stop-color:#5ca2b8;stop-opacity:1;"
         offset="0"
         id="stop3228" />
      <stop
         style="stop-color:#5ca2b8;stop-opacity:1;"
         offset="1"
         id="stop3230" />
    </linearGradient>
    <linearGradient
       inkscape:collect="always"
       xlink:href="#linearGradient3800-7-2"
       id="linearGradient3971"
       gradientUnits="userSpaceOnUse"
       gradientTransform="translate(-3.6333562,-1.8175159)"
       spreadMethod="pad"
       x1="446.69247"
       y1="-139.79538"
       x2="425.41571"
       y2="-267.90073" />
    <linearGradient
       id="linearGradient3233">
      <stop
         style="stop-color:#5ca2b8;stop-opacity:1;"
         offset="0"
         id="stop3235" />
      <stop
         style="stop-color:#5ca2b8;stop-opacity:1;"
         offset="1"
         id="stop3237" />
    </linearGradient>
    <radialGradient
       inkscape:collect="always"
       xlink:href="#linearGradient3765"
       id="radialGradient3280"
       gradientUnits="userSpaceOnUse"
       gradientTransform="matrix(-1.7922484,4.7450628e-8,-3.529013e-8,-1.3329366,41.58142,-41.248313)"
       cx="14.891734"
       cy="-17.680855"
       fx="14.891734"
       fy="-17.680855"
       r="25.570608" />
    <linearGradient
       inkscape:collect="always"
       xlink:href="#linearGradient3775"
       id="linearGradient3282"
       gradientUnits="userSpaceOnUse"
       x1="15.123692"
       y1="-18.801283"
       x2="15.123692"
       y2="32.56842" />
    <linearGradient
       inkscape:collect="always"
       xlink:href="#linearGradient3772-6"
       id="linearGradient3293"
       gradientUnits="userSpaceOnUse"
       gradientTransform="matrix(1.4102564,0,0,1.4102564,1.4050412,-4.5399056)"
       x1="27.096104"
       y1="10.880992"
       x2="27.096104"
       y2="39.150768" />
    <linearGradient
       inkscape:collect="always"
       xlink:href="#linearGradient3768-2"
       id="linearGradient4084"
       gradientUnits="userSpaceOnUse"
       x1="20.117516"
       y1="-202.20998"
       x2="461.9924"
       y2="-202.20998" />
    <linearGradient
       inkscape:collect="always"
       xlink:href="#linearGradient3800-7-2"
       id="linearGradient4086"
       gradientUnits="userSpaceOnUse"
       spreadMethod="pad"
       x1="457.9744"
       y1="-51.710907"
       x2="442.4953"
       y2="-202.20998" />
    <linearGradient
       inkscape:collect="always"
       xlink:href="#linearGradient3768-2"
       id="linearGradient4130"
       gradientUnits="userSpaceOnUse"
       x1="20.117516"
       y1="-202.20998"
       x2="32.586807"
       y2="-123.50863" />
    <linearGradient
       inkscape:collect="always"
       xlink:href="#linearGradient3768-2"
       id="linearGradient4132"
       gradientUnits="userSpaceOnUse"
       x1="20.117516"
       y1="-202.20998"
       x2="32.586807"
       y2="-123.50863" />
    <linearGradient
       inkscape:collect="always"
       xlink:href="#linearGradient3768-2"
       id="linearGradient4134"
       gradientUnits="userSpaceOnUse"
       x1="20.117516"
       y1="-202.20998"
       x2="32.586807"
       y2="-123.50863" />
    <linearGradient
       inkscape:collect="always"
       xlink:href="#linearGradient3768-2"
       id="linearGradient4136"
       gradientUnits="userSpaceOnUse"
       x1="20.117516"
       y1="-202.20998"
       x2="32.586807"
       y2="-123.50863" />
    <linearGradient
       inkscape:collect="always"
       xlink:href="#linearGradient3768-2"
       id="linearGradient4138"
       gradientUnits="userSpaceOnUse"
       x1="20.117516"
       y1="-202.20998"
       x2="461.9924"
       y2="-202.20998" />
    <linearGradient
       inkscape:collect="always"
       xlink:href="#linearGradient3800-7-2"
       id="linearGradient4140"
       gradientUnits="userSpaceOnUse"
       gradientTransform="translate(-3.6333562,-1.8175159)"
       spreadMethod="pad"
       x1="396.35013"
       y1="-224.8987"
       x2="378.80692"
       y2="-368.20535" />
    <linearGradient
       inkscape:collect="always"
       xlink:href="#linearGradient3800-7-2"
       id="linearGradient4142"
       gradientUnits="userSpaceOnUse"
       gradientTransform="translate(-3.6333562,-1.8175159)"
       spreadMethod="pad"
       x1="450.1077"
       y1="-143.3038"
       x2="433.4119"
       y2="-242.45497" />
    <linearGradient
       inkscape:collect="always"
       xlink:href="#linearGradient3800-7-2"
       id="linearGradient4144"
       gradientUnits="userSpaceOnUse"
       gradientTransform="translate(-3.6333562,-1.8175159)"
       spreadMethod="pad"
       x1="489.50595"
       y1="-113.46021"
       x2="442.4953"
       y2="-202.20998" />
    <linearGradient
       inkscape:collect="always"
       xlink:href="#linearGradient3800-7-2"
       id="linearGradient4146"
       gradientUnits="userSpaceOnUse"
       gradientTransform="translate(-3.6333562,-1.8175159)"
       spreadMethod="pad"
       x1="446.69247"
       y1="-139.79538"
       x2="425.41571"
       y2="-267.90073" />
    <linearGradient
       inkscape:collect="always"
       xlink:href="#linearGradient3800-7-2"
       id="linearGradient4148"
       gradientUnits="userSpaceOnUse"
       spreadMethod="pad"
       x1="457.9744"
       y1="-51.710907"
       x2="442.4953"
       y2="-202.20998" />
    <radialGradient
       inkscape:collect="always"
       xlink:href="#linearGradient3820-7-2-1-6"
       id="radialGradient3955"
       gradientUnits="userSpaceOnUse"
       gradientTransform="matrix(0.27083381,0,0,0.08762273,-62.985938,28.699317)"
       cx="99.157013"
       cy="186.17059"
       fx="99.157013"
       fy="186.17059"
       r="62.769119" />
    <linearGradient
       id="linearGradient3820-7-2-1-6">
      <stop
         id="stop3822-2-6-3-7"
         style="stop-color:#3d3d3d;stop-opacity:1"
         offset="0" />
      <stop
         id="stop3864-8-7-7-1"
         style="stop-color:#686868;stop-opacity:0.49803922"
         offset="0.5" />
      <stop
         id="stop3824-1-2-5-5"
         style="stop-color:#686868;stop-opacity:0"
         offset="1" />
    </linearGradient>
    <radialGradient
       inkscape:collect="always"
       xlink:href="#linearGradient2867-449-88-871-390-598-476-591-434-148-57-177-8-3-3-6-4-8-8-8-5"
       id="radialGradient3957"
       gradientUnits="userSpaceOnUse"
       gradientTransform="matrix(-1.7922484,4.7450628e-8,-3.529013e-8,-1.3329366,41.58142,-41.248313)"
       cx="14.891734"
       cy="-17.680855"
       fx="14.891734"
       fy="-17.680855"
       r="25.570608" />
    <linearGradient
       id="linearGradient2867-449-88-871-390-598-476-591-434-148-57-177-8-3-3-6-4-8-8-8-5">
      <stop
         id="stop3750-1-0-7-6-6-1-3-9-3"
         style="stop-color:#5f5f5f;stop-opacity:1;"
         offset="0" />
      <stop
         id="stop3752-3-7-4-0-32-8-923-0-7"
         style="stop-color:#515151;stop-opacity:1;"
         offset="0.26238" />
      <stop
         id="stop3754-1-8-5-2-7-6-7-1-9"
         style="stop-color:#404040;stop-opacity:1;"
         offset="0.704952" />
      <stop
         id="stop3756-1-6-2-6-6-1-96-6-0"
         style="stop-color:#343434;stop-opacity:1;"
         offset="1" />
    </linearGradient>
    <linearGradient
       inkscape:collect="always"
       xlink:href="#linearGradient3775-8"
       id="linearGradient3282-2"
       gradientUnits="userSpaceOnUse"
       x1="15.123692"
       y1="-18.801283"
       x2="15.123692"
       y2="32.56842" />
    <linearGradient
       id="linearGradient3775-8">
      <stop
         style="stop-color:#ffffff;stop-opacity:0.58823532;"
         offset="0"
         id="stop3777-3" />
      <stop
         style="stop-color:#ffffff;stop-opacity:1;"
         offset="1"
         id="stop3779-1" />
    </linearGradient>
    <radialGradient
       inkscape:collect="always"
       xlink:href="#linearGradient4234"
       id="radialGradient4178"
       gradientUnits="userSpaceOnUse"
       gradientTransform="matrix(-7.5339981e-8,1.108671,-1.6023204,-1.0888603e-7,-2.9588268,-10.297257)"
       cx="31.840776"
       cy="20.00672"
       fx="31.840776"
       fy="20.00672"
       r="5.9926605" />
    <linearGradient
       id="linearGradient4234">
      <stop
         offset="0"
         style="stop-color:#8badea;stop-opacity:1"
         id="stop4236" />
      <stop
         offset="0.26238"
         style="stop-color:#6396cd;stop-opacity:1"
         id="stop4238" />
      <stop
         offset="0.66093999"
         style="stop-color:#3b7caf;stop-opacity:1"
         id="stop4240" />
      <stop
         offset="1"
         style="stop-color:#194c70;stop-opacity:1"
         id="stop4242" />
    </linearGradient>
    <linearGradient
       inkscape:collect="always"
       xlink:href="#linearGradient4252"
       id="linearGradient4180"
       gradientUnits="userSpaceOnUse"
       gradientTransform="matrix(0.57825668,0,0,0.56936361,-53.42815,13.38376)"
       x1="29.329277"
       y1="29.777784"
       x2="29.329277"
       y2="20.041948" />
    <linearGradient
       id="linearGradient4252">
      <stop
         offset="0"
         style="stop-color:#1f4b6a;stop-opacity:1"
         id="stop4254" />
      <stop
         offset="1"
         style="stop-color:#4083c2;stop-opacity:1"
         id="stop4256" />
    </linearGradient>
    <linearGradient
       inkscape:collect="always"
       xlink:href="#linearGradient4368"
       id="linearGradient4175"
       gradientUnits="userSpaceOnUse"
       gradientTransform="matrix(0.45115764,0,0,0.45004823,-109.64701,12.92475)"
       x1="166.49399"
       y1="28.05773"
       x2="166.49399"
       y2="37.641525" />
    <linearGradient
       inkscape:collect="always"
       id="linearGradient4368">
      <stop
         style="stop-color:#ffffff;stop-opacity:1;"
         offset="0"
         id="stop4370" />
      <stop
         style="stop-color:#ffffff;stop-opacity:0;"
         offset="1"
         id="stop4372" />
    </linearGradient>
    <linearGradient
       y2="37.641525"
       x2="166.49399"
       y1="28.05773"
       x1="166.49399"
       gradientTransform="matrix(0.45115764,0,0,0.45004823,-109.64701,12.92475)"
       gradientUnits="userSpaceOnUse"
       id="linearGradient4267"
       xlink:href="#linearGradient4368"
       inkscape:collect="always" />
    <linearGradient
       inkscape:collect="always"
       xlink:href="#linearGradient4252"
       id="linearGradient4410"
       gradientUnits="userSpaceOnUse"
       gradientTransform="matrix(0.57825668,0,0,0.56936361,-53.42815,13.38376)"
       x1="29.329277"
       y1="29.777784"
       x2="29.329277"
       y2="20.041948" />
    <linearGradient
       inkscape:collect="always"
       xlink:href="#linearGradient4368"
       id="linearGradient4413"
       gradientUnits="userSpaceOnUse"
       gradientTransform="matrix(0.45115764,0,0,0.45004823,0.03004,8.4673906)"
       x1="166.49399"
       y1="28.05773"
       x2="166.49399"
       y2="37.641525" />
    <radialGradient
       inkscape:collect="always"
       xlink:href="#linearGradient4234"
       id="radialGradient4416"
       gradientUnits="userSpaceOnUse"
       gradientTransform="matrix(-7.5339981e-8,1.108671,-1.6023204,-1.0888603e-7,106.71822,-14.754616)"
       cx="31.840776"
       cy="20.00672"
       fx="31.840776"
       fy="20.00672"
       r="5.9926605" />
    <linearGradient
       inkscape:collect="always"
       xlink:href="#linearGradient4252"
       id="linearGradient4418"
       gradientUnits="userSpaceOnUse"
       gradientTransform="matrix(0.57825668,0,0,0.56936361,56.2489,8.9264006)"
       x1="29.329277"
       y1="29.777784"
       x2="29.329277"
       y2="20.041948" />
    <radialGradient
       inkscape:collect="always"
       xlink:href="#linearGradient3820-7-2-1-6"
       id="radialGradient4431"
       gradientUnits="userSpaceOnUse"
       gradientTransform="matrix(0.27083381,0,0,0.08762273,40.875833,32.565789)"
       cx="99.157013"
       cy="186.17059"
       fx="99.157013"
       fy="186.17059"
       r="62.769119" />
    <radialGradient
       inkscape:collect="always"
       xlink:href="#linearGradient3765"
       id="radialGradient4446"
       gradientUnits="userSpaceOnUse"
       gradientTransform="matrix(-1.7922484,4.7450628e-8,-3.529013e-8,-1.3329366,41.58142,-41.248313)"
       cx="14.891734"
       cy="-17.680855"
       fx="14.891734"
       fy="-17.680855"
       r="25.570608" />
    <radialGradient
       inkscape:collect="always"
       xlink:href="#linearGradient2867-449-88-871-390-598-476-591-434-148-57-177-8-3-3-6-4-8-8-8-5"
       id="radialGradient4448"
       gradientUnits="userSpaceOnUse"
       gradientTransform="matrix(-1.438655,3.8089076e-8,-2.8327727e-8,-1.069961,45.427577,-14.509398)"
       cx="14.891734"
       cy="-17.680855"
       fx="14.891734"
       fy="-17.680855"
       r="25.570608" />
    <linearGradient
       inkscape:collect="always"
       xlink:href="#linearGradient4411"
       id="linearGradient4450"
       gradientUnits="userSpaceOnUse"
       x1="15.123692"
       y1="-18.801283"
       x2="15.123692"
       y2="32.56842"
       gradientTransform="matrix(0.76417711,0,0,0.76417711,12.376785,18.777859)" />
    <radialGradient
       inkscape:collect="always"
       xlink:href="#linearGradient4234"
       id="radialGradient4452"
       gradientUnits="userSpaceOnUse"
       gradientTransform="matrix(-7.5339981e-8,1.108671,-1.6023204,-1.0888603e-7,57.172038,-13.809351)"
       cx="31.840776"
       cy="20.00672"
       fx="31.840776"
       fy="20.00672"
       r="5.9926605" />
    <linearGradient
       inkscape:collect="always"
       xlink:href="#linearGradient4252"
       id="linearGradient4454"
       gradientUnits="userSpaceOnUse"
       gradientTransform="matrix(0.57825668,0,0,0.56936361,6.702718,9.8716656)"
       x1="29.329277"
       y1="29.777784"
       x2="29.329277"
       y2="20.041948" />
    <linearGradient
       inkscape:collect="always"
       xlink:href="#linearGradient4368"
       id="linearGradient4456"
       gradientUnits="userSpaceOnUse"
       gradientTransform="matrix(0.45115764,0,0,0.45004823,-49.516142,9.4126556)"
       x1="166.49399"
       y1="28.05773"
       x2="166.49399"
       y2="37.641525" />
  </defs>
  <metadata
     id="metadata4956">
    <rdf:RDF>
      <cc:Work
         rdf:about="">
        <dc:format>image/svg+xml</dc:format>
        <dc:type
           rdf:resource="http://purl.org/dc/dcmitype/StillImage" />
        <dc:title />
      </cc:Work>
    </rdf:RDF>
  </metadata>
  <g
     id="g4420">
    <path
       d="m 41,41.5 a 17,5.4999999 0 0 1 -34,0 17,5.4999999 0 1 1 34,0 z"
       inkscape:connector-curvature="0"
       id="path3818-0-5"
       style="fill:url(#radialGradient3302);fill-opacity:1;stroke:none" />
    <circle
       style="opacity:0.6;fill:none;stroke:#242424;stroke-width:0.94845384;stroke-miterlimit:4;stroke-dasharray:none;stroke-opacity:1"
       id="path3755-9"
       cx="24"
       cy="24"
       r="20.525774" />
    <circle
       id="path2985-6"
       style="fill:url(#radialGradient4448);fill-opacity:1;stroke:none"
       cx="24"
       cy="24"
       r="20.5" />
    <circle
       r="19.500021"
       id="path3773-9"
       style="opacity:0.6;fill:none;stroke:url(#linearGradient4450);stroke-width:0.99995774;stroke-miterlimit:4;stroke-dasharray:none;stroke-opacity:0.58823529"
       cx="24"
       cy="24" />
    <path
       inkscape:connector-curvature="0"
       id="path4428"
       d="m 24.691143,12.500194 c -0.463696,7.14e-4 -0.931716,0.148965 -1.322007,0.433296 -0.391816,0.284836 -0.649128,0.692943 -0.681508,1.137892 -0.03238,0.444948 0.172943,0.891481 0.535052,1.202301 a 0.49995234,0.49970736 0 0 0 0.0078,0.0059 c 0.761102,0.625553 1.558559,1.377538 2.353056,2.09817 l -8.992384,-0.0059 c -0.668099,0 -1.247525,0.166481 -1.68717,0.493803 -0.439646,0.32732 -0.720774,0.812168 -0.812342,1.346732 -0.18108,1.057126 0.628102,2.258218 1.948838,2.258218 1.238489,0.0017 2.485253,-0.0028 3.72974,-0.0059 l -8.13513,6.099334 a 0.49995234,0.49970736 0 0 0 -0.01172,0.0098 c 0.0045,-0.0036 -0.0067,0.0048 -0.03515,0.02732 a 0.49995234,0.49970736 0 0 0 -0.002,0 c -1.049346,0.837847 -1.451826,2.291318 -0.697129,3.298519 0.383577,0.511586 0.990261,0.764417 1.601249,0.765101 0.61099,6.84e-4 1.241328,-0.232003 1.771138,-0.67727 a 0.49995234,0.49970736 0 0 0 0.002,-0.002 l 4.231595,-3.606902 c 0.02516,0.439516 0.110089,1.010488 0.269479,1.541911 0.361837,1.20104 0.976793,2.31726 1.827768,3.294616 0.872474,1.002336 1.947367,1.81028 3.184924,2.38118 1.302002,0.599795 2.71377,0.906084 4.173013,0.903677 1.459125,-0.0033 2.871829,-0.315238 4.173013,-0.919292 1.236154,-0.576107 2.311078,-1.385974 3.182972,-2.390938 a 0.49995234,0.49970736 0 0 0 0.002,0 c 0.848653,-0.980759 1.460236,-2.097257 1.821909,-3.298519 0.1832,-0.608218 0.298111,-1.224674 0.345636,-1.844439 a 0.49995234,0.49970736 0 0 0 0,-0.002 c 0.0457,-0.609647 0.02665,-1.221833 -0.05663,-1.830776 -0.161706,-1.188669 -0.55912,-2.307774 -1.165789,-3.323893 -0.524231,-0.878647 -1.215431,-1.631814 -1.999609,-2.291397 -3.79e-4,-3.2e-4 3.8e-4,-0.0016 0,-0.002 a 0.49995234,0.49970736 0 0 0 -0.123023,-0.144433 l -8.107791,-6.481884 -0.01172,-0.0098 c -0.0015,-0.0016 -0.01188,-0.0097 -0.02148,-0.01757 -5.03e-4,-4.01e-4 -0.0014,4.01e-4 -0.002,0 -0.373375,-0.297011 -0.832934,-0.44377 -1.296622,-0.443055 z m 0.675649,1.223769 a 0.49995234,0.49970736 0 0 0 0.0078,0.0078 0.49995234,0.49970736 0 0 0 0.01172,0.0098 l 8.088263,6.466271 0.0039,0.002 a 0.49995234,0.49970736 0 0 0 0.02344,0.02342 c 0.760112,0.613949 1.397212,1.34074 1.892208,2.170387 0.539919,0.904318 0.889398,1.88964 1.033001,2.945246 0.07395,0.540681 0.09115,1.08315 0.05077,1.621935 -0.04218,0.548335 -0.142449,1.093265 -0.304628,1.631693 -0.321222,1.066907 -0.863459,2.056075 -1.62273,2.933536 -0.779637,0.898292 -1.736975,1.620877 -2.849053,2.139158 -1.170069,0.543187 -2.434567,0.822665 -3.753172,0.825606 -1.318491,0.0022 -2.582755,-0.272764 -3.753174,-0.811943 -1.112076,-0.513013 -2.068644,-1.232834 -2.849053,-2.129399 -0.760566,-0.873521 -1.303559,-1.859829 -1.624682,-2.925729 -0.1454,-0.484779 -0.251276,-1.17792 -0.255809,-1.438467 -9e-6,-6.11e-4 8e-6,-0.0013 0,-0.002 -0.0037,-0.275165 0.06444,-0.868546 0.06444,-0.868546 A 0.49995234,0.49970736 0 0 0 18.70988,25.883628 l -5.094708,4.340773 c -0.360375,0.302003 -0.772663,0.441497 -1.122827,0.441104 -0.3509,-3.93e-4 -0.624517,-0.124896 -0.80453,-0.364984 -0.352964,-0.471057 -0.185813,-1.352389 0.523335,-1.918606 -0.002,0.0016 0.01214,-0.0089 0.02344,-0.01757 l 0.01172,-0.0098 9.326302,-6.9913 A 0.49995234,0.49970736 0 0 0 21.27189,20.463471 c -1.742816,0.0035 -3.495174,0.0102 -5.229448,0.0078 a 0.49995234,0.49970736 0 0 0 -0.002,0 c -0.713354,0 -1.037723,-0.65114 -0.962702,-1.089097 0.05354,-0.312583 0.189759,-0.540149 0.423745,-0.714354 0.233595,-0.173915 0.585893,-0.296264 1.087679,-0.296672 l 10.306579,0.0059 a 0.49995234,0.49970736 0 0 0 0.316345,-0.88611 c -1.085606,-0.88732 -2.194054,-2.032251 -3.339126,-2.974549 l 0,-0.002 c -0.162409,-0.140134 -0.197617,-0.258159 -0.189416,-0.370839 0.0082,-0.113152 0.07176,-0.255495 0.273383,-0.402069 a 0.49995234,0.49970736 0 0 0 0,-0.002 c 0.389562,-0.284318 1.089688,-0.270831 1.409881,-0.01562 z"
       style="color:#000000;font-style:normal;font-variant:normal;font-weight:normal;font-stretch:normal;font-size:medium;line-height:normal;font-family:sans-serif;text-indent:0;text-align:start;text-decoration:none;text-decoration-line:none;text-decoration-style:solid;text-decoration-color:#000000;letter-spacing:normal;word-spacing:normal;text-transform:none;direction:ltr;block-progression:tb;writing-mode:lr-tb;baseline-shift:baseline;text-anchor:start;white-space:normal;clip-rule:nonzero;display:inline;overflow:visible;visibility:visible;opacity:0.15;isolation:auto;mix-blend-mode:normal;color-interpolation:sRGB;color-interpolation-filters:linearRGB;solid-color:#000000;solid-opacity:1;fill:#000000;fill-opacity:1;fill-rule:evenodd;stroke:none;stroke-width:1;stroke-linecap:round;stroke-linejoin:round;stroke-miterlimit:4;stroke-dasharray:none;stroke-dashoffset:0;stroke-opacity:1;color-rendering:auto;image-rendering:auto;shape-rendering:auto;text-rendering:auto;enable-background:accumulate" />
    <path
       inkscape:connector-curvature="0"
       id="path4426"
       d="m 24.695903,12.000007 c -0.564073,9.07e-4 -1.130512,0.186714 -1.6186,0.542306 -0.486845,0.353778 -0.841976,0.895453 -0.886423,1.505972 -0.04444,0.61052 0.247735,1.219657 0.708748,1.615214 a 0.99976607,0.99887937 0 0 0 0.01563,0.01365 c 0.425783,0.349813 0.911942,0.796328 1.358921,1.209459 l -7.679075,-0.0039 c -0.750481,0 -1.443265,0.189363 -1.985666,0.593026 -0.5424,0.403662 -0.894959,1.016822 -1.005523,1.662032 -0.234078,1.365977 0.816389,2.840279 2.440591,2.840279 0.740494,9.99e-4 1.484123,-0.0026 2.227771,-0.0039 l -6.933231,5.194824 a 0.99976607,0.99887937 0 0 0 -0.02147,0.01756 c 0.02108,-0.01677 0.0096,-0.0082 -0.03515,0.02731 a 0.99976607,0.99887937 0 0 0 -0.002,0.002 c -1.219276,0.973141 -1.7422769,2.712724 -0.786846,3.987316 0.485292,0.646987 1.260353,0.962836 2.001285,0.963665 0.740931,8.3e-4 1.478875,-0.277986 2.093051,-0.793951 a 0.99976607,0.99887937 0 0 0 0.0039,-0.0059 l 3.56912,-3.039255 c 0.05088,0.255663 0.0515,0.483449 0.128863,0.741282 0.382142,1.26793 1.032988,2.447498 1.929044,3.476221 0.91838,1.054655 2.052279,1.905231 3.352395,2.504751 1.367604,0.629766 2.853895,0.952533 4.383302,0.950011 1.529174,-0.0034 3.014799,-0.33147 4.38135,-0.965617 a 0.99976607,0.99887937 0 0 0 0.002,0 c 1.297768,-0.604581 2.430687,-1.457045 3.348491,-2.514505 a 0.99976607,0.99887937 0 0 0 0,-0.002 c 0.893221,-1.031855 1.543291,-2.210411 1.925138,-3.478172 0.19359,-0.642455 0.312927,-1.295933 0.363159,-1.950741 a 0.99976607,0.99887937 0 0 0 0,-0.002 c 0.04829,-0.644084 0.02719,-1.291092 -0.06053,-1.933185 l 0,-0.002 C 37.74325,23.898067 37.323725,22.713436 36.684087,21.642521 36.158711,20.762304 35.45471,20.019229 34.682803,19.348449 A 0.99976607,0.99887937 0 0 0 34.4446,19.071444 l -8.093,-6.466707 -0.02538,-0.02145 c -0.0021,-0.0022 -0.01469,-0.01019 -0.02343,-0.01756 -5.19e-4,-4.14e-4 -0.0014,4.13e-4 -0.002,0 -0.480013,-0.381883 -1.040858,-0.566622 -1.604932,-0.565715 z m 0.359255,2.126308 c -6.74e-4,-5.57e-4 0.0026,4.92e-4 0.002,0 a 0.99976607,0.99887937 0 0 0 0.01952,0.01756 l 8.096905,6.470608 a 0.99976607,0.99887937 0 0 0 0.01757,0.01561 c 0.716014,0.578101 1.310707,1.259036 1.774798,2.036574 0.506472,0.847963 0.833893,1.767852 0.968427,2.756397 0.06927,0.506277 0.08458,1.012642 0.04685,1.515726 -0.03947,0.512665 -0.133319,1.021904 -0.285062,1.52548 -0.30079,0.99865 -0.807111,1.921615 -1.520976,2.746643 -0.733685,0.845325 -1.632072,1.523718 -2.682698,2.013165 -1.103912,0.511942 -2.29431,0.775558 -3.541827,0.77834 -1.247285,0.0021 -2.437802,-0.258573 -3.541786,-0.766641 l -0.002,0 C 23.358326,32.752011 22.460071,32.07715 21.726141,31.234316 21.010878,30.413152 20.503937,29.491319 20.203212,28.493524 20.0735,28.061221 19.971945,27.360559 19.968916,27.19238 c -7e-6,-4.77e-4 6e-6,-0.0015 0,-0.002 -0.0026,-0.198146 0.06053,-0.797854 0.06053,-0.797854 a 0.99976607,0.99887937 0 0 0 -1.640079,-0.883685 l -5.090096,4.336498 c -0.275784,0.230733 -0.582289,0.324069 -0.802467,0.323822 -0.220823,-2.46e-4 -0.325941,-0.05958 -0.404162,-0.163861 -0.151832,-0.202552 -0.103092,-0.797007 0.43345,-1.227017 l 0.002,-0.002 c -0.0054,0.0044 0.01028,-0.0088 0.01172,-0.0098 l 0.02343,-0.01756 9.311343,-6.977801 a 0.99976607,0.99887937 0 0 0 -0.601361,-1.798565 c -1.743182,0.0035 -3.494488,0.0102 -5.22677,0.0078 a 0.99976607,0.99887937 0 0 0 -0.002,0 c -0.409607,0 -0.492533,-0.376936 -0.470546,-0.505243 0.03453,-0.201483 0.09926,-0.300356 0.230392,-0.39795 0.130833,-0.09737 0.370034,-0.196562 0.788799,-0.197026 l 10.305151,0.0059 a 0.99976607,0.99887937 0 0 0 0.632602,-1.771289 c -1.041858,-0.851149 -2.13936,-1.981487 -3.303584,-2.943669 0.0086,-0.0099 -0.01503,0.01713 0.02733,-0.01365 a 0.99976607,0.99887937 0 0 0 0,-0.002 c 0.193241,-0.140979 0.692235,-0.113732 0.800514,-0.02926 z"
       style="color:#000000;font-style:normal;font-variant:normal;font-weight:normal;font-stretch:normal;font-size:medium;line-height:normal;font-family:sans-serif;text-indent:0;text-align:start;text-decoration:none;text-decoration-line:none;text-decoration-style:solid;text-decoration-color:#000000;letter-spacing:normal;word-spacing:normal;text-transform:none;direction:ltr;block-progression:tb;writing-mode:lr-tb;baseline-shift:baseline;text-anchor:start;white-space:normal;clip-rule:nonzero;display:inline;overflow:visible;visibility:visible;opacity:0.15;isolation:auto;mix-blend-mode:normal;color-interpolation:sRGB;color-interpolation-filters:linearRGB;solid-color:#000000;solid-opacity:1;fill:#000000;fill-opacity:1;fill-rule:evenodd;stroke:none;stroke-width:2;stroke-linecap:round;stroke-linejoin:round;stroke-miterlimit:4;stroke-dasharray:none;stroke-dashoffset:0;stroke-opacity:1;color-rendering:auto;image-rendering:auto;shape-rendering:auto;text-rendering:auto;enable-background:accumulate" />
    <path
       sodipodi:nodetypes="csssssssssscccsscccscccsscccc"
       d="m 18.963107,27.195778 c 0.0058,0.352779 0.115388,1.038672 0.276683,1.576711 0.341547,1.134247 0.920187,2.185533 1.726115,3.111606 0.826603,0.950102 1.843218,1.714842 3.018264,2.25717 1.236452,0.569878 2.575141,0.861014 3.964279,0.858721 1.389137,-0.0031 2.727723,-0.298948 3.963591,-0.872961 1.174589,-0.547683 2.191201,-1.314253 3.017221,-2.266808 0.804119,-0.929747 1.381642,-1.982715 1.723157,-3.117577 0.172817,-0.574028 0.280091,-1.155815 0.324911,-1.740587 0.04305,-0.57461 0.02469,-1.152216 -0.05394,-1.727422 -0.152684,-1.122907 -0.526384,-2.175861 -1.099789,-3.136738 -0.525941,-0.881945 -1.202655,-1.654472 -2.006924,-2.304405 l 0.0012,-0.0012 -8.121302,-6.496475 c -0.0069,-0.0059 -0.01322,-0.01196 -0.02073,-0.01734 -0.533847,-0.425724 -1.429917,-0.424531 -2.015416,0.003 -0.593556,0.431705 -0.641214,1.106794 -0.114831,1.558841 1.115718,0.917463 2.22704,2.068006 3.348938,2.985357 l -10.307909,-0.0071 c -1.171457,0 -1.860685,0.579877 -2.005824,1.427605 -0.128075,0.748055 0.439245,1.675019 1.456489,1.675019 1.736363,0.0024 3.489737,-0.0043 5.232285,-0.0078 l -9.338907,7.005398 c -0.01206,0.0096 -0.02411,0.01794 -0.03617,0.02752 -0.879419,0.702513 -1.164709,1.871504 -0.61077,2.61114 0.5637,0.752188 1.760555,0.752799 2.65145,0.0037 l 5.096256,-4.344628 c 0,0 -0.07347,0.587162 -0.06832,0.939344 z"
       id="path2482"
       style="fill:#dda222;fill-opacity:1;fill-rule:evenodd;stroke:none"
       inkscape:connector-curvature="0" />
    <g
       transform="matrix(1.0780075,0,0,1.1987059,1.1383947,-2.2369125)"
       id="g4411">
      <ellipse
         ry="4.8395896"
         rx="5.4934344"
         cy="24.390438"
         cx="24.917801"
         id="path4033"
         style="color:#000000;display:inline;overflow:visible;visibility:visible;opacity:0.15;fill:none;stroke:#fff957;stroke-width:1.99999988;stroke-miterlimit:4;stroke-dasharray:none;stroke-opacity:1;marker:none" />
      <path
         d="m 21.741484,23.96572 c 0.04306,-0.774994 0.427501,-1.459082 1.005417,-1.943392 0.568726,-0.476092 1.332428,-0.766789 2.166656,-0.766789 0.833698,0 1.5974,0.290697 2.165993,0.766789 0.578554,0.48431 0.962531,1.167886 1.006095,1.942879 0.04463,0.797594 -0.279182,1.538179 -0.846713,2.086689 -0.578555,0.558779 -1.403486,0.90956 -2.325375,0.90956 -0.922419,0 -1.747351,-0.350781 -2.325878,-0.90956 -0.568115,-0.54851 -0.890809,-1.289095 -0.846195,-2.086176 z"
         id="path4035"
         style="opacity:0.15;fill:none;stroke:#fff957;stroke-width:1.99999988;stroke-miterlimit:4;stroke-dasharray:none;stroke-opacity:1"
         inkscape:connector-curvature="0" />
      <path
         d="m 22.400039,23.995641 c 0.0341,-0.612584 0.338749,-1.15332 0.796682,-1.536137 0.450658,-0.376321 1.055806,-0.606099 1.716836,-0.606099 0.66061,0 1.265764,0.229778 1.716307,0.606099 0.458446,0.382817 0.762703,0.923149 0.797223,1.535733 0.03536,0.630451 -0.22122,1.215842 -0.670927,1.649401 -0.458445,0.441684 -1.112109,0.718958 -1.842603,0.718958 -0.730914,0 -1.384578,-0.277274 -1.843001,-0.718958 -0.450168,-0.433559 -0.705868,-1.01895 -0.670517,-1.648997 z"
         id="path4037"
         style="display:inline;opacity:0.06000001;fill:none;stroke:#fff957;stroke-width:1.99999988;stroke-miterlimit:4;stroke-dasharray:none;stroke-opacity:1;enable-background:new"
         inkscape:connector-curvature="0" />
      <ellipse
         ry="4.8395896"
         rx="5.4934344"
         cy="24.390438"
         cx="24.917801"
         style="color:#000000;display:inline;overflow:visible;visibility:visible;fill:#ffffff;fill-opacity:1;fill-rule:nonzero;stroke:none;stroke-width:1;marker:none"
         id="path39153" />
      <path
         inkscape:connector-curvature="0"
         style="fill:url(#radialGradient4452);fill-opacity:1;fill-rule:evenodd;stroke:url(#linearGradient4454);stroke-width:0.57379293;stroke-opacity:1"
         id="path2478"
         d="m 21.741484,23.96572 c 0.04306,-0.774994 0.427501,-1.459082 1.005417,-1.943392 0.568726,-0.476092 1.332428,-0.766789 2.166656,-0.766789 0.833698,0 1.5974,0.290697 2.165993,0.766789 0.578554,0.48431 0.962531,1.167886 1.006095,1.942879 0.04463,0.797594 -0.279182,1.538179 -0.846713,2.086689 -0.578555,0.558779 -1.403486,0.90956 -2.325375,0.90956 -0.922419,0 -1.747351,-0.350781 -2.325878,-0.90956 -0.568115,-0.54851 -0.890809,-1.289095 -0.846195,-2.086176 z" />
      <path
         inkscape:connector-curvature="0"
         style="display:inline;opacity:0.4;fill:none;stroke:url(#linearGradient4456);stroke-width:0.57379287;stroke-opacity:1;enable-background:new"
         id="path2478-3"
         d="m 22.400039,23.995641 c 0.0341,-0.612584 0.338749,-1.15332 0.796682,-1.536137 0.450658,-0.376321 1.055806,-0.606099 1.716836,-0.606099 0.66061,0 1.265764,0.229778 1.716307,0.606099 0.458446,0.382817 0.762703,0.923149 0.797223,1.535733 0.03536,0.630451 -0.22122,1.215842 -0.670927,1.649401 -0.458445,0.441684 -1.112109,0.718958 -1.842603,0.718958 -0.730914,0 -1.384578,-0.277274 -1.843001,-0.718958 -0.450168,-0.433559 -0.705868,-1.01895 -0.670517,-1.648997 z" />
    </g>
    <path
       inkscape:connector-curvature="0"
       id="path4419"
       d="m 24.688177,12.99996 c -0.363935,5.24e-4 -0.734594,0.106547 -1.027343,0.320312 -0.593556,0.431705 -0.641618,1.106547 -0.115235,1.558594 1.115718,0.917463 2.227712,2.068977 3.34961,2.986328 l -10.308594,-0.0078 c -1.171457,0 -1.860721,0.580006 -2.00586,1.427734 -0.128075,0.748055 0.439788,1.675781 1.457032,1.675781 1.736363,0.0024 3.489874,-0.0043 5.232422,-0.0078 l -9.339844,7.005859 c -0.01206,0.0096 -0.0231,0.01776 -0.03516,0.02734 -0.879419,0.702513 -1.165266,1.871692 -0.611328,2.611328 0.563699,0.752188 1.759495,0.751052 2.65039,0.002 l 5.097656,-4.34375 c 0,0 -0.07351,0.587271 -0.06836,0.939453 0.0058,0.352779 0.114096,1.038133 0.275391,1.576172 0.341547,1.134247 0.920634,2.185255 1.726562,3.111328 0.826603,0.950102 1.842532,1.715485 3.017578,2.257813 1.236452,0.569878 2.575706,0.861668 3.964844,0.859375 1.389137,-0.0031 2.727023,-0.299034 3.962891,-0.873047 1.174589,-0.547683 2.191558,-1.315023 3.017578,-2.267578 0.804119,-0.929747 1.383094,-1.982326 1.724609,-3.117188 0.172817,-0.574028 0.279399,-1.155462 0.324219,-1.740234 0.04305,-0.57461 0.02394,-1.15331 -0.05469,-1.728516 -0.152684,-1.122907 -0.526204,-2.175841 -1.099609,-3.136719 -0.525941,-0.881945 -1.20159,-1.654754 -2.005859,-2.304687 l -8.121094,-6.496094 c -0.0069,-0.0059 -0.01202,-0.0122 -0.01953,-0.01758 -0.266924,-0.212862 -0.624346,-0.318883 -0.988282,-0.318359 z m -0.0039,1.029297 c 0.162641,-2.71e-4 0.313856,0.02778 0.367188,0.07031 l 0.0078,0.0059 c -0.0012,-8.04e-4 0.0064,0.0049 0.0098,0.0078 l 0.0039,0.002 0.01953,0.01563 7.947266,6.361328 0.148437,0.119141 c 0.716253,0.578807 1.311146,1.258621 1.775391,2.037109 l 0.002,0.002 c 0.506642,0.848999 0.832218,1.76806 0.966797,2.757813 l 0,0.002 c 0.06929,0.506896 0.08461,1.011926 0.04687,1.515625 -0.03939,0.513936 -0.133177,1.022529 -0.285156,1.527344 -0.301056,1.000414 -0.806767,1.925574 -1.521485,2.751953 -0.733332,0.845668 -1.631767,1.523718 -2.68164,2.013672 -1.104729,0.513104 -2.296332,0.778463 -3.544922,0.78125 -1.248358,0.0021 -2.438125,-0.258358 -3.542969,-0.767578 -1.049541,-0.484403 -1.949075,-1.161601 -2.683594,-2.00586 -0.715558,-0.82234 -1.220659,-1.743173 -1.521484,-2.742187 -0.129756,-0.432832 -0.231345,-1.136304 -0.234375,-1.304688 l 0,-0.002 c -0.0026,-0.198391 0.06055,-0.796875 0.06055,-0.796875 l 0.318359,-2.558594 -7.052734,6.015625 c -0.275943,0.230891 -0.58255,0.324341 -0.802801,0.324094 -0.220897,-2.47e-4 -0.324097,-0.06161 -0.402343,-0.166015 -0.150877,-0.203858 -0.104093,-0.796815 0.43164,-1.226563 l 0.002,-0.002 c -0.0054,0.0044 0.01028,-0.0088 0.01172,-0.0098 l 0.02344,-0.01758 11.722656,-8.792969 -3.007813,0.0059 c -1.743763,0.0035 -3.497608,0.01022 -5.230468,0.0078 -0.409744,0 -0.492698,-0.377397 -0.470703,-0.505859 0.03454,-0.20173 0.09733,-0.300723 0.228515,-0.398438 0.131182,-0.09771 0.370289,-0.199218 0.791016,-0.199218 l 13.113281,0.0098 -2.171875,-1.777343 c -1.042206,-0.852189 -2.142027,-1.981955 -3.30664,-2.945313 0.0083,-0.0097 -0.01579,0.01574 0.02734,-0.01563 l 0.002,0 c 0.09689,-0.07075 0.270954,-0.09934 0.433594,-0.09961 z"
       style="opacity:0.15;fill:#ffffff;fill-opacity:1;fill-rule:evenodd;stroke:none" />
  </g>
</svg>
