<?xml version="1.0" encoding="UTF-8" standalone="no"?>
<!-- Created with Inkscape (http://www.inkscape.org/) -->

<svg
   xmlns:dc="http://purl.org/dc/elements/1.1/"
   xmlns:cc="http://creativecommons.org/ns#"
   xmlns:rdf="http://www.w3.org/1999/02/22-rdf-syntax-ns#"
   xmlns:svg="http://www.w3.org/2000/svg"
   xmlns="http://www.w3.org/2000/svg"
   xmlns:xlink="http://www.w3.org/1999/xlink"
   xmlns:sodipodi="http://sodipodi.sourceforge.net/DTD/sodipodi-0.dtd"
   xmlns:inkscape="http://www.inkscape.org/namespaces/inkscape"
   version="1.1"
   width="48"
   height="48"
   id="svg4296"
   inkscape:version="0.91 r"
   sodipodi:docname="decibel.svg">
  <sodipodi:namedview
     pagecolor="#ffffff"
     bordercolor="#666666"
     borderopacity="1"
     objecttolerance="10"
     gridtolerance="10"
     guidetolerance="10"
     inkscape:pageopacity="0"
     inkscape:pageshadow="2"
     inkscape:window-width="1600"
     inkscape:window-height="845"
     id="namedview40"
     showgrid="false"
     inkscape:zoom="3.52"
     inkscape:cx="23.34231"
     inkscape:cy="28.400125"
     inkscape:window-x="0"
     inkscape:window-y="30"
     inkscape:window-maximized="1"
     inkscape:current-layer="svg4296"
     showguides="true"
     inkscape:guide-bbox="true">
    <inkscape:grid
       type="xygrid"
       id="grid3867" />
  </sodipodi:namedview>
  <defs
     id="defs4298">
    <linearGradient
       id="linearGradient3895">
      <stop
         offset="0"
         style="stop-color:#ffffff;stop-opacity:1"
         id="stop3897" />
      <stop
         offset="0.05263157"
         style="stop-color:#ffffff;stop-opacity:0.23529412"
         id="stop3899" />
      <stop
         offset="0.95056331"
         style="stop-color:#ffffff;stop-opacity:0.15686275"
         id="stop3901" />
      <stop
         offset="1"
         style="stop-color:#ffffff;stop-opacity:0.39215687"
         id="stop3903" />
    </linearGradient>
    <linearGradient
       x1="20"
       y1="26.000008"
       x2="20"
       y2="13.000008"
       id="linearGradient4183"
       xlink:href="#linearGradient3680-6-6-6-3"
       gradientUnits="userSpaceOnUse"
       gradientTransform="translate(0,0.9999922)" />
    <linearGradient
       id="linearGradient3680-6-6-6-3">
      <stop
         id="stop3682-4-6-1-3"
         style="stop-color:#dcdcdc;stop-opacity:1"
         offset="0" />
      <stop
         id="stop3684-8-5-8-0"
         style="stop-color:#ffffff;stop-opacity:1"
         offset="1" />
    </linearGradient>
    <linearGradient
       x1="23.99999"
       y1="4.999989"
       x2="23.99999"
       y2="43"
       id="linearGradient3982"
       xlink:href="#linearGradient3924-1"
       gradientUnits="userSpaceOnUse"
       gradientTransform="translate(4e-6,1.0000062)" />
    <linearGradient
       id="linearGradient3924-1">
      <stop
         id="stop3926-3"
         style="stop-color:#ffffff;stop-opacity:1"
         offset="0" />
      <stop
         id="stop3928-91"
         style="stop-color:#ffffff;stop-opacity:0.23529412"
         offset="0.06316455" />
      <stop
         id="stop3930-6"
         style="stop-color:#ffffff;stop-opacity:0.15686275"
         offset="0.95056331" />
      <stop
         id="stop3932-6"
         style="stop-color:#ffffff;stop-opacity:0.39215687"
         offset="1" />
    </linearGradient>
    <radialGradient
       cx="4.9929786"
       cy="43.5"
       r="2.5"
       fx="4.9929786"
       fy="43.5"
       id="radialGradient3963"
       xlink:href="#linearGradient3688-166-749"
       gradientUnits="userSpaceOnUse"
       gradientTransform="matrix(2.003784,0,0,1.4,27.98813,-17.4)" />
    <linearGradient
       id="linearGradient3688-166-749">
      <stop
         id="stop2883"
         style="stop-color:#181818;stop-opacity:1"
         offset="0" />
      <stop
         id="stop2885"
         style="stop-color:#181818;stop-opacity:0"
         offset="1" />
    </linearGradient>
    <radialGradient
       cx="4.9929786"
       cy="43.5"
       r="2.5"
       fx="4.9929786"
       fy="43.5"
       id="radialGradient3965"
       xlink:href="#linearGradient3688-464-309"
       gradientUnits="userSpaceOnUse"
       gradientTransform="matrix(2.003784,0,0,1.4,-20.01187,-104.4)" />
    <linearGradient
       id="linearGradient3688-464-309">
      <stop
         id="stop2889"
         style="stop-color:#181818;stop-opacity:1"
         offset="0" />
      <stop
         id="stop2891"
         style="stop-color:#181818;stop-opacity:0"
         offset="1" />
    </linearGradient>
    <linearGradient
       x1="25.058096"
       y1="47.027729"
       x2="25.058096"
       y2="39.999443"
       id="linearGradient3967"
       xlink:href="#linearGradient3702-501-757"
       gradientUnits="userSpaceOnUse" />
    <linearGradient
       id="linearGradient3702-501-757">
      <stop
         id="stop2895"
         style="stop-color:#181818;stop-opacity:0"
         offset="0" />
      <stop
         id="stop2897"
         style="stop-color:#181818;stop-opacity:1"
         offset="0.5" />
      <stop
         id="stop2899"
         style="stop-color:#181818;stop-opacity:0"
         offset="1" />
    </linearGradient>
    <linearGradient
       inkscape:collect="always"
       xlink:href="#linearGradient3680-6-6-6-3"
       id="linearGradient3018"
       gradientUnits="userSpaceOnUse"
       gradientTransform="translate(0,0.9999922)"
       x1="20"
       y1="26.000008"
       x2="20"
       y2="13.000008" />
    <radialGradient
       inkscape:collect="always"
       xlink:href="#linearGradient3688-166-749"
       id="radialGradient3038"
       gradientUnits="userSpaceOnUse"
       gradientTransform="matrix(2.003784,0,0,1.4,27.98813,-17.4)"
       cx="4.9929786"
       cy="43.5"
       fx="4.9929786"
       fy="43.5"
       r="2.5" />
    <radialGradient
       inkscape:collect="always"
       xlink:href="#linearGradient3688-464-309"
       id="radialGradient3040"
       gradientUnits="userSpaceOnUse"
       gradientTransform="matrix(2.003784,0,0,1.4,-20.01187,-104.4)"
       cx="4.9929786"
       cy="43.5"
       fx="4.9929786"
       fy="43.5"
       r="2.5" />
    <linearGradient
       inkscape:collect="always"
       xlink:href="#linearGradient3702-501-757"
       id="linearGradient3042"
       gradientUnits="userSpaceOnUse"
       x1="25.058096"
       y1="47.027729"
       x2="25.058096"
       y2="39.999443" />
    <radialGradient
       inkscape:collect="always"
       xlink:href="#linearGradient2867-449-88-871-390-598-476-591-434-148-57-177-8-3-3-6-4-8-8-8"
       id="radialGradient3031"
       gradientUnits="userSpaceOnUse"
       gradientTransform="matrix(0,9.4975523,-11.65996,0,140.93055,-79.160978)"
       cx="6.7304144"
       cy="9.9571075"
       fx="6.2001843"
       fy="9.9571075"
       r="12.671875" />
    <linearGradient
       id="linearGradient2867-449-88-871-390-598-476-591-434-148-57-177-8-3-3-6-4-8-8-8">
      <stop
         id="stop3750-1-0-7-6-6-1-3-9"
         style="stop-color:#ffcd7d;stop-opacity:1"
         offset="0" />
      <stop
         id="stop3752-3-7-4-0-32-8-923-0"
         style="stop-color:#fc8f36;stop-opacity:1"
         offset="0.26238" />
      <stop
         id="stop3754-1-8-5-2-7-6-7-1"
         style="stop-color:#e23a0e;stop-opacity:1"
         offset="0.704952" />
      <stop
         id="stop3756-1-6-2-6-6-1-96-6"
         style="stop-color:#ac441f;stop-opacity:1"
         offset="1" />
    </linearGradient>
    <linearGradient
       id="linearGradient2867-449-88-871-390-598-476-591-434-148-57-177-8-3-3-6-4-8-8-8-5">
      <stop
         id="stop3750-1-0-7-6-6-1-3-9-3"
         style="stop-color:#505050;stop-opacity:1;"
         offset="0" />
      <stop
         id="stop3752-3-7-4-0-32-8-923-0-7"
         style="stop-color:#2b2b2b;stop-opacity:1;"
         offset="0.26238" />
      <stop
         id="stop3754-1-8-5-2-7-6-7-1-9"
         style="stop-color:#0a0a0a;stop-opacity:1;"
         offset="0.704952" />
      <stop
         id="stop3756-1-6-2-6-6-1-96-6-0"
         style="stop-color:#000000;stop-opacity:1;"
         offset="1" />
    </linearGradient>
    <radialGradient
       r="12.671875"
       fy="9.9571075"
       fx="6.2001843"
       cy="9.9571075"
       cx="6.7304144"
       gradientTransform="matrix(0,9.4975523,-11.65996,0,136.43054,-84.660973)"
       gradientUnits="userSpaceOnUse"
       id="radialGradient3077"
       xlink:href="#linearGradient2867-449-88-871-390-598-476-591-434-148-57-177-8-3-3-6-4-8-8-8-5"
       inkscape:collect="always" />
    <linearGradient
       inkscape:collect="always"
       xlink:href="#linearGradient3680-6-6-6-3-7"
       id="linearGradient3018-5"
       gradientUnits="userSpaceOnUse"
       gradientTransform="translate(0,0.9999922)"
       x1="20"
       y1="26.000008"
       x2="20"
       y2="13.000008" />
    <linearGradient
       id="linearGradient3680-6-6-6-3-7">
      <stop
         id="stop3682-4-6-1-3-7"
         style="stop-color:#dcdcdc;stop-opacity:1"
         offset="0" />
      <stop
         id="stop3684-8-5-8-0-2"
         style="stop-color:#ffffff;stop-opacity:1"
         offset="1" />
    </linearGradient>
    <linearGradient
       y2="13.000008"
       x2="20"
       y1="26.000008"
       x1="20"
       gradientTransform="translate(-20,-24.000008)"
       gradientUnits="userSpaceOnUse"
       id="linearGradient3950"
       xlink:href="#linearGradient3680-6-6-6-3-7"
       inkscape:collect="always" />
    <radialGradient
       r="20.523518"
       fy="13.460493"
       fx="32.007732"
       cy="13.460493"
       cx="32.007732"
       gradientTransform="matrix(0,1.5683454,-1.93939,0,50.10518,-40.531359)"
       gradientUnits="userSpaceOnUse"
       id="radialGradient3054"
       xlink:href="#linearGradient4777"
       inkscape:collect="always" />
    <linearGradient
       id="linearGradient4777">
      <stop
         style="stop-color:#f8c700;stop-opacity:1;"
         offset="0"
         id="stop4779" />
      <stop
         id="stop4787"
         offset="0.33070782"
         style="stop-color:#e8ba00;stop-opacity:1;" />
      <stop
         id="stop4785"
         offset="0.50559151"
         style="stop-color:#dcb000;stop-opacity:1;" />
      <stop
         style="stop-color:#e4b600;stop-opacity:1;"
         offset="1"
         id="stop4781" />
    </linearGradient>
    <radialGradient
       inkscape:collect="always"
       xlink:href="#linearGradient4777"
       id="radialGradient3066"
       gradientUnits="userSpaceOnUse"
       gradientTransform="matrix(0,1.5683454,-1.93939,0,50.10518,-40.531357)"
       cx="32.007732"
       cy="13.460493"
       fx="32.007732"
       fy="13.460493"
       r="20.523518" />
    <linearGradient
       inkscape:collect="always"
       xlink:href="#linearGradient3895"
       id="linearGradient3052"
       gradientUnits="userSpaceOnUse"
       gradientTransform="translate(4e-6,1.0000062)"
       x1="23.99999"
       y1="4.9999938"
       x2="23.99999"
       y2="43" />
    <radialGradient
       inkscape:collect="always"
       xlink:href="#linearGradient2867-449-88-871-390-598-476-591-434-148-57-177-8-3-3-6-4-8-8-8-5"
       id="radialGradient3056"
       gradientUnits="userSpaceOnUse"
       gradientTransform="matrix(0,9.1402449,-11.221301,0,136.56278,-77.887535)"
       cx="7.1183534"
       cy="9.9571075"
       fx="7.1183534"
       fy="9.9571075"
       r="12.671875" />
    <clipPath
       clipPathUnits="userSpaceOnUse"
       id="clipPath3122">
      <rect
         style="opacity:0.9;color:#000000;fill:url(#radialGradient3126);fill-opacity:1;fill-rule:nonzero;stroke:none;stroke-width:0.99999994;marker:none;visibility:visible;display:inline;overflow:visible;enable-background:accumulate"
         id="rect3124"
         y="0.49484247"
         x="8.1653576"
         ry="3.6230967"
         rx="3.6230967"
         height="70.650391"
         width="70.650391" />
    </clipPath>
    <radialGradient
       inkscape:collect="always"
       xlink:href="#linearGradient2867-449-88-871-390-598-476-591-434-148-57-177-8-3-3-6-4-8-8-8-5"
       id="radialGradient3126"
       gradientUnits="userSpaceOnUse"
       gradientTransform="matrix(0,16.557996,-20.32793,0,247.40345,-150.5657)"
       cx="7.1183534"
       cy="9.9571075"
       fx="7.1183534"
       fy="9.9571075"
       r="12.671875" />
    <radialGradient
       inkscape:collect="always"
       xlink:href="#linearGradient4433-2-0"
       id="radialGradient32528"
       gradientUnits="userSpaceOnUse"
       gradientTransform="matrix(0.28118514,-0.19243125,0.21570713,0.31519643,-50.655059,11.044877)"
       cx="161.5"
       cy="161.5"
       fx="161.5"
       fy="161.5"
       r="37" />
    <linearGradient
       id="linearGradient4433-2-0"
       inkscape:collect="always">
      <stop
         id="stop4435-2-1"
         offset="0"
         style="stop-color:#fce94f;stop-opacity:1" />
      <stop
         id="stop4437-2-8"
         offset="1"
         style="stop-color:#c4a000;stop-opacity:1" />
    </linearGradient>
  </defs>
  <metadata
     id="metadata4301">
    <rdf:RDF>
      <cc:Work
         rdf:about="">
        <dc:format>image/svg+xml</dc:format>
        <dc:type
           rdf:resource="http://purl.org/dc/dcmitype/StillImage" />
        <dc:title></dc:title>
      </cc:Work>
    </rdf:RDF>
  </metadata>
  <g
     id="g4275">
    <g
       style="opacity:0.6"
       id="g3712-5"
       transform="matrix(1.1578952,0,0,0.6428571,-3.789476,16.035716)">
      <rect
         style="fill:url(#radialGradient3038);fill-opacity:1;stroke:none"
         id="rect2801-3"
         y="40"
         x="38"
         height="7"
         width="5" />
      <rect
         style="fill:url(#radialGradient3040);fill-opacity:1;stroke:none"
         id="rect3696-6"
         transform="scale(-1,-1)"
         y="-47"
         x="-10"
         height="7"
         width="5" />
      <rect
         style="fill:url(#linearGradient3042);fill-opacity:1;stroke:none"
         id="rect3700-4"
         y="40"
         x="10"
         height="7.0000005"
         width="28" />
    </g>
    <rect
       style="color:#000000;display:inline;overflow:visible;visibility:visible;opacity:1;fill:url(#radialGradient3056);fill-opacity:1;fill-rule:nonzero;stroke:none;stroke-width:0.99999994;marker:none;enable-background:accumulate"
       id="rect5505-21"
       y="5.4999948"
       x="4.5000124"
       ry="2"
       rx="2"
       height="39"
       width="39" />
    <rect
       width="39"
       height="39"
       rx="2"
       ry="2"
       x="4.5000124"
       y="5.4999952"
       id="rect5505-21-3-2"
       style="color:#000000;display:inline;overflow:visible;visibility:visible;opacity:0.7;fill:none;stroke:#000000;stroke-width:1;stroke-linecap:round;stroke-linejoin:round;stroke-miterlimit:4;stroke-dasharray:none;stroke-dashoffset:0;stroke-opacity:1;marker:none;enable-background:accumulate" />
    <rect
       width="37"
       height="37"
       rx="1"
       ry="1"
       x="5.5000124"
       y="6.5000005"
       id="rect6741"
       style="opacity:0.3;fill:none;stroke:url(#linearGradient3052);stroke-width:0.99999994;stroke-linecap:round;stroke-linejoin:round;stroke-miterlimit:4;stroke-dasharray:none;stroke-dashoffset:0;stroke-opacity:1" />
    <rect
       width="38.157757"
       height="38.157757"
       rx="2.0813324"
       ry="2.0813324"
       x="6.6058569"
       y="5.3388529"
       id="rect3264"
       style="color:#000000;display:inline;overflow:visible;visibility:visible;opacity:0.9;fill:url(#radialGradient3266);fill-opacity:1;fill-rule:nonzero;stroke:none;stroke-width:0.99999994;marker:none;enable-background:accumulate" />
    <ellipse
       ry="1.6669631"
       rx="1.7669809"
       cy="13.294096"
       cx="13.335438"
       id="path4697"
       style="opacity:1;fill:#202020;fill-opacity:1;stroke:none;stroke-width:0.93300003;stroke-linecap:round;stroke-linejoin:round;stroke-miterlimit:4;stroke-dasharray:none;stroke-opacity:1" />
    <ellipse
       style="opacity:1;fill:#202020;fill-opacity:1;stroke:none;stroke-width:0.93300003;stroke-linecap:round;stroke-linejoin:round;stroke-miterlimit:4;stroke-dasharray:none;stroke-opacity:1"
       id="ellipse4699"
       cx="34.676418"
       cy="13.238209"
       rx="1.7669809"
       ry="1.6669631" />
    <ellipse
       ry="1.6669631"
       rx="1.7669809"
       cy="34.706955"
       cx="34.676418"
       id="ellipse4701"
       style="opacity:1;fill:#202020;fill-opacity:1;stroke:none;stroke-width:0.93300003;stroke-linecap:round;stroke-linejoin:round;stroke-miterlimit:4;stroke-dasharray:none;stroke-opacity:1" />
    <ellipse
       style="opacity:1;fill:#202020;fill-opacity:1;stroke:none;stroke-width:0.93300003;stroke-linecap:round;stroke-linejoin:round;stroke-miterlimit:4;stroke-dasharray:none;stroke-opacity:1"
       id="ellipse4703"
       cx="13.335731"
       cy="34.668663"
       rx="1.7669809"
       ry="1.6669631" />
    <path
       inkscape:connector-curvature="0"
       id="path3861"
       d="m 24,9 c -2.937009,0 -5.673716,0.848286 -7.98706,2.307129 l -2.396851,0 c -1.278461,0 -2.308962,1.030499 -2.30896,2.30896 l 0,2.396851 C 9.848286,18.326284 9,21.062991 9,24 c 0,2.937009 0.848286,5.673716 2.307129,7.98706 l 0,2.396851 c 0,1.278463 1.030499,2.308961 2.30896,2.30896 l 2.396851,0 C 18.326284,38.151713 21.062991,39 24,39 c 2.937009,0 5.673717,-0.848287 7.98706,-2.307129 l 2.396851,0 c 1.278462,0 2.308961,-1.030497 2.30896,-2.30896 l 0,-2.396851 C 38.151713,29.673716 39,26.937009 39,24 39,21.062991 38.151713,18.326284 36.692871,16.01294 l 0,-2.396851 c 0,-1.278461 -1.030498,-2.308962 -2.30896,-2.30896 l -2.396851,0 C 29.673717,9.848286 26.937009,9 24,9 Z m -10.748291,2.8125 a 1.4397323,1.40625 0 0 1 1.44104,1.40625 1.4397323,1.40625 0 0 1 -1.44104,1.40625 1.4397323,1.40625 0 0 1 -1.439209,-1.40625 1.4397323,1.40625 0 0 1 1.439209,-1.40625 z m 21.5625,0 a 1.4397323,1.40625 0 0 1 1.44104,1.40625 A 1.4397323,1.40625 0 0 1 34.814209,14.625 1.4397323,1.40625 0 0 1 33.375,13.21875 1.4397323,1.40625 0 0 1 34.814209,11.8125 Z m -21.5625,21.5625 a 1.4397323,1.40625 0 0 1 1.44104,1.40625 1.4397323,1.40625 0 0 1 -1.44104,1.40625 A 1.4397323,1.40625 0 0 1 11.8125,34.78125 1.4397323,1.40625 0 0 1 13.251709,33.375 Z m 21.5625,0 a 1.4397323,1.40625 0 0 1 1.44104,1.40625 1.4397323,1.40625 0 0 1 -1.44104,1.40625 A 1.4397323,1.40625 0 0 1 33.375,34.78125 1.4397323,1.40625 0 0 1 34.814209,33.375 Z"
       style="color:#000000;display:inline;overflow:visible;visibility:visible;fill:#414141;fill-opacity:1;fill-rule:nonzero;stroke:none;stroke-width:3;marker:none;enable-background:accumulate" />
    <path
       inkscape:connector-curvature="0"
       sodipodi:nodetypes="csssc"
       id="path3861-6-4"
       d="m 23.999999,12.174713 c -6.530923,0 -11.825286,5.294363 -11.825286,11.825287 0,6.530923 5.294363,11.825287 11.825286,11.825287 6.530924,0 11.825288,-5.294364 11.825288,-11.825287 0,-6.530924 -5.294363,-11.825287 -11.825287,-11.825287 z"
       style="color:#000000;display:inline;overflow:visible;visibility:visible;fill:url(#radialGradient32528);fill-opacity:1;fill-rule:nonzero;stroke:#2e3436;stroke-width:0.31960237;stroke-miterlimit:4;stroke-dasharray:none;marker:none;enable-background:accumulate" />
    <circle
       id="path3861-6-1-6"
       style="color:#000000;display:inline;overflow:visible;visibility:visible;fill:#292929;fill-opacity:1;fill-rule:nonzero;stroke:#202020;stroke-width:0.9375;stroke-miterlimit:4;stroke-dasharray:none;stroke-opacity:1;marker:none;enable-background:accumulate"
       cx="24"
       cy="24"
       r="4.6875" />
    <path
       inkscape:connector-curvature="0"
       id="path4671"
       d="m 13.471792,12.422517 c -0.639783,1.581568 -0.639783,1.581568 -0.639783,1.581568"
       style="fill:none;fill-rule:evenodd;stroke:#292929;stroke-width:0.16678119;stroke-linecap:round;stroke-linejoin:round;stroke-miterlimit:4;stroke-dasharray:none;stroke-opacity:1" />
    <path
       style="fill:none;fill-rule:evenodd;stroke:#292929;stroke-width:0.16678119;stroke-linecap:round;stroke-linejoin:round;stroke-miterlimit:4;stroke-dasharray:none;stroke-opacity:1"
       d="M 13.942685,13.533193 C 12.361117,12.893409 12.361117,12.893409 12.361117,12.893409"
       id="path4673"
       inkscape:connector-curvature="0" />
    <path
       style="fill:none;fill-rule:evenodd;stroke:#292929;stroke-width:0.16678119;stroke-linecap:round;stroke-linejoin:round;stroke-miterlimit:4;stroke-dasharray:none;stroke-opacity:1"
       d="m 34.394447,12.422517 c 0.639784,1.581568 0.639784,1.581568 0.639784,1.581568"
       id="path4681"
       inkscape:connector-curvature="0" />
    <path
       inkscape:connector-curvature="0"
       id="path4683"
       d="m 33.923555,13.533193 c 1.581568,-0.639784 1.581568,-0.639784 1.581568,-0.639784"
       style="fill:none;fill-rule:evenodd;stroke:#292929;stroke-width:0.16678119;stroke-linecap:round;stroke-linejoin:round;stroke-miterlimit:4;stroke-dasharray:none;stroke-opacity:1" />
    <path
       inkscape:connector-curvature="0"
       id="path4687"
       d="m 34.488197,33.98519 c 0.639784,1.581568 0.639784,1.581568 0.639784,1.581568"
       style="fill:none;fill-rule:evenodd;stroke:#292929;stroke-width:0.16678119;stroke-linecap:round;stroke-linejoin:round;stroke-miterlimit:4;stroke-dasharray:none;stroke-opacity:1" />
    <path
       style="fill:none;fill-rule:evenodd;stroke:#292929;stroke-width:0.16678119;stroke-linecap:round;stroke-linejoin:round;stroke-miterlimit:4;stroke-dasharray:none;stroke-opacity:1"
       d="m 34.017305,35.095866 c 1.581568,-0.639784 1.581568,-0.639784 1.581568,-0.639784"
       id="path4689"
       inkscape:connector-curvature="0" />
    <path
       style="fill:none;fill-rule:evenodd;stroke:#292929;stroke-width:0.16678119;stroke-linecap:round;stroke-linejoin:round;stroke-miterlimit:4;stroke-dasharray:none;stroke-opacity:1"
       d="m 13.565481,33.98519 c -0.639784,1.581568 -0.639784,1.581568 -0.639784,1.581568"
       id="path4693"
       inkscape:connector-curvature="0" />
    <path
       inkscape:connector-curvature="0"
       id="path4695"
       d="M 14.036373,35.095866 C 12.454805,34.456082 12.454805,34.456082 12.454805,34.456082"
       style="fill:none;fill-rule:evenodd;stroke:#292929;stroke-width:0.16678119;stroke-linecap:round;stroke-linejoin:round;stroke-miterlimit:4;stroke-dasharray:none;stroke-opacity:1" />
  </g>
</svg>
