<?xml version="1.0" encoding="UTF-8" standalone="no"?>
<!-- Created with Inkscape (http://www.inkscape.org/) -->

<svg
   xmlns:dc="http://purl.org/dc/elements/1.1/"
   xmlns:cc="http://creativecommons.org/ns#"
   xmlns:rdf="http://www.w3.org/1999/02/22-rdf-syntax-ns#"
   xmlns:svg="http://www.w3.org/2000/svg"
   xmlns="http://www.w3.org/2000/svg"
   xmlns:xlink="http://www.w3.org/1999/xlink"
   xmlns:sodipodi="http://sodipodi.sourceforge.net/DTD/sodipodi-0.dtd"
   xmlns:inkscape="http://www.inkscape.org/namespaces/inkscape"
   version="1.1"
   width="48"
   height="48"
   id="svg4951"
   inkscape:version="0.91 r"
   sodipodi:docname="dolphin-emu.svg">
  <sodipodi:namedview
     pagecolor="#ffffff"
     bordercolor="#666666"
     borderopacity="1"
     objecttolerance="10"
     gridtolerance="10"
     guidetolerance="10"
     inkscape:pageopacity="0"
     inkscape:pageshadow="2"
     inkscape:window-width="1600"
     inkscape:window-height="845"
     id="namedview154"
     showgrid="false"
     inkscape:zoom="1"
     inkscape:cx="23.623371"
     inkscape:cy="25.301684"
     inkscape:window-x="0"
     inkscape:window-y="30"
     inkscape:window-maximized="1"
     inkscape:current-layer="svg4951" />
  <defs
     id="defs4953">
    <linearGradient
       x1="38.851257"
       y1="41.608219"
       x2="34.130882"
       y2="37.809635"
       id="linearGradient4761"
       xlink:href="#linearGradient6455-7-3"
       gradientUnits="userSpaceOnUse" />
    <linearGradient
       id="linearGradient6455-7-3">
      <stop
         id="stop6457-5-1"
         style="stop-color:#fbac9b;stop-opacity:1"
         offset="0" />
      <stop
         id="stop6459-8-9"
         style="stop-color:#fcfafc;stop-opacity:1"
         offset="1" />
    </linearGradient>
    <linearGradient
       x1="38.851257"
       y1="41.608219"
       x2="34.130882"
       y2="37.809635"
       id="linearGradient4763"
       xlink:href="#linearGradient6413-0-0"
       gradientUnits="userSpaceOnUse" />
    <linearGradient
       id="linearGradient6413-0-0">
      <stop
         id="stop6415-1-7"
         style="stop-color:#feffff;stop-opacity:1"
         offset="0" />
      <stop
         id="stop6417-4-9"
         style="stop-color:#fe70ca;stop-opacity:1"
         offset="1" />
    </linearGradient>
    <radialGradient
       cx="36.49107"
       cy="39.708927"
       r="3.1589286"
       fx="36.49107"
       fy="39.708927"
       id="radialGradient4765"
       xlink:href="#linearGradient6303-33-0-2"
       gradientUnits="userSpaceOnUse" />
    <linearGradient
       id="linearGradient6303-33-0-2">
      <stop
         id="stop6305-1-0-2"
         style="stop-color:#ffffff;stop-opacity:1"
         offset="0" />
      <stop
         id="stop6307-5-0-6"
         style="stop-color:#ffffff;stop-opacity:0"
         offset="1" />
    </linearGradient>
    <radialGradient
       cx="36.49107"
       cy="39.708927"
       r="3.1589286"
       fx="36.49107"
       fy="39.708927"
       id="radialGradient4767"
       xlink:href="#linearGradient6303-3-2-1"
       gradientUnits="userSpaceOnUse" />
    <linearGradient
       id="linearGradient6303-3-2-1">
      <stop
         id="stop6305-3-0-9"
         style="stop-color:#ffffff;stop-opacity:1"
         offset="0" />
      <stop
         id="stop6307-1-0-1"
         style="stop-color:#ffffff;stop-opacity:0"
         offset="1" />
    </linearGradient>
    <radialGradient
       cx="36.49107"
       cy="39.708927"
       r="3.1589286"
       fx="36.49107"
       fy="39.708927"
       id="radialGradient4769"
       xlink:href="#linearGradient6303-4-8"
       gradientUnits="userSpaceOnUse" />
    <linearGradient
       id="linearGradient6303-4-8">
      <stop
         id="stop6305-33-3"
         style="stop-color:#ffffff;stop-opacity:1"
         offset="0" />
      <stop
         id="stop6307-9-3"
         style="stop-color:#ffffff;stop-opacity:0"
         offset="1" />
    </linearGradient>
    <radialGradient
       cx="32.372566"
       cy="31.405056"
       r="3.857446"
       fx="32.372566"
       fy="31.405056"
       id="radialGradient4771"
       xlink:href="#linearGradient6088-6-1-0"
       gradientUnits="userSpaceOnUse"
       gradientTransform="matrix(2.0664963,0,0,2.0664963,-34.525221,-33.493375)" />
    <linearGradient
       id="linearGradient6088-6-1-0">
      <stop
         id="stop6090-2-0-4"
         style="stop-color:#ff54d2;stop-opacity:0"
         offset="0" />
      <stop
         id="stop6257-4-6-1"
         style="stop-color:#ff54d2;stop-opacity:0"
         offset="0.32368398" />
      <stop
         id="stop6255-3-6-7"
         style="stop-color:#ff54d2;stop-opacity:0.2521739"
         offset="0.56140333" />
      <stop
         id="stop6092-9-6-8"
         style="stop-color:#ff54d2;stop-opacity:0.47826087"
         offset="1" />
    </linearGradient>
    <radialGradient
       cx="32.372566"
       cy="31.405056"
       r="3.857446"
       fx="32.372566"
       fy="31.405056"
       id="radialGradient4773"
       xlink:href="#linearGradient6191-8-3-4"
       gradientUnits="userSpaceOnUse"
       gradientTransform="matrix(2.0676498,0.55402509,-0.5348486,1.9960821,-17.765612,-49.217228)" />
    <linearGradient
       id="linearGradient6191-8-3-4">
      <stop
         id="stop6193-75-7-6"
         style="stop-color:#ffffff;stop-opacity:0"
         offset="0" />
      <stop
         id="stop6197-3-4-1"
         style="stop-color:#ffffff;stop-opacity:0"
         offset="0.40531859" />
      <stop
         id="stop6195-7-2-5"
         style="stop-color:#ffffff;stop-opacity:0.47826087"
         offset="1" />
    </linearGradient>
    <radialGradient
       cx="32.372566"
       cy="31.405056"
       r="3.857446"
       fx="32.372566"
       fy="31.405056"
       id="radialGradient4775"
       xlink:href="#linearGradient6191-7-9-4"
       gradientUnits="userSpaceOnUse"
       gradientTransform="matrix(2.0676498,0.55402509,-0.5348486,1.9960821,-17.765612,-49.217228)" />
    <linearGradient
       id="linearGradient6191-7-9-4">
      <stop
         id="stop6193-7-3-6"
         style="stop-color:#ffffff;stop-opacity:0"
         offset="0" />
      <stop
         id="stop6197-2-2-0"
         style="stop-color:#ffffff;stop-opacity:0"
         offset="0.40531859" />
      <stop
         id="stop6195-2-1-9"
         style="stop-color:#ffffff;stop-opacity:0.47826087"
         offset="1" />
    </linearGradient>
    <radialGradient
       cx="32.372566"
       cy="31.405056"
       r="3.857446"
       fx="32.372566"
       fy="31.405056"
       id="radialGradient4777"
       xlink:href="#linearGradient6191-9-9"
       gradientUnits="userSpaceOnUse"
       gradientTransform="matrix(2.0676498,0.55402509,-0.5348486,1.9960821,-17.765612,-49.217228)" />
    <linearGradient
       id="linearGradient6191-9-9">
      <stop
         id="stop6193-8-1"
         style="stop-color:#ffffff;stop-opacity:0"
         offset="0" />
      <stop
         id="stop6197-8-8"
         style="stop-color:#ffffff;stop-opacity:0"
         offset="0.40531859" />
      <stop
         id="stop6195-9-3"
         style="stop-color:#ffffff;stop-opacity:0.47826087"
         offset="1" />
    </linearGradient>
    <linearGradient
       x1="68.313301"
       y1="52.925316"
       x2="68.313301"
       y2="65.922028"
       id="linearGradient4730"
       xlink:href="#linearGradient3990-3-1-7"
       gradientUnits="userSpaceOnUse"
       gradientTransform="matrix(0.11534799,0,0,0.0865106,16.28139,17.444973)" />
    <linearGradient
       id="linearGradient3990-3-1-7">
      <stop
         id="stop3992-0-0-1"
         style="stop-color:#ffffff;stop-opacity:1"
         offset="0" />
      <stop
         id="stop3994-2-1-8"
         style="stop-color:#ffffff;stop-opacity:0"
         offset="1" />
    </linearGradient>
    <linearGradient
       x1="92.696327"
       y1="16.554602"
       x2="92.696327"
       y2="48.983677"
       id="linearGradient4779"
       xlink:href="#linearGradient4316-4-6-6-4"
       gradientUnits="userSpaceOnUse" />
    <linearGradient
       id="linearGradient4316-4-6-6-4">
      <stop
         id="stop4318-4-4-6-5"
         style="stop-color:#ffffff;stop-opacity:1"
         offset="0" />
      <stop
         id="stop4320-2-2-6-59"
         style="stop-color:#ffffff;stop-opacity:0.23529412"
         offset="0.33799788" />
      <stop
         id="stop4322-4-5-5-0"
         style="stop-color:#ffffff;stop-opacity:0.15686275"
         offset="0.61996669" />
      <stop
         id="stop4324-4-1-5-5"
         style="stop-color:#ffffff;stop-opacity:0.39215687"
         offset="1" />
    </linearGradient>
    <radialGradient
       cx="32.372566"
       cy="31.405056"
       r="3.857446"
       fx="32.372566"
       fy="31.405056"
       id="radialGradient4781"
       xlink:href="#linearGradient6088-74-4"
       gradientUnits="userSpaceOnUse"
       gradientTransform="matrix(2.0664963,0,0,2.0664963,-34.525221,-33.493375)" />
    <linearGradient
       id="linearGradient6088-74-4">
      <stop
         id="stop6090-5-66"
         style="stop-color:#ff54d2;stop-opacity:0"
         offset="0" />
      <stop
         id="stop6257-5-4"
         style="stop-color:#f62b68;stop-opacity:1"
         offset="0.32368398" />
      <stop
         id="stop6255-6-7"
         style="stop-color:#ff0105;stop-opacity:1"
         offset="0.56140333" />
      <stop
         id="stop6092-0-22"
         style="stop-color:#ff54d2;stop-opacity:0.47826087"
         offset="1" />
    </linearGradient>
    <linearGradient
       x1="92.696327"
       y1="16.554602"
       x2="92.696327"
       y2="48.983677"
       id="linearGradient4783"
       xlink:href="#linearGradient4316-4-0-7"
       gradientUnits="userSpaceOnUse" />
    <linearGradient
       id="linearGradient4316-4-0-7">
      <stop
         id="stop4318-4-5-3"
         style="stop-color:#ffffff;stop-opacity:1"
         offset="0" />
      <stop
         id="stop4320-2-9-4"
         style="stop-color:#ffffff;stop-opacity:0.23529412"
         offset="0.33799788" />
      <stop
         id="stop4322-4-1-3"
         style="stop-color:#ffffff;stop-opacity:0.15686275"
         offset="0.61996669" />
      <stop
         id="stop4324-4-8-66"
         style="stop-color:#ffffff;stop-opacity:0.39215687"
         offset="1" />
    </linearGradient>
    <radialGradient
       cx="95.838364"
       cy="95.388451"
       r="9.4981718"
       fx="95.838364"
       fy="95.388451"
       id="radialGradient4738"
       xlink:href="#linearGradient4278-3-5"
       gradientUnits="userSpaceOnUse"
       gradientTransform="matrix(0.40504519,-6.0397343e-8,5.6748136e-8,0.38056881,-14.881685,-12.451151)" />
    <linearGradient
       id="linearGradient4278-3-5">
      <stop
         id="stop4280-6-90"
         style="stop-color:#000000;stop-opacity:0"
         offset="0" />
      <stop
         id="stop4286-1-9"
         style="stop-color:#000000;stop-opacity:0"
         offset="0.5" />
      <stop
         id="stop4282-24-4"
         style="stop-color:#000000;stop-opacity:1"
         offset="1" />
    </linearGradient>
    <radialGradient
       cx="23.896"
       cy="3.99"
       r="20.396999"
       id="radialGradient4741"
       xlink:href="#linearGradient2867-449-88-871-390-598-476-591-434-148-57-177-691-4-22"
       gradientUnits="userSpaceOnUse"
       gradientTransform="matrix(0,0.41038782,-0.54170722,0,26.16143,10.43124)" />
    <linearGradient
       id="linearGradient2867-449-88-871-390-598-476-591-434-148-57-177-691-4-22">
      <stop
         id="stop7191-4-6"
         style="stop-color:#612f91;stop-opacity:1"
         offset="0" />
      <stop
         id="stop7197-2-8"
         style="stop-color:#1a4aa2;stop-opacity:1"
         offset="1" />
    </linearGradient>
    <linearGradient
       x1="7.0776"
       y1="3.0816"
       x2="7.0776"
       y2="45.368999"
       id="linearGradient4743"
       xlink:href="#linearGradient3087-408-5-3"
       gradientUnits="userSpaceOnUse"
       gradientTransform="matrix(0.17195169,0,0,0.17195091,19.87316,19.873055)" />
    <linearGradient
       x1="7.0776"
       y1="3.0816"
       x2="7.0776"
       y2="45.368999"
       id="linearGradient3087-408-5-3"
       gradientUnits="userSpaceOnUse"
       gradientTransform="matrix(0.22110724,0,0,0.22110728,6.6934256,6.693263)">
      <stop
         id="stop7201-5-71"
         style="stop-color:#170418;stop-opacity:1"
         offset="0" />
      <stop
         id="stop7203-2-8"
         style="stop-color:#50386b;stop-opacity:1"
         offset="1" />
    </linearGradient>
    <radialGradient
       cx="31.999998"
       cy="21.239277"
       r="10.498171"
       fx="31.999998"
       fy="21.239277"
       id="radialGradient4748"
       xlink:href="#linearGradient6042-1-7"
       gradientUnits="userSpaceOnUse"
       gradientTransform="matrix(0,1.4370509,-3.3103161,0,94.30873,-29.673199)" />
    <linearGradient
       id="linearGradient6042-1-7">
      <stop
         id="stop6044-9-6"
         style="stop-color:#07132d;stop-opacity:1"
         offset="0" />
      <stop
         id="stop6046-9-5"
         style="stop-color:#425479;stop-opacity:1"
         offset="1" />
    </linearGradient>
    <radialGradient
       cx="91.349998"
       cy="16.447752"
       r="15.639286"
       fx="91.349998"
       fy="16.447752"
       id="radialGradient4785"
       xlink:href="#linearGradient4507-6-5"
       gradientUnits="userSpaceOnUse"
       gradientTransform="matrix(0,1.9804002,-1.9804002,0,123.92313,-164.4618)" />
    <linearGradient
       id="linearGradient4507-6-5">
      <stop
         id="stop4509-3-8"
         style="stop-color:#2d3955;stop-opacity:1"
         offset="0" />
      <stop
         id="stop5959-4-45"
         style="stop-color:#2b3853;stop-opacity:1"
         offset="0.72468865" />
      <stop
         id="stop5961-1-7"
         style="stop-color:#192640;stop-opacity:1"
         offset="0.75" />
      <stop
         id="stop4511-1-0"
         style="stop-color:#08142e;stop-opacity:1"
         offset="1" />
    </linearGradient>
    <linearGradient
       x1="92.696327"
       y1="16.554602"
       x2="92.696327"
       y2="48.983677"
       id="linearGradient4787"
       xlink:href="#linearGradient4316-5-3"
       gradientUnits="userSpaceOnUse" />
    <linearGradient
       id="linearGradient4316-5-3">
      <stop
         id="stop4318-1-6"
         style="stop-color:#ffffff;stop-opacity:1"
         offset="0" />
      <stop
         id="stop4320-9-8"
         style="stop-color:#ffffff;stop-opacity:0.23529412"
         offset="0.33799788" />
      <stop
         id="stop4322-42-31"
         style="stop-color:#ffffff;stop-opacity:0.15686275"
         offset="0.61996669" />
      <stop
         id="stop4324-9-9"
         style="stop-color:#ffffff;stop-opacity:0.39215687"
         offset="1" />
    </linearGradient>
    <linearGradient
       x1="91.566116"
       y1="16.542858"
       x2="91.566116"
       y2="48.631081"
       id="linearGradient4789"
       xlink:href="#linearGradient4220-7-2"
       gradientUnits="userSpaceOnUse" />
    <linearGradient
       id="linearGradient4220-7-2">
      <stop
         id="stop4222-7-5"
         style="stop-color:#7a8498;stop-opacity:1"
         offset="0" />
      <stop
         id="stop4224-0-5"
         style="stop-color:#34405c;stop-opacity:1"
         offset="1" />
    </linearGradient>
    <linearGradient
       x1="51.199997"
       y1="8.1142893"
       x2="51.199997"
       y2="56.114563"
       id="linearGradient4756"
       xlink:href="#linearGradient4164-9"
       gradientUnits="userSpaceOnUse"
       gradientTransform="matrix(0.66665978,0,0,0.66665668,-10.209335,2.6672249)" />
    <linearGradient
       id="linearGradient4164-9">
      <stop
         id="stop4166-3"
         style="stop-color:#b6b6b6;stop-opacity:1"
         offset="0" />
      <stop
         id="stop4216-6"
         style="stop-color:#a4a4a4;stop-opacity:1"
         offset="0.33095336" />
      <stop
         id="stop4168-0"
         style="stop-color:#c5c5c5;stop-opacity:1"
         offset="1" />
    </linearGradient>
    <linearGradient
       x1="71.204407"
       y1="15.369057"
       x2="71.204407"
       y2="40.495617"
       id="linearGradient3177"
       xlink:href="#linearGradient4806-2"
       gradientUnits="userSpaceOnUse"
       gradientTransform="matrix(1.6169806,0,0,1.6169806,-92.707374,-21.060237)" />
    <linearGradient
       id="linearGradient4806-2">
      <stop
         id="stop4808-4"
         style="stop-color:#ffffff;stop-opacity:1"
         offset="0" />
      <stop
         id="stop4810-0"
         style="stop-color:#ffffff;stop-opacity:0.23529412"
         offset="0.42447853" />
      <stop
         id="stop4812-8"
         style="stop-color:#ffffff;stop-opacity:0.15686275"
         offset="0.82089913" />
      <stop
         id="stop4814-0"
         style="stop-color:#ffffff;stop-opacity:0.39215687"
         offset="1" />
    </linearGradient>
    <radialGradient
       cx="23.896"
       cy="3.99"
       r="20.396999"
       fx="23.896"
       fy="3.99"
       id="radialGradient4201"
       xlink:href="#radialGradient3093-0-3-6-6"
       gradientUnits="userSpaceOnUse"
       gradientTransform="matrix(0,2.8885219,-3.8127977,0,39.21344,-65.949504)" />
    <radialGradient
       cx="23.896"
       cy="3.99"
       r="20.396999"
       id="radialGradient3093-0-3-6-6"
       gradientUnits="userSpaceOnUse"
       gradientTransform="matrix(0,1.2316483,-1.625754,0,18.486966,-28.721977)">
      <stop
         id="stop3244-9-33-7-0-9"
         style="stop-color:#ffffff;stop-opacity:1"
         offset="0" />
      <stop
         id="stop3246-3-5-0-8-5"
         style="stop-color:#dddddd;stop-opacity:1"
         offset="0.26238" />
      <stop
         id="stop3248-1-7-8-8-1"
         style="stop-color:#abacae;stop-opacity:1"
         offset="0.66093999" />
      <stop
         id="stop3250-9-3-0-5-1"
         style="stop-color:#89898b;stop-opacity:1"
         offset="1" />
    </radialGradient>
    <linearGradient
       id="linearGradient3820-7-2-1">
      <stop
         id="stop3822-2-6-3"
         style="stop-color:#3d3d3d;stop-opacity:1"
         offset="0" />
      <stop
         id="stop3864-8-7-7"
         style="stop-color:#686868;stop-opacity:0.49803922"
         offset="0.5" />
      <stop
         id="stop3824-1-2-5"
         style="stop-color:#686868;stop-opacity:0"
         offset="1" />
    </linearGradient>
    <radialGradient
       cx="99.157013"
       cy="186.17059"
       r="62.769119"
       fx="99.157013"
       fy="186.17059"
       id="radialGradient4949"
       xlink:href="#linearGradient3820-7-2-1"
       gradientUnits="userSpaceOnUse"
       gradientTransform="matrix(0.27083381,0,0,0.08762273,-2.85507,25.187228)" />
    <linearGradient
       id="linearGradient8838">
      <stop
         offset="0"
         style="stop-color:#000000;stop-opacity:1"
         id="stop8840" />
      <stop
         offset="1"
         style="stop-color:#000000;stop-opacity:0"
         id="stop8842" />
    </linearGradient>
    <linearGradient
       id="linearGradient4422">
      <stop
         id="stop4424"
         style="stop-color:#e4e4e4;stop-opacity:1;"
         offset="0" />
      <stop
         id="stop4426"
         style="stop-color:#d2d2d3;stop-opacity:1;"
         offset="0.37188172" />
      <stop
         id="stop4428"
         style="stop-color:#ababac;stop-opacity:1;"
         offset="0.81009638" />
      <stop
         id="stop4430"
         style="stop-color:#888889;stop-opacity:1;"
         offset="1" />
    </linearGradient>
    <linearGradient
       id="linearGradient5873">
      <stop
         style="stop-color:#8b8b8b;stop-opacity:1;"
         offset="0"
         id="stop5875" />
      <stop
         style="stop-color:#c0c0c0;stop-opacity:1;"
         offset="1"
         id="stop5877" />
    </linearGradient>
    <linearGradient
       id="linearGradient3162">
      <stop
         style="stop-color:#f9f9f9;stop-opacity:1;"
         offset="0"
         id="stop3164" />
      <stop
         style="stop-color:#d4d4d4;stop-opacity:1"
         offset="1"
         id="stop3166" />
    </linearGradient>
    <linearGradient
       id="linearGradient4436">
      <stop
         style="stop-color:#efefef;stop-opacity:1;"
         offset="0"
         id="stop4438" />
      <stop
         style="stop-color:#ffffff;stop-opacity:1;"
         offset="1"
         id="stop4440" />
    </linearGradient>
    <linearGradient
       id="linearGradient4965"
       inkscape:collect="always">
      <stop
         id="stop4967"
         offset="0"
         style="stop-color:#000000;stop-opacity:1;" />
      <stop
         id="stop4969"
         offset="1"
         style="stop-color:#000000;stop-opacity:0" />
    </linearGradient>
    <linearGradient
       inkscape:collect="always"
       xlink:href="#linearGradient4644-104-3-3-6-2-3-4"
       id="linearGradient10060"
       gradientUnits="userSpaceOnUse"
       gradientTransform="matrix(1.3333333,0,0,1.1052632,-8.0000008,-2.526316)"
       x1="24.25"
       y1="29.5"
       x2="24.25"
       y2="18.454639" />
    <linearGradient
       id="linearGradient4644-104-3-3-6-2-3-4">
      <stop
         offset="0"
         style="stop-color:#ff4035;stop-opacity:1;"
         id="stop5237-6-5-1-7-5-2" />
      <stop
         offset="1"
         style="stop-color:#dc311a;stop-opacity:1;"
         id="stop5239-4-6-4-8-4-8" />
    </linearGradient>
    <radialGradient
       inkscape:collect="always"
       xlink:href="#linearGradient3820-7-2-1"
       id="radialGradient3302"
       gradientUnits="userSpaceOnUse"
       gradientTransform="matrix(0.27083381,0,0,0.08762273,-2.85507,25.187228)"
       cx="99.157013"
       cy="186.17059"
       fx="99.157013"
       fy="186.17059"
       r="62.769119" />
    <radialGradient
       inkscape:collect="always"
       xlink:href="#linearGradient4422"
       id="radialGradient3392"
       gradientUnits="userSpaceOnUse"
       gradientTransform="matrix(0,2.4988347,-2.6434689,-6.8014435e-8,104.09953,-11.248822)"
       cx="5.3215203"
       cy="8.4497671"
       fx="5.3215203"
       fy="8.4497671"
       r="19.99999" />
    <linearGradient
       inkscape:collect="always"
       xlink:href="#linearGradient5873"
       id="linearGradient3394"
       gradientUnits="userSpaceOnUse"
       gradientTransform="translate(57.762712,0.93164569)"
       x1="23.75"
       y1="44.25"
       x2="24.000118"
       y2="1.1171311" />
    <radialGradient
       inkscape:collect="always"
       xlink:href="#linearGradient3162"
       id="radialGradient3396"
       gradientUnits="userSpaceOnUse"
       gradientTransform="matrix(9.7678889e-8,2.0000001,-2.7333333,1.3349447e-7,67.82222,-34.333337)"
       cx="25"
       cy="15.666667"
       fx="25"
       fy="15.666667"
       r="10" />
    <linearGradient
       inkscape:collect="always"
       xlink:href="#linearGradient4436"
       id="linearGradient3398"
       gradientUnits="userSpaceOnUse"
       x1="24.777349"
       y1="24.616444"
       x2="24.777349"
       y2="31.493454" />
    <linearGradient
       inkscape:collect="always"
       xlink:href="#linearGradient4965"
       id="linearGradient3400"
       gradientUnits="userSpaceOnUse"
       x1="24.777349"
       y1="18.226145"
       x2="24.777349"
       y2="22.31111" />
    <linearGradient
       inkscape:collect="always"
       xlink:href="#linearGradient4644-104-3-3-6-2-3-4"
       id="linearGradient3402"
       gradientUnits="userSpaceOnUse"
       gradientTransform="matrix(1.3333333,0,0,1.1052632,49.762711,-1.5946703)"
       x1="24.25"
       y1="29.5"
       x2="24.25"
       y2="18.454639" />
    <radialGradient
       inkscape:collect="always"
       xlink:href="#linearGradient3765"
       id="radialGradient3037"
       gradientUnits="userSpaceOnUse"
       gradientTransform="matrix(-1.7922484,4.7450628e-8,-3.529013e-8,-1.3329366,41.58142,-41.248313)"
       cx="14.891734"
       cy="-17.680855"
       fx="14.891734"
       fy="-17.680855"
       r="25.570608" />
    <linearGradient
       id="linearGradient3765">
      <stop
         style="stop-color:#ffffff;stop-opacity:1;"
         offset="0"
         id="stop3767" />
      <stop
         style="stop-color:#e4e4e4;stop-opacity:1;"
         offset="1"
         id="stop3769" />
    </linearGradient>
    <linearGradient
       inkscape:collect="always"
       xlink:href="#linearGradient3775"
       id="linearGradient3039"
       gradientUnits="userSpaceOnUse"
       x1="15.123692"
       y1="-18.801283"
       x2="15.123692"
       y2="32.56842" />
    <linearGradient
       id="linearGradient3775">
      <stop
         style="stop-color:#ffffff;stop-opacity:0.58823532;"
         offset="0"
         id="stop3777" />
      <stop
         style="stop-color:#ffffff;stop-opacity:1;"
         offset="1"
         id="stop3779" />
    </linearGradient>
    <linearGradient
       inkscape:collect="always"
       xlink:href="#linearGradient3772-6"
       id="linearGradient3041"
       gradientUnits="userSpaceOnUse"
       gradientTransform="matrix(1.4102564,0,0,1.4102564,1.4050412,-4.5399056)"
       x1="27.096104"
       y1="10.880992"
       x2="27.096104"
       y2="39.150768" />
    <linearGradient
       id="linearGradient3772-6">
      <stop
         id="stop3774-6"
         style="stop-color:#b4b4b4;stop-opacity:1"
         offset="0" />
      <stop
         id="stop3776-4"
         style="stop-color:#969696;stop-opacity:1"
         offset="1" />
    </linearGradient>
    <linearGradient
       inkscape:collect="always"
       xlink:href="#linearGradient3063"
       id="linearGradient3036"
       gradientUnits="userSpaceOnUse"
       x1="532.82074"
       y1="694.12231"
       x2="532.82074"
       y2="263.72833" />
    <linearGradient
       inkscape:collect="always"
       id="linearGradient3063">
      <stop
         style="stop-color:#912420;stop-opacity:1"
         offset="0"
         id="stop3065" />
      <stop
         style="stop-color:#cf332d;stop-opacity:1"
         offset="1"
         id="stop3067" />
    </linearGradient>
    <linearGradient
       inkscape:collect="always"
       xlink:href="#linearGradient3014"
       id="linearGradient3038"
       gradientUnits="userSpaceOnUse"
       x1="543.32074"
       y1="441.51886"
       x2="543.32074"
       y2="817.55579" />
    <linearGradient
       id="linearGradient3014">
      <stop
         id="stop3016"
         style="stop-color:#ffffff;stop-opacity:1"
         offset="0" />
      <stop
         id="stop3018"
         style="stop-color:#b3b3b3;stop-opacity:1"
         offset="1" />
    </linearGradient>
    <linearGradient
       y2="817.55579"
       x2="543.32074"
       y1="441.51886"
       x1="543.32074"
       gradientUnits="userSpaceOnUse"
       id="linearGradient3065"
       xlink:href="#linearGradient3014"
       inkscape:collect="always" />
    <linearGradient
       inkscape:collect="always"
       xlink:href="#linearGradient3014"
       id="linearGradient3189"
       gradientUnits="userSpaceOnUse"
       x1="543.32074"
       y1="441.51886"
       x2="543.32074"
       y2="817.55579"
       gradientTransform="matrix(0.03802351,0,0,0.03802351,-53.244551,8.2907021)" />
    <linearGradient
       inkscape:collect="always"
       xlink:href="#linearGradient3063"
       id="linearGradient3193"
       gradientUnits="userSpaceOnUse"
       x1="532.82074"
       y1="694.12231"
       x2="532.82074"
       y2="263.72833"
       gradientTransform="matrix(0.03802351,0,0,0.03802351,-53.244551,8.2907021)" />
    <linearGradient
       inkscape:collect="always"
       xlink:href="#linearGradient3772-6"
       id="linearGradient3205"
       gradientUnits="userSpaceOnUse"
       gradientTransform="matrix(1.4102564,0,0,1.4102564,1.4050412,-4.5399056)"
       x1="27.096104"
       y1="10.880992"
       x2="27.096104"
       y2="39.150768" />
    <linearGradient
       inkscape:collect="always"
       xlink:href="#linearGradient3063"
       id="linearGradient3213"
       gradientUnits="userSpaceOnUse"
       gradientTransform="matrix(0.03802351,0,0,0.03802351,-53.244551,8.2907021)"
       x1="532.82074"
       y1="694.12231"
       x2="532.82074"
       y2="263.72833" />
    <linearGradient
       inkscape:collect="always"
       xlink:href="#linearGradient3014"
       id="linearGradient3215"
       gradientUnits="userSpaceOnUse"
       gradientTransform="matrix(0.03802351,0,0,0.03802351,-53.244551,8.2907021)"
       x1="543.32074"
       y1="441.51886"
       x2="543.32074"
       y2="817.55579" />
    <clipPath
       id="clipPath-439311876">
      <g
         transform="translate(0,-1004.3622)"
         id="g17">
        <path
           style="fill:#1890d0"
           inkscape:connector-curvature="0"
           d="m -24,13 c 0,1.105 -0.672,2 -1.5,2 -0.828,0 -1.5,-0.895 -1.5,-2 0,-1.105 0.672,-2 1.5,-2 0.828,0 1.5,0.895 1.5,2 z"
           transform="matrix(15.333333,0,0,11.5,414.99999,878.8622)"
           id="path19-2" />
      </g>
    </clipPath>
    <radialGradient
       cx="16.357241"
       cy="27.468206"
       r="11.05701"
       fx="16.357241"
       fy="27.468206"
       id="R8"
       xlink:href="#G4"
       gradientUnits="userSpaceOnUse"
       gradientTransform="matrix(0.57556149,0.00470988,-0.00489794,0.55582035,15.857263,5.9219358)" />
    <linearGradient
       id="G4">
      <stop
         id="s7"
         style="stop-color:#d50f0f;stop-opacity:1"
         offset="0" />
      <stop
         id="s8"
         style="stop-color:#860000;stop-opacity:1"
         offset="1" />
    </linearGradient>
    <linearGradient
       x1="25.127941"
       y1="38.802361"
       x2="7.2131085"
       y2="18.547888"
       id="G7"
       xlink:href="#G4"
       gradientUnits="userSpaceOnUse"
       gradientTransform="matrix(0.53102839,0.02299797,-0.02342469,0.53311751,16.977822,6.273192)" />
    <radialGradient
       cx="33.921108"
       cy="32.026119"
       r="12.011442"
       fx="33.921108"
       fy="32.026119"
       id="R1"
       xlink:href="#G4"
       gradientUnits="userSpaceOnUse"
       gradientTransform="matrix(0.56825275,-0.00690018,0.00644153,0.55974692,14.806016,6.2266751)" />
    <linearGradient
       x1="42.550949"
       y1="46.025867"
       x2="22.733898"
       y2="23.322678"
       id="G6"
       xlink:href="#G4"
       gradientUnits="userSpaceOnUse"
       gradientTransform="matrix(0.51666118,0.02237575,-0.02287894,0.52069679,17.275373,6.5629219)" />
    <radialGradient
       cx="29.495701"
       cy="-3.5973825"
       r="9.750001"
       fx="29.495701"
       fy="-3.5973825"
       id="R9"
       xlink:href="#G1"
       gradientUnits="userSpaceOnUse"
       gradientTransform="matrix(-0.7988298,0.07667792,-0.03200596,-0.3334379,53.946913,1.6114579)" />
    <linearGradient
       id="G1">
      <stop
         id="s1"
         style="stop-color:#59a40f;stop-opacity:1"
         offset="0" />
      <stop
         id="s2"
         style="stop-color:#306102;stop-opacity:1"
         offset="1" />
    </linearGradient>
    <radialGradient
       cx="41.247238"
       cy="11.364712"
       r="4.9179087"
       fx="41.771999"
       fy="11.680827"
       id="R3"
       xlink:href="#G1"
       gradientUnits="userSpaceOnUse"
       gradientTransform="matrix(0.3650513,-0.5609361,1.4421477,0.9385381,10.519018,23.382758)" />
    <clipPath
       id="clipPath-909443126">
      <g
         transform="translate(0,-1004.3622)"
         id="g17-4">
        <path
           style="fill:#1890d0"
           inkscape:connector-curvature="0"
           d="m -24,13 c 0,1.105 -0.672,2 -1.5,2 -0.828,0 -1.5,-0.895 -1.5,-2 0,-1.105 0.672,-2 1.5,-2 0.828,0 1.5,0.895 1.5,2 z"
           transform="matrix(15.333333,0,0,11.5,414.99999,878.8622)"
           id="path19" />
      </g>
    </clipPath>
  </defs>
  <metadata
     id="metadata4956">
    <rdf:RDF>
      <cc:Work
         rdf:about="">
        <dc:format>image/svg+xml</dc:format>
        <dc:type
           rdf:resource="http://purl.org/dc/dcmitype/StillImage" />
        <dc:title />
      </cc:Work>
    </rdf:RDF>
  </metadata>
  <path
     style="fill:url(#radialGradient3302);fill-opacity:1;stroke:none"
     id="path3818-0-5"
     inkscape:connector-curvature="0"
     d="m 41,41.5 a 17,5.4999999 0 0 1 -34,0 17,5.4999999 0 1 1 34,0 z" />
  <path
     sodipodi:type="arc"
     style="fill:url(#radialGradient3037);fill-opacity:1;stroke:none"
     id="path2985"
     sodipodi:cx="15.210103"
     sodipodi:cy="6.8335247"
     sodipodi:rx="25.570608"
     sodipodi:ry="25.570608"
     d="m 40.780711,6.8335247 a 25.570608,25.570608 0 1 1 -51.141216,0 25.570608,25.570608 0 1 1 51.141216,0 z"
     transform="matrix(0.80270962,0,0,0.80270962,11.790704,18.514669)" />
  <path
     transform="matrix(0.80270962,0,0,0.80270962,11.790704,18.514669)"
     d="m 40.780711,6.8335247 a 25.570608,25.570608 0 1 1 -51.141216,0 25.570608,25.570608 0 1 1 51.141216,0 z"
     sodipodi:ry="25.570608"
     sodipodi:rx="25.570608"
     sodipodi:cy="6.8335247"
     sodipodi:cx="15.210103"
     id="path3755"
     style="fill:none;stroke:#828282;stroke-width:1.18156528;stroke-miterlimit:4;stroke-opacity:0.58823529;stroke-dasharray:none"
     sodipodi:type="arc" />
  <path
     sodipodi:type="arc"
     style="fill:none;stroke:url(#linearGradient3039);stroke-width:1.22041357;stroke-miterlimit:4;stroke-opacity:0.58823529;stroke-dasharray:none"
     id="path3773"
     sodipodi:cx="15.210103"
     sodipodi:cy="6.8335247"
     sodipodi:rx="25.570608"
     sodipodi:ry="25.570608"
     d="m 40.780711,6.8335247 a 25.570608,25.570608 0 1 1 -51.141216,0 25.570608,25.570608 0 1 1 51.141216,0 z"
     transform="matrix(0.76417715,0,0,0.76417715,12.376786,18.777865)" />
  <path
     inkscape:connector-curvature="0"
     d="m -55.203064,32.032276 c -0.689481,-0.08373 -1.322804,-0.489404 -1.627955,-1.042784 -0.311094,-0.564157 -0.339476,-0.859635 -0.321166,-3.343585 0.01418,-1.924021 0.01914,-2.044632 0.0954,-2.320158 0.181784,-0.656771 0.533767,-1.10472 1.080209,-1.374722 0.74994,-0.370553 1.558169,-0.322191 2.265808,0.135578 0.450474,0.29141 0.724234,0.712803 0.870317,1.339661 0.0647,0.277648 0.07089,0.489966 0.07089,2.433504 0,2.362617 -0.01149,2.499149 -0.253374,3.011101 -0.233046,0.493243 -0.759978,0.927831 -1.309857,1.080308 -0.241982,0.0671 -0.662699,0.106304 -0.870273,0.0811 z m 0.604195,-1.543116 c 0.264102,-0.201441 0.265965,-0.217997 0.280602,-2.494268 0.01137,-1.767864 0.005,-2.068287 -0.04862,-2.309502 -0.07231,-0.32503 -0.199158,-0.480276 -0.446928,-0.546993 -0.320834,-0.08639 -0.614735,0.09723 -0.716503,0.447657 -0.07839,0.269927 -0.07758,4.280248 9.2e-4,4.550724 0.05877,0.202478 0.249765,0.424363 0.391292,0.454563 0.183924,0.03925 0.409975,-0.0036 0.539238,-0.102181 z m 3.882579,1.544764 c -0.382265,-0.0509 -0.605358,-0.198395 -0.758466,-0.501462 -0.192224,-0.380494 -0.192121,-0.378267 -0.192121,-4.166997 l 0,-3.536186 0.771022,0 0.771021,0 0.01629,3.259162 c 0.0177,3.540759 0.01242,3.458118 0.224357,3.511312 0.194611,0.04884 0.409771,-0.05546 0.678294,-0.328819 l 0.257248,-0.261882 0.0097,-3.089887 0.0097,-3.089886 0.769976,-0.01029 0.769976,-0.01029 0,4.047269 0,4.04727 -0.104564,0.02148 c -0.126152,0.02591 -1.293786,0.02422 -1.387859,-0.002 -0.05749,-0.01603 -0.06654,-0.06845 -0.06654,-0.385529 l 0,-0.366977 -0.218635,0.212869 c -0.503094,0.489826 -1.046026,0.717888 -1.549458,0.650859 z m -10.004887,-0.132262 c -0.03234,-0.05233 -0.02749,-3.180553 0.0056,-3.623633 0.04246,-0.568153 0.01233,-1.014842 -0.395528,-2.157184 -0.132405,-0.370848 -0.387602,-1.122139 -0.547152,-1.629634 -1.152609,-3.666201 -1.075094,-3.418301 -0.964972,-3.419242 0.759232,-0.0065 1.631673,-0.002 1.641865,0.0082 0.0073,0.0073 0.254148,0.902608 0.548533,1.989557 0.294385,1.086948 0.540089,1.991745 0.546009,2.010659 0.0059,0.01891 0.178723,-0.614176 0.384007,-1.406869 0.430335,-1.661714 0.671804,-2.57918 0.68104,-2.587631 0.01925,-0.01761 0.233293,-0.02168 0.93269,-0.01772 l 0.774136,0.0044 -0.01705,0.123577 c -0.01394,0.101028 -0.542148,1.875113 -1.095309,3.678774 -0.06093,0.198673 -0.214979,0.71199 -0.342329,1.140705 -0.12735,0.428715 -0.281781,0.937959 -0.343178,1.131654 l -0.111633,0.352173 0,2.202346 c 0,2.065189 -0.0041,2.20348 -0.06654,2.220551 -0.138778,0.03797 -1.605462,0.01935 -1.630209,-0.02069 z"
     id="path19-8"
     style="fill:#ffffff;fill-opacity:1;stroke:none" />
  <g
     id="g4346"
     transform="matrix(0.0824541,0,0,0.08293356,6.9999995,10.924363)" />
  <g
     id="g4348"
     transform="matrix(0.0824541,0,0,0.08293356,6.9999995,10.924363)" />
  <g
     id="g4350"
     transform="matrix(0.0824541,0,0,0.08293356,6.9999995,10.924363)" />
  <g
     id="g4352"
     transform="matrix(0.0824541,0,0,0.08293356,6.9999995,10.924363)" />
  <g
     id="g4354"
     transform="matrix(0.0824541,0,0,0.08293356,6.9999995,10.924363)" />
  <g
     id="g4356"
     transform="matrix(0.0824541,0,0,0.08293356,6.9999995,10.924363)" />
  <g
     id="g4358"
     transform="matrix(0.0824541,0,0,0.08293356,6.9999995,10.924363)" />
  <g
     id="g4360"
     transform="matrix(0.0824541,0,0,0.08293356,6.9999995,10.924363)" />
  <g
     id="g4362"
     transform="matrix(0.0824541,0,0,0.08293356,6.9999995,10.924363)" />
  <g
     id="g4364"
     transform="matrix(0.0824541,0,0,0.08293356,6.9999995,10.924363)" />
  <g
     id="g4366"
     transform="matrix(0.0824541,0,0,0.08293356,6.9999995,10.924363)" />
  <g
     id="g4368"
     transform="matrix(0.0824541,0,0,0.08293356,6.9999995,10.924363)" />
  <g
     id="g4370"
     transform="matrix(0.0824541,0,0,0.08293356,6.9999995,10.924363)" />
  <g
     id="g4372"
     transform="matrix(0.0824541,0,0,0.08293356,6.9999995,10.924363)" />
  <g
     id="g4374"
     transform="matrix(0.0824541,0,0,0.08293356,6.9999995,10.924363)" />
  <g
     transform="translate(0,-0.50000042)"
     id="g4511"
     style="fill:none;stroke:#ffffff;stroke-opacity:1;stroke-width:1;stroke-miterlimit:4;stroke-dasharray:none;opacity:0.3">
    <ellipse
       ry="1.5265849"
       rx="1.6393524"
       cy="17.906208"
       cx="30.404261"
       id="ellipse4513"
       style="opacity:1;fill:none;fill-opacity:1;stroke:#ffffff;stroke-width:1;stroke-linecap:round;stroke-linejoin:round;stroke-miterlimit:4;stroke-dasharray:none;stroke-opacity:1" />
    <ellipse
       style="opacity:1;fill:none;fill-opacity:1;stroke:#ffffff;stroke-width:1;stroke-linecap:round;stroke-linejoin:round;stroke-miterlimit:4;stroke-dasharray:none;stroke-opacity:1"
       id="ellipse4515"
       cx="27.838869"
       cy="20.270393"
       rx="1.6393524"
       ry="1.5265849" />
    <ellipse
       ry="1.5265849"
       rx="1.6393524"
       cy="23.036993"
       cx="29.75034"
       id="ellipse4517"
       style="opacity:1;fill:none;fill-opacity:1;stroke:#ffffff;stroke-width:1;stroke-linecap:round;stroke-linejoin:round;stroke-miterlimit:4;stroke-dasharray:none;stroke-opacity:1" />
    <ellipse
       style="opacity:1;fill:none;fill-opacity:1;stroke:#ffffff;stroke-width:1;stroke-linecap:round;stroke-linejoin:round;stroke-miterlimit:4;stroke-dasharray:none;stroke-opacity:1"
       id="ellipse4519"
       cx="32.315731"
       cy="20.672808"
       rx="1.6393524"
       ry="1.5265849" />
    <g
       id="g4521"
       transform="matrix(0.08986771,0,0,0.08767974,9.0000008,6.9922853)"
       style="fill:none;fill-opacity:1;stroke:#ffffff;stroke-opacity:1;stroke-width:11.26544978;stroke-miterlimit:4;stroke-dasharray:none">
      <g
         id="g4523"
         style="fill:none;fill-opacity:1;stroke:#ffffff;stroke-opacity:1;stroke-width:11.26544978;stroke-miterlimit:4;stroke-dasharray:none">
        <g
           id="g4525"
           style="fill:none;fill-opacity:1;stroke:#ffffff;stroke-opacity:1;stroke-width:11.26544978;stroke-miterlimit:4;stroke-dasharray:none">
          <g
             id="g4527"
             style="fill:none;fill-opacity:1;stroke:#ffffff;stroke-opacity:1;stroke-width:11.26544978;stroke-miterlimit:4;stroke-dasharray:none">
            <path
               id="path4529"
               d="m 105.195,137.576 c -10.851,0 -19.675,8.812 -19.675,19.639 0,10.842 8.821,19.645 19.675,19.645 10.835,0 19.633,-8.803 19.633,-19.645 0.009,-10.827 -8.797,-19.639 -19.633,-19.639 z"
               inkscape:connector-curvature="0"
               style="fill:none;fill-opacity:1;stroke:#ffffff;stroke-opacity:1;stroke-width:11.26544978;stroke-miterlimit:4;stroke-dasharray:none" />
          </g>
          <g
             id="g4531"
             style="fill:none;fill-opacity:1;stroke:#ffffff;stroke-opacity:1;stroke-width:11.26544978;stroke-miterlimit:4;stroke-dasharray:none">
            <path
               id="path4533"
               d="m 230.891,80.299 -1.333,0 -1.219,0.588 C 206.854,91.522 189.367,96.44 172.047,96.833 L 160.443,96.429 C 145.01,95.003 128.446,90.022 106.991,80.435 l -1.111,-0.511 -1.243,0 C 43.946,79.924 0,187.151 0,259.426 c 0,17.281 2.534,31.213 7.527,41.402 5.944,12.172 15.366,18.604 27.184,18.604 26.949,0 43.459,-15.763 59.417,-31.016 18.36,-17.521 37.329,-35.656 74.504,-35.656 30.606,0 54.157,18.639 76.903,36.642 18.951,15.024 36.869,29.195 56.625,29.195 10.893,0 19.479,-5.464 24.884,-15.799 4.492,-8.581 6.78,-20.494 6.78,-35.41 C 333.825,204.169 287.216,80.299 230.891,80.299 Z m -125.696,108.09 c -17.21,0 -31.21,-13.991 -31.21,-31.18 0,-17.186 13.994,-31.162 31.21,-31.162 17.174,0 31.171,13.976 31.171,31.162 0.006,17.188 -13.997,31.18 -31.171,31.18 z m 123.581,-76.306 c 6.672,-4.23 16.087,-2.102 20.285,4.5 2.107,3.297 2.798,7.233 1.957,11.055 -0.858,3.837 -3.152,7.11 -6.467,9.217 -2.354,1.501 -5.08,2.294 -7.86,2.294 -5.05,0 -9.687,-2.531 -12.412,-6.789 -4.335,-6.83 -2.317,-15.923 4.497,-20.277 z m -29.573,46.567 c -4.348,-6.845 -2.33,-15.94 4.479,-20.275 6.659,-4.249 16.081,-2.126 20.278,4.488 2.107,3.309 2.811,7.245 1.958,11.082 -0.847,3.825 -3.141,7.095 -6.443,9.199 -2.378,1.498 -5.092,2.297 -7.879,2.297 -5.043,-0.005 -9.679,-2.543 -12.393,-6.791 z m 39.584,35.059 c -2.354,1.495 -5.086,2.3 -7.879,2.3 -5.056,0 -9.691,-2.552 -12.399,-6.804 -2.107,-3.303 -2.805,-7.229 -1.951,-11.061 0.84,-3.831 3.134,-7.098 6.437,-9.211 6.653,-4.24 16.062,-2.126 20.296,4.491 4.335,6.847 2.317,15.937 -4.504,20.285 z m 31.537,-35.503 c -0.853,3.825 -3.141,7.095 -6.455,9.211 -2.36,1.504 -5.086,2.309 -7.879,2.309 -5.05,0 -9.673,-2.549 -12.399,-6.803 -2.114,-3.309 -2.805,-7.233 -1.958,-11.07 0.853,-3.822 3.146,-7.101 6.462,-9.218 6.652,-4.221 16.038,-2.113 20.271,4.504 2.12,3.308 2.811,7.242 1.958,11.067 z"
               inkscape:connector-curvature="0"
               sodipodi:nodetypes="sccccccsscscscsccsssscsccccsccccccccccscccccscsccccs"
               style="fill:none;fill-opacity:1;stroke:#ffffff;stroke-opacity:1;stroke-width:11.26544978;stroke-miterlimit:4;stroke-dasharray:none" />
          </g>
        </g>
      </g>
      <g
         id="g4535"
         style="fill:none;fill-opacity:1;stroke:#ffffff;stroke-opacity:1;stroke-width:11.26544978;stroke-miterlimit:4;stroke-dasharray:none" />
      <g
         id="g4537"
         style="fill:none;fill-opacity:1;stroke:#ffffff;stroke-opacity:1;stroke-width:11.26544978;stroke-miterlimit:4;stroke-dasharray:none" />
      <g
         id="g4539"
         style="fill:none;fill-opacity:1;stroke:#ffffff;stroke-opacity:1;stroke-width:11.26544978;stroke-miterlimit:4;stroke-dasharray:none" />
      <g
         id="g4541"
         style="fill:none;fill-opacity:1;stroke:#ffffff;stroke-opacity:1;stroke-width:11.26544978;stroke-miterlimit:4;stroke-dasharray:none" />
      <g
         id="g4543"
         style="fill:none;fill-opacity:1;stroke:#ffffff;stroke-opacity:1;stroke-width:11.26544978;stroke-miterlimit:4;stroke-dasharray:none" />
      <g
         id="g4545"
         style="fill:none;fill-opacity:1;stroke:#ffffff;stroke-opacity:1;stroke-width:11.26544978;stroke-miterlimit:4;stroke-dasharray:none" />
      <g
         id="g4547"
         style="fill:none;fill-opacity:1;stroke:#ffffff;stroke-opacity:1;stroke-width:11.26544978;stroke-miterlimit:4;stroke-dasharray:none" />
      <g
         id="g4549"
         style="fill:none;fill-opacity:1;stroke:#ffffff;stroke-opacity:1;stroke-width:11.26544978;stroke-miterlimit:4;stroke-dasharray:none" />
      <g
         id="g4551"
         style="fill:none;fill-opacity:1;stroke:#ffffff;stroke-opacity:1;stroke-width:11.26544978;stroke-miterlimit:4;stroke-dasharray:none" />
      <g
         id="g4553"
         style="fill:none;fill-opacity:1;stroke:#ffffff;stroke-opacity:1;stroke-width:11.26544978;stroke-miterlimit:4;stroke-dasharray:none" />
      <g
         id="g4555"
         style="fill:none;fill-opacity:1;stroke:#ffffff;stroke-opacity:1;stroke-width:11.26544978;stroke-miterlimit:4;stroke-dasharray:none" />
      <g
         id="g4557"
         style="fill:none;fill-opacity:1;stroke:#ffffff;stroke-opacity:1;stroke-width:11.26544978;stroke-miterlimit:4;stroke-dasharray:none" />
      <g
         id="g4559"
         style="fill:none;fill-opacity:1;stroke:#ffffff;stroke-opacity:1;stroke-width:11.26544978;stroke-miterlimit:4;stroke-dasharray:none" />
      <g
         id="g4561"
         style="fill:none;fill-opacity:1;stroke:#ffffff;stroke-opacity:1;stroke-width:11.26544978;stroke-miterlimit:4;stroke-dasharray:none" />
      <g
         id="g4563"
         style="fill:none;fill-opacity:1;stroke:#ffffff;stroke-opacity:1;stroke-width:11.26544978;stroke-miterlimit:4;stroke-dasharray:none" />
    </g>
  </g>
  <g
     id="g4426"
     transform="translate(0,-0.50000042)">
    <ellipse
       style="opacity:1;fill:#ffd242;fill-opacity:1;stroke:none;stroke-width:2.0999999;stroke-linecap:round;stroke-linejoin:round;stroke-miterlimit:4;stroke-dasharray:none;stroke-opacity:1"
       id="ellipse4420"
       cx="30.404261"
       cy="17.906208"
       rx="1.6393524"
       ry="1.5265849" />
    <ellipse
       ry="1.5265849"
       rx="1.6393524"
       cy="20.270393"
       cx="27.838869"
       id="path4418"
       style="opacity:1;fill:#ff4242;fill-opacity:1;stroke:none;stroke-width:2.0999999;stroke-linecap:round;stroke-linejoin:round;stroke-miterlimit:4;stroke-dasharray:none;stroke-opacity:1" />
    <ellipse
       style="opacity:1;fill:#428eff;fill-opacity:1;stroke:none;stroke-width:2.0999999;stroke-linecap:round;stroke-linejoin:round;stroke-miterlimit:4;stroke-dasharray:none;stroke-opacity:1"
       id="ellipse4424"
       cx="29.75034"
       cy="23.036993"
       rx="1.6393524"
       ry="1.5265849" />
    <ellipse
       ry="1.5265849"
       rx="1.6393524"
       cy="20.672808"
       cx="32.315731"
       id="ellipse4422"
       style="opacity:1;fill:#79ff42;fill-opacity:1;stroke:none;stroke-width:2.0999999;stroke-linecap:round;stroke-linejoin:round;stroke-miterlimit:4;stroke-dasharray:none;stroke-opacity:1" />
    <g
       style="fill:#424242;fill-opacity:1"
       transform="matrix(0.08986771,0,0,0.08767974,9.0000008,6.9922853)"
       id="g4395">
      <g
         style="fill:#424242;fill-opacity:1"
         id="g4347">
        <g
           style="fill:#424242;fill-opacity:1"
           id="g4349">
          <g
             style="fill:#424242;fill-opacity:1"
             id="g4351">
            <path
               style="fill:#424242;fill-opacity:1"
               inkscape:connector-curvature="0"
               d="m 105.195,137.576 c -10.851,0 -19.675,8.812 -19.675,19.639 0,10.842 8.821,19.645 19.675,19.645 10.835,0 19.633,-8.803 19.633,-19.645 0.009,-10.827 -8.797,-19.639 -19.633,-19.639 z"
               id="path4353" />
          </g>
          <g
             style="fill:#424242;fill-opacity:1"
             id="g4355">
            <path
               style="fill:#424242;fill-opacity:1"
               sodipodi:nodetypes="sccccccsscscscsccsssscsccccsccccccccccscccccscsccccs"
               inkscape:connector-curvature="0"
               d="m 230.891,80.299 -1.333,0 -1.219,0.588 C 206.854,91.522 189.367,96.44 172.047,96.833 L 160.443,96.429 C 145.01,95.003 128.446,90.022 106.991,80.435 l -1.111,-0.511 -1.243,0 C 43.946,79.924 0,187.151 0,259.426 c 0,17.281 2.534,31.213 7.527,41.402 5.944,12.172 15.366,18.604 27.184,18.604 26.949,0 43.459,-15.763 59.417,-31.016 18.36,-17.521 37.329,-35.656 74.504,-35.656 30.606,0 54.157,18.639 76.903,36.642 18.951,15.024 36.869,29.195 56.625,29.195 10.893,0 19.479,-5.464 24.884,-15.799 4.492,-8.581 6.78,-20.494 6.78,-35.41 C 333.825,204.169 287.216,80.299 230.891,80.299 Z m -125.696,108.09 c -17.21,0 -31.21,-13.991 -31.21,-31.18 0,-17.186 13.994,-31.162 31.21,-31.162 17.174,0 31.171,13.976 31.171,31.162 0.006,17.188 -13.997,31.18 -31.171,31.18 z m 123.581,-76.306 c 6.672,-4.23 16.087,-2.102 20.285,4.5 2.107,3.297 2.798,7.233 1.957,11.055 -0.858,3.837 -3.152,7.11 -6.467,9.217 -2.354,1.501 -5.08,2.294 -7.86,2.294 -5.05,0 -9.687,-2.531 -12.412,-6.789 -4.335,-6.83 -2.317,-15.923 4.497,-20.277 z m -29.573,46.567 c -4.348,-6.845 -2.33,-15.94 4.479,-20.275 6.659,-4.249 16.081,-2.126 20.278,4.488 2.107,3.309 2.811,7.245 1.958,11.082 -0.847,3.825 -3.141,7.095 -6.443,9.199 -2.378,1.498 -5.092,2.297 -7.879,2.297 -5.043,-0.005 -9.679,-2.543 -12.393,-6.791 z m 39.584,35.059 c -2.354,1.495 -5.086,2.3 -7.879,2.3 -5.056,0 -9.691,-2.552 -12.399,-6.804 -2.107,-3.303 -2.805,-7.229 -1.951,-11.061 0.84,-3.831 3.134,-7.098 6.437,-9.211 6.653,-4.24 16.062,-2.126 20.296,4.491 4.335,6.847 2.317,15.937 -4.504,20.285 z m 31.537,-35.503 c -0.853,3.825 -3.141,7.095 -6.455,9.211 -2.36,1.504 -5.086,2.309 -7.879,2.309 -5.05,0 -9.673,-2.549 -12.399,-6.803 -2.114,-3.309 -2.805,-7.233 -1.958,-11.07 0.853,-3.822 3.146,-7.101 6.462,-9.218 6.652,-4.221 16.038,-2.113 20.271,4.504 2.12,3.308 2.811,7.242 1.958,11.067 z"
               id="path4357" />
          </g>
        </g>
      </g>
      <g
         style="fill:#424242;fill-opacity:1"
         id="g4359" />
      <g
         style="fill:#424242;fill-opacity:1"
         id="g4361" />
      <g
         style="fill:#424242;fill-opacity:1"
         id="g4363" />
      <g
         style="fill:#424242;fill-opacity:1"
         id="g4365" />
      <g
         style="fill:#424242;fill-opacity:1"
         id="g4367" />
      <g
         style="fill:#424242;fill-opacity:1"
         id="g4369" />
      <g
         style="fill:#424242;fill-opacity:1"
         id="g4371" />
      <g
         style="fill:#424242;fill-opacity:1"
         id="g4373" />
      <g
         style="fill:#424242;fill-opacity:1"
         id="g4375" />
      <g
         style="fill:#424242;fill-opacity:1"
         id="g4377" />
      <g
         style="fill:#424242;fill-opacity:1"
         id="g4379" />
      <g
         style="fill:#424242;fill-opacity:1"
         id="g4381" />
      <g
         style="fill:#424242;fill-opacity:1"
         id="g4383" />
      <g
         style="fill:#424242;fill-opacity:1"
         id="g4385" />
      <g
         style="fill:#424242;fill-opacity:1"
         id="g4387" />
    </g>
  </g>
  <g
     id="g4388"
     style="fill:#000000;fill-opacity:1;opacity:0.15"
     transform="matrix(0.08986771,0,0,0.08767974,9.0005265,6.4926681)">
    <g
       id="g4390"
       style="fill:#000000;fill-opacity:1">
      <g
         id="g4392"
         style="fill:#000000;fill-opacity:1" />
      <g
         id="g4396"
         style="fill:#000000;fill-opacity:1">
        <path
           style="fill:#000000;fill-opacity:1"
           d="m 53.617188,10.984375 c -5.454162,0 -9.404297,9.401228 -9.404297,15.738281 0,1.515194 0.229025,2.737491 0.677734,3.63086 0.534174,1.067237 1.37935,1.630859 2.441406,1.630859 2.421845,0 3.905735,-1.381371 5.339844,-2.71875 1.649971,-1.536237 3.35448,-3.126953 6.695313,-3.126953 2.750491,0 4.867978,1.634392 6.912109,3.21289 1.703083,1.317301 3.312464,2.560547 5.087891,2.560547 0.978928,0 1.750593,-0.480548 2.236328,-1.386718 0.403685,-0.75238 0.609375,-1.795685 0.609375,-3.103516 8.9e-5,-5.543025 -4.188202,-16.404297 -9.25,-16.404297 l -0.119141,0 -0.109375,0.05078 c -1.930808,0.932474 -3.502085,1.36398 -5.058594,1.398438 l -1.042969,-0.03516 c -1.386928,-0.125032 -2.876575,-0.561758 -4.804687,-1.402344 l -0.09961,-0.04492 -0.111328,0 z m -0.201172,0.947266 c 0.03517,0.01533 0.06663,0.02593 0.101562,0.04101 l -0.0098,0 -0.0918,-0.04101 z m 11.75,0.03125 -0.0918,0.04297 -0.0078,0 c 0.03395,-0.01616 0.06627,-0.02797 0.09961,-0.04297 z m -11.636719,0.01367 c 1.931509,0.833487 3.504499,1.303754 5.009765,1.439454 l 0.0293,0.002 1.09961,0.03711 0.0293,0 c 1.693915,-0.0375 3.397083,-0.512886 5.355468,-1.443359 0.869761,0.03144 1.807228,0.519843 2.765625,1.478515 0.990981,0.991268 1.949053,2.441288 2.75586,4.078125 1.613615,3.273674 2.626994,7.324758 2.626953,9.853516 0,1.206822 -0.203501,2.104798 -0.494141,2.646484 -0.3496,0.652203 -0.699466,0.855469 -1.339843,0.855469 -1.291297,0 -2.756485,-1.028854 -4.458985,-2.345703 -2.044147,-1.578511 -4.379491,-3.427734 -7.541015,-3.427734 -3.670084,0 -5.745018,1.86458 -7.394532,3.40039 -1.433827,1.337117 -2.613562,2.445313 -4.640625,2.445313 -0.694721,0 -1.12243,-0.25548 -1.533203,-1.076172 l 0,-0.002 c -0.347799,-0.692458 -0.572265,-1.776678 -0.572266,-3.195313 0,-2.968329 0.957659,-6.806235 2.542969,-9.791015 1.563492,-2.943702 3.658309,-4.901647 5.759766,-4.955079 z"
           transform="matrix(11.127467,0,0,11.405143,-491.98334,-45.358723)"
           id="path4467"
           inkscape:connector-curvature="0" />
      </g>
    </g>
  </g>
  <g
     id="g4400"
     style="fill:#424242;fill-opacity:1"
     transform="matrix(0.08986771,0,0,0.08767974,44.213416,3.977041)" />
  <g
     id="g4402"
     style="fill:#424242;fill-opacity:1"
     transform="matrix(0.08986771,0,0,0.08767974,44.213416,3.977041)" />
  <g
     id="g4404"
     style="fill:#424242;fill-opacity:1"
     transform="matrix(0.08986771,0,0,0.08767974,44.213416,3.977041)" />
  <g
     id="g4406"
     style="fill:#424242;fill-opacity:1"
     transform="matrix(0.08986771,0,0,0.08767974,44.213416,3.977041)" />
  <g
     id="g4408"
     style="fill:#424242;fill-opacity:1"
     transform="matrix(0.08986771,0,0,0.08767974,44.213416,3.977041)" />
  <g
     id="g4410"
     style="fill:#424242;fill-opacity:1"
     transform="matrix(0.08986771,0,0,0.08767974,44.213416,3.977041)" />
  <g
     id="g4412"
     style="fill:#424242;fill-opacity:1"
     transform="matrix(0.08986771,0,0,0.08767974,44.213416,3.977041)" />
  <g
     id="g4414"
     style="fill:#424242;fill-opacity:1"
     transform="matrix(0.08986771,0,0,0.08767974,44.213416,3.977041)" />
  <g
     id="g4416"
     style="fill:#424242;fill-opacity:1"
     transform="matrix(0.08986771,0,0,0.08767974,44.213416,3.977041)" />
  <g
     id="g4418"
     style="fill:#424242;fill-opacity:1"
     transform="matrix(0.08986771,0,0,0.08767974,44.213416,3.977041)" />
  <g
     id="g4420"
     style="fill:#424242;fill-opacity:1"
     transform="matrix(0.08986771,0,0,0.08767974,44.213416,3.977041)" />
  <g
     id="g4422"
     style="fill:#424242;fill-opacity:1"
     transform="matrix(0.08986771,0,0,0.08767974,44.213416,3.977041)" />
  <g
     id="g4424"
     style="fill:#424242;fill-opacity:1"
     transform="matrix(0.08986771,0,0,0.08767974,44.213416,3.977041)" />
  <g
     id="g4427"
     style="fill:#424242;fill-opacity:1"
     transform="matrix(0.08986771,0,0,0.08767974,44.213416,3.977041)" />
  <g
     id="g4429"
     style="fill:#424242;fill-opacity:1"
     transform="matrix(0.08986771,0,0,0.08767974,44.213416,3.977041)" />
  <g
     transform="matrix(0.08986771,0,0,0.08767974,44.213416,3.977041)"
     style="fill:none;fill-opacity:1;stroke:#000000;stroke-opacity:1;stroke-width:22.53089955;stroke-miterlimit:4;stroke-dasharray:none"
     id="g4495">
    <g
       style="fill:none;fill-opacity:1;stroke:#000000;stroke-opacity:1;stroke-width:22.53089955;stroke-miterlimit:4;stroke-dasharray:none"
       id="g4497">
      <g
         style="fill:none;fill-opacity:1;stroke:#000000;stroke-opacity:1;stroke-width:22.53089955;stroke-miterlimit:4;stroke-dasharray:none"
         id="g4499" />
      <g
         style="fill:none;fill-opacity:1;stroke:#000000;stroke-opacity:1;stroke-width:22.53089955;stroke-miterlimit:4;stroke-dasharray:none"
         id="g4503" />
    </g>
  </g>
</svg>
