<?xml version="1.0" encoding="UTF-8" standalone="no"?>
<!-- Created with Inkscape (http://www.inkscape.org/) -->

<svg
   xmlns:dc="http://purl.org/dc/elements/1.1/"
   xmlns:cc="http://creativecommons.org/ns#"
   xmlns:rdf="http://www.w3.org/1999/02/22-rdf-syntax-ns#"
   xmlns:svg="http://www.w3.org/2000/svg"
   xmlns="http://www.w3.org/2000/svg"
   xmlns:xlink="http://www.w3.org/1999/xlink"
   xmlns:sodipodi="http://sodipodi.sourceforge.net/DTD/sodipodi-0.dtd"
   xmlns:inkscape="http://www.inkscape.org/namespaces/inkscape"
   version="1.1"
   width="48"
   height="48"
   id="svg3143"
   inkscape:version="0.91 r"
   sodipodi:docname="haguichi.svg">
  <sodipodi:namedview
     pagecolor="#acacac"
     bordercolor="#666666"
     borderopacity="1"
     objecttolerance="10"
     gridtolerance="10"
     guidetolerance="10"
     inkscape:pageopacity="0"
     inkscape:pageshadow="2"
     inkscape:window-width="1600"
     inkscape:window-height="842"
     id="namedview46"
     showgrid="false"
     inkscape:zoom="7.54"
     inkscape:cx="1.051356"
     inkscape:cy="23.721315"
     inkscape:window-x="-4"
     inkscape:window-y="32"
     inkscape:window-maximized="1"
     inkscape:current-layer="svg3143"
     showguides="false" />
  <defs
     id="defs3145">
    <linearGradient
       inkscape:collect="always"
       id="linearGradient4255">
      <stop
         style="stop-color:#ff1616;stop-opacity:1"
         offset="0"
         id="stop4257" />
      <stop
         style="stop-color:#ffbc2b;stop-opacity:1"
         offset="1"
         id="stop4259" />
    </linearGradient>
    <linearGradient
       id="linearGradient4234">
      <stop
         offset="0"
         style="stop-color:#fffdf3;stop-opacity:0.5"
         id="stop4236" />
      <stop
         offset="1"
         style="stop-color:#ffffff;stop-opacity:0.1632653"
         id="stop4238" />
    </linearGradient>
    <linearGradient
       id="linearGradient4239">
      <stop
         offset="0"
         style="stop-color:#866746;stop-opacity:1"
         id="stop4241" />
      <stop
         offset="0.26238"
         style="stop-color:#76552e;stop-opacity:1"
         id="stop4243" />
      <stop
         offset="0.66093999"
         style="stop-color:#482f0f;stop-opacity:1"
         id="stop4245" />
      <stop
         offset="1"
         style="stop-color:#020100;stop-opacity:1"
         id="stop4247" />
    </linearGradient>
    <linearGradient
       x1="23.99999"
       y1="4.999989"
       x2="23.99999"
       y2="43"
       id="linearGradient4181"
       xlink:href="#linearGradient3924-3"
       gradientUnits="userSpaceOnUse"
       gradientTransform="translate(5.3e-6,1.0000015)" />
    <linearGradient
       id="linearGradient3924-3">
      <stop
         id="stop3926-7"
         style="stop-color:#ffffff;stop-opacity:1"
         offset="0" />
      <stop
         id="stop3928-3"
         style="stop-color:#ffffff;stop-opacity:0.23529412"
         offset="0.06316455" />
      <stop
         id="stop3930-7"
         style="stop-color:#ffffff;stop-opacity:0.15686275"
         offset="0.95056331" />
      <stop
         id="stop3932-1"
         style="stop-color:#ffffff;stop-opacity:0.39215687"
         offset="1" />
    </linearGradient>
    <linearGradient
       x1="167.98311"
       y1="8.50811"
       x2="167.98311"
       y2="54.780239"
       id="linearGradient4907-4"
       xlink:href="#linearGradient5803-2-7"
       gradientUnits="userSpaceOnUse"
       gradientTransform="matrix(0.7037037,0,0,0.7037037,-39.333369,2.4814295)" />
    <linearGradient
       id="linearGradient5803-2-7">
      <stop
         id="stop5805-3-6"
         style="stop-color:#fffdf3;stop-opacity:1"
         offset="0" />
      <stop
         id="stop5807-0-0"
         style="stop-color:#fbebeb;stop-opacity:1"
         offset="1" />
    </linearGradient>
    <radialGradient
       cx="8.276144"
       cy="9.9941158"
       r="12.671875"
       fx="8.276144"
       fy="9.9941158"
       id="radialGradient6305"
       xlink:href="#linearGradient3242"
       gradientUnits="userSpaceOnUse"
       gradientTransform="matrix(0,6.6677582,-8.1858766,0,105.8829,-59.462774)" />
    <linearGradient
       id="linearGradient3242">
      <stop
         id="stop3244"
         style="stop-color:#f89b7e;stop-opacity:1"
         offset="0" />
      <stop
         id="stop3246"
         style="stop-color:#e35d4f;stop-opacity:1"
         offset="0.26238" />
      <stop
         id="stop3248"
         style="stop-color:#c6262e;stop-opacity:1"
         offset="0.66093999" />
      <stop
         id="stop3250"
         style="stop-color:#690b2c;stop-opacity:1"
         offset="1" />
    </linearGradient>
    <radialGradient
       cx="4.9929786"
       cy="43.5"
       r="2.5"
       fx="4.9929786"
       fy="43.5"
       id="radialGradient3013"
       xlink:href="#linearGradient3688-166-749"
       gradientUnits="userSpaceOnUse"
       gradientTransform="matrix(2.003784,0,0,1.4,27.98813,-17.4)" />
    <linearGradient
       id="linearGradient3688-166-749">
      <stop
         id="stop2883"
         style="stop-color:#181818;stop-opacity:1"
         offset="0" />
      <stop
         id="stop2885"
         style="stop-color:#181818;stop-opacity:0"
         offset="1" />
    </linearGradient>
    <radialGradient
       cx="4.9929786"
       cy="43.5"
       r="2.5"
       fx="4.9929786"
       fy="43.5"
       id="radialGradient3015"
       xlink:href="#linearGradient3688-464-309"
       gradientUnits="userSpaceOnUse"
       gradientTransform="matrix(2.003784,0,0,1.4,-20.01187,-104.4)" />
    <linearGradient
       id="linearGradient3688-464-309">
      <stop
         id="stop2889"
         style="stop-color:#181818;stop-opacity:1"
         offset="0" />
      <stop
         id="stop2891"
         style="stop-color:#181818;stop-opacity:0"
         offset="1" />
    </linearGradient>
    <linearGradient
       id="linearGradient3702-501-757">
      <stop
         id="stop2895"
         style="stop-color:#181818;stop-opacity:0"
         offset="0" />
      <stop
         id="stop2897"
         style="stop-color:#181818;stop-opacity:1"
         offset="0.5" />
      <stop
         id="stop2899"
         style="stop-color:#181818;stop-opacity:0"
         offset="1" />
    </linearGradient>
    <linearGradient
       x1="25.058096"
       y1="47.027729"
       x2="25.058096"
       y2="39.999443"
       id="linearGradient3141"
       xlink:href="#linearGradient3702-501-757"
       gradientUnits="userSpaceOnUse" />
    <radialGradient
       inkscape:collect="always"
       xlink:href="#linearGradient3688-166-749"
       id="radialGradient3030"
       gradientUnits="userSpaceOnUse"
       gradientTransform="matrix(2.003784,0,0,1.4,27.98813,-17.4)"
       cx="4.9929786"
       cy="43.5"
       fx="4.9929786"
       fy="43.5"
       r="2.5" />
    <radialGradient
       inkscape:collect="always"
       xlink:href="#linearGradient3688-464-309"
       id="radialGradient3032"
       gradientUnits="userSpaceOnUse"
       gradientTransform="matrix(2.003784,0,0,1.4,-20.01187,-104.4)"
       cx="4.9929786"
       cy="43.5"
       fx="4.9929786"
       fy="43.5"
       r="2.5" />
    <linearGradient
       inkscape:collect="always"
       xlink:href="#linearGradient3702-501-757"
       id="linearGradient3034"
       gradientUnits="userSpaceOnUse"
       x1="25.058096"
       y1="47.027729"
       x2="25.058096"
       y2="39.999443" />
    <radialGradient
       inkscape:collect="always"
       xlink:href="#linearGradient3242"
       id="radialGradient3036"
       gradientUnits="userSpaceOnUse"
       gradientTransform="matrix(0,6.6677582,-8.1858766,0,105.8829,-59.462774)"
       cx="8.276144"
       cy="9.9941158"
       fx="8.276144"
       fy="9.9941158"
       r="12.671875" />
    <linearGradient
       inkscape:collect="always"
       xlink:href="#linearGradient5803-2-7"
       id="linearGradient3038"
       gradientUnits="userSpaceOnUse"
       gradientTransform="matrix(0.7037037,0,0,0.7037037,-39.333369,2.4814295)"
       x1="167.98311"
       y1="8.50811"
       x2="167.98311"
       y2="54.780239" />
    <linearGradient
       inkscape:collect="always"
       xlink:href="#linearGradient3924-3"
       id="linearGradient3040"
       gradientUnits="userSpaceOnUse"
       gradientTransform="translate(5.3e-6,1.0000015)"
       x1="23.99999"
       y1="4.999989"
       x2="23.99999"
       y2="43" />
    <linearGradient
       inkscape:collect="always"
       xlink:href="#linearGradient3924-3"
       id="linearGradient3044"
       gradientUnits="userSpaceOnUse"
       gradientTransform="translate(5.3e-6,1.0000015)"
       x1="23.99999"
       y1="4.999989"
       x2="23.99999"
       y2="43" />
    <linearGradient
       inkscape:collect="always"
       xlink:href="#linearGradient5803-2-7"
       id="linearGradient3048"
       gradientUnits="userSpaceOnUse"
       gradientTransform="matrix(0.7037037,0,0,0.7037037,-39.333369,2.4814295)"
       x1="167.98311"
       y1="8.50811"
       x2="167.98311"
       y2="54.780239" />
    <radialGradient
       inkscape:collect="always"
       xlink:href="#linearGradient4239"
       id="radialGradient3053"
       gradientUnits="userSpaceOnUse"
       gradientTransform="matrix(0,6.6677582,-8.1858766,0,105.8829,-59.462774)"
       cx="8.276144"
       cy="9.9941158"
       fx="8.276144"
       fy="9.9941158"
       r="12.671875" />
    <linearGradient
       inkscape:collect="always"
       xlink:href="#linearGradient4255"
       id="linearGradient4315"
       gradientUnits="userSpaceOnUse"
       x1="22.911819"
       y1="42.166981"
       x2="22.962477"
       y2="9.2401505" />
    <linearGradient
       inkscape:collect="always"
       xlink:href="#linearGradient4234"
       id="linearGradient4340"
       gradientUnits="userSpaceOnUse"
       x1="22.787981"
       y1="50.526115"
       x2="23.086315"
       y2="5.5249801" />
  </defs>
  <metadata
     id="metadata3148">
    <rdf:RDF>
      <cc:Work
         rdf:about="">
        <dc:format>image/svg+xml</dc:format>
        <dc:type
           rdf:resource="http://purl.org/dc/dcmitype/StillImage" />
        <dc:title />
      </cc:Work>
    </rdf:RDF>
  </metadata>
  <g
     style="opacity:0.6"
     id="g3712-5"
     transform="matrix(1.1578952,0,0,0.6428571,-3.789476,16.035716)">
    <rect
       style="fill:url(#radialGradient3030);fill-opacity:1;stroke:none"
       id="rect2801-3"
       y="40"
       x="38"
       height="7"
       width="5" />
    <rect
       style="fill:url(#radialGradient3032);fill-opacity:1;stroke:none"
       id="rect3696-6"
       transform="scale(-1,-1)"
       y="-47"
       x="-10"
       height="7"
       width="5" />
    <rect
       style="fill:url(#linearGradient3034);fill-opacity:1;stroke:none"
       id="rect3700-4"
       y="40"
       x="10"
       height="7.0000005"
       width="28" />
  </g>
  <rect
     style="color:#000000;display:inline;overflow:visible;visibility:visible;fill:url(#radialGradient3053);fill-opacity:1;fill-rule:nonzero;stroke:none;stroke-width:0.99999994;marker:none;enable-background:accumulate"
     id="rect5505-21"
     y="5.4999924"
     x="4.5"
     ry="2"
     rx="2"
     height="39"
     width="39" />
  <path
     style="opacity:0.15;fill:none;fill-opacity:1;stroke:#000000;stroke-width:1;stroke-linecap:round;stroke-linejoin:round;stroke-miterlimit:4;stroke-dasharray:none;stroke-opacity:1"
     d="m 28,12 c -2.761424,0 -5,2.238576 -5,5 0,0.92676 0.253247,2.722198 -0.582031,3.271484 C 21.512994,20.866603 20.016552,20 19,20 c -2.761424,0 -5,2.238576 -5,5 0,2.761424 2.238576,5 5,5 1.11314,0 2.906961,-0.926809 3.919922,-0.267578 C 23.810149,30.311778 23,32.234447 23,33 c 0,2.761424 2.238576,5 5,5 2.761424,0 5,-2.238576 5,-5 0,-2.761424 -2.238576,-5 -5,-5 -1.21883,0 -2.8212,0.63794 -3.763672,0.03711 C 23.423527,27.518944 24,25.869692 24,25 24,24.037892 23.105282,22.346451 23.939453,21.808594 25.029193,21.105951 26.942551,22 28,22 c 2.761424,0 5,-2.238576 5,-5 0,-2.761424 -2.238576,-5 -5,-5 z"
     id="path4353"
     inkscape:connector-curvature="0"
     sodipodi:nodetypes="sssssssssssssssss" />
  <path
     sodipodi:nodetypes="sssssssssssssssss"
     inkscape:connector-curvature="0"
     id="path4351"
     d="m 28,12 c -2.761424,0 -5,2.238576 -5,5 0,0.92676 0.253247,2.722198 -0.582031,3.271484 C 21.512994,20.866603 20.016552,20 19,20 c -2.761424,0 -5,2.238576 -5,5 0,2.761424 2.238576,5 5,5 1.11314,0 2.906961,-0.926809 3.919922,-0.267578 C 23.810149,30.311778 23,32.234447 23,33 c 0,2.761424 2.238576,5 5,5 2.761424,0 5,-2.238576 5,-5 0,-2.761424 -2.238576,-5 -5,-5 -1.21883,0 -2.8212,0.63794 -3.763672,0.03711 C 23.423527,27.518944 24,25.869692 24,25 24,24.037892 23.105282,22.346451 23.939453,21.808594 25.029193,21.105951 26.942551,22 28,22 c 2.761424,0 5,-2.238576 5,-5 0,-2.761424 -2.238576,-5 -5,-5 z"
     style="opacity:0.15;fill:none;fill-opacity:1;stroke:#000000;stroke-width:2;stroke-linecap:round;stroke-linejoin:round;stroke-miterlimit:4;stroke-dasharray:none;stroke-opacity:1" />
  <rect
     style="opacity:0.5;fill:none;stroke:url(#linearGradient3044);stroke-width:1;stroke-linecap:round;stroke-linejoin:round;stroke-miterlimit:4;stroke-dasharray:none;stroke-dashoffset:0;stroke-opacity:1"
     id="rect6741-2"
     y="6.4999924"
     x="5.5"
     ry="1"
     rx="1"
     height="37"
     width="37" />
  <rect
     style="color:#000000;display:inline;overflow:visible;visibility:visible;opacity:0.35;fill:none;stroke:#170d06;stroke-width:1;stroke-linecap:round;stroke-linejoin:round;stroke-miterlimit:4;stroke-dasharray:none;stroke-dashoffset:0;stroke-opacity:1;marker:none;enable-background:accumulate"
     id="rect5505-21-1"
     y="5.5"
     x="4.5"
     ry="2"
     rx="2"
     height="39"
     width="39" />
  <path
     style="opacity:1;fill:url(#linearGradient4315);fill-opacity:1;stroke:none;stroke-opacity:1"
     d="m 28,12 c -2.761424,0 -5,2.238576 -5,5 0,0.92676 0.253247,2.722198 -0.582031,3.271484 C 21.512994,20.866603 20.016552,20 19,20 c -2.761424,0 -5,2.238576 -5,5 0,2.761424 2.238576,5 5,5 1.11314,0 2.906961,-0.926809 3.919922,-0.267578 C 23.810149,30.311778 23,32.234447 23,33 c 0,2.761424 2.238576,5 5,5 2.761424,0 5,-2.238576 5,-5 0,-2.761424 -2.238576,-5 -5,-5 -1.21883,0 -2.8212,0.63794 -3.763672,0.03711 C 23.423527,27.518944 24,25.869692 24,25 24,24.037892 23.105282,22.346451 23.939453,21.808594 25.029193,21.105951 26.942551,22 28,22 c 2.761424,0 5,-2.238576 5,-5 0,-2.761424 -2.238576,-5 -5,-5 z"
     id="path4186"
     inkscape:connector-curvature="0"
     sodipodi:nodetypes="sssssssssssssssss" />
  <path
     inkscape:connector-curvature="0"
     style="opacity:1;fill:url(#linearGradient4340);fill-opacity:1;stroke:none;stroke-opacity:1"
     d="m 28,12 c -2.761424,0 -5,2.238576 -5,5 0,0.92676 0.253247,2.722198 -0.582031,3.271484 C 21.512994,20.866603 20.016552,20 19,20 c -2.761424,0 -5,2.238576 -5,5 0,2.761424 2.238576,5 5,5 1.11314,0 2.906961,-0.926809 3.919922,-0.267578 C 23.810149,30.311778 23,32.234447 23,33 c 0,2.761424 2.238576,5 5,5 2.761424,0 5,-2.238576 5,-5 0,-2.761424 -2.238576,-5 -5,-5 -1.21883,0 -2.8212,0.637939 -3.763672,0.03711 C 23.423527,27.518943 24,25.869692 24,25 24,24.037892 23.105282,22.346451 23.939453,21.808594 25.029193,21.105951 26.942551,22 28,22 c 2.761424,0 5,-2.238576 5,-5 0,-2.761424 -2.238576,-5 -5,-5 z m 0,1 c 2.220984,0 4,1.779016 4,4 0,2.220984 -1.779016,4 -4,4 -0.246899,0 -1.017798,-0.194385 -1.839844,-0.34375 -0.822045,-0.149365 -1.830482,-0.287943 -2.761718,0.3125 -0.477589,0.307939 -0.734124,0.858085 -0.792969,1.296875 -0.05885,0.43879 0.0011,0.818227 0.07031,1.171875 C 22.814157,24.144797 23,24.828931 23,25 c 0,0.213897 -0.13301,0.881212 -0.183594,1.578125 -0.02529,0.348456 -0.0318,0.722314 0.07031,1.130859 0.102115,0.408546 0.361359,0.88427 0.8125,1.171875 0.823126,0.524747 1.700008,0.448492 2.439453,0.355469 C 26.87812,29.143306 27.565053,29 28,29 c 2.220984,0 4,1.779016 4,4 0,2.220984 -1.779016,4 -4,4 -2.220984,0 -4,-1.779016 -4,-4 0,-0.03003 0.176785,-0.807904 0.283203,-1.564453 0.05321,-0.378274 0.09036,-0.784286 0.0098,-1.232422 -0.08062,-0.448136 -0.335517,-0.988007 -0.828125,-1.308594 C 22.552582,28.300857 21.577033,28.476726 20.792969,28.640625 20.008904,28.804524 19.279034,29 19,29 c -2.220984,0 -4,-1.779016 -4,-4 0,-2.220984 1.779016,-4 4,-4 0.224112,0 0.839684,0.175187 1.525391,0.333984 0.685706,0.158797 1.591311,0.332467 2.441406,-0.226562 0.87433,-0.574967 1.004342,-1.519848 1.052734,-2.265625 C 24.067923,18.09602 24,17.372293 24,17 c 0,-2.220984 1.779016,-4 4,-4 z"
     id="path4334" />
</svg>
