<?xml version="1.0" encoding="UTF-8" standalone="no"?>
<!-- Created with Inkscape (http://www.inkscape.org/) -->

<svg
   xmlns:dc="http://purl.org/dc/elements/1.1/"
   xmlns:cc="http://creativecommons.org/ns#"
   xmlns:rdf="http://www.w3.org/1999/02/22-rdf-syntax-ns#"
   xmlns:svg="http://www.w3.org/2000/svg"
   xmlns="http://www.w3.org/2000/svg"
   xmlns:xlink="http://www.w3.org/1999/xlink"
   xmlns:sodipodi="http://sodipodi.sourceforge.net/DTD/sodipodi-0.dtd"
   xmlns:inkscape="http://www.inkscape.org/namespaces/inkscape"
   version="1.1"
   width="48"
   height="48"
   id="svg4951"
   inkscape:version="0.91 r"
   sodipodi:docname="spotify-client.svg">
  <sodipodi:namedview
     pagecolor="#ffffff"
     bordercolor="#666666"
     borderopacity="1"
     objecttolerance="10"
     gridtolerance="10"
     guidetolerance="10"
     inkscape:pageopacity="0"
     inkscape:pageshadow="2"
     inkscape:window-width="1600"
     inkscape:window-height="842"
     id="namedview154"
     showgrid="false"
     inkscape:zoom="1"
     inkscape:cx="19.200437"
     inkscape:cy="20.717618"
     inkscape:window-x="-4"
     inkscape:window-y="32"
     inkscape:window-maximized="1"
     inkscape:current-layer="svg4951"
     showguides="true" />
  <defs
     id="defs4953">
    <linearGradient
       x1="38.851257"
       y1="41.608219"
       x2="34.130882"
       y2="37.809635"
       id="linearGradient4761"
       xlink:href="#linearGradient6455-7-3"
       gradientUnits="userSpaceOnUse" />
    <linearGradient
       id="linearGradient6455-7-3">
      <stop
         id="stop6457-5-1"
         style="stop-color:#fbac9b;stop-opacity:1"
         offset="0" />
      <stop
         id="stop6459-8-9"
         style="stop-color:#fcfafc;stop-opacity:1"
         offset="1" />
    </linearGradient>
    <linearGradient
       x1="38.851257"
       y1="41.608219"
       x2="34.130882"
       y2="37.809635"
       id="linearGradient4763"
       xlink:href="#linearGradient6413-0-0"
       gradientUnits="userSpaceOnUse" />
    <linearGradient
       id="linearGradient6413-0-0">
      <stop
         id="stop6415-1-7"
         style="stop-color:#feffff;stop-opacity:1"
         offset="0" />
      <stop
         id="stop6417-4-9"
         style="stop-color:#fe70ca;stop-opacity:1"
         offset="1" />
    </linearGradient>
    <radialGradient
       cx="36.49107"
       cy="39.708927"
       r="3.1589286"
       fx="36.49107"
       fy="39.708927"
       id="radialGradient4765"
       xlink:href="#linearGradient6303-33-0-2"
       gradientUnits="userSpaceOnUse" />
    <linearGradient
       id="linearGradient6303-33-0-2">
      <stop
         id="stop6305-1-0-2"
         style="stop-color:#ffffff;stop-opacity:1"
         offset="0" />
      <stop
         id="stop6307-5-0-6"
         style="stop-color:#ffffff;stop-opacity:0"
         offset="1" />
    </linearGradient>
    <radialGradient
       cx="36.49107"
       cy="39.708927"
       r="3.1589286"
       fx="36.49107"
       fy="39.708927"
       id="radialGradient4767"
       xlink:href="#linearGradient6303-3-2-1"
       gradientUnits="userSpaceOnUse" />
    <linearGradient
       id="linearGradient6303-3-2-1">
      <stop
         id="stop6305-3-0-9"
         style="stop-color:#ffffff;stop-opacity:1"
         offset="0" />
      <stop
         id="stop6307-1-0-1"
         style="stop-color:#ffffff;stop-opacity:0"
         offset="1" />
    </linearGradient>
    <radialGradient
       cx="36.49107"
       cy="39.708927"
       r="3.1589286"
       fx="36.49107"
       fy="39.708927"
       id="radialGradient4769"
       xlink:href="#linearGradient6303-4-8"
       gradientUnits="userSpaceOnUse" />
    <linearGradient
       id="linearGradient6303-4-8">
      <stop
         id="stop6305-33-3"
         style="stop-color:#ffffff;stop-opacity:1"
         offset="0" />
      <stop
         id="stop6307-9-3"
         style="stop-color:#ffffff;stop-opacity:0"
         offset="1" />
    </linearGradient>
    <radialGradient
       cx="32.372566"
       cy="31.405056"
       r="3.857446"
       fx="32.372566"
       fy="31.405056"
       id="radialGradient4771"
       xlink:href="#linearGradient6088-6-1-0"
       gradientUnits="userSpaceOnUse"
       gradientTransform="matrix(2.0664963,0,0,2.0664963,-34.525221,-33.493375)" />
    <linearGradient
       id="linearGradient6088-6-1-0">
      <stop
         id="stop6090-2-0-4"
         style="stop-color:#ff54d2;stop-opacity:0"
         offset="0" />
      <stop
         id="stop6257-4-6-1"
         style="stop-color:#ff54d2;stop-opacity:0"
         offset="0.32368398" />
      <stop
         id="stop6255-3-6-7"
         style="stop-color:#ff54d2;stop-opacity:0.2521739"
         offset="0.56140333" />
      <stop
         id="stop6092-9-6-8"
         style="stop-color:#ff54d2;stop-opacity:0.47826087"
         offset="1" />
    </linearGradient>
    <radialGradient
       cx="32.372566"
       cy="31.405056"
       r="3.857446"
       fx="32.372566"
       fy="31.405056"
       id="radialGradient4773"
       xlink:href="#linearGradient6191-8-3-4"
       gradientUnits="userSpaceOnUse"
       gradientTransform="matrix(2.0676498,0.55402509,-0.5348486,1.9960821,-17.765612,-49.217228)" />
    <linearGradient
       id="linearGradient6191-8-3-4">
      <stop
         id="stop6193-75-7-6"
         style="stop-color:#ffffff;stop-opacity:0"
         offset="0" />
      <stop
         id="stop6197-3-4-1"
         style="stop-color:#ffffff;stop-opacity:0"
         offset="0.40531859" />
      <stop
         id="stop6195-7-2-5"
         style="stop-color:#ffffff;stop-opacity:0.47826087"
         offset="1" />
    </linearGradient>
    <radialGradient
       cx="32.372566"
       cy="31.405056"
       r="3.857446"
       fx="32.372566"
       fy="31.405056"
       id="radialGradient4775"
       xlink:href="#linearGradient6191-7-9-4"
       gradientUnits="userSpaceOnUse"
       gradientTransform="matrix(2.0676498,0.55402509,-0.5348486,1.9960821,-17.765612,-49.217228)" />
    <linearGradient
       id="linearGradient6191-7-9-4">
      <stop
         id="stop6193-7-3-6"
         style="stop-color:#ffffff;stop-opacity:0"
         offset="0" />
      <stop
         id="stop6197-2-2-0"
         style="stop-color:#ffffff;stop-opacity:0"
         offset="0.40531859" />
      <stop
         id="stop6195-2-1-9"
         style="stop-color:#ffffff;stop-opacity:0.47826087"
         offset="1" />
    </linearGradient>
    <radialGradient
       cx="32.372566"
       cy="31.405056"
       r="3.857446"
       fx="32.372566"
       fy="31.405056"
       id="radialGradient4777"
       xlink:href="#linearGradient6191-9-9"
       gradientUnits="userSpaceOnUse"
       gradientTransform="matrix(2.0676498,0.55402509,-0.5348486,1.9960821,-17.765612,-49.217228)" />
    <linearGradient
       id="linearGradient6191-9-9">
      <stop
         id="stop6193-8-1"
         style="stop-color:#ffffff;stop-opacity:0"
         offset="0" />
      <stop
         id="stop6197-8-8"
         style="stop-color:#ffffff;stop-opacity:0"
         offset="0.40531859" />
      <stop
         id="stop6195-9-3"
         style="stop-color:#ffffff;stop-opacity:0.47826087"
         offset="1" />
    </linearGradient>
    <linearGradient
       x1="68.313301"
       y1="52.925316"
       x2="68.313301"
       y2="65.922028"
       id="linearGradient4730"
       xlink:href="#linearGradient3990-3-1-7"
       gradientUnits="userSpaceOnUse"
       gradientTransform="matrix(0.11534799,0,0,0.0865106,16.28139,17.444973)" />
    <linearGradient
       id="linearGradient3990-3-1-7">
      <stop
         id="stop3992-0-0-1"
         style="stop-color:#ffffff;stop-opacity:1"
         offset="0" />
      <stop
         id="stop3994-2-1-8"
         style="stop-color:#ffffff;stop-opacity:0"
         offset="1" />
    </linearGradient>
    <linearGradient
       x1="92.696327"
       y1="16.554602"
       x2="92.696327"
       y2="48.983677"
       id="linearGradient4779"
       xlink:href="#linearGradient4316-4-6-6-4"
       gradientUnits="userSpaceOnUse" />
    <linearGradient
       id="linearGradient4316-4-6-6-4">
      <stop
         id="stop4318-4-4-6-5"
         style="stop-color:#ffffff;stop-opacity:1"
         offset="0" />
      <stop
         id="stop4320-2-2-6-59"
         style="stop-color:#ffffff;stop-opacity:0.23529412"
         offset="0.33799788" />
      <stop
         id="stop4322-4-5-5-0"
         style="stop-color:#ffffff;stop-opacity:0.15686275"
         offset="0.61996669" />
      <stop
         id="stop4324-4-1-5-5"
         style="stop-color:#ffffff;stop-opacity:0.39215687"
         offset="1" />
    </linearGradient>
    <radialGradient
       cx="32.372566"
       cy="31.405056"
       r="3.857446"
       fx="32.372566"
       fy="31.405056"
       id="radialGradient4781"
       xlink:href="#linearGradient6088-74-4"
       gradientUnits="userSpaceOnUse"
       gradientTransform="matrix(2.0664963,0,0,2.0664963,-34.525221,-33.493375)" />
    <linearGradient
       id="linearGradient6088-74-4">
      <stop
         id="stop6090-5-66"
         style="stop-color:#ff54d2;stop-opacity:0"
         offset="0" />
      <stop
         id="stop6257-5-4"
         style="stop-color:#f62b68;stop-opacity:1"
         offset="0.32368398" />
      <stop
         id="stop6255-6-7"
         style="stop-color:#ff0105;stop-opacity:1"
         offset="0.56140333" />
      <stop
         id="stop6092-0-22"
         style="stop-color:#ff54d2;stop-opacity:0.47826087"
         offset="1" />
    </linearGradient>
    <linearGradient
       x1="92.696327"
       y1="16.554602"
       x2="92.696327"
       y2="48.983677"
       id="linearGradient4783"
       xlink:href="#linearGradient4316-4-0-7"
       gradientUnits="userSpaceOnUse" />
    <linearGradient
       id="linearGradient4316-4-0-7">
      <stop
         id="stop4318-4-5-3"
         style="stop-color:#ffffff;stop-opacity:1"
         offset="0" />
      <stop
         id="stop4320-2-9-4"
         style="stop-color:#ffffff;stop-opacity:0.23529412"
         offset="0.33799788" />
      <stop
         id="stop4322-4-1-3"
         style="stop-color:#ffffff;stop-opacity:0.15686275"
         offset="0.61996669" />
      <stop
         id="stop4324-4-8-66"
         style="stop-color:#ffffff;stop-opacity:0.39215687"
         offset="1" />
    </linearGradient>
    <radialGradient
       cx="95.838364"
       cy="95.388451"
       r="9.4981718"
       fx="95.838364"
       fy="95.388451"
       id="radialGradient4738"
       xlink:href="#linearGradient4278-3-5"
       gradientUnits="userSpaceOnUse"
       gradientTransform="matrix(0.40504519,-6.0397343e-8,5.6748136e-8,0.38056881,-14.881685,-12.451151)" />
    <linearGradient
       id="linearGradient4278-3-5">
      <stop
         id="stop4280-6-90"
         style="stop-color:#000000;stop-opacity:0"
         offset="0" />
      <stop
         id="stop4286-1-9"
         style="stop-color:#000000;stop-opacity:0"
         offset="0.5" />
      <stop
         id="stop4282-24-4"
         style="stop-color:#000000;stop-opacity:1"
         offset="1" />
    </linearGradient>
    <radialGradient
       cx="23.896"
       cy="3.99"
       r="20.396999"
       id="radialGradient4741"
       xlink:href="#linearGradient2867-449-88-871-390-598-476-591-434-148-57-177-691-4-22"
       gradientUnits="userSpaceOnUse"
       gradientTransform="matrix(0,0.41038782,-0.54170722,0,26.16143,10.43124)" />
    <linearGradient
       id="linearGradient2867-449-88-871-390-598-476-591-434-148-57-177-691-4-22">
      <stop
         id="stop7191-4-6"
         style="stop-color:#612f91;stop-opacity:1"
         offset="0" />
      <stop
         id="stop7197-2-8"
         style="stop-color:#1a4aa2;stop-opacity:1"
         offset="1" />
    </linearGradient>
    <linearGradient
       x1="7.0776"
       y1="3.0816"
       x2="7.0776"
       y2="45.368999"
       id="linearGradient4743"
       xlink:href="#linearGradient3087-408-5-3"
       gradientUnits="userSpaceOnUse"
       gradientTransform="matrix(0.17195169,0,0,0.17195091,19.87316,19.873055)" />
    <linearGradient
       x1="7.0776"
       y1="3.0816"
       x2="7.0776"
       y2="45.368999"
       id="linearGradient3087-408-5-3"
       gradientUnits="userSpaceOnUse"
       gradientTransform="matrix(0.22110724,0,0,0.22110728,6.6934256,6.693263)">
      <stop
         id="stop7201-5-71"
         style="stop-color:#170418;stop-opacity:1"
         offset="0" />
      <stop
         id="stop7203-2-8"
         style="stop-color:#50386b;stop-opacity:1"
         offset="1" />
    </linearGradient>
    <radialGradient
       cx="31.999998"
       cy="21.239277"
       r="10.498171"
       fx="31.999998"
       fy="21.239277"
       id="radialGradient4748"
       xlink:href="#linearGradient6042-1-7"
       gradientUnits="userSpaceOnUse"
       gradientTransform="matrix(0,1.4370509,-3.3103161,0,94.30873,-29.673199)" />
    <linearGradient
       id="linearGradient6042-1-7">
      <stop
         id="stop6044-9-6"
         style="stop-color:#07132d;stop-opacity:1"
         offset="0" />
      <stop
         id="stop6046-9-5"
         style="stop-color:#425479;stop-opacity:1"
         offset="1" />
    </linearGradient>
    <radialGradient
       cx="91.349998"
       cy="16.447752"
       r="15.639286"
       fx="91.349998"
       fy="16.447752"
       id="radialGradient4785"
       xlink:href="#linearGradient4507-6-5"
       gradientUnits="userSpaceOnUse"
       gradientTransform="matrix(0,1.9804002,-1.9804002,0,123.92313,-164.4618)" />
    <linearGradient
       id="linearGradient4507-6-5">
      <stop
         id="stop4509-3-8"
         style="stop-color:#2d3955;stop-opacity:1"
         offset="0" />
      <stop
         id="stop5959-4-45"
         style="stop-color:#2b3853;stop-opacity:1"
         offset="0.72468865" />
      <stop
         id="stop5961-1-7"
         style="stop-color:#192640;stop-opacity:1"
         offset="0.75" />
      <stop
         id="stop4511-1-0"
         style="stop-color:#08142e;stop-opacity:1"
         offset="1" />
    </linearGradient>
    <linearGradient
       x1="92.696327"
       y1="16.554602"
       x2="92.696327"
       y2="48.983677"
       id="linearGradient4787"
       xlink:href="#linearGradient4316-5-3"
       gradientUnits="userSpaceOnUse" />
    <linearGradient
       id="linearGradient4316-5-3">
      <stop
         id="stop4318-1-6"
         style="stop-color:#ffffff;stop-opacity:1"
         offset="0" />
      <stop
         id="stop4320-9-8"
         style="stop-color:#ffffff;stop-opacity:0.23529412"
         offset="0.33799788" />
      <stop
         id="stop4322-42-31"
         style="stop-color:#ffffff;stop-opacity:0.15686275"
         offset="0.61996669" />
      <stop
         id="stop4324-9-9"
         style="stop-color:#ffffff;stop-opacity:0.39215687"
         offset="1" />
    </linearGradient>
    <linearGradient
       x1="91.566116"
       y1="16.542858"
       x2="91.566116"
       y2="48.631081"
       id="linearGradient4789"
       xlink:href="#linearGradient4220-7-2"
       gradientUnits="userSpaceOnUse" />
    <linearGradient
       id="linearGradient4220-7-2">
      <stop
         id="stop4222-7-5"
         style="stop-color:#7a8498;stop-opacity:1"
         offset="0" />
      <stop
         id="stop4224-0-5"
         style="stop-color:#34405c;stop-opacity:1"
         offset="1" />
    </linearGradient>
    <linearGradient
       x1="51.199997"
       y1="8.1142893"
       x2="51.199997"
       y2="56.114563"
       id="linearGradient4756"
       xlink:href="#linearGradient4164-9"
       gradientUnits="userSpaceOnUse"
       gradientTransform="matrix(0.66665978,0,0,0.66665668,-10.209335,2.6672249)" />
    <linearGradient
       id="linearGradient4164-9">
      <stop
         id="stop4166-3"
         style="stop-color:#b6b6b6;stop-opacity:1"
         offset="0" />
      <stop
         id="stop4216-6"
         style="stop-color:#a4a4a4;stop-opacity:1"
         offset="0.33095336" />
      <stop
         id="stop4168-0"
         style="stop-color:#c5c5c5;stop-opacity:1"
         offset="1" />
    </linearGradient>
    <linearGradient
       x1="71.204407"
       y1="15.369057"
       x2="71.204407"
       y2="40.495617"
       id="linearGradient3177"
       xlink:href="#linearGradient4806-2"
       gradientUnits="userSpaceOnUse"
       gradientTransform="matrix(1.6169806,0,0,1.6169806,-92.707374,-21.060237)" />
    <linearGradient
       id="linearGradient4806-2">
      <stop
         id="stop4808-4"
         style="stop-color:#ffffff;stop-opacity:1"
         offset="0" />
      <stop
         id="stop4810-0"
         style="stop-color:#ffffff;stop-opacity:0.23529412"
         offset="0.42447853" />
      <stop
         id="stop4812-8"
         style="stop-color:#ffffff;stop-opacity:0.15686275"
         offset="0.82089913" />
      <stop
         id="stop4814-0"
         style="stop-color:#ffffff;stop-opacity:0.39215687"
         offset="1" />
    </linearGradient>
    <radialGradient
       cx="23.896"
       cy="3.99"
       r="20.396999"
       fx="23.896"
       fy="3.99"
       id="radialGradient4201"
       xlink:href="#radialGradient3093-0-3-6-6"
       gradientUnits="userSpaceOnUse"
       gradientTransform="matrix(0,2.8885219,-3.8127977,0,39.21344,-65.949504)" />
    <radialGradient
       cx="23.896"
       cy="3.99"
       r="20.396999"
       id="radialGradient3093-0-3-6-6"
       gradientUnits="userSpaceOnUse"
       gradientTransform="matrix(0,1.2316483,-1.625754,0,18.486966,-28.721977)">
      <stop
         id="stop3244-9-33-7-0-9"
         style="stop-color:#ffffff;stop-opacity:1"
         offset="0" />
      <stop
         id="stop3246-3-5-0-8-5"
         style="stop-color:#dddddd;stop-opacity:1"
         offset="0.26238" />
      <stop
         id="stop3248-1-7-8-8-1"
         style="stop-color:#abacae;stop-opacity:1"
         offset="0.66093999" />
      <stop
         id="stop3250-9-3-0-5-1"
         style="stop-color:#89898b;stop-opacity:1"
         offset="1" />
    </radialGradient>
    <linearGradient
       id="linearGradient3820-7-2-1">
      <stop
         id="stop3822-2-6-3"
         style="stop-color:#3d3d3d;stop-opacity:1"
         offset="0" />
      <stop
         id="stop3864-8-7-7"
         style="stop-color:#686868;stop-opacity:0.49803922"
         offset="0.5" />
      <stop
         id="stop3824-1-2-5"
         style="stop-color:#686868;stop-opacity:0"
         offset="1" />
    </linearGradient>
    <radialGradient
       cx="99.157013"
       cy="186.17059"
       r="62.769119"
       fx="99.157013"
       fy="186.17059"
       id="radialGradient4949"
       xlink:href="#linearGradient3820-7-2-1"
       gradientUnits="userSpaceOnUse"
       gradientTransform="matrix(0.27083381,0,0,0.08762273,-2.85507,25.187228)" />
    <linearGradient
       id="linearGradient8838">
      <stop
         offset="0"
         style="stop-color:#000000;stop-opacity:1"
         id="stop8840" />
      <stop
         offset="1"
         style="stop-color:#000000;stop-opacity:0"
         id="stop8842" />
    </linearGradient>
    <linearGradient
       id="linearGradient4422">
      <stop
         id="stop4424"
         style="stop-color:#e4e4e4;stop-opacity:1;"
         offset="0" />
      <stop
         id="stop4426"
         style="stop-color:#d2d2d3;stop-opacity:1;"
         offset="0.37188172" />
      <stop
         id="stop4428"
         style="stop-color:#ababac;stop-opacity:1;"
         offset="0.81009638" />
      <stop
         id="stop4430"
         style="stop-color:#888889;stop-opacity:1;"
         offset="1" />
    </linearGradient>
    <linearGradient
       id="linearGradient5873">
      <stop
         style="stop-color:#8b8b8b;stop-opacity:1;"
         offset="0"
         id="stop5875" />
      <stop
         style="stop-color:#c0c0c0;stop-opacity:1;"
         offset="1"
         id="stop5877" />
    </linearGradient>
    <linearGradient
       id="linearGradient3162">
      <stop
         style="stop-color:#f9f9f9;stop-opacity:1;"
         offset="0"
         id="stop3164" />
      <stop
         style="stop-color:#d4d4d4;stop-opacity:1"
         offset="1"
         id="stop3166" />
    </linearGradient>
    <linearGradient
       id="linearGradient4436">
      <stop
         style="stop-color:#efefef;stop-opacity:1;"
         offset="0"
         id="stop4438" />
      <stop
         style="stop-color:#ffffff;stop-opacity:1;"
         offset="1"
         id="stop4440" />
    </linearGradient>
    <linearGradient
       id="linearGradient4965"
       inkscape:collect="always">
      <stop
         id="stop4967"
         offset="0"
         style="stop-color:#000000;stop-opacity:1;" />
      <stop
         id="stop4969"
         offset="1"
         style="stop-color:#000000;stop-opacity:0" />
    </linearGradient>
    <linearGradient
       inkscape:collect="always"
       xlink:href="#linearGradient4644-104-3-3-6-2-3-4"
       id="linearGradient10060"
       gradientUnits="userSpaceOnUse"
       gradientTransform="matrix(1.3333333,0,0,1.1052632,-8.0000008,-2.526316)"
       x1="24.25"
       y1="29.5"
       x2="24.25"
       y2="18.454639" />
    <linearGradient
       id="linearGradient4644-104-3-3-6-2-3-4">
      <stop
         offset="0"
         style="stop-color:#ff4035;stop-opacity:1;"
         id="stop5237-6-5-1-7-5-2" />
      <stop
         offset="1"
         style="stop-color:#dc311a;stop-opacity:1;"
         id="stop5239-4-6-4-8-4-8" />
    </linearGradient>
    <radialGradient
       inkscape:collect="always"
       xlink:href="#linearGradient3820-7-2-1"
       id="radialGradient3302"
       gradientUnits="userSpaceOnUse"
       gradientTransform="matrix(0.27083381,0,0,0.08762273,-2.85507,25.187228)"
       cx="99.157013"
       cy="186.17059"
       fx="99.157013"
       fy="186.17059"
       r="62.769119" />
    <radialGradient
       inkscape:collect="always"
       xlink:href="#linearGradient4422"
       id="radialGradient3392"
       gradientUnits="userSpaceOnUse"
       gradientTransform="matrix(0,2.4988347,-2.6434689,-6.8014435e-8,104.09953,-11.248822)"
       cx="5.3215203"
       cy="8.4497671"
       fx="5.3215203"
       fy="8.4497671"
       r="19.99999" />
    <linearGradient
       inkscape:collect="always"
       xlink:href="#linearGradient5873"
       id="linearGradient3394"
       gradientUnits="userSpaceOnUse"
       gradientTransform="translate(57.762712,0.93164569)"
       x1="23.75"
       y1="44.25"
       x2="24.000118"
       y2="1.1171311" />
    <radialGradient
       inkscape:collect="always"
       xlink:href="#linearGradient3162"
       id="radialGradient3396"
       gradientUnits="userSpaceOnUse"
       gradientTransform="matrix(9.7678889e-8,2.0000001,-2.7333333,1.3349447e-7,67.82222,-34.333337)"
       cx="25"
       cy="15.666667"
       fx="25"
       fy="15.666667"
       r="10" />
    <linearGradient
       inkscape:collect="always"
       xlink:href="#linearGradient4436"
       id="linearGradient3398"
       gradientUnits="userSpaceOnUse"
       x1="24.777349"
       y1="24.616444"
       x2="24.777349"
       y2="31.493454" />
    <linearGradient
       inkscape:collect="always"
       xlink:href="#linearGradient4965"
       id="linearGradient3400"
       gradientUnits="userSpaceOnUse"
       x1="24.777349"
       y1="18.226145"
       x2="24.777349"
       y2="22.31111" />
    <linearGradient
       inkscape:collect="always"
       xlink:href="#linearGradient4644-104-3-3-6-2-3-4"
       id="linearGradient3402"
       gradientUnits="userSpaceOnUse"
       gradientTransform="matrix(1.3333333,0,0,1.1052632,49.762711,-1.5946703)"
       x1="24.25"
       y1="29.5"
       x2="24.25"
       y2="18.454639" />
    <linearGradient
       id="linearGradient3765">
      <stop
         style="stop-color:#ffffff;stop-opacity:1;"
         offset="0"
         id="stop3767" />
      <stop
         style="stop-color:#e4e4e4;stop-opacity:1;"
         offset="1"
         id="stop3769" />
    </linearGradient>
    <linearGradient
       id="linearGradient3775">
      <stop
         style="stop-color:#ffffff;stop-opacity:0.58823532;"
         offset="0"
         id="stop3777" />
      <stop
         style="stop-color:#ffffff;stop-opacity:1;"
         offset="1"
         id="stop3779" />
    </linearGradient>
    <linearGradient
       id="linearGradient3772-6">
      <stop
         id="stop3774-6"
         style="stop-color:#b4b4b4;stop-opacity:1"
         offset="0" />
      <stop
         id="stop3776-4"
         style="stop-color:#969696;stop-opacity:1"
         offset="1" />
    </linearGradient>
    <linearGradient
       inkscape:collect="always"
       xlink:href="#linearGradient3768-2"
       id="linearGradient3963"
       gradientUnits="userSpaceOnUse"
       x1="20.117516"
       y1="-202.20998"
       x2="461.9924"
       y2="-202.20998" />
    <linearGradient
       id="linearGradient3768-2">
      <stop
         style="stop-color:#5587a3;stop-opacity:1;"
         offset="0"
         id="stop3770-4" />
      <stop
         style="stop-color:#457d8f;stop-opacity:1;"
         offset="1"
         id="stop3772-8" />
    </linearGradient>
    <linearGradient
       inkscape:collect="always"
       xlink:href="#linearGradient3768-2"
       id="linearGradient3954"
       gradientUnits="userSpaceOnUse"
       x1="20.117516"
       y1="-202.20998"
       x2="32.586807"
       y2="-123.50863" />
    <linearGradient
       id="linearGradient3180">
      <stop
         style="stop-color:#5587a3;stop-opacity:1;"
         offset="0"
         id="stop3182" />
      <stop
         style="stop-color:#457d8f;stop-opacity:1;"
         offset="1"
         id="stop3184" />
    </linearGradient>
    <linearGradient
       inkscape:collect="always"
       xlink:href="#linearGradient3768-2"
       id="linearGradient3956"
       gradientUnits="userSpaceOnUse"
       x1="20.117516"
       y1="-202.20998"
       x2="32.586807"
       y2="-123.50863" />
    <linearGradient
       id="linearGradient3187">
      <stop
         style="stop-color:#5587a3;stop-opacity:1;"
         offset="0"
         id="stop3189" />
      <stop
         style="stop-color:#457d8f;stop-opacity:1;"
         offset="1"
         id="stop3191" />
    </linearGradient>
    <linearGradient
       inkscape:collect="always"
       xlink:href="#linearGradient3768-2"
       id="linearGradient3958"
       gradientUnits="userSpaceOnUse"
       x1="20.117516"
       y1="-202.20998"
       x2="32.586807"
       y2="-123.50863" />
    <linearGradient
       id="linearGradient3194">
      <stop
         style="stop-color:#5587a3;stop-opacity:1;"
         offset="0"
         id="stop3196" />
      <stop
         style="stop-color:#457d8f;stop-opacity:1;"
         offset="1"
         id="stop3198" />
    </linearGradient>
    <linearGradient
       inkscape:collect="always"
       xlink:href="#linearGradient3768-2"
       id="linearGradient3961"
       gradientUnits="userSpaceOnUse"
       x1="20.117516"
       y1="-202.20998"
       x2="32.586807"
       y2="-123.50863" />
    <linearGradient
       id="linearGradient3201">
      <stop
         style="stop-color:#5587a3;stop-opacity:1;"
         offset="0"
         id="stop3203" />
      <stop
         style="stop-color:#457d8f;stop-opacity:1;"
         offset="1"
         id="stop3205" />
    </linearGradient>
    <linearGradient
       inkscape:collect="always"
       xlink:href="#linearGradient3800-7-2"
       id="linearGradient3973"
       gradientUnits="userSpaceOnUse"
       spreadMethod="pad"
       x1="457.9744"
       y1="-51.710907"
       x2="442.4953"
       y2="-202.20998" />
    <linearGradient
       id="linearGradient3800-7-2">
      <stop
         style="stop-color:#5ca2b8;stop-opacity:1;"
         offset="0"
         id="stop3802-4-8" />
      <stop
         style="stop-color:#5ca2b8;stop-opacity:1;"
         offset="1"
         id="stop3804-0-6" />
    </linearGradient>
    <linearGradient
       inkscape:collect="always"
       xlink:href="#linearGradient3800-7-2"
       id="linearGradient3965"
       gradientUnits="userSpaceOnUse"
       gradientTransform="translate(-3.6333562,-1.8175159)"
       spreadMethod="pad"
       x1="396.35013"
       y1="-224.8987"
       x2="378.80692"
       y2="-368.20535" />
    <linearGradient
       id="linearGradient3212">
      <stop
         style="stop-color:#5ca2b8;stop-opacity:1;"
         offset="0"
         id="stop3214" />
      <stop
         style="stop-color:#5ca2b8;stop-opacity:1;"
         offset="1"
         id="stop3216" />
    </linearGradient>
    <linearGradient
       inkscape:collect="always"
       xlink:href="#linearGradient3800-7-2"
       id="linearGradient3967"
       gradientUnits="userSpaceOnUse"
       gradientTransform="translate(-3.6333562,-1.8175159)"
       spreadMethod="pad"
       x1="450.1077"
       y1="-143.3038"
       x2="433.4119"
       y2="-242.45497" />
    <linearGradient
       id="linearGradient3219">
      <stop
         style="stop-color:#5ca2b8;stop-opacity:1;"
         offset="0"
         id="stop3221" />
      <stop
         style="stop-color:#5ca2b8;stop-opacity:1;"
         offset="1"
         id="stop3223" />
    </linearGradient>
    <linearGradient
       inkscape:collect="always"
       xlink:href="#linearGradient3800-7-2"
       id="linearGradient3969"
       gradientUnits="userSpaceOnUse"
       gradientTransform="translate(-3.6333562,-1.8175159)"
       spreadMethod="pad"
       x1="489.50595"
       y1="-113.46021"
       x2="442.4953"
       y2="-202.20998" />
    <linearGradient
       id="linearGradient3226">
      <stop
         style="stop-color:#5ca2b8;stop-opacity:1;"
         offset="0"
         id="stop3228" />
      <stop
         style="stop-color:#5ca2b8;stop-opacity:1;"
         offset="1"
         id="stop3230" />
    </linearGradient>
    <linearGradient
       inkscape:collect="always"
       xlink:href="#linearGradient3800-7-2"
       id="linearGradient3971"
       gradientUnits="userSpaceOnUse"
       gradientTransform="translate(-3.6333562,-1.8175159)"
       spreadMethod="pad"
       x1="446.69247"
       y1="-139.79538"
       x2="425.41571"
       y2="-267.90073" />
    <linearGradient
       id="linearGradient3233">
      <stop
         style="stop-color:#5ca2b8;stop-opacity:1;"
         offset="0"
         id="stop3235" />
      <stop
         style="stop-color:#5ca2b8;stop-opacity:1;"
         offset="1"
         id="stop3237" />
    </linearGradient>
    <radialGradient
       inkscape:collect="always"
       xlink:href="#linearGradient3765"
       id="radialGradient3280"
       gradientUnits="userSpaceOnUse"
       gradientTransform="matrix(-1.7922484,4.7450628e-8,-3.529013e-8,-1.3329366,41.58142,-41.248313)"
       cx="14.891734"
       cy="-17.680855"
       fx="14.891734"
       fy="-17.680855"
       r="25.570608" />
    <linearGradient
       inkscape:collect="always"
       xlink:href="#linearGradient3775"
       id="linearGradient3282"
       gradientUnits="userSpaceOnUse"
       x1="15.123692"
       y1="-18.801283"
       x2="15.123692"
       y2="32.56842" />
    <linearGradient
       inkscape:collect="always"
       xlink:href="#linearGradient3772-6"
       id="linearGradient3293"
       gradientUnits="userSpaceOnUse"
       gradientTransform="matrix(1.4102564,0,0,1.4102564,1.4050412,-4.5399056)"
       x1="27.096104"
       y1="10.880992"
       x2="27.096104"
       y2="39.150768" />
    <linearGradient
       inkscape:collect="always"
       xlink:href="#linearGradient3768-2"
       id="linearGradient4084"
       gradientUnits="userSpaceOnUse"
       x1="20.117516"
       y1="-202.20998"
       x2="461.9924"
       y2="-202.20998" />
    <linearGradient
       inkscape:collect="always"
       xlink:href="#linearGradient3800-7-2"
       id="linearGradient4086"
       gradientUnits="userSpaceOnUse"
       spreadMethod="pad"
       x1="457.9744"
       y1="-51.710907"
       x2="442.4953"
       y2="-202.20998" />
    <linearGradient
       inkscape:collect="always"
       xlink:href="#linearGradient3768-2"
       id="linearGradient4130"
       gradientUnits="userSpaceOnUse"
       x1="20.117516"
       y1="-202.20998"
       x2="32.586807"
       y2="-123.50863" />
    <linearGradient
       inkscape:collect="always"
       xlink:href="#linearGradient3768-2"
       id="linearGradient4132"
       gradientUnits="userSpaceOnUse"
       x1="20.117516"
       y1="-202.20998"
       x2="32.586807"
       y2="-123.50863" />
    <linearGradient
       inkscape:collect="always"
       xlink:href="#linearGradient3768-2"
       id="linearGradient4134"
       gradientUnits="userSpaceOnUse"
       x1="20.117516"
       y1="-202.20998"
       x2="32.586807"
       y2="-123.50863" />
    <linearGradient
       inkscape:collect="always"
       xlink:href="#linearGradient3768-2"
       id="linearGradient4136"
       gradientUnits="userSpaceOnUse"
       x1="20.117516"
       y1="-202.20998"
       x2="32.586807"
       y2="-123.50863" />
    <linearGradient
       inkscape:collect="always"
       xlink:href="#linearGradient3768-2"
       id="linearGradient4138"
       gradientUnits="userSpaceOnUse"
       x1="20.117516"
       y1="-202.20998"
       x2="461.9924"
       y2="-202.20998" />
    <linearGradient
       inkscape:collect="always"
       xlink:href="#linearGradient3800-7-2"
       id="linearGradient4140"
       gradientUnits="userSpaceOnUse"
       gradientTransform="translate(-3.6333562,-1.8175159)"
       spreadMethod="pad"
       x1="396.35013"
       y1="-224.8987"
       x2="378.80692"
       y2="-368.20535" />
    <linearGradient
       inkscape:collect="always"
       xlink:href="#linearGradient3800-7-2"
       id="linearGradient4142"
       gradientUnits="userSpaceOnUse"
       gradientTransform="translate(-3.6333562,-1.8175159)"
       spreadMethod="pad"
       x1="450.1077"
       y1="-143.3038"
       x2="433.4119"
       y2="-242.45497" />
    <linearGradient
       inkscape:collect="always"
       xlink:href="#linearGradient3800-7-2"
       id="linearGradient4144"
       gradientUnits="userSpaceOnUse"
       gradientTransform="translate(-3.6333562,-1.8175159)"
       spreadMethod="pad"
       x1="489.50595"
       y1="-113.46021"
       x2="442.4953"
       y2="-202.20998" />
    <linearGradient
       inkscape:collect="always"
       xlink:href="#linearGradient3800-7-2"
       id="linearGradient4146"
       gradientUnits="userSpaceOnUse"
       gradientTransform="translate(-3.6333562,-1.8175159)"
       spreadMethod="pad"
       x1="446.69247"
       y1="-139.79538"
       x2="425.41571"
       y2="-267.90073" />
    <linearGradient
       inkscape:collect="always"
       xlink:href="#linearGradient3800-7-2"
       id="linearGradient4148"
       gradientUnits="userSpaceOnUse"
       spreadMethod="pad"
       x1="457.9744"
       y1="-51.710907"
       x2="442.4953"
       y2="-202.20998" />
    <radialGradient
       inkscape:collect="always"
       xlink:href="#linearGradient3752"
       id="radialGradient3758"
       cx="17.78125"
       cy="45.5"
       fx="17.78125"
       fy="45.5"
       r="15.152277"
       gradientTransform="matrix(1,0,0,0.2314077,0,34.97095)"
       gradientUnits="userSpaceOnUse" />
    <linearGradient
       inkscape:collect="always"
       id="linearGradient3752">
      <stop
         style="stop-color:#000000;stop-opacity:1;"
         offset="0"
         id="stop3754" />
      <stop
         style="stop-color:#000000;stop-opacity:0;"
         offset="1"
         id="stop3756" />
    </linearGradient>
    <linearGradient
       inkscape:collect="always"
       xlink:href="#linearGradient2264"
       id="linearGradient3890"
       gradientUnits="userSpaceOnUse"
       x1="118"
       y1="37.916431"
       x2="118"
       y2="132.39774" />
    <linearGradient
       id="linearGradient2264">
      <stop
         offset="0"
         style="stop-color:#cbe866;stop-opacity:1;"
         id="stop2266" />
      <stop
         offset="1"
         style="stop-color:#76ab2a;stop-opacity:1;"
         id="stop2268" />
    </linearGradient>
    <linearGradient
       inkscape:collect="always"
       xlink:href="#linearGradient14981-4"
       id="linearGradient7719"
       x1="52.368458"
       y1="20.78507"
       x2="5.6271873"
       y2="12.91629"
       gradientUnits="userSpaceOnUse"
       gradientTransform="matrix(0.999924,0.01232938,-0.01232938,0.999924,0.2587749,-0.2864042)" />
    <linearGradient
       id="linearGradient14981-4">
      <stop
         offset="0"
         style="stop-color:#628430;stop-opacity:1"
         id="stop14983-1" />
      <stop
         offset="1"
         style="stop-color:#364d17;stop-opacity:1"
         id="stop14985-7" />
    </linearGradient>
    <linearGradient
       inkscape:collect="always"
       xlink:href="#linearGradient14981-4"
       id="linearGradient7727"
       x1="42.382519"
       y1="24.942881"
       x2="10.805126"
       y2="20.918839"
       gradientUnits="userSpaceOnUse"
       gradientTransform="matrix(0.965063,0.01189953,-0.01232938,0.999924,1.1112913,-0.2758924)" />
    <linearGradient
       id="linearGradient3158">
      <stop
         offset="0"
         style="stop-color:#628430;stop-opacity:1"
         id="stop3160" />
      <stop
         offset="1"
         style="stop-color:#364d17;stop-opacity:1"
         id="stop3162" />
    </linearGradient>
    <linearGradient
       inkscape:collect="always"
       xlink:href="#linearGradient14981-4"
       id="linearGradient7735"
       x1="47.44286"
       y1="32.17305"
       x2="11.520617"
       y2="26.821533"
       gradientUnits="userSpaceOnUse"
       gradientTransform="matrix(0.8596429,0.01059967,-0.01232938,0.999924,3.5039934,-0.2463897)" />
    <linearGradient
       id="linearGradient3165">
      <stop
         offset="0"
         style="stop-color:#628430;stop-opacity:1"
         id="stop3167" />
      <stop
         offset="1"
         style="stop-color:#364d17;stop-opacity:1"
         id="stop3169" />
    </linearGradient>
    <linearGradient
       inkscape:collect="always"
       xlink:href="#linearGradient3259"
       id="linearGradient3906"
       x1="119.32618"
       y1="86.842827"
       x2="119.32618"
       y2="132.79765"
       gradientUnits="userSpaceOnUse" />
    <linearGradient
       id="linearGradient3259">
      <stop
         offset="0"
         style="stop-color:#ffffff;stop-opacity:1"
         id="stop3261" />
      <stop
         offset="1"
         style="stop-color:#ffffff;stop-opacity:0"
         id="stop3263" />
    </linearGradient>
    <radialGradient
       inkscape:collect="always"
       xlink:href="#linearGradient14981-4"
       id="radialGradient3090"
       gradientUnits="userSpaceOnUse"
       gradientTransform="matrix(1.1318093,0.197699,-0.1703116,0.9750189,-125.73054,-101.25452)"
       cx="147.76869"
       cy="120.16964"
       fx="147.76869"
       fy="120.16964"
       r="14.451495" />
    <linearGradient
       id="linearGradient3176">
      <stop
         offset="0"
         style="stop-color:#628430;stop-opacity:1"
         id="stop3178" />
      <stop
         offset="1"
         style="stop-color:#364d17;stop-opacity:1"
         id="stop3180" />
    </linearGradient>
    <radialGradient
       inkscape:collect="always"
       xlink:href="#linearGradient14981-4"
       id="radialGradient3331"
       gradientUnits="userSpaceOnUse"
       gradientTransform="matrix(1.1318093,0.197699,-0.1703116,0.9750189,-192.6913,-106.07595)"
       cx="147.76869"
       cy="120.16964"
       fx="147.76869"
       fy="120.16964"
       r="14.451495" />
    <linearGradient
       inkscape:collect="always"
       xlink:href="#linearGradient14981-4"
       id="linearGradient3335"
       gradientUnits="userSpaceOnUse"
       gradientTransform="matrix(0.8596429,0.01059967,-0.01232938,0.999924,-63.456772,-5.0678163)"
       x1="47.44286"
       y1="32.17305"
       x2="11.520617"
       y2="26.821533" />
    <linearGradient
       inkscape:collect="always"
       xlink:href="#linearGradient14981-4"
       id="linearGradient3338"
       gradientUnits="userSpaceOnUse"
       gradientTransform="matrix(0.965063,0.01189953,-0.01232938,0.999924,-65.849474,-5.097319)"
       x1="42.382519"
       y1="24.942881"
       x2="10.805126"
       y2="20.918839" />
    <linearGradient
       inkscape:collect="always"
       xlink:href="#linearGradient14981-4"
       id="linearGradient3341"
       gradientUnits="userSpaceOnUse"
       gradientTransform="matrix(0.999924,0.01232938,-0.01232938,0.999924,-66.70199,-5.1078308)"
       x1="52.368458"
       y1="20.78507"
       x2="5.6271873"
       y2="12.91629" />
    <radialGradient
       inkscape:collect="always"
       xlink:href="#linearGradient3752"
       id="radialGradient3345"
       gradientUnits="userSpaceOnUse"
       gradientTransform="matrix(1,0,0,0.2314077,0,34.97095)"
       cx="17.78125"
       cy="45.5"
       fx="17.78125"
       fy="45.5"
       r="15.152277" />
    <radialGradient
       inkscape:collect="always"
       xlink:href="#linearGradient3820-7-2-1"
       id="radialGradient3347"
       gradientUnits="userSpaceOnUse"
       gradientTransform="matrix(0.27083381,0,0,0.08762273,-2.85507,25.187228)"
       cx="99.157013"
       cy="186.17059"
       fx="99.157013"
       fy="186.17059"
       r="62.769119" />
    <radialGradient
       inkscape:collect="always"
       xlink:href="#linearGradient3765"
       id="radialGradient3349"
       gradientUnits="userSpaceOnUse"
       gradientTransform="matrix(-1.7922484,4.7450628e-8,-3.529013e-8,-1.3329366,41.58142,-41.248313)"
       cx="14.891734"
       cy="-17.680855"
       fx="14.891734"
       fy="-17.680855"
       r="25.570608" />
    <linearGradient
       inkscape:collect="always"
       xlink:href="#linearGradient3775"
       id="linearGradient3351"
       gradientUnits="userSpaceOnUse"
       x1="15.123692"
       y1="-18.801283"
       x2="15.123692"
       y2="32.56842" />
    <linearGradient
       inkscape:collect="always"
       xlink:href="#linearGradient3768-2"
       id="linearGradient3353"
       gradientUnits="userSpaceOnUse"
       x1="20.117516"
       y1="-202.20998"
       x2="32.586807"
       y2="-123.50863" />
    <linearGradient
       inkscape:collect="always"
       xlink:href="#linearGradient3768-2"
       id="linearGradient3355"
       gradientUnits="userSpaceOnUse"
       x1="20.117516"
       y1="-202.20998"
       x2="32.586807"
       y2="-123.50863" />
    <linearGradient
       inkscape:collect="always"
       xlink:href="#linearGradient3768-2"
       id="linearGradient3357"
       gradientUnits="userSpaceOnUse"
       x1="20.117516"
       y1="-202.20998"
       x2="32.586807"
       y2="-123.50863" />
    <linearGradient
       inkscape:collect="always"
       xlink:href="#linearGradient3768-2"
       id="linearGradient3359"
       gradientUnits="userSpaceOnUse"
       x1="20.117516"
       y1="-202.20998"
       x2="32.586807"
       y2="-123.50863" />
    <linearGradient
       inkscape:collect="always"
       xlink:href="#linearGradient3768-2"
       id="linearGradient3361"
       gradientUnits="userSpaceOnUse"
       x1="20.117516"
       y1="-202.20998"
       x2="461.9924"
       y2="-202.20998" />
    <linearGradient
       inkscape:collect="always"
       xlink:href="#linearGradient3800-7-2"
       id="linearGradient3363"
       gradientUnits="userSpaceOnUse"
       gradientTransform="translate(-3.6333562,-1.8175159)"
       spreadMethod="pad"
       x1="396.35013"
       y1="-224.8987"
       x2="378.80692"
       y2="-368.20535" />
    <linearGradient
       inkscape:collect="always"
       xlink:href="#linearGradient3800-7-2"
       id="linearGradient3365"
       gradientUnits="userSpaceOnUse"
       gradientTransform="translate(-3.6333562,-1.8175159)"
       spreadMethod="pad"
       x1="450.1077"
       y1="-143.3038"
       x2="433.4119"
       y2="-242.45497" />
    <linearGradient
       inkscape:collect="always"
       xlink:href="#linearGradient3800-7-2"
       id="linearGradient3367"
       gradientUnits="userSpaceOnUse"
       gradientTransform="translate(-3.6333562,-1.8175159)"
       spreadMethod="pad"
       x1="489.50595"
       y1="-113.46021"
       x2="442.4953"
       y2="-202.20998" />
    <linearGradient
       inkscape:collect="always"
       xlink:href="#linearGradient3800-7-2"
       id="linearGradient3369"
       gradientUnits="userSpaceOnUse"
       gradientTransform="translate(-3.6333562,-1.8175159)"
       spreadMethod="pad"
       x1="446.69247"
       y1="-139.79538"
       x2="425.41571"
       y2="-267.90073" />
    <linearGradient
       inkscape:collect="always"
       xlink:href="#linearGradient3800-7-2"
       id="linearGradient3371"
       gradientUnits="userSpaceOnUse"
       spreadMethod="pad"
       x1="457.9744"
       y1="-51.710907"
       x2="442.4953"
       y2="-202.20998" />
    <radialGradient
       inkscape:collect="always"
       xlink:href="#linearGradient3820-7-2-1"
       id="radialGradient3398"
       gradientUnits="userSpaceOnUse"
       gradientTransform="matrix(0.27083381,0,0,0.08762273,-2.85507,25.187228)"
       cx="99.157013"
       cy="186.17059"
       fx="99.157013"
       fy="186.17059"
       r="62.769119" />
    <linearGradient
       inkscape:collect="always"
       xlink:href="#linearGradient2264"
       id="linearGradient3435"
       gradientUnits="userSpaceOnUse"
       x1="118"
       y1="37.916431"
       x2="118"
       y2="132.39774"
       gradientTransform="matrix(0.91304348,0,0,0.91304348,-78.717391,-76.30895)" />
    <linearGradient
       inkscape:collect="always"
       xlink:href="#linearGradient3259"
       id="linearGradient3443"
       gradientUnits="userSpaceOnUse"
       x1="119.32618"
       y1="86.842827"
       x2="119.32618"
       y2="132.79765"
       gradientTransform="matrix(0.87246377,0,0,0.87246376,-74.152183,-71.850774)" />
    <linearGradient
       inkscape:collect="always"
       xlink:href="#linearGradient3259"
       id="linearGradient4421"
       x1="24.231598"
       y1="2.9105027"
       x2="23.503201"
       y2="44.447186"
       gradientUnits="userSpaceOnUse" />
  </defs>
  <metadata
     id="metadata4956">
    <rdf:RDF>
      <cc:Work
         rdf:about="">
        <dc:format>image/svg+xml</dc:format>
        <dc:type
           rdf:resource="http://purl.org/dc/dcmitype/StillImage" />
        <dc:title />
      </cc:Work>
    </rdf:RDF>
  </metadata>
  <path
     style="fill:url(#radialGradient3398);fill-opacity:1;stroke:none"
     id="path3818-0-5"
     inkscape:connector-curvature="0"
     d="m 41,41.5 a 17,5.4999999 0 0 1 -34,0 17,5.4999999 0 1 1 34,0 z" />
  <circle
     r="20.543478"
     cy="24"
     cx="24"
     style="display:inline;overflow:visible;visibility:visible;fill:url(#linearGradient3435);fill-opacity:1;fill-rule:nonzero;stroke:none;stroke-width:1px;marker:none;enable-background:accumulate"
     id="path5513" />
  <path
     style="color:#000000;font-style:normal;font-variant:normal;font-weight:normal;font-stretch:normal;font-size:medium;line-height:normal;font-family:sans-serif;text-indent:0;text-align:start;text-decoration:none;text-decoration-line:none;text-decoration-style:solid;text-decoration-color:#000000;letter-spacing:normal;word-spacing:normal;text-transform:none;direction:ltr;block-progression:tb;writing-mode:lr-tb;baseline-shift:baseline;text-anchor:start;white-space:normal;clip-rule:nonzero;display:inline;overflow:visible;visibility:visible;opacity:0.3;isolation:auto;mix-blend-mode:normal;color-interpolation:sRGB;color-interpolation-filters:linearRGB;solid-color:#000000;solid-opacity:1;fill:url(#linearGradient4421);fill-opacity:1;fill-rule:nonzero;stroke:none;stroke-width:1px;stroke-linecap:butt;stroke-linejoin:miter;stroke-miterlimit:4;stroke-dasharray:none;stroke-dashoffset:0;stroke-opacity:1;marker:none;color-rendering:auto;image-rendering:auto;shape-rendering:auto;text-rendering:auto;enable-background:accumulate"
     d="m 18.291016,14.5 c -2.370914,0.0016 -4.695054,0.198921 -6.923828,0.59375 l -0.002,0 -0.002,0 C 10.178144,15.316164 9.4752065,16.374327 9.5,17.396484 c 0.012397,0.511079 0.2131734,1.031749 0.626953,1.410157 0.41378,0.378408 1.020676,0.592923 1.759766,0.582031 l 0.04101,0 0.04297,-0.0078 C 22.063534,17.512845 30.18003,19.53525 37.964844,23.375 l 0.002,0 0.0039,0.002 c 1.722094,0.82212 3.609695,-2.163664 1.748047,-3.591797 l -0.03516,-0.02734 -0.03906,-0.01953 C 32.945105,16.247934 25.403748,14.495205 18.291016,14.5 Z m 0,1 c 6.926238,-0.0047 14.29701,1.707113 20.830078,5.097656 1.055634,0.843193 -0.373488,2.042712 -0.720703,1.876953 -7.884351,-3.887884 -16.256403,-5.966695 -26.529297,-4.085937 -0.545523,0.008 -0.868967,-0.137965 -1.06836,-0.320313 C 10.603342,17.886011 10.506679,17.646466 10.5,17.371094 10.486641,16.82035 10.857835,16.207436 11.546875,16.078125 13.713278,15.694585 15.976454,15.501561 18.291016,15.5 Z m 1.191406,5.001953 c -1.895122,-0.01457 -3.858274,0.05374 -5.953125,0.158203 l -0.01758,0.002 -0.01758,0.002 c -0.636381,0.07654 -1.151637,0.435322 -1.484375,0.890626 -0.332739,0.455303 -0.503899,1.006206 -0.509766,1.552734 -0.0059,0.546528 0.159937,1.107843 0.568359,1.517578 0.408423,0.409735 1.045473,0.614062 1.78711,0.519531 l 0.002,0 0.002,0 c 8.505354,-1.124579 13.813896,-0.03713 20.955078,3.109375 l -0.05273,-0.02539 c 0.567905,0.334028 1.204675,0.338314 1.671875,0.07422 0.4672,-0.264095 0.761479,-0.7211 0.923828,-1.220703 0.162348,-0.499602 0.19527,-1.056684 0.05664,-1.585937 -0.138629,-0.529254 -0.471398,-1.041379 -1.019531,-1.332032 l -0.01367,-0.0078 -0.01172,-0.0059 C 30.251756,21.34706 25.16755,20.545658 19.482422,20.501953 Z m -0.0078,1 c 5.589974,0.04297 10.471806,0.812525 16.455079,3.550781 0.27196,0.146645 0.435279,0.381117 0.517578,0.695313 0.08297,0.316745 0.06347,0.701904 -0.04102,1.023437 -0.104484,0.321534 -0.2909,0.563784 -0.464844,0.66211 -0.173944,0.09833 -0.33844,0.127759 -0.671875,-0.06836 l -0.02539,-0.01367 -0.02734,-0.01172 c -7.231746,-3.186411 -12.844168,-4.329556 -21.486328,-3.1875 -0.512507,0.06533 -0.776106,-0.05679 -0.953125,-0.234375 -0.17702,-0.177589 -0.280952,-0.46468 -0.277344,-0.800781 0.0036,-0.336102 0.120488,-0.701899 0.318359,-0.972657 0.196382,-0.268719 0.453267,-0.441588 0.791016,-0.484375 2.073883,-0.103134 4.008957,-0.172473 5.865234,-0.158203 z M 19.203125,26.5 c -1.332815,8.76e-4 -2.664751,0.08917 -4.214844,0.253906 l -0.06445,0.0078 -0.06055,0.02344 c -1.039406,0.393981 -1.450355,1.491361 -1.347656,2.433594 0.05135,0.471116 0.225565,0.929972 0.552734,1.285156 0.32717,0.355184 0.826987,0.584395 1.386719,0.552735 l 0.01563,-0.002 0.01563,-0.002 c 2.771741,-0.322262 4.833724,-0.338046 8.027344,0.04492 3.197651,0.383427 5.092294,1.285614 7.833984,2.296875 l -0.03125,-0.01367 c 0.426847,0.193052 0.912481,0.122386 1.259766,-0.103515 0.347285,-0.225901 0.591823,-0.572111 0.746094,-0.966797 0.308541,-0.789372 0.25632,-1.848212 -0.482422,-2.617188 l -0.07422,-0.07617 -0.0957,-0.04102 C 29.682,28.343327 27.237099,27.229197 23.419922,26.771484 21.867422,26.586423 20.535779,26.499124 19.203125,26.5 Z m 0,1 c 1.288896,-8.48e-4 2.577243,0.0822 4.099609,0.263672 3.616827,0.433689 5.909279,1.469699 8.84375,2.683594 0.384506,0.446612 0.422121,1.042702 0.244141,1.498046 -0.09273,0.237246 -0.239999,0.41649 -0.359375,0.494141 -0.119376,0.07765 -0.176461,0.08924 -0.304688,0.03125 l -0.01562,-0.0078 -0.01563,-0.0059 c -2.700119,-0.995928 -4.72824,-1.951521 -8.064453,-2.351562 -3.248466,-0.389546 -5.436025,-0.373458 -8.261718,-0.04492 l 0.03125,-0.0039 c -0.282058,0.01595 -0.44826,-0.06828 -0.597657,-0.230469 -0.149396,-0.162189 -0.261109,-0.4245 -0.292968,-0.716797 -0.06224,-0.570982 0.171368,-1.148716 0.68164,-1.365234 1.480885,-0.154972 2.753609,-0.243314 4.011719,-0.244141 z"
     id="path4413"
     inkscape:connector-curvature="0" />
  <path
     style="display:inline;overflow:visible;visibility:visible;fill:#4d4d4d;fill-opacity:1;fill-rule:nonzero;stroke:none;stroke-width:1px;marker:none;enable-background:accumulate"
     d="M 18.291016 15 C 15.947613 15.00158 13.653233 15.196533 11.455078 15.585938 C 9.5809013 15.937663 9.3096826 18.926534 11.878906 18.888672 C 22.083031 17.000059 30.338936 19.055551 38.185547 22.925781 C 39.221468 23.420325 40.894987 21.317708 39.414062 20.181641 C 32.790312 16.73072 25.321224 14.995261 18.291016 15 z M 19.478516 21.001953 C 17.598184 20.987498 15.644934 21.055918 13.554688 21.160156 C 11.598766 21.395395 11.284682 24.968149 13.792969 24.648438 C 22.367919 23.514657 27.828574 24.630158 35.015625 27.796875 C 36.818304 28.857169 37.808433 25.479484 36.160156 24.605469 C 30.104779 21.830554 25.119512 21.045319 19.478516 21.001953 z M 19.203125 27 C 17.89235 27.000862 16.580049 27.088395 15.041016 27.251953 C 13.465203 27.849255 13.744154 30.65187 15.427734 30.556641 C 18.226451 30.231242 20.351223 30.215305 23.572266 30.601562 C 26.839198 30.993296 28.800579 31.922186 31.521484 32.925781 C 32.631631 33.427872 33.650621 31.259136 32.478516 30.039062 C 29.481236 28.802356 27.108771 27.716929 23.361328 27.267578 C 21.823895 27.084313 20.5139 26.999138 19.203125 27 z "
     id="path7661" />
  <circle
     r="19.630434"
     cy="23.999998"
     cx="23.99999"
     id="path3894"
     style="display:inline;overflow:visible;visibility:visible;opacity:0.2;fill:none;stroke:url(#linearGradient3443);stroke-width:0.87246376px;marker:none;enable-background:accumulate" />
  <circle
     r="20.543478"
     cy="24"
     cx="24"
     id="path3892"
     style="display:inline;overflow:visible;visibility:visible;fill:none;stroke:#699536;stroke-width:0.9130435px;stroke-opacity:1;marker:none;enable-background:accumulate" />
  <path
     style="color:#000000;font-style:normal;font-variant:normal;font-weight:normal;font-stretch:normal;font-size:medium;line-height:normal;font-family:sans-serif;text-indent:0;text-align:start;text-decoration:none;text-decoration-line:none;text-decoration-style:solid;text-decoration-color:#000000;letter-spacing:normal;word-spacing:normal;text-transform:none;direction:ltr;block-progression:tb;writing-mode:lr-tb;baseline-shift:baseline;text-anchor:start;white-space:normal;clip-rule:nonzero;display:inline;overflow:visible;visibility:visible;opacity:0.15;isolation:auto;mix-blend-mode:normal;color-interpolation:sRGB;color-interpolation-filters:linearRGB;solid-color:#000000;solid-opacity:1;fill:#000000;fill-opacity:1;fill-rule:nonzero;stroke:none;stroke-width:2;stroke-linecap:round;stroke-linejoin:round;stroke-miterlimit:4;stroke-dasharray:none;stroke-dashoffset:0;stroke-opacity:1;marker:none;color-rendering:auto;image-rendering:auto;shape-rendering:auto;text-rendering:auto;enable-background:accumulate"
     d="m 18.290791,15 c -2.343403,0.0016 -4.637783,0.196532 -6.835938,0.585938 -1.8741764,0.351725 -2.1453954,3.340596 0.423828,3.302734 10.204125,-1.888613 18.46003,0.166879 26.306641,4.037109 1.035921,0.494544 2.70944,-1.608073 1.228515,-2.74414 C 32.790087,16.73072 25.320999,14.995261 18.290791,15 Z m 0,1 c 6.822843,-0.0046 14.094236,1.682863 20.537109,5.013672 0.60364,0.526668 -0.538618,0.853332 -0.210937,1.009766 -7.933109,-3.911147 -16.425754,-6.024801 -26.78711,-4.138672 -0.416535,-0.0011 -0.60035,-0.10406 -0.689453,-0.185547 -0.0922,-0.08432 -0.136804,-0.182326 -0.140625,-0.339844 -0.0076,-0.314566 0.199042,-0.705502 0.638672,-0.789063 C 13.772544,16.192853 16.005739,16.001541 18.290791,16 Z m 1.1875,5.001953 c -1.880332,-0.01446 -3.833582,0.05396 -5.923828,0.158203 -1.955923,0.235239 -2.270006,3.807993 0.238281,3.488282 8.57495,-1.133781 14.035605,-0.01828 21.222656,3.148437 1.802679,1.060294 2.792808,-2.317391 1.144531,-3.191406 -6.055377,-2.774915 -11.040644,-3.56015 -16.68164,-3.603516 z m -0.0078,1 c 5.536814,0.04256 10.316769,0.793126 16.224609,3.492188 0.135993,0.07392 0.213266,0.173505 0.267579,0.380859 0.05513,0.210491 0.0443,0.509687 -0.03125,0.742188 -0.07555,0.232499 -0.209012,0.365418 -0.236329,0.380859 -0.02732,0.01544 0.04433,0.06466 -0.171874,-0.0625 a 1.0001,1.0001 0 0 0 -0.105469,-0.05469 c -7.27762,-3.206623 -13.040156,-4.375864 -21.751953,-3.224609 -0.397942,0.05072 -0.473838,-0.03028 -0.535157,-0.0918 -0.06131,-0.06151 -0.133338,-0.210518 -0.130859,-0.441406 0.0025,-0.230889 0.09027,-0.505108 0.220703,-0.683594 0.128726,-0.176143 0.257335,-0.258564 0.447266,-0.283203 2.055775,-0.101901 3.971705,-0.168373 5.802734,-0.154297 z M 19.202913,27 c -1.310775,8.62e-4 -2.623076,0.08839 -4.162109,0.251953 -1.575813,0.597302 -1.296862,3.399917 0.386718,3.304688 2.798717,-0.325399 4.923489,-0.341336 8.144532,0.04492 3.266932,0.391734 5.228313,1.320624 7.949218,2.324219 1.110147,0.502091 2.129137,-1.666644 0.957032,-2.886719 -2.99728,-1.236706 -5.369745,-2.322133 -9.117188,-2.771484 -1.537433,-0.183265 -2.847428,-0.26844 -4.158203,-0.267578 z m 0,1 c 1.267016,-8.33e-4 2.531763,0.08009 4.039063,0.259766 3.469716,0.416049 5.687591,1.39606 8.533203,2.576172 0.204813,0.28432 0.259906,0.642551 0.148437,0.927734 -0.04816,0.12321 -0.0956,0.166249 -0.126953,0.199219 -2.644169,-0.979025 -4.731266,-1.948919 -8.105469,-2.353516 -3.252075,-0.389978 -5.496987,-0.375479 -8.320312,-0.05078 -0.143221,0.0081 -0.138709,-0.0066 -0.199219,-0.07227 -0.06051,-0.06569 -0.143902,-0.228754 -0.166016,-0.43164 -0.04195,-0.384856 0.112392,-0.696199 0.369141,-0.822266 1.406298,-0.143933 2.632782,-0.231636 3.828125,-0.232422 z"
     id="path4404"
     inkscape:connector-curvature="0" />
</svg>
