<svg xmlns="http://www.w3.org/2000/svg" width="48" height="48">
<defs>
  <path
     d="m 23.763708,2.0351016 a 1.94272,1.94272 0 0 0 -1.462233,1.6342599 1.3763565,1.3763565 0 0 0 0,0.086014 1.94272,1.94272 0 0 0 -0.08601,0.086014 1.3763565,1.3763565 0 0 0 0,0.1720274 1.3763565,1.3763565 0 0 0 -0.08601,0.4300684 l 0.08601,14.8803667 -4.988793,-5.074807 a 1.94272,1.94272 0 1 0 -2.752438,2.666424 l 6.967108,7.053122 -6.967108,6.967108 a 1.9462676,1.9462676 0 1 0 2.752438,2.752438 l 5.074807,-5.160821 0.08601,14.880367 a 1.3763565,1.3763565 0 0 0 0.08601,0.344055 1.9472175,1.9472175 0 0 0 0,0.08601 1.9472175,1.9472175 0 0 0 3.26852,1.63426 l 9.633532,-10.321642 a 1.94272,1.94272 0 0 0 -0.08601,-2.666424 L 26.8602,23.968588 35.289541,15.36722 a 1.94272,1.94272 0 0 0 0.08601,-2.666424 L 25.569995,2.6371974 A 1.94272,1.94272 0 0 0 23.763708,2.0351016 z m 1.118177,5.4188619 6.365013,6.5370395 -6.278999,6.365012 -0.08601,-12.9020515 z m 0.172028,20.2132145 6.192985,6.192985 -6.106972,6.53704 -0.08601,-12.730025 z"
     id="path-main" />
</defs>
<acyl-settings>
<linearGradient
     id="linearGradient4321">
    <stop
       style="stop-color:#89F6FB;stop-opacity:1.0;"
       offset="0.5"
       id="stop1" />
    <stop
       style="stop-color:#10A1AA;stop-opacity:1.0;"
       offset="1.0"
       id="stop2" />
  </linearGradient>
<radialGradient
       inkscape:collect="always"
       xlink:href="#linearGradient4321"
       id="acyl_gradient"
       cx="50.0%"
       cy="50.0%"
       fx="50.0%"
       fy="50.0%"
       r="50.0%"
/>
<filter id="filter1111" x="-50%" y="-50%" width="200%" height="200%">
	<feImage
	id="feImage2"
	xlink:href="#1"
	result="result1" />
	<feComposite
	id="feComposite3633"
	in="result1"
	in2="SourceGraphic"
	operator="xor" />
</filter>
	<rect
	style="fill:#1A4B4F;fill-opacity:1.0;filter:url(#filter1111)"
	id="rect2835"
	width="48"
	height="48"
	x="0"
	y="0"
	rx="3.5"
	ry="3.5" />
	<rect
	style="fill:url(#acyl_gradient);filter:url(#filter1111)"
	id="rect2835"
	width="44"
	height="44"
	x="2"
	y="2"
	rx="3.5"
	ry="3.5" />
<defs>
<use id="1" transform="translate(22.5,22.5) scale(0.85) translate(-22.5,-22.5)" style="fill:#000000" xlink:href="#path-main" />
</defs>
	<use id="2" transform="translate(22.5,22.5) scale(0.85) translate(-22.5,-22.5)" style="fill:#1A4B4F;fill-opacity:1.0" xlink:href="#path-main" />
</acyl-settings>
</svg>
