<svg xmlns="http://www.w3.org/2000/svg" width="48" height="48">
<defs>
  <path
     d="M 27.280899,2 C 23.741086,2 20.741286,3.8661091 19.129113,6.6160714 18.221308,5.9688126 17.062056,5.6339286 15.789828,5.6339286 c -2.891428,0 -5.303572,1.9412768 -5.303572,4.4196424 0,0.556604 0.176544,1.07943 0.392857,1.571429 -3.2884919,1.259443 -5.5982141,4.167039 -5.5982141,7.464286 0,4.477223 4.205143,8.053571 9.4285711,8.053571 l 3.142858,0 0,-12.473214 c 0,-1.608731 1.337697,-2.946429 2.946428,-2.946429 l 6.678572,0 c 1.608731,0 2.946428,1.337698 2.946428,2.946429 l 0,12.473214 3.142857,0 c 5.223429,0 9.428572,-3.576348 9.428572,-8.053571 0,-3.54635 -2.691028,-6.567063 -6.383929,-7.660715 0.0082,-0.153434 0.09821,-0.33572 0.09821,-0.491071 C 36.70947,5.9807649 32.48547,2 27.280899,2 z m -6.285714,12.571429 0,15.714285 1.571428,6.285715 3.142857,0 1.571429,-6.285715 0,-15.714285 -6.285714,0 z m 0,25.142857 0,6.285714 6.285714,0 0,-6.285714 -6.285714,0 z"
     id="path-main" />
</defs>
<acyl-settings>
<linearGradient
     id="linearGradient4321">
    <stop
       style="stop-color:#89F6FB;stop-opacity:1.0;"
       offset="0.5"
       id="stop1" />
    <stop
       style="stop-color:#10A1AA;stop-opacity:1.0;"
       offset="1.0"
       id="stop2" />
  </linearGradient>
<radialGradient
       inkscape:collect="always"
       xlink:href="#linearGradient4321"
       id="acyl_gradient"
       cx="50.0%"
       cy="50.0%"
       fx="50.0%"
       fy="50.0%"
       r="50.0%"
/>
<filter id="filter1111" x="-50%" y="-50%" width="200%" height="200%">
	<feImage
	id="feImage2"
	xlink:href="#1"
	result="result1" />
	<feComposite
	id="feComposite3633"
	in="result1"
	in2="SourceGraphic"
	operator="xor" />
</filter>
	<rect
	style="fill:#1A4B4F;fill-opacity:1.0;filter:url(#filter1111)"
	id="rect2835"
	width="48"
	height="48"
	x="0"
	y="0"
	rx="3.5"
	ry="3.5" />
	<rect
	style="fill:url(#acyl_gradient);filter:url(#filter1111)"
	id="rect2835"
	width="44"
	height="44"
	x="2"
	y="2"
	rx="3.5"
	ry="3.5" />
<defs>
<use id="1" transform="translate(22.5,22.5) scale(0.85) translate(-22.5,-22.5)" style="fill:#000000" xlink:href="#path-main" />
</defs>
	<use id="2" transform="translate(22.5,22.5) scale(0.85) translate(-22.5,-22.5)" style="fill:#1A4B4F;fill-opacity:1.0" xlink:href="#path-main" />
</acyl-settings>
</svg>
