<svg xmlns="http://www.w3.org/2000/svg" width="48" height="48">
<defs>
<defs
     id="defs3">
  </defs>
  <path
     id="path-main"
     d="m 8.3452194,2.0104076 c -0.1014582,0.01269 -0.2221717,0.04546 -0.3437291,0.085932 -0.075555,0.025156 -0.2601429,0.100984 -0.5155936,0.315085 C 7.2304461,2.6255257 6.9795556,3.0541829 6.941659,3.3853236 6.878036,3.9412651 6.996615,4.3119623 7.1135236,4.788884 7.230432,5.2658057 7.3883012,5.7968115 7.6004731,6.392953 c 0.4243437,1.1922831 1.0189808,2.616139 1.7186453,4.153393 1.3098796,2.877974 2.9448676,6.081493 4.4398336,8.535938 -0.490589,2.951419 0.372373,6.029693 0.372373,8.478651 0,1.359536 -0.54328,3.719226 -0.830679,5.843394 -0.03323,0.245568 -0.03227,0.475437 -0.05729,0.716102 -0.487916,1.015716 -0.651404,2.085469 -0.372373,3.15085 0.530661,2.026135 2.464148,3.607854 5.127292,4.55441 2.663146,0.946556 6.071652,1.271399 9.567126,0.744746 0.427321,-0.06438 0.820982,-0.143293 1.231696,-0.229152 0.146333,0.248652 0.29036,0.499542 0.458305,0.744746 0.781469,1.140971 1.638419,2.195625 2.921697,2.721188 0.701084,0.287128 1.282124,0.198306 1.833222,0.08593 0.551097,-0.112374 1.0908,-0.301347 1.604069,-0.544238 0.513269,-0.242891 0.977392,-0.51187 1.40356,-0.859323 0.426168,-0.347452 0.86625,-0.708391 1.059831,-1.489492 0.335862,-1.355197 -0.166363,-2.411584 -0.744746,-3.494579 -0.186978,-0.350106 -0.406265,-0.678533 -0.63017,-1.002543 1.513691,-1.522767 2.211617,-3.325779 1.74729,-5.098648 -0.02594,-0.09903 -0.0819,-0.189465 -0.114577,-0.286441 0.0021,-0.01943 -0.0016,-0.03806 0,-0.05729 0.04897,-0.557774 -0.08296,-1.032975 -0.257797,-1.460849 -0.361724,-0.885258 -0.933152,-1.676244 -1.575424,-2.492035 -1.284547,-1.631584 -2.827423,-3.429217 -3.236783,-4.439834 -0.478732,-1.181891 -0.647517,-2.76957 -0.887966,-4.439834 -0.118977,-0.826469 -0.281807,-1.677504 -0.544238,-2.52068 1.573753,0.269106 3.13695,0.501427 4.525766,0.658814 1.127985,0.127829 2.138593,0.207044 2.978985,0.229153 0.840392,0.02211 1.397398,0.109854 2.176951,-0.200509 0.379867,-0.151235 0.914488,-0.75904 0.945255,-1.317628 0.03077,-0.558588 -0.15311,-0.830816 -0.286441,-1.031187 -0.266662,-0.400742 -0.528749,-0.618788 -0.859323,-0.887967 -0.661146,-0.538356 -1.590266,-1.145424 -2.635256,-1.775933 -2.089978,-1.261019 -4.636551,-2.584192 -6.473564,-3.236782 -1.183799,-0.420541 -2.520595,-0.603348 -3.838308,-0.572882 -1.306705,0.03021 -2.574702,0.235566 -3.637799,0.658814 -0.689873,0.274658 -1.003308,0.715028 -1.317628,1.145763 -0.08476,0.116153 -0.153918,0.250346 -0.229153,0.372374 -0.444411,-0.03524 -0.889889,-0.04266 -1.317628,0 -0.830492,0.08282 -1.64367,0.355875 -2.434748,0.716102 -0.27683,-0.618338 -0.607368,-1.208105 -1.002543,-1.74729 C 17.25103,9.1124142 15.228007,7.020673 13.329291,5.2758337 12.379933,4.403414 11.466598,3.6111147 10.694035,3.0415948 10.307753,2.7568348 9.9590872,2.539114 9.6055593,2.3541366 9.4287953,2.261648 9.2631753,2.1616447 9.0326775,2.0963398 8.8598042,2.0473611 8.6495938,1.9723359 8.3452194,2.0104076 z m 2.2915276,4.5830542 c 0.293185,0.2547794 0.520875,0.4027631 0.830678,0.6874581 1.799803,1.6539423 3.779478,3.7495311 4.726274,5.0413591 0.304999,0.416147 0.561061,1.041982 0.802035,1.632713 -0.70448,0.538386 -1.35002,1.103324 -1.861866,1.775934 -1.143694,-2.026972 -2.34163,-4.14613 -3.322714,-6.3016998 -0.485718,-1.067184 -0.826595,-1.9494917 -1.174407,-2.8357644 z m 17.787978,5.7288172 c 1.011704,-0.02339 2.093177,0.12704 2.864409,0.401018 1.433717,0.509321 3.95158,1.781567 5.900683,2.950341 -0.192097,-0.01951 -0.314245,-0.0059 -0.515594,-0.02864 -2.02446,-0.229422 -4.483707,-0.653098 -6.760005,-1.11712 -0.89119,-0.805379 -2.030345,-1.401077 -3.236782,-1.89051 0.539041,-0.141029 1.07932,-0.299641 1.747289,-0.315085 z m -6.273055,2.148307 c 0.402539,-0.04014 0.944655,-0.0045 1.546781,0.114576 0.206797,0.03981 0.415592,0.08345 0.63017,0.143221 0.105661,0.02786 0.208329,0.05428 0.315085,0.08593 0.11375,0.03582 0.229774,0.07433 0.343729,0.114576 0.04887,0.01624 0.09444,0.0403 0.14322,0.05729 0.384099,0.141761 0.755378,0.308641 1.11712,0.486949 0.407513,0.200871 0.809615,0.43573 1.145763,0.658814 0.168075,0.111543 0.316612,0.202791 0.458306,0.315085 0.03948,0.03155 0.07745,0.08335 0.114576,0.114577 0.08987,0.07612 0.1832,0.154401 0.257797,0.229152 0.07619,0.07518 0.17123,0.159018 0.229153,0.229153 l 0.05729,0.05729 c 0.614349,0.78462 0.926563,2.000562 1.145763,3.523223 0.224867,1.562022 0.360955,3.373267 1.059832,5.098648 0.414187,1.022537 1.092395,1.983751 1.804577,2.893053 -2.531026,-0.748649 -5.596471,-0.964357 -8.765091,-0.48695 -2.836781,0.42741 -5.319906,1.339315 -7.21831,2.549324 0.178545,-1.050306 0.343729,-2.114377 0.343729,-3.093561 0,-3.111589 -0.672111,-6.245374 -0.286441,-8.421362 0.002,-0.0099 -0.002,-0.01877 0,-0.02865 0.04151,-0.19988 0.09309,-0.374671 0.14322,-0.544237 0.0526,-0.17794 0.110296,-0.350017 0.171865,-0.48695 0.06721,-0.14946 0.179198,-0.332153 0.315085,-0.515593 0.01093,-0.01512 0.01731,-0.04201 0.02864,-0.05729 0.04487,-0.05863 0.121195,-0.111146 0.171864,-0.171864 0.127076,-0.152278 0.242135,-0.298835 0.401018,-0.458305 0.222235,-0.223057 0.475946,-0.470123 0.744746,-0.687459 0.2688,-0.217335 0.562225,-0.412989 0.859322,-0.601525 l 0.458306,-0.286441 c 0.826873,-0.453962 1.680181,-0.772571 2.262883,-0.830679 z m 4.812207,6.244411 c -1.190056,0 -2.148306,1.12192 -2.148307,2.52068 0,1.39876 0.958251,2.549324 2.148307,2.549324 1.190056,0 2.148307,-1.150564 2.148307,-2.549324 0,-1.39876 -0.958251,-2.520679 -2.148307,-2.52068 z M 21.5215,21.316523 c -0.154142,-0.0051 -0.328763,0.0239 -0.48695,0.05729 -1.265493,0.267103 -2.124032,1.692922 -1.919153,3.208138 0.204878,1.515217 1.398407,2.529986 2.6639,2.262883 1.265493,-0.267102 2.124032,-1.692922 1.919154,-3.208137 -0.179269,-1.325815 -1.097955,-2.284506 -2.176951,-2.320172 z m 12.975772,18.847811 c 0.145466,0.190186 0.282019,0.407352 0.401018,0.63017 0.293433,0.54944 0.428604,1.210057 0.486949,1.460848 0.07762,-0.0944 0.08568,-0.144207 0.02864,0.08593 -0.01031,0.04161 -0.0097,0.02126 -0.02864,-0.05729 -0.02454,0.0282 -0.04509,0.02399 -0.08593,0.05729 -0.196075,0.159858 -0.517322,0.35375 -0.859323,0.515593 -0.342001,0.161843 -0.708382,0.289588 -0.973899,0.343729 -0.132758,0.02707 -0.259474,0.03106 -0.315085,0.02864 -0.22164,-0.129091 -1.041249,-0.853187 -1.604069,-1.661357 1.088146,-0.391281 2.074188,-0.872371 2.950341,-1.40356 z" />
  <g
     id="layer2"
     style="display:inline" />
</defs>
<acyl-settings>
<linearGradient
     id="linearGradient4321">
    <stop
       style="stop-color:#89F6FB;stop-opacity:1.0;"
       offset="0.5"
       id="stop1" />
    <stop
       style="stop-color:#10A1AA;stop-opacity:1.0;"
       offset="1.0"
       id="stop2" />
  </linearGradient>
<radialGradient
       inkscape:collect="always"
       xlink:href="#linearGradient4321"
       id="acyl_gradient"
       cx="50.0%"
       cy="50.0%"
       fx="50.0%"
       fy="50.0%"
       r="50.0%"
/>
<filter id="filter1111" x="-50%" y="-50%" width="200%" height="200%">
	<feImage
	id="feImage2"
	xlink:href="#1"
	result="result1" />
	<feComposite
	id="feComposite3633"
	in="result1"
	in2="SourceGraphic"
	operator="xor" />
</filter>
	<rect
	style="fill:#1A4B4F;fill-opacity:1.0;filter:url(#filter1111)"
	id="rect2835"
	width="48"
	height="48"
	x="0"
	y="0"
	rx="3.5"
	ry="3.5" />
	<rect
	style="fill:url(#acyl_gradient);filter:url(#filter1111)"
	id="rect2835"
	width="44"
	height="44"
	x="2"
	y="2"
	rx="3.5"
	ry="3.5" />
<defs>
<use id="1" transform="translate(22.5,22.5) scale(0.85) translate(-22.5,-22.5)" style="fill:#000000" xlink:href="#path-main" />
</defs>
	<use id="2" transform="translate(22.5,22.5) scale(0.85) translate(-22.5,-22.5)" style="fill:#1A4B4F;fill-opacity:1.0" xlink:href="#path-main" />
</acyl-settings>
</svg>
