<svg xmlns="http://www.w3.org/2000/svg" width="48" height="48">
<defs>
  <path
     d="m 22.534854,2.008072 c -4.754355,0.240996 -9.086817,2.070792 -12.495514,4.959559 2.527767,0.04885 6.133901,0.217819 8.952972,0.805124 4.793829,0.998713 12.568608,3.769791 15.265139,7.664774 2.696528,3.894983 1.922886,8.984456 1.223787,10.981883 -0.699101,1.997427 -1.497349,2.216348 -1.996706,0.418664 C 32.985174,25.040391 29.68435,22.651434 29.68435,22.651434 30.283578,19.35568 29.868894,16.443117 27.172365,14.245946 24.475835,12.048777 20.077702,9.853492 15.610793,9.447411 12.919471,9.202747 9.73857,9.311831 7.55956,9.447411 4.472812,13.100904 2.6,17.819756 2.6,22.973484 l 0,2.028911 c 0,1.381195 0.131735,2.718776 0.386459,4.025617 l 15.909238,-0.483075 c 0,0 -0.692587,2.066903 -0.19323,3.864593 0.499358,1.79768 2.47978,3.70357 2.47978,3.70357 L 5.852698,36.1775 C 9.571253,42.07383 16.113818,46 23.597617,46 l 16.521132,0 c 2.314739,0 4.476486,-1.7763 4.476486,-4.73412 0,-7.69215 -4.22e-4,-9.2642 0,-16.263495 4.2e-5,-0.676304 0,7.861865 0,-2.028911 0,-11.59389 -9.403724,-20.965412 -20.997618,-20.965412 -0.362309,0 -0.704961,-0.01814 -1.062763,0 z M 12.841169,17.53085 c 1.020413,0 1.867886,0.847469 1.867886,1.867886 0,1.020417 -0.847473,1.835681 -1.867886,1.835681 -1.020413,0 -1.835681,-0.815264 -1.835681,-1.835681 0,-1.020417 0.815268,-1.867886 1.835681,-1.867886 z m 5.764683,1.513632 c 1.820197,0 3.284904,1.464701 3.284904,3.284903 0,1.820192 -1.464707,3.317109 -3.284904,3.317109 -1.820197,0 -3.317108,-1.496917 -3.317108,-3.317109 0,-1.820202 1.496911,-3.284903 3.317108,-3.284903 z m 7.278315,4.70192 c 3.419765,0 6.183348,2.763586 6.183348,6.183348 0,3.41976 -2.763583,6.18335 -6.183348,6.18335 -3.419764,0 -6.183347,-2.76359 -6.183347,-6.18335 0,-3.419762 2.763583,-6.183348 6.183347,-6.183348 z"
     id="path-main"
      />
</defs>
<acyl-settings>
<linearGradient
     id="linearGradient4321">
    <stop
       style="stop-color:#89F6FB;stop-opacity:1.0;"
       offset="0.5"
       id="stop1" />
    <stop
       style="stop-color:#10A1AA;stop-opacity:1.0;"
       offset="1.0"
       id="stop2" />
  </linearGradient>
<radialGradient
       inkscape:collect="always"
       xlink:href="#linearGradient4321"
       id="acyl_gradient"
       cx="50.0%"
       cy="50.0%"
       fx="50.0%"
       fy="50.0%"
       r="50.0%"
/>
<filter id="filter1111" x="-50%" y="-50%" width="200%" height="200%">
	<feImage
	id="feImage2"
	xlink:href="#1"
	result="result1" />
	<feComposite
	id="feComposite3633"
	in="result1"
	in2="SourceGraphic"
	operator="xor" />
</filter>
	<rect
	style="fill:#1A4B4F;fill-opacity:1.0;filter:url(#filter1111)"
	id="rect2835"
	width="48"
	height="48"
	x="0"
	y="0"
	rx="3.5"
	ry="3.5" />
	<rect
	style="fill:url(#acyl_gradient);filter:url(#filter1111)"
	id="rect2835"
	width="44"
	height="44"
	x="2"
	y="2"
	rx="3.5"
	ry="3.5" />
<defs>
<use id="1" transform="translate(22.5,22.5) scale(0.85) translate(-22.5,-22.5)" style="fill:#000000" xlink:href="#path-main" />
</defs>
	<use id="2" transform="translate(22.5,22.5) scale(0.85) translate(-22.5,-22.5)" style="fill:#1A4B4F;fill-opacity:1.0" xlink:href="#path-main" />
</acyl-settings>
</svg>
