<svg xmlns="http://www.w3.org/2000/svg" width="48" height="48">
<defs>
<defs
     id="defs5">
  </defs>
  <path
     d="m 37.839674,5.5108696 -1.82337,1.8233695 c 4.558848,4.4641779 7.413044,10.6664609 7.413044,17.5461959 2e-6,6.879735 -2.854195,13.082019 -7.413044,17.546195 L 37.839674,44.25 C 42.866515,39.317325 45.999998,32.47415 46,24.880435 46.000001,17.28672 42.866516,10.443544 37.839674,5.5108696 z M 20.11413,8.0516304 8.486413,19.709239 2,19.709239 2,30.05163 l 6.486413,0 11.627717,11.657609 0,-33.6576086 z m 12.225544,2.9592396 -1.82337,1.823369 c 3.153805,3.058389 5.141305,7.309373 5.141305,12.046196 0,4.736822 -1.9875,8.987805 -5.141305,12.046195 l 1.82337,1.82337 c 3.621577,-3.526957 5.888589,-8.418913 5.888587,-13.869565 -1e-6,-5.450652 -2.26701,-10.34261 -5.888587,-13.869565 z m -5.470109,5.470108 -1.853261,1.853261 c 1.745905,1.651631 2.869566,3.954996 2.869566,6.546196 -1e-6,2.591199 -1.123661,4.894565 -2.869566,6.546195 l 1.853261,1.853261 c 2.216487,-2.120826 3.616848,-5.091898 3.616848,-8.399456 -10e-7,-3.307559 -1.40036,-6.27863 -3.616848,-8.399457 z"
     id="path-main"
      />
</defs>
<acyl-settings>
<linearGradient
     id="linearGradient4321">
    <stop
       style="stop-color:#89F6FB;stop-opacity:1.0;"
       offset="0.5"
       id="stop1" />
    <stop
       style="stop-color:#10A1AA;stop-opacity:1.0;"
       offset="1.0"
       id="stop2" />
  </linearGradient>
<radialGradient
       inkscape:collect="always"
       xlink:href="#linearGradient4321"
       id="acyl_gradient"
       cx="50.0%"
       cy="50.0%"
       fx="50.0%"
       fy="50.0%"
       r="50.0%"
/>
<filter id="filter1111" x="-50%" y="-50%" width="200%" height="200%">
	<feImage
	id="feImage2"
	xlink:href="#1"
	result="result1" />
	<feComposite
	id="feComposite3633"
	in="result1"
	in2="SourceGraphic"
	operator="xor" />
</filter>
	<rect
	style="fill:#1A4B4F;fill-opacity:1.0;filter:url(#filter1111)"
	id="rect2835"
	width="48"
	height="48"
	x="0"
	y="0"
	rx="3.5"
	ry="3.5" />
	<rect
	style="fill:url(#acyl_gradient);filter:url(#filter1111)"
	id="rect2835"
	width="44"
	height="44"
	x="2"
	y="2"
	rx="3.5"
	ry="3.5" />
<defs>
<use id="1" transform="translate(22.5,22.5) scale(0.85) translate(-22.5,-22.5)" style="fill:#000000" xlink:href="#path-main" />
</defs>
	<use id="2" transform="translate(22.5,22.5) scale(0.85) translate(-22.5,-22.5)" style="fill:#1A4B4F;fill-opacity:1.0" xlink:href="#path-main" />
</acyl-settings>
</svg>
