<svg xmlns="http://www.w3.org/2000/svg" width="48" height="48">
<defs>
  <path
     d="M 5.627881,9.7115853 C 4.065675,9.7115853 2.8115,10.977694 2.8115,12.5399 l 0,14.117711 C 2.308798,27.166344 2,27.863601 2,28.638625 l 0,7.935991 C 2,38.136823 3.254175,39.391 4.816382,39.391 l 0.811499,0 36.923243,0 0.632494,0 C 44.745826,39.391 46,38.136823 46,36.574616 l 0,-7.935991 c 0,-0.677457 -0.237199,-1.292953 -0.63249,-1.778139 l 0,-14.320586 c 0,-1.562206 -1.254174,-2.8283147 -2.816386,-2.8283147 l -36.923243,0 z M 14.14863,19.819531 c 1.846065,0 3.34147,1.495405 3.34147,3.34147 0,1.846066 -1.495405,3.353404 -3.34147,3.353404 -1.846065,0 -3.34147,-1.507338 -3.34147,-3.353404 0,-1.846065 1.495405,-3.34147 3.34147,-3.34147 z m 5.537293,0 8.80716,0 0,4.248441 -8.80716,0 0,-4.248441 z m 14.356387,0 c 1.846064,0 3.341469,1.495405 3.341469,3.34147 0,1.846066 -1.495405,3.353404 -3.341469,3.353404 -1.846065,0 -3.34147,-1.507338 -3.34147,-3.353404 0,-1.846065 1.495405,-3.34147 3.34147,-3.34147 z m -15.167887,13.21074 c 1.035596,0 1.87361,0.838013 1.87361,1.87361 0,1.035598 -0.838014,1.87361 -1.87361,1.87361 -1.035596,0 -1.87361,-0.838012 -1.87361,-1.87361 0,-1.035597 0.838014,-1.87361 1.87361,-1.87361 z m 10.43016,0 c 1.035596,0 1.873609,0.838013 1.873609,1.87361 0,1.035598 -0.838013,1.87361 -1.873609,1.87361 -1.035596,0 -1.87361,-0.838012 -1.87361,-1.87361 0,-1.035597 0.838014,-1.87361 1.87361,-1.87361 z m -15.418497,1.145647 c 0.765441,0 1.384323,0.618882 1.384323,1.384323 0,0.765442 -0.618882,1.384324 -1.384323,1.384324 -0.765441,0 -1.384324,-0.618882 -1.384324,-1.384324 0,-0.765441 0.618883,-1.384323 1.384324,-1.384323 z m 20.215893,0 c 0.765441,0 1.384323,0.618882 1.384323,1.384323 0,0.765442 -0.618882,1.384324 -1.384323,1.384324 -0.765441,0 -1.384323,-0.618882 -1.384323,-1.384324 0,-0.765441 0.618882,-1.384323 1.384323,-1.384323 z"
     id="path-main"
      />
</defs>
<acyl-settings>
<linearGradient
     id="linearGradient4321">
    <stop
       style="stop-color:#89F6FB;stop-opacity:1.0;"
       offset="0.5"
       id="stop1" />
    <stop
       style="stop-color:#10A1AA;stop-opacity:1.0;"
       offset="1.0"
       id="stop2" />
  </linearGradient>
<radialGradient
       inkscape:collect="always"
       xlink:href="#linearGradient4321"
       id="acyl_gradient"
       cx="50.0%"
       cy="50.0%"
       fx="50.0%"
       fy="50.0%"
       r="50.0%"
/>
<filter id="filter1111" x="-50%" y="-50%" width="200%" height="200%">
	<feImage
	id="feImage2"
	xlink:href="#1"
	result="result1" />
	<feComposite
	id="feComposite3633"
	in="result1"
	in2="SourceGraphic"
	operator="xor" />
</filter>
	<rect
	style="fill:#1A4B4F;fill-opacity:1.0;filter:url(#filter1111)"
	id="rect2835"
	width="48"
	height="48"
	x="0"
	y="0"
	rx="3.5"
	ry="3.5" />
	<rect
	style="fill:url(#acyl_gradient);filter:url(#filter1111)"
	id="rect2835"
	width="44"
	height="44"
	x="2"
	y="2"
	rx="3.5"
	ry="3.5" />
<defs>
<use id="1" transform="translate(22.5,22.5) scale(0.85) translate(-22.5,-22.5)" style="fill:#000000" xlink:href="#path-main" />
</defs>
	<use id="2" transform="translate(22.5,22.5) scale(0.85) translate(-22.5,-22.5)" style="fill:#1A4B4F;fill-opacity:1.0" xlink:href="#path-main" />
</acyl-settings>
</svg>
