<svg xmlns="http://www.w3.org/2000/svg" width="48" height="48">
<defs>
  <path
     d="M 3.0798307,6.873767 C 2.4839269,6.873767 2,7.345282 2,7.941186 l 0,3.276728 34.579406,0 0,-3.276728 c 0,-0.595904 -0.483927,-1.067419 -1.079831,-1.067419 l -32.4197443,0 z M 2,12.781807 2,30.232864 c 0,0.595904 0.4839269,1.067419 1.0798307,1.067419 l 21.1621993,0 0,-6.04457 12.337376,0 0,-12.473906 -34.579406,0 z m 4.877856,5.833568 22.155147,0 c 0.481505,0 0.868829,0.387324 0.868829,0.868829 l 0,3.003667 c 0,0.481505 -0.387324,0.868829 -0.868829,0.868829 l -22.155147,0 c -0.481505,0 -0.868829,-0.387324 -0.868829,-0.868829 l 0,-3.003667 c 0,-0.481505 0.387324,-0.868829 0.868829,-0.868829 z m 0.459238,0.819182 0,3.078138 1.700423,0 0,-3.078138 -1.700423,0 z m 18.307475,7.32299 0,15.142453 20.355431,0 0,-15.142453 -20.355431,0 z m 1.377715,1.725246 17.600001,0 0,8.353177 c -0.915045,0.86043 -2.5873,2.14134 -4.319323,1.83695 -3.394095,-0.59649 -6.112652,-3.71839 -11.406489,-1.1543 -0.964196,0.46701 -1.538545,1.10301 -1.874189,1.61354 l 0,-10.649367 z m 12.746969,2.01072 c -0.976346,0 -1.762485,0.798552 -1.762485,1.774894 0,0.976341 0.786139,1.762483 1.762485,1.762483 0.976341,0 1.774894,-0.786142 1.774894,-1.762483 0,-0.976342 -0.798553,-1.774894 -1.774894,-1.774894 z"
     id="path-main"
      />
</defs>
<acyl-settings>
<linearGradient
     id="linearGradient4321">
    <stop
       style="stop-color:#89F6FB;stop-opacity:1.0;"
       offset="0.5"
       id="stop1" />
    <stop
       style="stop-color:#10A1AA;stop-opacity:1.0;"
       offset="1.0"
       id="stop2" />
  </linearGradient>
<radialGradient
       inkscape:collect="always"
       xlink:href="#linearGradient4321"
       id="acyl_gradient"
       cx="50.0%"
       cy="50.0%"
       fx="50.0%"
       fy="50.0%"
       r="50.0%"
/>
<filter id="filter1111" x="-50%" y="-50%" width="200%" height="200%">
	<feImage
	id="feImage2"
	xlink:href="#1"
	result="result1" />
	<feComposite
	id="feComposite3633"
	in="result1"
	in2="SourceGraphic"
	operator="xor" />
</filter>
	<rect
	style="fill:#1A4B4F;fill-opacity:1.0;filter:url(#filter1111)"
	id="rect2835"
	width="48"
	height="48"
	x="0"
	y="0"
	rx="3.5"
	ry="3.5" />
	<rect
	style="fill:url(#acyl_gradient);filter:url(#filter1111)"
	id="rect2835"
	width="44"
	height="44"
	x="2"
	y="2"
	rx="3.5"
	ry="3.5" />
<defs>
<use id="1" transform="translate(22.5,22.5) scale(0.85) translate(-22.5,-22.5)" style="fill:#000000" xlink:href="#path-main" />
</defs>
	<use id="2" transform="translate(22.5,22.5) scale(0.85) translate(-22.5,-22.5)" style="fill:#1A4B4F;fill-opacity:1.0" xlink:href="#path-main" />
</acyl-settings>
</svg>
