<svg xmlns="http://www.w3.org/2000/svg" width="48" height="48">
<defs>
<defs
     id="defs3" />
  <path
     d="M 19.53125,3.78125 C 18.422248,3.7480771 17.451973,3.8263031 16.625,3.96875 C 15.798028,4.111196 15.109644,4.312178 14.59375,4.53125 C 14.569424,4.5415799 14.554738,4.552179 14.53125,4.5625 C 13.178508,4.9331197 12.466849,5.8888421 12.90625,6.78125 L 22.375,26.75 C 19.903874,26.698155 17.151083,27.175911 14.40625,28.1875 C 11.070757,29.416774 8.2962283,31.219546 6.40625,33.3125 C 4.516269,35.405451 3.5157945,37.928173 4.375,40.125 C 5.2342036,42.321828 7.717824,43.558222 10.5625,43.90625 C 13.407175,44.254275 16.727007,43.823023 20.0625,42.59375 C 23.397995,41.364475 26.172519,39.530453 28.0625,37.4375 C 29.847716,35.46056 30.837506,33.136866 30.21875,31.03125 C 30.259282,30.794358 30.208654,30.555052 30.09375,30.3125 L 20.46875,10 C 23.175373,9.8229837 25.667093,10.085553 27.9375,10.6875 C 31.472621,11.624758 34.494791,13.313762 36.84375,14.96875 C 39.192707,16.623738 40.887957,18.274352 41.875,19.1875 C 42.121759,19.415787 42.32804,19.613751 42.5,19.75 C 42.58598,19.818124 42.683831,19.851801 42.78125,19.90625 C 42.829959,19.933476 42.879231,19.940751 42.96875,19.96875 C 43.05827,19.99675 43.20679,20.064865 43.40625,20.03125 C 43.605712,19.997636 43.760289,19.886696 43.8125,19.8125 C 43.864712,19.738303 43.870755,19.670824 43.875,19.625 C 43.883493,19.533355 43.836386,19.437446 43.8125,19.34375 C 43.764725,19.156357 43.674182,18.936376 43.53125,18.59375 C 43.523532,18.564934 43.48735,18.52674 43.46875,18.5 C 35.666698,9.1691754 28.591966,5.4512174 23.21875,4.25 C 21.875446,3.9496955 20.640252,3.8144229 19.53125,3.78125 z"
     id="path-main"
      />
</defs>
<acyl-settings>
<linearGradient
     id="linearGradient4321">
    <stop
       style="stop-color:#89F6FB;stop-opacity:1.0;"
       offset="0.5"
       id="stop1" />
    <stop
       style="stop-color:#10A1AA;stop-opacity:1.0;"
       offset="1.0"
       id="stop2" />
  </linearGradient>
<radialGradient
       inkscape:collect="always"
       xlink:href="#linearGradient4321"
       id="acyl_gradient"
       cx="50.0%"
       cy="50.0%"
       fx="50.0%"
       fy="50.0%"
       r="50.0%"
/>
<filter id="filter1111" x="-50%" y="-50%" width="200%" height="200%">
	<feImage
	id="feImage2"
	xlink:href="#1"
	result="result1" />
	<feComposite
	id="feComposite3633"
	in="result1"
	in2="SourceGraphic"
	operator="xor" />
</filter>
	<rect
	style="fill:#1A4B4F;fill-opacity:1.0;filter:url(#filter1111)"
	id="rect2835"
	width="48"
	height="48"
	x="0"
	y="0"
	rx="3.5"
	ry="3.5" />
	<rect
	style="fill:url(#acyl_gradient);filter:url(#filter1111)"
	id="rect2835"
	width="44"
	height="44"
	x="2"
	y="2"
	rx="3.5"
	ry="3.5" />
<defs>
<use id="1" transform="translate(22.5,22.5) scale(0.85) translate(-22.5,-22.5)" style="fill:#000000" xlink:href="#path-main" />
</defs>
	<use id="2" transform="translate(22.5,22.5) scale(0.85) translate(-22.5,-22.5)" style="fill:#1A4B4F;fill-opacity:1.0" xlink:href="#path-main" />
</acyl-settings>
</svg>
