<svg xmlns="http://www.w3.org/2000/svg" width="48" height="48">
<defs>
  <path
     d="M 14.6875 3.1875 L 14.5625 3.21875 C 13.148685 3.5560118 12.352952 4.4987524 12.03125 5.0625 C 11.893871 5.303242 11.826287 5.3793851 11.8125 5.40625 L 9.34375 5.40625 C 7.176742 5.40625 5.331851 6.6562817 4.0625 8.1875 C 2.793149 9.718719 2 11.539434 2 13.21875 L 2 37.1875 C 2 41.342783 5.642751 45 9.78125 45 L 38.4375 45 C 42.576 45 46 41.295001 46 37.1875 L 46 13.21875 C 46 9.06481 42.3586 5.40625 38.21875 5.40625 L 36.09375 5.40625 C 35.99293 5.40625 36.02555 5.40809 35.9375 5.34375 C 35.8494 5.279406 35.68181 5.1009701 35.4375 4.84375 C 34.94889 4.3293097 34.106887 3.5498853 32.71875 3.21875 L 32.59375 3.1875 L 32.46875 3.1875 L 14.8125 3.1875 L 14.6875 3.1875 z M 15.03125 5.40625 L 32.28125 5.40625 C 33.110067 5.6216249 33.432744 5.9422695 33.84375 6.375 C 34.05704 6.5995572 34.29653 6.8621621 34.65625 7.125 C 35.01597 7.387839 35.53391 7.59375 36.09375 7.59375 L 38.21875 7.59375 C 40.97895 7.59375 43.8125 10.4229 43.8125 13.21875 L 43.8125 37.1875 C 43.8125 40.029795 41.19905 42.8125 38.4375 42.8125 L 9.78125 42.8125 C 7.019702 42.8125 4.1875 39.982013 4.1875 37.1875 L 4.1875 13.21875 C 4.1875 12.336509 4.796192 10.782027 5.78125 9.59375 C 6.766309 8.405474 8.060735 7.59375 9.34375 7.59375 L 11.90625 7.59375 C 12.466093 7.59375 13.048493 7.3437375 13.375 7 C 13.701507 6.6562621 13.823425 6.3561536 13.9375 6.15625 C 14.158405 5.7691384 14.234482 5.6066916 15.03125 5.40625 z M 18.65625 7.0625 C 17.754289 7.0625 16.909499 7.2790851 16.25 7.71875 C 15.590502 8.1584148 15.0625 8.8644589 15.0625 9.71875 L 15.0625 11.53125 C 15.0625 12.385541 15.590502 13.091585 16.25 13.53125 C 16.909499 13.970916 17.754289 14.1875 18.65625 14.1875 L 29.34375 14.1875 C 30.245712 14.1875 31.090501 13.970916 31.75 13.53125 C 32.409502 13.091585 32.9375 12.385541 32.9375 11.53125 L 32.9375 9.71875 C 32.9375 8.8644589 32.409502 8.1584148 31.75 7.71875 C 31.090501 7.2790851 30.245712 7.0625 29.34375 7.0625 L 18.65625 7.0625 z M 18.65625 8.84375 L 29.34375 8.84375 C 29.926153 8.84375 30.47216 9.0126913 30.78125 9.21875 C 31.090339 9.4248095 31.15625 9.583468 31.15625 9.71875 L 31.15625 11.53125 C 31.15625 11.666532 31.090334 11.825191 30.78125 12.03125 C 30.47216 12.237309 29.926153 12.40625 29.34375 12.40625 L 18.65625 12.40625 C 18.073847 12.40625 17.559089 12.237309 17.25 12.03125 C 16.940911 11.825191 16.84375 11.666532 16.84375 11.53125 L 16.84375 9.71875 C 16.84375 9.583468 16.940906 9.4248095 17.25 9.21875 C 17.559089 9.0126913 18.073847 8.84375 18.65625 8.84375 z M 36.46875 12.25 L 35 16.40625 L 13 16.40625 L 11.28125 12.34375 C 10.754412 12.565844 10.272707 12.883543 9.875 13.28125 C 9.079585 14.076665 8.59375 15.187274 8.59375 16.40625 L 8.59375 34 C 8.59375 36.437951 10.562049 38.40625 13 38.40625 L 35 38.40625 C 37.43795 38.40625 39.40625 36.437951 39.40625 34 L 39.40625 28.90625 L 34.9375 33.3125 C 34.9179 33.35987 34.9011 33.42459 34.875 33.46875 L 34.65625 33.65625 C 34.65697 33.67916 34.65697 33.69585 34.65625 33.71875 C 34.55554 33.80773 34.4384 33.890501 34.3125 33.9375 C 34.2896 33.938217 34.2729 33.938217 34.25 33.9375 C 34.2058 33.9636 34.17232 33.98033 34.125 34 C 34.0564 34.0064 33.97481 34.0064 33.90625 34 C 33.88335 34.000717 33.86661 34.000717 33.84375 34 C 33.79796 34.0029 33.73329 34.0029 33.6875 34 C 33.66459 34.000717 33.6479 34.000717 33.625 34 C 33.5275 33.9673 33.428396 33.9334 33.34375 33.875 C 33.32084 33.875717 33.30416 33.875717 33.28125 33.875 C 33.280533 33.8521 33.280533 33.83541 33.28125 33.8125 C 33.25834 33.813217 33.24166 33.813217 33.21875 33.8125 C 33.218033 33.78959 33.218033 33.74166 33.21875 33.71875 C 33.19483 33.69697 33.17814 33.68017 33.15625 33.65625 L 33.09375 33.59375 C 33.01117 33.51362 32.928819 33.414221 32.875 33.3125 L 30.9375 31.46875 C 30.372062 31.122899 30.281317 30.218685 30.75 29.75 C 31.218686 29.281315 32.1229 29.37206 32.46875 29.9375 L 33.90625 31.40625 L 38.65625 26.65625 C 38.79982 26.490236 38.97535 26.368793 39.1875 26.3125 C 39.2561 26.3061 39.33769 26.3061 39.40625 26.3125 L 39.40625 17.90625 L 34.9375 22.3125 C 34.9179 22.35987 34.9011 22.42459 34.875 22.46875 L 34.65625 22.65625 C 34.65697 22.67916 34.65697 22.69584 34.65625 22.71875 C 34.61205 22.74484 34.57857 22.79283 34.53125 22.8125 C 34.50945 22.83642 34.49275 22.85311 34.46875 22.875 C 34.42455 22.9011 34.35992 22.91783 34.3125 22.9375 C 34.2896 22.938218 34.2729 22.938218 34.25 22.9375 C 34.2058 22.9636 34.17232 22.98033 34.125 23 C 34.1021 23.000718 34.05425 23.000718 34.03125 23 C 33.89536 23.02594 33.760885 23.02594 33.625 23 C 33.60108 22.97822 33.58439 22.96142 33.5625 22.9375 C 33.51513 22.91792 33.48166 22.9011 33.4375 22.875 C 33.41459 22.875718 33.36665 22.875718 33.34375 22.875 C 33.32084 22.875718 33.30416 22.875718 33.28125 22.875 C 33.280533 22.8521 33.280533 22.83541 33.28125 22.8125 C 33.25834 22.813218 33.24166 22.813218 33.21875 22.8125 C 33.218033 22.78959 33.218033 22.74166 33.21875 22.71875 C 33.19483 22.69697 33.17814 22.68017 33.15625 22.65625 L 33.09375 22.59375 C 33.01117 22.51361 32.928819 22.414221 32.875 22.3125 L 30.9375 20.46875 C 30.372062 20.122899 30.281314 19.218685 30.75 18.75 C 31.218685 18.281315 32.1229 18.372063 32.46875 18.9375 L 33.90625 20.40625 L 38.65625 15.65625 C 38.79982 15.490225 38.97535 15.368793 39.1875 15.3125 C 39.2104 15.311784 39.28625 15.33417 39.28125 15.3125 C 39.06576 14.384366 38.46654 13.524985 37.71875 12.9375 C 37.34485 12.643757 36.92681 12.410898 36.46875 12.25 z M 10.8125 18.59375 L 13 18.59375 L 13 20.8125 L 10.8125 20.8125 L 10.8125 18.59375 z M 17.0625 18.59375 L 26.21875 18.59375 C 26.799977 18.58555 27.3125 19.137464 27.3125 19.71875 C 27.3125 20.300036 26.799977 20.82072 26.21875 20.8125 L 17.40625 20.8125 C 16.830208 20.90251 16.215007 20.451041 16.125 19.875 C 16.03499 19.298958 16.486458 18.683757 17.0625 18.59375 z M 17.0625 23 L 26.21875 23 C 26.799977 22.9919 27.3125 23.512463 27.3125 24.09375 C 27.3125 24.675036 26.799977 25.22697 26.21875 25.21875 L 17.40625 25.21875 C 16.830208 25.30876 16.215007 24.857291 16.125 24.28125 C 16.03499 23.705209 16.486458 23.090006 17.0625 23 z M 10.8125 29.59375 L 13 29.59375 L 13 31.8125 L 10.8125 31.8125 L 10.8125 29.59375 z M 17.0625 29.59375 L 26.21875 29.59375 C 26.799977 29.58565 27.3125 30.137464 27.3125 30.71875 C 27.3125 31.300037 26.799977 31.820721 26.21875 31.8125 L 17.40625 31.8125 C 16.830208 31.90251 16.215007 31.451041 16.125 30.875 C 16.03499 30.298959 16.486458 29.683756 17.0625 29.59375 z M 17.0625 34 L 26.21875 34 C 26.799977 33.9919 27.3125 34.512464 27.3125 35.09375 C 27.3125 35.675037 26.799977 36.226971 26.21875 36.21875 L 17.40625 36.21875 C 16.830208 36.30876 16.215007 35.857291 16.125 35.28125 C 16.03499 34.705209 16.486458 34.090006 17.0625 34 z "
     id="path-main" />
</defs>
<acyl-settings>
<linearGradient
     id="linearGradient4321">
    <stop
       style="stop-color:#89F6FB;stop-opacity:1.0;"
       offset="0.5"
       id="stop1" />
    <stop
       style="stop-color:#10A1AA;stop-opacity:1.0;"
       offset="1.0"
       id="stop2" />
  </linearGradient>
<radialGradient
       inkscape:collect="always"
       xlink:href="#linearGradient4321"
       id="acyl_gradient"
       cx="50.0%"
       cy="50.0%"
       fx="50.0%"
       fy="50.0%"
       r="50.0%"
/>
<filter id="filter1111" x="-50%" y="-50%" width="200%" height="200%">
	<feImage
	id="feImage2"
	xlink:href="#1"
	result="result1" />
	<feComposite
	id="feComposite3633"
	in="result1"
	in2="SourceGraphic"
	operator="xor" />
</filter>
	<rect
	style="fill:#1A4B4F;fill-opacity:1.0;filter:url(#filter1111)"
	id="rect2835"
	width="48"
	height="48"
	x="0"
	y="0"
	rx="3.5"
	ry="3.5" />
	<rect
	style="fill:url(#acyl_gradient);filter:url(#filter1111)"
	id="rect2835"
	width="44"
	height="44"
	x="2"
	y="2"
	rx="3.5"
	ry="3.5" />
<defs>
<use id="1" transform="translate(22.5,22.5) scale(0.85) translate(-22.5,-22.5)" style="fill:#000000" xlink:href="#path-main" />
</defs>
	<use id="2" transform="translate(22.5,22.5) scale(0.85) translate(-22.5,-22.5)" style="fill:#1A4B4F;fill-opacity:1.0" xlink:href="#path-main" />
</acyl-settings>
</svg>
