<svg xmlns="http://www.w3.org/2000/svg" width="48" height="48">
<defs>
	<path
   d="m 27.950247,5.8611037 c -9.476637,0 -17.264928,7.3120963 -18.0070878,16.5989473 -3.23915,-0.378867 -5.9007,2.795785 -5.89924,2.794938 0,-10e-7 2.49434,-2.245635 5.83524,-1.30146 0.005,2.277773 0.4384098,4.448153 1.2161198,6.453961 -4.8326698,-0.104733 -9.2873298,4.381656 -9.0888898,4.267081 -0.0775,0.05735 4.63075,-3.726192 10.3903498,-1.589487 3.15004,5.309331 8.938734,8.875529 15.553508,8.875529 9.965502,0 18.049754,-8.084253 18.049754,-18.049755 0,-9.965501 -8.084252,-18.0497543 -18.049754,-18.0497543 z m 0,0.2666926 c 9.817742,0 17.783062,7.9653217 17.783062,17.7830617 0,9.817741 -7.96532,17.772395 -17.783062,17.772395 -6.393172,0 -11.993868,-3.372101 -15.126808,-8.438154 1.09399,0.458814 2.22307,1.139967 3.36033,2.101538 -2.4344,-8.267861 5.967889,-13.218624 5.899241,-13.174614 0.20124,-0.116187 -8.009211,2.181286 -8.534161,8.715514 -0.70667,-0.279664 -1.42558,-0.423389 -2.13354,-0.469379 -0.77896,-1.978401 -1.22155,-4.128277 -1.23746,-6.379287 0.82355,0.277191 1.69821,0.751892 2.59226,1.504146 -1.55199,-5.302296 3.81903,-7.872765 3.81903,-7.872765 0,-1e-6 -5.12413,0.794683 -5.4832,5.077827 -0.29587,-0.115937 -0.58557,-0.192792 -0.87475,-0.245358 0.71634,-9.161281 8.374095,-16.3749247 17.719058,-16.3749247 z m 1.418804,0.1386801 -0.565388,0.469379 c -0.309549,0.2585588 -0.554884,0.5099842 -0.554721,0.5547206 3.76e-4,0.1056567 -0.276206,2.939465 -0.288028,2.954954 -0.005,0.0065 -0.668024,-0.03004 -1.482811,-0.08534 -0.814788,-0.0553 -1.571579,-0.106219 -1.674829,-0.106677 l -0.181351,0 -0.672065,2.016196 -0.672066,2.016196 0.266693,1.098774 c 0.263203,1.05311 0.279332,1.094496 0.405373,1.109441 0.109719,0.01301 0.189197,-0.06009 0.480046,-0.416041 0.191045,-0.233809 0.366339,-0.438175 0.384038,-0.458711 0.0177,-0.02054 0.418672,0.122274 0.896087,0.320031 0.477413,0.197758 0.92221,0.360309 0.981429,0.352035 0.101577,-0.01419 0.07481,-0.09073 -0.352035,-1.248122 l -0.448043,-1.226786 0,-1.013432 c 0,-0.559528 0.0199,-1.01215 0.04267,-1.002764 0.02277,0.0094 0.43809,0.451803 0.92809,0.981429 l 0.896087,0.960093 0.320031,1.418805 c 0.178367,0.777225 0.310943,1.44023 0.298696,1.472143 -0.01812,0.04721 -2.032321,0.842748 -2.133541,0.842749 -0.01635,0 -0.246179,-0.115236 -0.501382,-0.256025 -0.731143,-0.403357 -0.789115,-0.353807 -0.51205,0.405372 l 0.149348,0.426709 -0.51205,1.333463 -0.522717,1.34413 -0.842749,0.65073 c -0.718938,0.561692 -0.842748,0.680715 -0.842748,0.800078 0,0.132335 0.0311,0.147827 0.586723,0.330699 l 0.586724,0.192018 0.07467,0.341367 c 0.144435,0.647046 0.308234,1.498606 0.288028,1.514814 -0.01111,0.0089 -0.565074,0.09806 -1.226786,0.202686 -1.402492,0.221756 -1.376451,0.218763 -1.376134,0.330699 3.28e-4,0.116589 0.702494,3.241408 0.736072,3.274985 0.03024,0.03025 3.072991,-0.555745 3.15764,-0.608059 0.0303,-0.01873 0.209737,-0.888796 0.405373,-1.941522 l 0.362702,-1.920187 0.778742,-0.78941 0.78941,-0.778742 1.493479,0.362702 c 1.194519,0.298318 1.484053,0.39185 1.48281,0.458711 -8.53e-4,0.04586 -0.02454,0.431047 -0.06401,0.853416 -0.03946,0.42237 -0.06187,0.782389 -0.04267,0.800078 0.06389,0.05887 1.233087,0.324399 1.269457,0.288028 0.02721,-0.02721 0.423701,-2.059574 0.426708,-2.186879 3.34e-4,-0.01408 -0.534068,-0.327347 -1.194782,-0.693401 -0.660714,-0.366053 -1.20449,-0.690206 -1.205451,-0.725404 -0.0022,-0.07897 0.08735,-0.08573 0.992096,-0.01067 l 0.725404,0.06401 0.949426,0.736071 0.960093,0.725404 0.618727,0 c 0.511141,0 0.618727,-0.0124 0.618727,-0.07467 0,-0.04148 -0.04942,-0.556291 -0.106677,-1.152112 -0.05726,-0.595821 -0.08902,-1.095098 -0.07467,-1.109441 0.01434,-0.01434 0.04946,-0.0063 0.08534,0.02134 0.03588,0.02764 0.414512,0.329645 0.842748,0.672066 0.428236,0.342421 0.821768,0.618726 0.874752,0.618727 0.06864,0 0.318526,-0.31755 0.853416,-1.120109 0.412869,-0.619475 0.765945,-1.130777 0.78941,-1.130777 0.03298,0 1.017009,1.371058 1.194783,1.664162 0.04275,0.07048 -0.09803,2.034918 -0.149348,2.080202 -0.01953,0.01724 -0.914193,0.348679 -1.984193,0.736072 -1.070001,0.387391 -1.946837,0.710416 -1.952189,0.714736 -0.0054,0.0043 -0.05766,0.455007 -0.117345,1.002764 -0.05969,0.547758 -0.117174,1.00259 -0.128013,1.013432 -0.01084,0.01084 -0.797617,0.122994 -1.749503,0.245357 -1.377157,0.177033 -1.740769,0.2114 -1.781507,0.160016 -0.02816,-0.03552 -0.320668,-0.382432 -0.640062,-0.768075 -0.462588,-0.558545 -0.602226,-0.704068 -0.704068,-0.704068 -0.08226,0 -0.843626,0.478043 -2.133541,1.34413 -1.893053,1.27105 -2.062796,1.375395 -3.029628,1.824178 -0.563159,0.261403 -1.045092,0.500341 -1.077438,0.533385 -0.04271,0.04363 -2.079069,4.906802 -2.357562,5.632547 -0.02108,0.05494 0.27696,0.625868 0.853416,1.642827 l 0.885419,1.557484 0.821413,0.288028 c 0.452501,0.156165 1.487645,0.510343 2.304224,0.78941 0.816581,0.279068 1.497372,0.509364 1.504147,0.51205 0.0068,0.0027 1.083582,-0.386263 2.400233,-0.864084 2.289262,-0.830787 2.451307,-0.877452 3.691025,-1.152112 0.713015,-0.157971 1.329589,-0.28046 1.365467,-0.266692 0.03588,0.01376 0.457921,0.3248 0.938757,0.6934 0.480836,0.368598 0.923629,0.672066 0.981429,0.672066 0.174292,0 1.472672,-0.919946 2.22955,-1.578821 0.464952,-0.404748 1.46281,-1.40827 1.866848,-1.877515 2.121624,-2.464029 3.51626,-5.431485 4.04306,-8.619505 0.171363,-1.037056 0.224022,-1.696616 0.224022,-2.890948 0,-1.876098 -0.235987,-3.464367 -0.757407,-5.173836 -0.1337,-0.438336 -0.133778,-0.445927 -0.362702,-0.544053 -0.400969,-0.171877 -0.389926,-0.181678 -0.576056,0.618727 -0.09167,0.394211 -0.183676,0.714393 -0.202686,0.714736 -0.0949,0.0017 -1.7523,-0.790928 -1.717501,-0.821413 0.02226,-0.01949 0.35594,-0.160466 0.736072,-0.320031 l 0.693401,-0.288028 0.234689,-0.906755 0.234689,-0.917423 -0.18135,-0.352034 C 42.324109,13.143773 40.004097,10.60616 37.316484,8.9227466 35.065058,7.5125421 32.564906,6.6376122 29.849092,6.3198269 L 29.369045,6.2664889 z M 19.320074,9.8934957 c -0.106835,0.0029 -0.615523,0.2344993 -1.418805,0.6507303 l -1.24812,0.65073 -1.06677,1.7175 -1.07744,1.706832 -0.17068,1.0241 c -0.0952,0.563159 -0.17032,1.052907 -0.17069,1.088106 -3.7e-4,0.03663 0.0644,0.06401 0.14935,0.06401 0.13821,0 0.17237,-0.04184 0.52272,-0.693401 l 0.37337,-0.704068 1.24812,-0.565389 1.25879,-0.576056 0.885419,-2.165543 c 0.487315,-1.191743 0.88542,-2.1763382 0.88542,-2.1868796 0,-0.010541 -0.07917,-0.013149 -0.170684,-0.010668 z m 19.009848,3.5736803 c 0.05194,-0.02063 0.56077,0.295253 1.461476,0.917423 0.758752,0.52411 1.409161,0.983742 1.450807,1.024099 0.06638,0.06432 0.02236,0.137643 -0.426708,0.586724 l -0.51205,0.51205 -0.92809,-0.661398 c -0.781156,-0.567212 -2.214444,-1.805441 -2.218882,-1.909519 -6.83e-4,-0.01775 0.241353,-0.121099 0.544053,-0.234689 0.3027,-0.113591 0.585641,-0.217307 0.629394,-0.23469 z m -19.532565,1.045435 c -0.08839,0 -1.370048,0.565313 -1.450808,0.640063 -0.0251,0.02326 -0.14775,0.993691 -0.12801,1.013431 0.009,0.009 0.20301,-0.0071 0.42671,-0.04267 0.33615,-0.05349 0.49167,-0.123875 0.906751,-0.362702 0.276218,-0.15893 0.521601,-0.298402 0.544053,-0.320031 0.02245,-0.02163 -0.01357,-0.247077 -0.07467,-0.490715 -0.09797,-0.390621 -0.123498,-0.437375 -0.224022,-0.437376 z m 18.593807,1.632159 0.149348,0 -0.106677,0.65073 c -0.06138,0.354079 -0.135369,0.660796 -0.160015,0.682733 -0.02465,0.02194 -0.323503,0.135159 -0.661398,0.256025 -0.337895,0.120864 -0.631838,0.239023 -0.65073,0.256025 -0.01889,0.017 -0.08044,0.286891 -0.13868,0.608059 -0.05824,0.321169 -0.114633,0.594678 -0.128013,0.608059 -0.01338,0.01338 -0.337233,0.09112 -0.725403,0.170683 -0.388172,0.07957 -0.743544,0.148134 -0.778743,0.149348 -0.03549,0.0012 -0.06226,-0.0606 -0.06401,-0.13868 -0.0017,-0.07744 -0.06014,-0.732781 -0.13868,-1.450808 -0.07854,-0.718027 -0.137227,-1.311733 -0.128013,-1.322795 0.0092,-0.01106 0.293031,0.150904 0.629395,0.352034 0.336365,0.201129 0.657971,0.362703 0.725404,0.362702 0.114306,0 0.127949,-0.03726 0.213354,-0.490714 0.05038,-0.267501 0.102617,-0.479873 0.106677,-0.480047 0.0041,-1.73e-4 0.388812,-0.05071 0.853416,-0.106677 0.464607,-0.05597 0.916743,-0.106505 1.002764,-0.106677 z m -15.788201,0.92809 c -0.19178,0 -0.835986,0.527345 -0.832081,0.682733 0.0015,0.05921 0.04536,0.325371 0.09601,0.586724 l 0.09601,0.469379 -0.384038,1.06677 c -0.206829,0.583384 -0.373195,1.102836 -0.373369,1.152112 -3.76e-4,0.106938 0.103291,0.110774 0.533385,0.02134 l 0.309363,-0.06401 0.245357,-1.013432 c 0.149643,-0.59984 0.284108,-1.013433 0.320032,-1.013432 0.03792,0 0.124179,0.379264 0.245357,1.013432 0.106263,0.556119 0.210142,1.049496 0.224022,1.098773 0.01647,0.0585 0.07531,0.09601 0.170683,0.09601 0.12601,0 0.233086,-0.11699 0.810745,-0.810745 0.368292,-0.442309 0.672834,-0.831335 0.672066,-0.874752 -7.51e-4,-0.04342 -0.286502,-0.283376 -0.640063,-0.522717 l -0.65073,-0.426708 -0.352034,-0.736072 c -0.329563,-0.682137 -0.356075,-0.725404 -0.490714,-0.725404 z m 19.052519,6.091259 c 0.03014,0 0.686252,0.280155 1.461475,0.618727 l 1.408137,0.608059 0.437376,0.704069 c 0.242425,0.386499 0.460343,0.732878 0.480046,0.768074 0.02089,0.03734 0.0071,0.06667 -0.03199,0.06401 -0.05421,-0.0037 -4.071621,-1.970899 -4.117733,-2.016196 -0.03298,-0.03241 0.313859,-0.746739 0.362702,-0.746739 z"
   id="path-main"
    />
</defs>
<acyl-settings>
<linearGradient
     id="linearGradient4321">
    <stop
       style="stop-color:#89F6FB;stop-opacity:1.0;"
       offset="0.5"
       id="stop1" />
    <stop
       style="stop-color:#10A1AA;stop-opacity:1.0;"
       offset="1.0"
       id="stop2" />
  </linearGradient>
<radialGradient
       inkscape:collect="always"
       xlink:href="#linearGradient4321"
       id="acyl_gradient"
       cx="50.0%"
       cy="50.0%"
       fx="50.0%"
       fy="50.0%"
       r="50.0%"
/>
<filter id="filter1111" x="-50%" y="-50%" width="200%" height="200%">
	<feImage
	id="feImage2"
	xlink:href="#1"
	result="result1" />
	<feComposite
	id="feComposite3633"
	in="result1"
	in2="SourceGraphic"
	operator="xor" />
</filter>
	<rect
	style="fill:#1A4B4F;fill-opacity:1.0;filter:url(#filter1111)"
	id="rect2835"
	width="48"
	height="48"
	x="0"
	y="0"
	rx="3.5"
	ry="3.5" />
	<rect
	style="fill:url(#acyl_gradient);filter:url(#filter1111)"
	id="rect2835"
	width="44"
	height="44"
	x="2"
	y="2"
	rx="3.5"
	ry="3.5" />
<defs>
<use id="1" transform="translate(22.5,22.5) scale(0.85) translate(-22.5,-22.5)" style="fill:#000000" xlink:href="#path-main" />
</defs>
	<use id="2" transform="translate(22.5,22.5) scale(0.85) translate(-22.5,-22.5)" style="fill:#1A4B4F;fill-opacity:1.0" xlink:href="#path-main" />
</acyl-settings>
</svg>
