<svg xmlns="http://www.w3.org/2000/svg" width="48" height="48">
<defs>
  <path
     d="M 26.83871,3.031013 C 24.652481,3.095433 22.264806,3.954509 19.667233,6.429994 12.000703,3.831572 9.198404,7.601227 5.984154,10.825014 10.570841,8.828775 15.170611,7.027268 20.451613,9.891228 23.082948,7.094211 26.279968,4.641256 34.147142,4.985739 32.188071,4.220963 29.883459,3.077311 27.274477,3.031013 c -0.143878,-0.0025 -0.290019,-0.0043 -0.435767,0 z m 13.334465,8.964346 c -5.766447,0.0032 -12.269835,1.175527 -17.60498,9.736277 -4.73502,-0.02362 -8.223263,0.85635 -10.906622,2.315789 C 6.538799,26.833629 4.3408574,31.72026 2,36.41075 8.385171,30.56447 14.928568,25.030616 25.182796,26.749179 27.9172,20.691555 32.555739,16.004152 45.626486,12.144765 43.938878,12.118295 42.095322,11.994284 40.173175,11.995359 z m -10.134692,12.587437 0,6.324844 c 0,0.3465 0.263574,0.61007 0.610074,0.61007 l 9.0515,0 c 0.346501,0 0.610073,-0.26357 0.610073,-0.61007 l 0,-6.324844 -10.271647,0 z m -2.241086,5.988684 c -0.454231,0 -0.821732,0.32693 -0.821732,0.73458 l 0,2.42784 -1.058291,0 c -0.873517,0 -1.568761,0.69524 -1.568761,1.56876 l 0,5.67742 c 0,0.87352 0.695244,1.58121 1.568761,1.58121 l 3.324279,0 0,-1.63101 c 0,-0.93205 0.761222,-1.69327 1.693265,-1.69327 l 8.478778,0 c 0.932045,0 1.693265,0.76122 1.693265,1.69327 l 0,1.63101 3.311828,0 C 45.292303,42.56129 46,41.8536 46,40.98008 l 0,-5.67742 C 46,34.42914 45.292303,33.7339 44.418789,33.7339 l -1.04584,0 0,-2.42784 c 0,-0.40764 -0.367503,-0.73458 -0.821732,-0.73458 l -1.518959,0 0,0.33616 c 0,0.73588 -0.596324,1.34465 -1.332201,1.34465 l -9.0515,0 c -0.735879,0 -1.344652,-0.60877 -1.344652,-1.34465 l 0,-0.33616 -1.506508,0 z m -1.929825,4.51952 0.734579,0 c 0.20382,0 0.373514,0.1697 0.373514,0.37352 l 0,0.73457 c 0,0.20382 -0.169694,0.37352 -0.373514,0.37352 l -0.734579,0 c -0.20382,0 -0.361064,-0.1697 -0.361064,-0.37352 l 0,-0.73457 c 0,-0.20382 0.157244,-0.37352 0.361064,-0.37352 z m 5.067346,4.93039 c -0.51305,0 -0.908885,0.39583 -0.908885,0.90889 l 0,4.46972 10.296548,0 0,-4.46972 c 0,-0.51306 -0.395834,-0.90889 -0.908885,-0.90889 l -8.478778,0 z"
     id="path-main"
      />
</defs>
<acyl-settings>
<linearGradient
     id="linearGradient4321">
    <stop
       style="stop-color:#89F6FB;stop-opacity:1.0;"
       offset="0.5"
       id="stop1" />
    <stop
       style="stop-color:#10A1AA;stop-opacity:1.0;"
       offset="1.0"
       id="stop2" />
  </linearGradient>
<radialGradient
       inkscape:collect="always"
       xlink:href="#linearGradient4321"
       id="acyl_gradient"
       cx="50.0%"
       cy="50.0%"
       fx="50.0%"
       fy="50.0%"
       r="50.0%"
/>
<filter id="filter1111" x="-50%" y="-50%" width="200%" height="200%">
	<feImage
	id="feImage2"
	xlink:href="#1"
	result="result1" />
	<feComposite
	id="feComposite3633"
	in="result1"
	in2="SourceGraphic"
	operator="xor" />
</filter>
	<rect
	style="fill:#1A4B4F;fill-opacity:1.0;filter:url(#filter1111)"
	id="rect2835"
	width="48"
	height="48"
	x="0"
	y="0"
	rx="3.5"
	ry="3.5" />
	<rect
	style="fill:url(#acyl_gradient);filter:url(#filter1111)"
	id="rect2835"
	width="44"
	height="44"
	x="2"
	y="2"
	rx="3.5"
	ry="3.5" />
<defs>
<use id="1" transform="translate(22.5,22.5) scale(0.85) translate(-22.5,-22.5)" style="fill:#000000" xlink:href="#path-main" />
</defs>
	<use id="2" transform="translate(22.5,22.5) scale(0.85) translate(-22.5,-22.5)" style="fill:#1A4B4F;fill-opacity:1.0" xlink:href="#path-main" />
</acyl-settings>
</svg>
