<svg xmlns="http://www.w3.org/2000/svg" width="48" height="48">
<defs>
  <path
     d="M 6.75,4.5 C 6.0535068,4.5 5.5,5.0513432 5.5,5.71875 l 0,36.5625 C 5.5,42.948657 6.0535068,43.5 6.75,43.5 l 34.5,0 c 0.696493,0 1.25,-0.551343 1.25,-1.21875 l 0,-36.5625 C 42.5,5.0513432 41.946493,4.5 41.25,4.5 l -34.5,0 z m 9.65625,5.90625 22.1875,0 0,3.59375 3.375,0 0,10 -3.375,0 0,8.5 c 0,0.525397 -0.108229,1.026492 -0.28125,1.5 l 3.53125,0 0.03125,7.625 c -0.05681,1.082779 -0.27906,1.242817 -1.9375,1.25 L 7.53125,42.9375 C 6.5395583,42.90625 6.0625,42.92273 6.0625,41.5 l 0,-7.5 2.625,0 C 8.5175627,33.529108 8.40625,33.021419 8.40625,32.5 c 0,-1.537607 0.8336929,-2.901243 1.96875,-3.75 l 0.03125,-0.03125 c 1.136854,-0.838232 2.588421,-1.28125 4.125,-1.28125 0.658138,0 1.269357,0.151974 1.875,0.3125 l 0,-3.75 -10.34375,0 0,-10 10.34375,0 0,-3.59375 z m 1.25,1.25 0,18.03125 c -0.865676,-0.593976 -1.919585,-1 -3.125,-1 -1.290879,0 -2.509186,0.391706 -3.40625,1.0625 -0.895063,0.669298 -1.46875,1.640929 -1.46875,2.75 0,1.108991 0.570735,2.101278 1.46875,2.78125 0.89984,0.681354 2.118121,1.0625 3.40625,1.0625 1.288294,0 2.490332,-0.379758 3.375,-1.0625 0.882897,-0.681374 1.4375,-1.67644 1.4375,-2.78125 l 0,-13.15625 16.3125,0 0,10.34375 c -0.865676,-0.593976 -1.919585,-1 -3.125,-1 -1.290879,0 -2.509185,0.391707 -3.40625,1.0625 l -0.03125,0.03125 c -0.874517,0.668119 -1.4375,1.624801 -1.4375,2.71875 0,1.108991 0.570735,2.101277 1.46875,2.78125 0.89984,0.681355 2.118122,1.0625 3.40625,1.0625 1.288294,0 2.490332,-0.379758 3.375,-1.0625 l 0,-0.03125 c 0.871573,-0.680774 1.4375,-1.653408 1.4375,-2.75 l 0,-20.84375 -19.6875,0 z M 20.59375,24 l 0,8.5 c 0,0.525397 -0.108229,1.026492 -0.28125,1.5 l 6.375,0 c -0.169937,-0.470892 -0.28125,-0.978581 -0.28125,-1.5 0,-1.490298 0.792488,-2.803486 1.875,-3.65625 L 28.375,28.75 c 1.142059,-0.853991 2.604655,-1.3125 4.15625,-1.3125 0.658138,0 1.269357,0.151974 1.875,0.3125 l 0,-3.75 -13.8125,0 z"
     id="path-main"/>
</defs>
<acyl-settings>
<linearGradient
     id="linearGradient4321">
    <stop
       style="stop-color:#89F6FB;stop-opacity:1.0;"
       offset="0.5"
       id="stop1" />
    <stop
       style="stop-color:#10A1AA;stop-opacity:1.0;"
       offset="1.0"
       id="stop2" />
  </linearGradient>
<radialGradient
       inkscape:collect="always"
       xlink:href="#linearGradient4321"
       id="acyl_gradient"
       cx="50.0%"
       cy="50.0%"
       fx="50.0%"
       fy="50.0%"
       r="50.0%"
/>
<filter id="filter1111" x="-50%" y="-50%" width="200%" height="200%">
	<feImage
	id="feImage2"
	xlink:href="#1"
	result="result1" />
	<feComposite
	id="feComposite3633"
	in="result1"
	in2="SourceGraphic"
	operator="xor" />
</filter>
	<rect
	style="fill:#1A4B4F;fill-opacity:1.0;filter:url(#filter1111)"
	id="rect2835"
	width="48"
	height="48"
	x="0"
	y="0"
	rx="3.5"
	ry="3.5" />
	<rect
	style="fill:url(#acyl_gradient);filter:url(#filter1111)"
	id="rect2835"
	width="44"
	height="44"
	x="2"
	y="2"
	rx="3.5"
	ry="3.5" />
<defs>
<use id="1" transform="translate(22.5,22.5) scale(0.85) translate(-22.5,-22.5)" style="fill:#000000" xlink:href="#path-main" />
</defs>
	<use id="2" transform="translate(22.5,22.5) scale(0.85) translate(-22.5,-22.5)" style="fill:#1A4B4F;fill-opacity:1.0" xlink:href="#path-main" />
</acyl-settings>
</svg>
