<svg xmlns="http://www.w3.org/2000/svg" width="48" height="48">
<defs>
  <path
     d="m 9.924342,2.9135945 0,4.076755 0,10.8070175 C 9.100015,17.474089 8.100164,17.278727 7.005483,17.278727 4.237809,17.278727 2,18.502348 2,20.004604 c 0,1.502255 2.237809,2.713816 5.005483,2.713816 2.767667,0 5.005483,-1.211561 5.005483,-2.713816 l 0,-12.3750005 c 2.449356,0.462674 1.740351,3.1643585 6.826754,6.6096505 -4.392657,3.118468 -7.260965,8.241484 -7.260965,14.039474 0,5.54217 2.613919,10.46892 6.682017,13.61732 -0.192484,0.4308 -0.500535,0.99385 -1.049341,1.65241 -0.269752,0.3237 -0.475625,0.43722 -0.651321,0.48246 -0.175688,0.0453 -0.36544,0.0431 -0.627189,-0.0603 -0.523498,-0.20696 -1.248363,-0.82621 -1.990132,-1.56798 -0.857554,-0.85755 -2.199736,-1.77392 -3.690789,-2.2193 -0.372765,-0.11134 -0.762003,-0.18396 -1.157896,-0.2171 -1.187676,-0.0994 -2.420976,0.20637 -3.316886,1.23026 l 1.169957,1.01316 c 0.735703,-0.84081 1.695516,-0.89016 2.858554,-0.54276 1.163034,0.34739 2.380408,1.1622 3.039476,1.82127 0.774849,0.77485 1.56218,1.53876 2.520832,1.91776 0.479322,0.18951 1.024139,0.26064 1.56798,0.12061 0.543845,-0.14003 1.039813,-0.48548 1.459432,-0.98903 0.543472,-0.65217 0.905438,-1.24461 1.157896,-1.7489 2.670351,1.7032 5.836952,2.70175 9.239033,2.70175 C 38.295124,45.490358 46,37.785478 46,28.278738 46,18.771992 38.295124,11.067114 28.788378,11.067114 c -3.627803,0 -6.994741,1.123519 -9.769737,3.039474 C 16.016771,9.7356027 15.560864,4.6769075 9.924342,2.9136045 z M 25.941883,13.708551 c 2.512821,0 4.547152,2.046391 4.547152,4.559212 0,2.512819 -2.034331,4.547148 -4.547152,4.547148 -2.512821,0 -4.559207,-2.034329 -4.559207,-4.547148 0,-2.512821 2.046386,-4.559212 4.559207,-4.559212 z m 10.975882,3.497808 c 1.773076,0.0031 3.454141,1.049184 4.185305,2.786184 0.974891,2.315999 -0.108342,4.983442 -2.424339,5.958335 -2.316001,0.97489 -4.983447,-0.108345 -5.958339,-2.424344 -0.974887,-2.315999 0.108347,-4.983442 2.424347,-5.958333 0.578998,-0.243723 1.181998,-0.362859 1.773026,-0.361842 z m -18.707238,6.657894 c 0.447295,-0.01665 0.90815,0.0337 1.362938,0.156799 2.425535,0.656539 3.852808,3.158896 3.196273,5.584426 -0.656538,2.42554 -3.158897,3.85281 -5.584427,3.19628 -2.425539,-0.65654 -3.852812,-3.14684 -3.196273,-5.57237 0.533435,-1.970751 2.283203,-3.29299 4.221489,-3.365135 z m 10.57785,2.689695 c 0.951821,0 1.724778,0.77295 1.724778,1.72478 0,0.95182 -0.772956,1.72478 -1.724778,1.72478 -0.951824,0 -1.724781,-0.77296 -1.724781,-1.72478 0,-0.95183 0.772957,-1.72478 1.724781,-1.72478 z m 9.082236,2.49671 c 1.163938,0.0335 2.309645,0.50965 3.172152,1.42324 1.725015,1.82719 1.64626,4.70372 -0.180917,6.42873 -1.827182,1.72501 -4.703719,1.64626 -6.428734,-0.18092 -1.725012,-1.82718 -1.64626,-4.70371 0.180917,-6.42873 0.913595,-0.8625 2.092651,-1.2758 3.256582,-1.24232 z m -11.301537,4.86074 c 0.733647,-0.006 1.477867,0.16176 2.171053,0.53071 2.218202,1.18061 3.062194,3.93311 1.881579,6.15131 -1.180611,2.21821 -3.933111,3.06219 -6.151312,1.88158 -2.218206,-1.18062 -3.062194,-3.93311 -1.881583,-6.15131 0.811673,-1.52502 2.366253,-2.39852 3.980263,-2.41229 z"
     id="path-main"
      />
</defs>
<acyl-settings>
<linearGradient
     id="linearGradient4321">
    <stop
       style="stop-color:#89F6FB;stop-opacity:1.0;"
       offset="0.5"
       id="stop1" />
    <stop
       style="stop-color:#10A1AA;stop-opacity:1.0;"
       offset="1.0"
       id="stop2" />
  </linearGradient>
<radialGradient
       inkscape:collect="always"
       xlink:href="#linearGradient4321"
       id="acyl_gradient"
       cx="50.0%"
       cy="50.0%"
       fx="50.0%"
       fy="50.0%"
       r="50.0%"
/>
<filter id="filter1111" x="-50%" y="-50%" width="200%" height="200%">
	<feImage
	id="feImage2"
	xlink:href="#1"
	result="result1" />
	<feComposite
	id="feComposite3633"
	in="result1"
	in2="SourceGraphic"
	operator="xor" />
</filter>
	<rect
	style="fill:#1A4B4F;fill-opacity:1.0;filter:url(#filter1111)"
	id="rect2835"
	width="48"
	height="48"
	x="0"
	y="0"
	rx="3.5"
	ry="3.5" />
	<rect
	style="fill:url(#acyl_gradient);filter:url(#filter1111)"
	id="rect2835"
	width="44"
	height="44"
	x="2"
	y="2"
	rx="3.5"
	ry="3.5" />
<defs>
<use id="1" transform="translate(22.5,22.5) scale(0.85) translate(-22.5,-22.5)" style="fill:#000000" xlink:href="#path-main" />
</defs>
	<use id="2" transform="translate(22.5,22.5) scale(0.85) translate(-22.5,-22.5)" style="fill:#1A4B4F;fill-opacity:1.0" xlink:href="#path-main" />
</acyl-settings>
</svg>
