<svg xmlns="http://www.w3.org/2000/svg" width="48" height="48">
<defs>
  <path
     d="M 42.500678,5.5220316 C 37.835427,0.84243617 30.253663,0.81781269 25.588412,5.4974161 22.470327,8.6250824 21.445672,13.067804 22.495993,17.069659 21.222388,17.7645 19.811481,17.769231 18.147681,16.50703 l -1.688872,1.853022 c 1.188564,1.185284 2.324544,2.399778 1.790709,4.544919 L 2.368187,38.835127 2,43.488602 2.44183,43.93179 21.587786,24.726968 c 0.885624,-0.888344 1.466791,-0.190987 0.638193,0.640159 L 3.080022,44.571953 4.380971,45.876893 7.989243,46 l -0.22091,-1.501914 4.864031,0.588314 -1.02927,-4.905738 5.452609,0.539243 0.144183,-4.288563 3.44722,0.137968 -0.316372,-4.426035 3.977115,0.588961 0.221566,-3.81895 c 0.887964,-0.272265 2.804313,0.491812 4.668422,2.224959 l 1.768103,-1.773541 c -0.827062,-0.869958 -0.952576,-2.588427 -0.124281,-3.825228 4.019052,1.109214 8.503943,0.08747 11.659403,-3.077694 4.665251,-4.679596 4.665251,-12.260046 0,-16.9396411 z m -1.939145,0.5662958 c 1.105835,1.1092372 1.081295,2.9040789 -0.02454,4.0133156 -1.105839,1.109239 -2.87063,1.10924 -3.976479,-10e-7 -1.105834,-1.1092397 -1.130379,-2.9040774 -0.02454,-4.0133146 1.105839,-1.1092371 2.919724,-1.1092381 4.025561,0 z"
     id="path-main"
      />
</defs>
<acyl-settings>
<linearGradient
     id="linearGradient4321">
    <stop
       style="stop-color:#89F6FB;stop-opacity:1.0;"
       offset="0.5"
       id="stop1" />
    <stop
       style="stop-color:#10A1AA;stop-opacity:1.0;"
       offset="1.0"
       id="stop2" />
  </linearGradient>
<radialGradient
       inkscape:collect="always"
       xlink:href="#linearGradient4321"
       id="acyl_gradient"
       cx="50.0%"
       cy="50.0%"
       fx="50.0%"
       fy="50.0%"
       r="50.0%"
/>
<filter id="filter1111" x="-50%" y="-50%" width="200%" height="200%">
	<feImage
	id="feImage2"
	xlink:href="#1"
	result="result1" />
	<feComposite
	id="feComposite3633"
	in="result1"
	in2="SourceGraphic"
	operator="xor" />
</filter>
	<rect
	style="fill:#1A4B4F;fill-opacity:1.0;filter:url(#filter1111)"
	id="rect2835"
	width="48"
	height="48"
	x="0"
	y="0"
	rx="3.5"
	ry="3.5" />
	<rect
	style="fill:url(#acyl_gradient);filter:url(#filter1111)"
	id="rect2835"
	width="44"
	height="44"
	x="2"
	y="2"
	rx="3.5"
	ry="3.5" />
<defs>
<use id="1" transform="translate(22.5,22.5) scale(0.85) translate(-22.5,-22.5)" style="fill:#000000" xlink:href="#path-main" />
</defs>
	<use id="2" transform="translate(22.5,22.5) scale(0.85) translate(-22.5,-22.5)" style="fill:#1A4B4F;fill-opacity:1.0" xlink:href="#path-main" />
</acyl-settings>
</svg>
