<svg xmlns="http://www.w3.org/2000/svg" width="48" height="48">
<defs>
  <path
     d="M 21.715393,4.3822145 C 10.824818,4.3822145 2,13.207032 2,24.097607 2,34.98819 10.824818,43.813 21.715393,43.813 c 10.18183,0 18.56027,-7.71195 19.607732,-17.616006 L 30.772362,36.77467 c -0.158044,0.15834 -0.360423,0.24441 -0.551762,0.32298 l -9.151172,3.75468 c -0.210372,0.0864 -0.42267,0.15843 -0.713253,0.17495 -0.290584,0.0165 -0.760942,-0.0569 -1.090066,-0.41719 -0.329125,-0.36028 -0.360189,-0.80231 -0.33644,-1.07661 0.02375,-0.2743 0.08934,-0.47789 0.174948,-0.68634 l 3.781588,-9.191542 c 0.07856,-0.191301 0.188523,-0.418868 0.417186,-0.645965 L 24.218508,28.107974 38.537401,13.802538 C 35.070736,8.1482355 28.83407,4.3822145 21.715393,4.3822145 z m 18.71953,9.5548995 c -0.301213,0.02513 -0.609955,0.16586 -0.861287,0.417186 l -2.718436,2.718437 6.002092,6.002092 2.718437,-2.718436 c 0.502655,-0.502656 0.567161,-1.236158 0.148033,-1.655286 l -4.481383,-4.49484 c -0.209564,-0.209565 -0.506242,-0.294284 -0.807456,-0.269153 z m -4.333349,3.875791 -3.633554,3.633554 6.01555,6.01555 3.633554,-3.633554 -6.01555,-6.01555 z m -14.386181,2.435827 c 2.12746,0 3.848875,1.721415 3.848875,3.848875 0,2.127465 -1.721415,3.848875 -3.848875,3.848875 -2.12746,0 -3.848875,-1.72141 -3.848875,-3.848875 0,-2.12746 1.721415,-3.848875 3.848875,-3.848875 z m 10.025917,1.937895 -6.715346,6.715345 6.002092,6.002088 6.715346,-6.715341 -6.002092,-6.002092 z m -7.482429,7.59009 c -0.141971,0.009 -0.267602,0.128447 -0.336441,0.296067 l -3.768129,9.205006 c -0.235769,0.57407 -0.06385,0.76901 0.497931,0.5383 l 9.137715,-3.76813 c 0.360595,-0.14809 0.486334,-0.40187 0.296067,-0.59213 l -5.557991,-5.557995 c -0.09607,-0.09607 -0.18397,-0.126547 -0.269152,-0.121118 z"
     id="path-main"
      />
</defs>
<acyl-settings>
<linearGradient
     id="linearGradient4321">
    <stop
       style="stop-color:#89F6FB;stop-opacity:1.0;"
       offset="0.5"
       id="stop1" />
    <stop
       style="stop-color:#10A1AA;stop-opacity:1.0;"
       offset="1.0"
       id="stop2" />
  </linearGradient>
<radialGradient
       inkscape:collect="always"
       xlink:href="#linearGradient4321"
       id="acyl_gradient"
       cx="50.0%"
       cy="50.0%"
       fx="50.0%"
       fy="50.0%"
       r="50.0%"
/>
<filter id="filter1111" x="-50%" y="-50%" width="200%" height="200%">
	<feImage
	id="feImage2"
	xlink:href="#1"
	result="result1" />
	<feComposite
	id="feComposite3633"
	in="result1"
	in2="SourceGraphic"
	operator="xor" />
</filter>
	<rect
	style="fill:#1A4B4F;fill-opacity:1.0;filter:url(#filter1111)"
	id="rect2835"
	width="48"
	height="48"
	x="0"
	y="0"
	rx="3.5"
	ry="3.5" />
	<rect
	style="fill:url(#acyl_gradient);filter:url(#filter1111)"
	id="rect2835"
	width="44"
	height="44"
	x="2"
	y="2"
	rx="3.5"
	ry="3.5" />
<defs>
<use id="1" transform="translate(22.5,22.5) scale(0.85) translate(-22.5,-22.5)" style="fill:#000000" xlink:href="#path-main" />
</defs>
	<use id="2" transform="translate(22.5,22.5) scale(0.85) translate(-22.5,-22.5)" style="fill:#1A4B4F;fill-opacity:1.0" xlink:href="#path-main" />
</acyl-settings>
</svg>
