<svg xmlns="http://www.w3.org/2000/svg" width="48" height="48">
<defs>
  <path
     d="M 15.085156,2 C 12.859909,2 10.507208,2.928168 8.910693,4.503161 7.301975,6.092592 6.338,8.480875 6.338,10.719343 l 0,17.730717 c -6e-6,4.67166 1.848907,9.09748 5.159292,12.40456 C 14.804767,44.16374 19.217725,46 23.887937,46 l 8.802782,0 c 2.236478,-1e-5 4.570601,-0.99899 6.146649,-2.57269 1.585231,-1.57934 2.572694,-3.90896 2.572694,-6.14665 4e-6,-2.2378 -0.994731,-4.58494 -2.572694,-6.16056 -1.577648,-1.57646 -3.905823,-2.55878 -6.146649,-2.55878 l 0,-0.26423 c 2.239297,0 4.56847,-0.970216 6.146649,-2.544877 1.579472,-1.577125 2.572694,-3.922879 2.572694,-6.160556 0,-2.237781 -0.986405,-4.597566 -2.572694,-6.174463 -1.580701,-1.57367 -3.934517,-2.54488 -6.174462,-2.54488 l -8.88622,0 0,-0.166878 C 23.77668,8.471985 22.790033,6.149526 21.217899,4.572693 19.644586,2.981648 17.320072,2 15.085156,2 z m 0,4.269279 c 1.21062,0 2.251797,0.434238 3.115044,1.307207 0.866487,0.86908 1.307206,1.908609 1.307206,3.12895 l 0,4.450064 13.169406,0 c 1.222934,0 2.267944,0.436182 3.142858,1.307206 0.87556,0.870376 1.307206,1.909905 1.307206,3.128951 0,1.218397 -0.434886,2.271832 -1.307206,3.142857 -0.871673,0.869728 -1.923813,1.293299 -3.142858,1.293299 l -13.183312,0 0,4.408347 c 0,1.22293 0.438477,2.25698 1.293299,3.11504 0.854823,0.85418 1.880797,1.2933 3.101138,1.2933 l 8.788875,0 c 1.219045,0 2.271185,0.43618 3.142858,1.30721 0.87232,0.87102 1.307206,1.9099 1.307206,3.12895 0,1.2184 -0.434886,2.25987 -1.307206,3.12895 -0.871673,0.87037 -1.90861,1.3072 -3.128951,1.3072 l -8.788875,0 c -3.65908,0 -6.789981,-1.29563 -9.386853,-3.8938 -2.598815,-2.59622 -3.893805,-5.72648 -3.893805,-9.38685 l 0,-17.716817 c 0,-1.254042 0.428108,-2.315848 1.2933,-3.17067 0.865191,-0.853526 1.923109,-1.279394 3.17067,-1.279394 z"
     id="path-main"
      />
</defs>
<acyl-settings>
<linearGradient
     id="linearGradient4321">
    <stop
       style="stop-color:#89F6FB;stop-opacity:1.0;"
       offset="0.5"
       id="stop1" />
    <stop
       style="stop-color:#10A1AA;stop-opacity:1.0;"
       offset="1.0"
       id="stop2" />
  </linearGradient>
<radialGradient
       inkscape:collect="always"
       xlink:href="#linearGradient4321"
       id="acyl_gradient"
       cx="50.0%"
       cy="50.0%"
       fx="50.0%"
       fy="50.0%"
       r="50.0%"
/>
<filter id="filter1111" x="-50%" y="-50%" width="200%" height="200%">
	<feImage
	id="feImage2"
	xlink:href="#1"
	result="result1" />
	<feComposite
	id="feComposite3633"
	in="result1"
	in2="SourceGraphic"
	operator="xor" />
</filter>
	<rect
	style="fill:#1A4B4F;fill-opacity:1.0;filter:url(#filter1111)"
	id="rect2835"
	width="48"
	height="48"
	x="0"
	y="0"
	rx="3.5"
	ry="3.5" />
	<rect
	style="fill:url(#acyl_gradient);filter:url(#filter1111)"
	id="rect2835"
	width="44"
	height="44"
	x="2"
	y="2"
	rx="3.5"
	ry="3.5" />
<defs>
<use id="1" transform="translate(22.5,22.5) scale(0.85) translate(-22.5,-22.5)" style="fill:#000000" xlink:href="#path-main" />
</defs>
	<use id="2" transform="translate(22.5,22.5) scale(0.85) translate(-22.5,-22.5)" style="fill:#1A4B4F;fill-opacity:1.0" xlink:href="#path-main" />
</acyl-settings>
</svg>
