<?xml version="1.0" encoding="UTF-8" standalone="no"?>
<!-- Created with Inkscape (http://www.inkscape.org/) -->

<svg
   xmlns:dc="http://purl.org/dc/elements/1.1/"
   xmlns:cc="http://creativecommons.org/ns#"
   xmlns:rdf="http://www.w3.org/1999/02/22-rdf-syntax-ns#"
   xmlns:svg="http://www.w3.org/2000/svg"
   xmlns="http://www.w3.org/2000/svg"
   xmlns:xlink="http://www.w3.org/1999/xlink"
   xmlns:sodipodi="http://sodipodi.sourceforge.net/DTD/sodipodi-0.dtd"
   xmlns:inkscape="http://www.inkscape.org/namespaces/inkscape"
   version="1.0"
   width="128"
   height="128"
   id="svg3191"
   sodipodi:version="0.32"
   inkscape:version="0.91 r"
   sodipodi:docname="128.svg"
   inkscape:output_extension="org.inkscape.output.svg.inkscape"
   inkscape:export-filename="/home/daniel/Desktop/Tangerine.svg.png"
   inkscape:export-xdpi="90"
   inkscape:export-ydpi="90">
  <metadata
     id="metadata27">
    <rdf:RDF>
      <cc:Work
         rdf:about="">
        <dc:format>image/svg+xml</dc:format>
        <dc:type
           rdf:resource="http://purl.org/dc/dcmitype/StillImage" />
        <dc:title></dc:title>
      </cc:Work>
    </rdf:RDF>
  </metadata>
  <sodipodi:namedview
     inkscape:window-height="793"
     inkscape:window-width="1440"
     inkscape:pageshadow="2"
     inkscape:pageopacity="0.0"
     guidetolerance="10.0"
     gridtolerance="10.0"
     objecttolerance="10.0"
     borderopacity="1.0"
     bordercolor="#666666"
     pagecolor="#ffffff"
     id="base"
     showgrid="false"
     inkscape:zoom="5.3865082"
     inkscape:cx="0.15103"
     inkscape:cy="62.797098"
     inkscape:window-x="66"
     inkscape:window-y="24"
     inkscape:current-layer="svg3191"
     inkscape:window-maximized="0">
    <inkscape:grid
       type="xygrid"
       id="grid2637"
       empspacing="5"
       visible="true"
       enabled="true"
       snapvisiblegridlinesonly="true" />
  </sodipodi:namedview>
  <defs
     id="defs3193">
    <linearGradient
       inkscape:collect="always"
       id="linearGradient3850">
      <stop
         style="stop-color:#699536;stop-opacity:1"
         offset="0"
         id="stop3852" />
      <stop
         style="stop-color:#717171;stop-opacity:0;"
         offset="1"
         id="stop3854" />
    </linearGradient>
    <linearGradient
       id="linearGradient8838">
      <stop
         id="stop8840"
         style="stop-color:#000000;stop-opacity:1"
         offset="0" />
      <stop
         id="stop8842"
         style="stop-color:#000000;stop-opacity:0"
         offset="1" />
    </linearGradient>
    <linearGradient
       id="linearGradient4873">
      <stop
         id="stop4875"
         style="stop-color:#ffffff;stop-opacity:1"
         offset="0" />
      <stop
         id="stop4877"
         style="stop-color:#ffffff;stop-opacity:0"
         offset="1" />
    </linearGradient>
    <linearGradient
       id="linearGradient5670-725-6">
      <stop
         offset="0"
         style="stop-color:#000000;stop-opacity:1"
         id="stop3197-4" />
      <stop
         offset="1"
         style="stop-color:#000000;stop-opacity:0"
         id="stop3199-8" />
    </linearGradient>
    <linearGradient
       id="linearGradient5670-612-8">
      <stop
         offset="0"
         style="stop-color:#000000;stop-opacity:1"
         id="stop3203-1" />
      <stop
         offset="1"
         style="stop-color:#000000;stop-opacity:0"
         id="stop3205-0" />
    </linearGradient>
    <linearGradient
       id="linearGradient7067-814-120-245-2">
      <stop
         offset="0"
         style="stop-color:#aaaaaa;stop-opacity:1"
         id="stop3877-9" />
      <stop
         offset="1"
         style="stop-color:#4d4d4d;stop-opacity:1"
         id="stop3879-7" />
    </linearGradient>
    <linearGradient
       id="linearGradient7067-561-456-275-6">
      <stop
         offset="0"
         style="stop-color:#aaaaaa;stop-opacity:1"
         id="stop3871-4" />
      <stop
         offset="1"
         style="stop-color:#4d4d4d;stop-opacity:1"
         id="stop3873-6" />
    </linearGradient>
    <linearGradient
       id="linearGradient2372-270-7">
      <stop
         offset="0"
         style="stop-color:#ffffff;stop-opacity:1"
         id="stop3239-9" />
      <stop
         offset="1"
         style="stop-color:#ffffff;stop-opacity:0.37931034"
         id="stop3241-7" />
    </linearGradient>
    <linearGradient
       id="linearGradient2372-378-9">
      <stop
         offset="0"
         style="stop-color:#ffffff;stop-opacity:1"
         id="stop3245-1" />
      <stop
         offset="1"
         style="stop-color:#ffffff;stop-opacity:0.37931034"
         id="stop3247-7" />
    </linearGradient>
    <linearGradient
       id="linearGradient2490-113-765">
      <stop
         id="stop3686"
         style="stop-color:#861318;stop-opacity:1"
         offset="0" />
      <stop
         id="stop3688"
         style="stop-color:#f67e2a;stop-opacity:1"
         offset="1" />
    </linearGradient>
    <linearGradient
       id="linearGradient3242-817-801">
      <stop
         id="stop3676"
         style="stop-color:#ffed8c;stop-opacity:1"
         offset="0" />
      <stop
         id="stop3678"
         style="stop-color:#fb9858;stop-opacity:1"
         offset="0.26238" />
      <stop
         id="stop3680"
         style="stop-color:#dc572a;stop-opacity:1"
         offset="0.66093999" />
      <stop
         id="stop3682"
         style="stop-color:#750c3d;stop-opacity:1"
         offset="1" />
    </linearGradient>
    <linearGradient
       inkscape:collect="always"
       xlink:href="#linearGradient4873"
       id="linearGradient2869"
       gradientUnits="userSpaceOnUse"
       gradientTransform="matrix(5.6585053,0,0,5.3681556,-290.46133,89.38489)"
       x1="63.397362"
       y1="-12.489107"
       x2="63.397362"
       y2="5.4675598" />
    <radialGradient
       inkscape:collect="always"
       xlink:href="#linearGradient3242-817-801"
       id="radialGradient2872"
       gradientUnits="userSpaceOnUse"
       gradientTransform="matrix(0,5.696598,-7.9259328,0,93.124495,-118.22116)"
       cx="23.895569"
       cy="3.9900031"
       fx="23.895569"
       fy="3.9900031"
       r="20.397499" />
    <linearGradient
       id="linearGradient2264">
      <stop
         id="stop2266"
         offset="0"
         style="stop-color:#d7e866;stop-opacity:1;" />
      <stop
         id="stop2268"
         offset="1"
         style="stop-color:#8cab2a;stop-opacity:1;" />
    </linearGradient>
    <linearGradient
       inkscape:collect="always"
       xlink:href="#linearGradient2264"
       id="linearGradient3834"
       x1="34"
       y1="0"
       x2="35.319725"
       y2="4.9252748"
       gradientUnits="userSpaceOnUse"
       gradientTransform="matrix(2.5301126,-0.55431324,0.42231648,2.6681687,2.4043889,27.942869)" />
    <radialGradient
       inkscape:collect="always"
       xlink:href="#linearGradient3850"
       id="radialGradient3856"
       cx="22.306368"
       cy="10.82272"
       fx="22.306368"
       fy="10.82272"
       r="1.4870912"
       gradientTransform="matrix(5.2955682,0,0,1.4583318,-56.624892,12.798136)"
       gradientUnits="userSpaceOnUse" />
    <radialGradient
       r="10.625"
       fy="4.625"
       fx="62.625"
       cy="4.625"
       cx="62.625"
       gradientTransform="matrix(5.7411769,0,0,1.9967941,-295.54118,94.548846)"
       gradientUnits="userSpaceOnUse"
       id="radialGradient4188"
       xlink:href="#linearGradient8838"
       inkscape:collect="always" />
    <linearGradient
       id="linearGradient4011">
      <stop
         offset="0"
         style="stop-color:#ffffff;stop-opacity:1;"
         id="stop4013" />
      <stop
         id="stop4015"
         style="stop-color:#ffffff;stop-opacity:0.23529412;"
         offset="0.507761" />
      <stop
         offset="0.83456558"
         style="stop-color:#ffffff;stop-opacity:0.15686275;"
         id="stop4017" />
      <stop
         offset="1"
         style="stop-color:#ffffff;stop-opacity:0.39215687;"
         id="stop4019" />
    </linearGradient>
    <linearGradient
       id="linearGradient2867-449-88-871-390-598-476-591-434-148-57-177-3-8">
      <stop
         offset="0"
         style="stop-color:#90dbec;stop-opacity:1;"
         id="stop3750-8-9" />
      <stop
         offset="0.26238"
         style="stop-color:#42baea;stop-opacity:1;"
         id="stop3752-3-2" />
      <stop
         offset="0.704952"
         style="stop-color:#3689e6;stop-opacity:1;"
         id="stop3754-7-2" />
      <stop
         offset="1"
         style="stop-color:#2b63a0;stop-opacity:1;"
         id="stop3756-9-3" />
    </linearGradient>
    <linearGradient
       id="linearGradient3707-319-631-407-324-3-8">
      <stop
         offset="0"
         style="stop-color:#185f9a;stop-opacity:1;"
         id="stop3760-7-3" />
      <stop
         offset="1"
         style="stop-color:#599ec9;stop-opacity:1;"
         id="stop3762-8-4" />
    </linearGradient>
  </defs>
  <path
     inkscape:connector-curvature="0"
     d="M 125,103.78404 C 125,115.50128 97.689378,125 64.000005,125 30.31064,125 3,115.50128 3,103.78404 3,92.066767 30.31064,82.568062 64.000005,82.568062 97.689378,82.568062 125,92.066767 125,103.78404 l 0,0 z"
     id="path8836-4"
     style="display:inline;overflow:visible;visibility:visible;opacity:0.5;fill:url(#radialGradient4188);fill-opacity:1;fill-rule:evenodd;stroke:none;stroke-width:1;marker:none" />
  <path
     style="fill:url(#radialGradient2872);fill-opacity:1;stroke:none;stroke-width:2.61393237;stroke-linecap:round;stroke-linejoin:round;stroke-miterlimit:4;stroke-dasharray:none;stroke-dashoffset:0;stroke-opacity:1"
     id="path2555"
     d="m 61.500005,21.567659 c -28.240849,0 -51.182711,21.765155 -51.182711,48.55752 0,26.79238 22.941862,48.557521 51.182711,48.557521 28.240839,0 51.182725,-21.765141 51.182705,-48.557521 0,-26.792365 -22.941866,-48.55752 -51.182705,-48.55752 z"
     inkscape:connector-curvature="0" />
  <path
     style="opacity:0.4;fill:none;stroke:url(#linearGradient2869);stroke-width:1.02708006;stroke-miterlimit:4;stroke-dasharray:none;stroke-opacity:1"
     id="path8655"
     d="m 110.98646,70.536508 c 0,25.929648 -22.157474,46.949952 -49.485836,46.949952 -27.330862,0 -49.487084,-21.020546 -49.487084,-46.949952 0,-25.928461 22.156222,-46.946618 49.487084,-46.946618 27.328362,0 49.485836,21.018157 49.485836,46.946618 l 0,0 z"
     inkscape:connector-curvature="0" />
  <ellipse
     style="display:inline;overflow:visible;visibility:visible;fill:url(#radialGradient3856);fill-opacity:1;fill-rule:nonzero;stroke:none;stroke-width:1;marker:none;enable-background:accumulate"
     id="path3848"
     cx="61.5"
     cy="28.581257"
     rx="7.8749924"
     ry="2.1686728" />
  <path
     inkscape:connector-curvature="0"
     d="m 61.500005,21.567659 c -28.240849,0 -51.182711,21.765155 -51.182711,48.55752 0,26.79238 22.941862,48.557521 51.182711,48.557521 28.240839,0 51.182725,-21.765141 51.182705,-48.557521 0,-26.792365 -22.941866,-48.55752 -51.182705,-48.55752 z"
     id="path4393"
     style="opacity:0.4;fill:none;fill-opacity:1;stroke:#932b33;stroke-width:2.6345892;stroke-linecap:round;stroke-linejoin:round;stroke-miterlimit:4;stroke-dasharray:none;stroke-dashoffset:0;stroke-opacity:1" />
  <path
     style="fill:url(#linearGradient3834);fill-opacity:1;fill-rule:evenodd;stroke:none;stroke-width:2.60441542px;stroke-linecap:butt;stroke-linejoin:miter;stroke-opacity:1"
     d="m 67.346469,24.757708 c 0,0 12.646779,-19.3348927 44.275071,-17.9821465 0,0 -13.646745,20.2762205 -44.275071,17.9821465 z"
     id="path3826"
     inkscape:transform-center-x="-23.026268"
     inkscape:transform-center-y="-10.407861"
     inkscape:connector-curvature="0" />
  <path
     inkscape:connector-curvature="0"
     inkscape:transform-center-y="-10.407861"
     inkscape:transform-center-x="-23.026268"
     id="path4404"
     d="m 67.346469,24.757708 c 0,0 12.646779,-19.3348927 44.275071,-17.9821465 0,0 -13.646745,20.2762205 -44.275071,17.9821465 z"
     style="fill:none;fill-opacity:1;fill-rule:evenodd;stroke:#58932b;stroke-width:2.60441542px;stroke-linecap:butt;stroke-linejoin:miter;stroke-opacity:1;opacity:0.4" />
</svg>
