<?xml version="1.0" encoding="UTF-8" standalone="no"?>
<!-- Created with Inkscape (http://www.inkscape.org/) -->

<svg
   xmlns:dc="http://purl.org/dc/elements/1.1/"
   xmlns:cc="http://creativecommons.org/ns#"
   xmlns:rdf="http://www.w3.org/1999/02/22-rdf-syntax-ns#"
   xmlns:svg="http://www.w3.org/2000/svg"
   xmlns="http://www.w3.org/2000/svg"
   xmlns:xlink="http://www.w3.org/1999/xlink"
   xmlns:sodipodi="http://sodipodi.sourceforge.net/DTD/sodipodi-0.dtd"
   xmlns:inkscape="http://www.inkscape.org/namespaces/inkscape"
   version="1.1"
   width="128"
   height="128"
   id="svg3828"
   inkscape:version="0.91 r"
   sodipodi:docname="eog.svg">
  <sodipodi:namedview
     pagecolor="#ffffff"
     bordercolor="#666666"
     borderopacity="1"
     objecttolerance="10"
     gridtolerance="10"
     guidetolerance="10"
     inkscape:pageopacity="0"
     inkscape:pageshadow="2"
     inkscape:window-width="1854"
     inkscape:window-height="1028"
     id="namedview234"
     showgrid="false"
     inkscape:snap-page="true"
     inkscape:zoom="4.6998279"
     inkscape:cx="25.917613"
     inkscape:cy="44.979719"
     inkscape:window-x="65"
     inkscape:window-y="24"
     inkscape:window-maximized="0"
     inkscape:current-layer="layer1" />
  <defs
     id="defs3830">
    <linearGradient
       x1="38.851257"
       y1="41.608219"
       x2="34.130882"
       y2="37.809635"
       id="linearGradient4031"
       xlink:href="#linearGradient6455-7"
       gradientUnits="userSpaceOnUse"
       gradientTransform="matrix(0.3803794,0,0,0.39792162,80.913762,13.559828)" />
    <linearGradient
       id="linearGradient6455-7">
      <stop
         id="stop6457-5"
         style="stop-color:#fbac9b;stop-opacity:1"
         offset="0" />
      <stop
         id="stop6459-8"
         style="stop-color:#fcfafc;stop-opacity:1"
         offset="1" />
    </linearGradient>
    <linearGradient
       x1="38.851257"
       y1="41.608219"
       x2="34.130882"
       y2="37.809635"
       id="linearGradient4034"
       xlink:href="#linearGradient6413-0"
       gradientUnits="userSpaceOnUse"
       gradientTransform="matrix(0.5438829,0,0,0.56896553,73.971742,5.7472581)" />
    <linearGradient
       id="linearGradient6413-0">
      <stop
         id="stop6415-1"
         style="stop-color:#feffff;stop-opacity:1"
         offset="0" />
      <stop
         id="stop6417-4"
         style="stop-color:#fe70ca;stop-opacity:1"
         offset="1" />
    </linearGradient>
    <radialGradient
       cx="36.49107"
       cy="39.708927"
       r="3.1589286"
       fx="36.49107"
       fy="39.708927"
       id="radialGradient4037"
       xlink:href="#linearGradient6303-33-0"
       gradientUnits="userSpaceOnUse"
       gradientTransform="matrix(0.5438829,0,0,0.56896553,78.534406,8.5088781)" />
    <linearGradient
       id="linearGradient6303-33-0">
      <stop
         id="stop6305-1-0"
         style="stop-color:#ffffff;stop-opacity:1"
         offset="0" />
      <stop
         id="stop6307-5-0"
         style="stop-color:#ffffff;stop-opacity:0"
         offset="1" />
    </linearGradient>
    <radialGradient
       cx="36.49107"
       cy="39.708927"
       r="3.1589286"
       fx="36.49107"
       fy="39.708927"
       id="radialGradient4040"
       xlink:href="#linearGradient6303-3-2"
       gradientUnits="userSpaceOnUse"
       gradientTransform="matrix(1.9066219,-1.1007887,0.62631081,1.0848021,-2.064446,21.718288)" />
    <linearGradient
       id="linearGradient6303-3-2">
      <stop
         id="stop6305-3-0"
         style="stop-color:#ffffff;stop-opacity:1"
         offset="0" />
      <stop
         id="stop6307-1-0"
         style="stop-color:#ffffff;stop-opacity:0"
         offset="1" />
    </linearGradient>
    <radialGradient
       cx="36.49107"
       cy="39.708927"
       r="3.1589286"
       fx="36.49107"
       fy="39.708927"
       id="radialGradient4043"
       xlink:href="#linearGradient6303-4"
       gradientUnits="userSpaceOnUse"
       gradientTransform="matrix(2.3693784,-1.3679613,0.7783228,1.3480947,-13.222876,35.173351)" />
    <linearGradient
       id="linearGradient6303-4">
      <stop
         id="stop6305-33"
         style="stop-color:#ffffff;stop-opacity:1"
         offset="0" />
      <stop
         id="stop6307-9"
         style="stop-color:#ffffff;stop-opacity:0"
         offset="1" />
    </linearGradient>
    <radialGradient
       cx="32.372566"
       cy="31.405056"
       r="3.857446"
       fx="32.372566"
       fy="31.405056"
       id="radialGradient4046"
       xlink:href="#linearGradient6088-6-1"
       gradientUnits="userSpaceOnUse"
       gradientTransform="matrix(-1.5152343,-1.5152343,1.5152343,-1.5152343,100.466,126.65556)" />
    <linearGradient
       id="linearGradient6088-6-1">
      <stop
         id="stop6090-2-0"
         style="stop-color:#ff54d2;stop-opacity:0"
         offset="0" />
      <stop
         id="stop6257-4-6"
         style="stop-color:#ff54d2;stop-opacity:0"
         offset="0.32368398" />
      <stop
         id="stop6255-3-6"
         style="stop-color:#ff54d2;stop-opacity:0.2521739"
         offset="0.56140333" />
      <stop
         id="stop6092-9-6"
         style="stop-color:#ff54d2;stop-opacity:0.47826087"
         offset="1" />
    </linearGradient>
    <radialGradient
       cx="32.372566"
       cy="31.405056"
       r="3.857446"
       fx="32.372566"
       fy="31.405056"
       id="radialGradient4049"
       xlink:href="#linearGradient6191-8-3"
       gradientUnits="userSpaceOnUse"
       gradientTransform="matrix(1.2971465,1.801238,-1.7388916,1.2522482,111.61661,-65.64839)" />
    <linearGradient
       id="linearGradient6191-8-3">
      <stop
         id="stop6193-75-7"
         style="stop-color:#ffffff;stop-opacity:0"
         offset="0" />
      <stop
         id="stop6197-3-4"
         style="stop-color:#ffffff;stop-opacity:0"
         offset="0.40531859" />
      <stop
         id="stop6195-7-2"
         style="stop-color:#ffffff;stop-opacity:0.47826087"
         offset="1" />
    </linearGradient>
    <radialGradient
       cx="32.372566"
       cy="31.405056"
       r="3.857446"
       fx="32.372566"
       fy="31.405056"
       id="radialGradient4052"
       xlink:href="#linearGradient6191-7-9"
       gradientUnits="userSpaceOnUse"
       gradientTransform="matrix(0,2.2196953,-2.1428649,-1.2524014e-8,166.30388,-39.866172)" />
    <linearGradient
       id="linearGradient6191-7-9">
      <stop
         id="stop6193-7-3"
         style="stop-color:#ffffff;stop-opacity:0"
         offset="0" />
      <stop
         id="stop6197-2-2"
         style="stop-color:#ffffff;stop-opacity:0"
         offset="0.40531859" />
      <stop
         id="stop6195-2-1"
         style="stop-color:#ffffff;stop-opacity:0.47826087"
         offset="1" />
    </linearGradient>
    <radialGradient
       cx="32.372566"
       cy="31.405056"
       r="3.857446"
       fx="32.372566"
       fy="31.405056"
       id="radialGradient4055"
       xlink:href="#linearGradient6191-9"
       gradientUnits="userSpaceOnUse"
       gradientTransform="matrix(2.144061,0.57449942,-0.55461425,2.0698485,46.998897,-51.608414)" />
    <linearGradient
       id="linearGradient6191-9">
      <stop
         id="stop6193-8"
         style="stop-color:#ffffff;stop-opacity:0"
         offset="0" />
      <stop
         id="stop6197-8"
         style="stop-color:#ffffff;stop-opacity:0"
         offset="0.40531859" />
      <stop
         id="stop6195-9"
         style="stop-color:#ffffff;stop-opacity:0.47826087"
         offset="1" />
    </linearGradient>
    <linearGradient
       x1="68.313301"
       y1="52.925316"
       x2="68.313301"
       y2="65.922028"
       id="linearGradient4058"
       xlink:href="#linearGradient3990-3-1"
       gradientUnits="userSpaceOnUse"
       gradientTransform="matrix(0.16581446,0,0,0.12436084,87.904626,22.579998)" />
    <linearGradient
       id="linearGradient3990-3-1">
      <stop
         id="stop3992-0-0"
         style="stop-color:#ffffff;stop-opacity:1"
         offset="0" />
      <stop
         id="stop3994-2-1"
         style="stop-color:#ffffff;stop-opacity:0"
         offset="1" />
    </linearGradient>
    <linearGradient
       x1="92.696327"
       y1="16.554602"
       x2="92.696327"
       y2="48.983677"
       id="linearGradient4061"
       xlink:href="#linearGradient4316-4-6-6"
       gradientUnits="userSpaceOnUse"
       gradientTransform="matrix(0.46791441,0,0,0.46791441,55.911766,16.762708)" />
    <linearGradient
       id="linearGradient4316-4-6-6">
      <stop
         id="stop4318-4-4-6"
         style="stop-color:#ffffff;stop-opacity:1"
         offset="0" />
      <stop
         id="stop4320-2-2-6"
         style="stop-color:#ffffff;stop-opacity:0.23529412"
         offset="0.33799788" />
      <stop
         id="stop4322-4-5-5"
         style="stop-color:#ffffff;stop-opacity:0.15686275"
         offset="0.61996669" />
      <stop
         id="stop4324-4-1-5"
         style="stop-color:#ffffff;stop-opacity:0.39215687"
         offset="1" />
    </linearGradient>
    <radialGradient
       cx="32.372566"
       cy="31.405056"
       r="3.857446"
       fx="32.372566"
       fy="31.405056"
       id="radialGradient4064"
       xlink:href="#linearGradient6088-74"
       gradientUnits="userSpaceOnUse"
       gradientTransform="matrix(-2.1428649,0,0,-2.1428649,168.38007,99.310161)" />
    <linearGradient
       id="linearGradient6088-74">
      <stop
         id="stop6090-5"
         style="stop-color:#ff54d2;stop-opacity:0"
         offset="0" />
      <stop
         id="stop6257-5"
         style="stop-color:#f62b68;stop-opacity:1"
         offset="0.32368398" />
      <stop
         id="stop6255-6"
         style="stop-color:#ff0105;stop-opacity:1"
         offset="0.56140333" />
      <stop
         id="stop6092-0"
         style="stop-color:#ff54d2;stop-opacity:0.47826087"
         offset="1" />
    </linearGradient>
    <linearGradient
       x1="92.696327"
       y1="16.554602"
       x2="92.696327"
       y2="48.983677"
       id="linearGradient4069"
       xlink:href="#linearGradient4316-4-0"
       gradientUnits="userSpaceOnUse"
       gradientTransform="matrix(0.84224595,0,0,-0.84224595,21.441178,59.436481)" />
    <linearGradient
       id="linearGradient4316-4-0">
      <stop
         id="stop4318-4-5"
         style="stop-color:#ffffff;stop-opacity:1"
         offset="0" />
      <stop
         id="stop4320-2-9"
         style="stop-color:#ffffff;stop-opacity:0.23529412"
         offset="0.33799788" />
      <stop
         id="stop4322-4-1"
         style="stop-color:#ffffff;stop-opacity:0.15686275"
         offset="0.61996669" />
      <stop
         id="stop4324-4-8"
         style="stop-color:#ffffff;stop-opacity:0.39215687"
         offset="1" />
    </linearGradient>
    <radialGradient
       cx="95.838364"
       cy="95.388451"
       r="9.4981718"
       fx="95.838364"
       fy="95.388451"
       id="radialGradient4072"
       xlink:href="#linearGradient4278-3"
       gradientUnits="userSpaceOnUse"
       gradientTransform="matrix(0.57546739,-8.5809842e-8,8.0624837e-8,0.54069512,43.758909,-19.784825)" />
    <linearGradient
       id="linearGradient4278-3">
      <stop
         id="stop4280-6"
         style="stop-color:#000000;stop-opacity:0"
         offset="0" />
      <stop
         id="stop4286-1"
         style="stop-color:#000000;stop-opacity:0"
         offset="0.5" />
      <stop
         id="stop4282-24"
         style="stop-color:#000000;stop-opacity:1"
         offset="1" />
    </linearGradient>
    <radialGradient
       cx="23.896"
       cy="3.99"
       r="20.396999"
       id="radialGradient4075"
       xlink:href="#linearGradient2867-449-88-871-390-598-476-591-434-148-57-177-691-4"
       gradientUnits="userSpaceOnUse"
       gradientTransform="matrix(0,0.52770403,-0.69656002,0,101.77927,14.555718)" />
    <linearGradient
       id="linearGradient2867-449-88-871-390-598-476-591-434-148-57-177-691-4">
      <stop
         id="stop7191-4"
         style="stop-color:#612f91;stop-opacity:1"
         offset="0" />
      <stop
         id="stop7197-2"
         style="stop-color:#1a4aa2;stop-opacity:1"
         offset="1" />
    </linearGradient>
    <linearGradient
       x1="7.0776"
       y1="3.0816"
       x2="7.0776"
       y2="45.368999"
       id="linearGradient4077-1"
       xlink:href="#linearGradient3087-408-5"
       gradientUnits="userSpaceOnUse"
       gradientTransform="matrix(0.22110591,0,0,0.22110594,93.693458,26.696638)" />
    <linearGradient
       x1="7.0776"
       y1="3.0816"
       x2="7.0776"
       y2="45.368999"
       id="linearGradient3087-408-5"
       gradientUnits="userSpaceOnUse"
       gradientTransform="matrix(0.22110724,0,0,0.22110728,6.6934256,6.693263)">
      <stop
         id="stop7201-5"
         style="stop-color:#170418;stop-opacity:1"
         offset="0" />
      <stop
         id="stop7203-2"
         style="stop-color:#50386b;stop-opacity:1"
         offset="1" />
    </linearGradient>
    <radialGradient
       cx="31.999998"
       cy="21.239277"
       r="10.498171"
       fx="31.999998"
       fy="21.239277"
       id="radialGradient4082"
       xlink:href="#linearGradient6042-1"
       gradientUnits="userSpaceOnUse"
       gradientTransform="matrix(0,2.0115211,-4.6336383,0,197.41512,-43.126059)" />
    <linearGradient
       id="linearGradient6042-1">
      <stop
         id="stop6044-9"
         style="stop-color:#07132d;stop-opacity:1"
         offset="0" />
      <stop
         id="stop6046-9"
         style="stop-color:#425479;stop-opacity:1"
         offset="1" />
    </linearGradient>
    <radialGradient
       cx="91.349998"
       cy="16.447752"
       r="15.639286"
       fx="91.349998"
       fy="16.447752"
       id="radialGradient4085"
       xlink:href="#linearGradient4507-6"
       gradientUnits="userSpaceOnUse"
       gradientTransform="matrix(0,1.8361326,-1.8361326,0,129.20025,-149.85528)" />
    <linearGradient
       id="linearGradient4507-6">
      <stop
         id="stop4509-3"
         style="stop-color:#2d3955;stop-opacity:1"
         offset="0" />
      <stop
         id="stop5959-4"
         style="stop-color:#2b3853;stop-opacity:1"
         offset="0.72468865" />
      <stop
         id="stop5961-1"
         style="stop-color:#192640;stop-opacity:1"
         offset="0.75" />
      <stop
         id="stop4511-1"
         style="stop-color:#08142e;stop-opacity:1"
         offset="1" />
    </linearGradient>
    <linearGradient
       x1="92.696327"
       y1="16.554602"
       x2="92.696327"
       y2="48.983677"
       id="linearGradient4088"
       xlink:href="#linearGradient4316-5"
       gradientUnits="userSpaceOnUse"
       gradientTransform="matrix(1.0918003,0,0,1.0918003,-1.539213,-3.5581569)" />
    <linearGradient
       id="linearGradient4316-5">
      <stop
         id="stop4318-1"
         style="stop-color:#ffffff;stop-opacity:1"
         offset="0" />
      <stop
         id="stop4320-9"
         style="stop-color:#ffffff;stop-opacity:0.23529412"
         offset="0.33799788" />
      <stop
         id="stop4322-42"
         style="stop-color:#ffffff;stop-opacity:0.15686275"
         offset="0.61996669" />
      <stop
         id="stop4324-9"
         style="stop-color:#ffffff;stop-opacity:0.39215687"
         offset="1" />
    </linearGradient>
    <linearGradient
       x1="91.566116"
       y1="16.542858"
       x2="91.566116"
       y2="48.631081"
       id="linearGradient4092"
       xlink:href="#linearGradient4220-7"
       gradientUnits="userSpaceOnUse"
       gradientTransform="matrix(1.1541889,0,0,1.1541889,-7.284312,-5.5902319)" />
    <linearGradient
       id="linearGradient4220-7">
      <stop
         id="stop4222-7"
         style="stop-color:#7a8498;stop-opacity:1"
         offset="0" />
      <stop
         id="stop4224-0"
         style="stop-color:#34405c;stop-opacity:1"
         offset="1" />
    </linearGradient>
    <linearGradient
       x1="51.199997"
       y1="8.1142893"
       x2="51.199997"
       y2="56.114563"
       id="linearGradient4096"
       xlink:href="#linearGradient4164"
       gradientUnits="userSpaceOnUse"
       gradientTransform="matrix(0.95833332,0,0,0.95833332,49.823812,1.3366721)" />
    <linearGradient
       id="linearGradient4164">
      <stop
         id="stop4166"
         style="stop-color:#b6b6b6;stop-opacity:1"
         offset="0" />
      <stop
         id="stop4216"
         style="stop-color:#a4a4a4;stop-opacity:1"
         offset="0.33095336" />
      <stop
         id="stop4168"
         style="stop-color:#c5c5c5;stop-opacity:1"
         offset="1" />
    </linearGradient>
    <linearGradient
       x1="71.204407"
       y1="15.369057"
       x2="71.204407"
       y2="40.495617"
       id="linearGradient4099"
       xlink:href="#linearGradient4806"
       gradientUnits="userSpaceOnUse"
       gradientTransform="matrix(2.2452294,0,0,2.2452294,-63.051924,-30.564913)" />
    <linearGradient
       id="linearGradient4806">
      <stop
         id="stop4808"
         style="stop-color:#ffffff;stop-opacity:1"
         offset="0" />
      <stop
         id="stop4810"
         style="stop-color:#ffffff;stop-opacity:0.23529412"
         offset="0.42447853" />
      <stop
         id="stop4812"
         style="stop-color:#ffffff;stop-opacity:0.15686275"
         offset="0.82089913" />
      <stop
         id="stop4814"
         style="stop-color:#ffffff;stop-opacity:0.39215687"
         offset="1" />
    </linearGradient>
    <radialGradient
       cx="23.896"
       cy="3.99"
       r="20.396999"
       fx="23.896"
       fy="3.99"
       id="radialGradient4103"
       xlink:href="#radialGradient3093-0-3-6"
       gradientUnits="userSpaceOnUse"
       gradientTransform="matrix(0,4.01575,-5.3007188,0,120.1504,-93.049096)" />
    <radialGradient
       cx="23.896"
       cy="3.99"
       r="20.396999"
       id="radialGradient3093-0-3-6"
       gradientUnits="userSpaceOnUse"
       gradientTransform="matrix(0,1.2316483,-1.625754,0,18.486966,-28.721977)">
      <stop
         id="stop3244-9-33-7-0"
         style="stop-color:#ffffff;stop-opacity:1"
         offset="0" />
      <stop
         id="stop3246-3-5-0-8"
         style="stop-color:#dddddd;stop-opacity:1"
         offset="0.26238" />
      <stop
         id="stop3248-1-7-8-8"
         style="stop-color:#abacae;stop-opacity:1"
         offset="0.66093999" />
      <stop
         id="stop3250-9-3-0-5"
         style="stop-color:#89898b;stop-opacity:1"
         offset="1" />
    </radialGradient>
    <radialGradient
       cx="99.157013"
       cy="186.17059"
       r="62.769119"
       fx="99.157013"
       fy="186.17059"
       id="radialGradient4106"
       xlink:href="#linearGradient3820-7-2"
       gradientUnits="userSpaceOnUse"
       gradientTransform="matrix(0.38235362,0,0,0.11948554,61.086957,33.257981)" />
    <linearGradient
       id="linearGradient3820-7-2">
      <stop
         id="stop3822-2-6"
         style="stop-color:#3d3d3d;stop-opacity:1"
         offset="0" />
      <stop
         id="stop3864-8-7"
         style="stop-color:#686868;stop-opacity:0.49803922"
         offset="0.5" />
      <stop
         id="stop3824-1-2"
         style="stop-color:#686868;stop-opacity:0"
         offset="1" />
    </linearGradient>
    <linearGradient
       x1="61.998196"
       y1="138.73186"
       x2="67.634743"
       y2="121.53167"
       id="linearGradient6393"
       xlink:href="#linearGradient6272-5"
       gradientUnits="userSpaceOnUse"
       gradientTransform="translate(-1.9999991,-137.00826)"
       spreadMethod="reflect" />
    <linearGradient
       id="linearGradient6272-5">
      <stop
         id="stop6274-4"
         style="stop-color:#ffffff;stop-opacity:1"
         offset="0" />
      <stop
         id="stop6276-8"
         style="stop-color:#ffffff;stop-opacity:0.54320985"
         offset="1" />
    </linearGradient>
    <linearGradient
       x1="61.998196"
       y1="133.73186"
       x2="50.634743"
       y2="118.53167"
       id="linearGradient6278"
       xlink:href="#linearGradient6272"
       gradientUnits="userSpaceOnUse"
       gradientTransform="translate(-1.9999991,-137.00826)"
       spreadMethod="reflect" />
    <linearGradient
       id="linearGradient6272">
      <stop
         id="stop6274"
         style="stop-color:#ffffff;stop-opacity:1"
         offset="0" />
      <stop
         id="stop6276"
         style="stop-color:#ffffff;stop-opacity:0.54320985"
         offset="1" />
    </linearGradient>
    <linearGradient
       x1="-184.92441"
       y1="113.97943"
       x2="-175.25337"
       y2="88.801025"
       id="linearGradient5194-7"
       xlink:href="#linearGradient4574-1-9"
       gradientUnits="userSpaceOnUse"
       gradientTransform="matrix(0.40474014,0,0,0.4102096,107.85556,-11.213146)" />
    <linearGradient
       id="linearGradient4574-1-9">
      <stop
         id="stop4576-8-3"
         style="stop-color:#7a0f01;stop-opacity:1"
         offset="0" />
      <stop
         id="stop4578-4-4"
         style="stop-color:#d31807;stop-opacity:1"
         offset="1" />
    </linearGradient>
    <linearGradient
       x1="-211.28862"
       y1="88.750069"
       x2="-208.49672"
       y2="75.190559"
       id="linearGradient5192-6"
       xlink:href="#linearGradient4470-8-1"
       gradientUnits="userSpaceOnUse" />
    <linearGradient
       id="linearGradient4470-8-1">
      <stop
         id="stop4472-33-4"
         style="stop-color:#ec4502;stop-opacity:1"
         offset="0" />
      <stop
         id="stop4474-2-1"
         style="stop-color:#fe7617;stop-opacity:1"
         offset="1" />
    </linearGradient>
    <linearGradient
       x1="-107.45584"
       y1="-37.385227"
       x2="-107.45584"
       y2="38.561256"
       id="linearGradient5346"
       xlink:href="#linearGradient3871-6-7"
       gradientUnits="userSpaceOnUse"
       gradientTransform="matrix(0.63152836,0,0,0.6401138,146.17378,-18.968446)" />
    <linearGradient
       id="linearGradient3871-6-7">
      <stop
         id="stop3873-3-2"
         style="stop-color:#0b85e9;stop-opacity:1"
         offset="0" />
      <stop
         id="stop3875-4-0"
         style="stop-color:#69d1ef;stop-opacity:1"
         offset="1" />
    </linearGradient>
    <linearGradient
       x1="-96.557358"
       y1="110.92493"
       x2="-96.557358"
       y2="39.991924"
       id="linearGradient5351"
       xlink:href="#linearGradient3825-5-8-1"
       gradientUnits="userSpaceOnUse"
       gradientTransform="matrix(0.63152836,0,0,0.6401138,146.17378,-18.968446)" />
    <linearGradient
       id="linearGradient3825-5-8-1">
      <stop
         id="stop3827-2-3-5"
         style="stop-color:#e89c42;stop-opacity:1"
         offset="0" />
      <stop
         id="stop3829-5-0-5"
         style="stop-color:#faca67;stop-opacity:1"
         offset="1" />
    </linearGradient>
    <linearGradient
       x1="41.19519"
       y1="5.5395665"
       x2="41.19519"
       y2="42.37582"
       id="linearGradient5157"
       xlink:href="#linearGradient3977-7-8"
       gradientUnits="userSpaceOnUse"
       gradientTransform="matrix(2.891892,0,0,2.3243242,-5.4053886,-51.283646)" />
    <linearGradient
       id="linearGradient3977-7-8">
      <stop
         id="stop3979-6-0"
         style="stop-color:#ffffff;stop-opacity:1"
         offset="0" />
      <stop
         id="stop3981-3-70"
         style="stop-color:#ffffff;stop-opacity:0.23529412"
         offset="0.00515018" />
      <stop
         id="stop3983-8-2"
         style="stop-color:#ffffff;stop-opacity:0.15686275"
         offset="0.99146652" />
      <stop
         id="stop3985-2-7"
         style="stop-color:#ffffff;stop-opacity:0.39215687"
         offset="1" />
    </linearGradient>
    <linearGradient
       x1="25.132275"
       y1="0.98520643"
       x2="25.132275"
       y2="47.013336"
       id="linearGradient5165"
       xlink:href="#linearGradient3600-9-4"
       gradientUnits="userSpaceOnUse"
       gradientTransform="matrix(3.0857075,0,0,1.8903662,-10.056921,-43.777064)" />
    <linearGradient
       id="linearGradient3600-9-4">
      <stop
         id="stop3602-0-5"
         style="stop-color:#f4f4f4;stop-opacity:1"
         offset="0" />
      <stop
         id="stop3604-9-98"
         style="stop-color:#dbdbdb;stop-opacity:1"
         offset="1" />
    </linearGradient>
    <linearGradient
       x1="-76.834877"
       y1="6.6805849"
       x2="-76.844345"
       y2="52.887863"
       id="linearGradient5168"
       xlink:href="#linearGradient4623-7-1"
       gradientUnits="userSpaceOnUse"
       gradientTransform="matrix(2.6500948,0.00149554,5.4314426e-4,1.9115384,322.11035,-51.926363)" />
    <linearGradient
       id="linearGradient4623-7-1">
      <stop
         id="stop4625-3-5"
         style="stop-color:#000000;stop-opacity:0.27058825"
         offset="0" />
      <stop
         id="stop4627-1-0"
         style="stop-color:#000000;stop-opacity:0.368"
         offset="1" />
    </linearGradient>
    <radialGradient
       cx="19.53446"
       cy="40.430397"
       r="23.929714"
       fx="19.53446"
       fy="40.430397"
       id="radialGradient3846"
       xlink:href="#linearGradient5071-7-3-5"
       gradientUnits="userSpaceOnUse"
       gradientTransform="matrix(2.4655539,0,0,0.16715632,10.836737,42.23354)" />
    <linearGradient
       id="linearGradient5071-7-3-5">
      <stop
         id="stop5073-2-9-7"
         style="stop-color:#000000;stop-opacity:1"
         offset="0" />
      <stop
         id="stop5075-2-1-0"
         style="stop-color:#000000;stop-opacity:0"
         offset="1" />
    </linearGradient>
    <linearGradient
       x1="-76.834877"
       y1="6.6805849"
       x2="-76.844345"
       y2="52.887863"
       id="linearGradient4712-5-6-5"
       xlink:href="#linearGradient4623-7-0-6"
       gradientUnits="userSpaceOnUse"
       gradientTransform="matrix(2.6500948,0.00149554,5.4314426e-4,1.9115384,322.11035,13.082002)" />
    <linearGradient
       id="linearGradient4623-7-0-6">
      <stop
         id="stop4625-3-0-9"
         style="stop-color:#000000;stop-opacity:0.27058825"
         offset="0" />
      <stop
         id="stop4627-1-1-4"
         style="stop-color:#000000;stop-opacity:0.368"
         offset="1" />
    </linearGradient>
    <linearGradient
       x1="18.542377"
       y1="6.8680043"
       x2="25.132275"
       y2="47.013336"
       id="linearGradient4884-0-0"
       xlink:href="#linearGradient3600-9-5-0"
       gradientUnits="userSpaceOnUse"
       gradientTransform="matrix(3.0857075,0,0,1.8903662,-10.056922,21.2313)" />
    <linearGradient
       id="linearGradient3600-9-5-0">
      <stop
         id="stop3602-0-4-8"
         style="stop-color:#f4f4f4;stop-opacity:1"
         offset="0" />
      <stop
         id="stop3604-9-9-2"
         style="stop-color:#dbdbdb;stop-opacity:1"
         offset="1" />
    </linearGradient>
    <linearGradient
       id="linearGradient3977-7-0-9">
      <stop
         id="stop3979-6-4-1"
         style="stop-color:#ffffff;stop-opacity:1"
         offset="0" />
      <stop
         id="stop3981-3-7-3"
         style="stop-color:#ffffff;stop-opacity:0.23529412"
         offset="0.00515018" />
      <stop
         id="stop3983-8-8-6"
         style="stop-color:#ffffff;stop-opacity:0.15686275"
         offset="0.99146652" />
      <stop
         id="stop3985-2-0-9"
         style="stop-color:#ffffff;stop-opacity:0.39215687"
         offset="1" />
    </linearGradient>
    <linearGradient
       x1="41.19519"
       y1="5.5395665"
       x2="41.19519"
       y2="42.37582"
       id="linearGradient3826"
       xlink:href="#linearGradient3977-7-0-9"
       gradientUnits="userSpaceOnUse"
       gradientTransform="matrix(2.891892,0,0,2.3243242,-5.4053893,13.724719)" />
    <linearGradient
       inkscape:collect="always"
       xlink:href="#linearGradient4232"
       id="linearGradient4924"
       x1="28.058332"
       y1="0"
       x2="28.058332"
       y2="13"
       gradientUnits="userSpaceOnUse"
       gradientTransform="matrix(0.997921,0,0,1,0,1015.3622)" />
    <linearGradient
       id="linearGradient4232">
      <stop
         offset="0"
         style="stop-color:#af5d14;stop-opacity:1;"
         id="stop4234" />
      <stop
         id="stop4236"
         style="stop-color:#d4933d;stop-opacity:1;"
         offset="0.6491555" />
      <stop
         offset="1"
         style="stop-color:#faca67;stop-opacity:1"
         id="stop4238" />
    </linearGradient>
    <linearGradient
       inkscape:collect="always"
       xlink:href="#linearGradient3785"
       id="linearGradient4976"
       x1="11.022917"
       y1="7"
       x2="1.0020833"
       y2="17"
       gradientUnits="userSpaceOnUse"
       gradientTransform="matrix(1.9559019,0,0,1.9730616,16.955019,-32.024802)" />
    <linearGradient
       id="linearGradient3785">
      <stop
         id="stop3787"
         offset="0"
         style="stop-color:#ed8f35;stop-opacity:1;" />
      <stop
         style="stop-color:#f2a152;stop-opacity:1;"
         offset="0.39999998"
         id="stop3789" />
      <stop
         id="stop3791"
         offset="1"
         style="stop-color:#f8cd70;stop-opacity:1;" />
    </linearGradient>
    <linearGradient
       inkscape:collect="always"
       xlink:href="#linearGradient3794"
       id="linearGradient3800"
       x1="17"
       y1="12"
       x2="13"
       y2="24"
       gradientUnits="userSpaceOnUse"
       gradientTransform="matrix(1.9599766,0,0,1.9730616,16.955019,-32.024802)" />
    <linearGradient
       id="linearGradient3794">
      <stop
         style="stop-color:#606060;stop-opacity:1;"
         offset="0"
         id="stop3796" />
      <stop
         id="stop3802"
         offset="0.5"
         style="stop-color:#4a3e3c;stop-opacity:1;" />
      <stop
         style="stop-color:#3f3432;stop-opacity:1;"
         offset="1"
         id="stop3798" />
    </linearGradient>
    <linearGradient
       gradientTransform="matrix(1.9599766,0,0,1.9730616,16.955019,-2035.3971)"
       inkscape:collect="always"
       xlink:href="#linearGradient3820"
       id="linearGradient3826-4"
       x1="40"
       y1="1035.3622"
       x2="43"
       y2="1038.3622"
       gradientUnits="userSpaceOnUse" />
    <linearGradient
       id="linearGradient3820">
      <stop
         style="stop-color:#665554;stop-opacity:1;"
         offset="0"
         id="stop3822" />
      <stop
         style="stop-color:#564241;stop-opacity:1;"
         offset="1"
         id="stop3824" />
    </linearGradient>
    <linearGradient
       gradientTransform="matrix(1.9599766,0,0,1.9730616,16.955019,-2035.3971)"
       inkscape:collect="always"
       xlink:href="#linearGradient3812"
       id="linearGradient3818"
       x1="27"
       y1="1031.3622"
       x2="26"
       y2="1034.3622"
       gradientUnits="userSpaceOnUse" />
    <linearGradient
       id="linearGradient3812">
      <stop
         style="stop-color:#818181;stop-opacity:1;"
         offset="0"
         id="stop3814" />
      <stop
         style="stop-color:#807071;stop-opacity:1;"
         offset="1"
         id="stop3816" />
    </linearGradient>
    <linearGradient
       gradientTransform="matrix(1.9599766,0,0,1.9730616,16.955019,-2035.3971)"
       inkscape:collect="always"
       xlink:href="#linearGradient3804"
       id="linearGradient3810"
       x1="24"
       y1="1035.3622"
       x2="23"
       y2="1038.3622"
       gradientUnits="userSpaceOnUse" />
    <linearGradient
       id="linearGradient3804">
      <stop
         style="stop-color:#686868;stop-opacity:1;"
         offset="0"
         id="stop3806" />
      <stop
         style="stop-color:#665858;stop-opacity:1;"
         offset="1"
         id="stop3808" />
    </linearGradient>
    <radialGradient
       r="19.99999"
       fy="8.44977"
       fx="-0.025213266"
       cy="8.449769"
       cx="15.645058"
       gradientTransform="matrix(-2.7922532e-8,0.46192636,-0.43231534,-3.1816819e-8,94.198375,-19.765579)"
       gradientUnits="userSpaceOnUse"
       id="radialGradient3043"
       xlink:href="#linearGradient2867-449-88-871-390-598-476-591-434-148-57-177-3-8-7"
       inkscape:collect="always" />
    <linearGradient
       id="linearGradient2867-449-88-871-390-598-476-591-434-148-57-177-3-8-7">
      <stop
         id="stop3750-8-9-6"
         style="stop-color:#90dbec;stop-opacity:1"
         offset="0" />
      <stop
         id="stop3752-3-2-2"
         style="stop-color:#42baea;stop-opacity:1"
         offset="0.26238" />
      <stop
         id="stop3754-7-2-00"
         style="stop-color:#3689e6;stop-opacity:1"
         offset="0.704952" />
      <stop
         id="stop3756-9-3-69"
         style="stop-color:#2b63a0;stop-opacity:1"
         offset="1" />
    </linearGradient>
    <radialGradient
       inkscape:collect="always"
       xlink:href="#linearGradient3846"
       id="radialGradient3227"
       gradientUnits="userSpaceOnUse"
       gradientTransform="matrix(0,0.78939608,-0.73879322,-2.2910644e-8,96.841973,-24.686195)"
       cx="15.026252"
       cy="8.6257601"
       fx="4.4589653"
       fy="8.5088921"
       r="19.99999" />
    <linearGradient
       id="linearGradient3846">
      <stop
         offset="0"
         style="stop-color:#fff3cb;stop-opacity:1"
         id="stop3848" />
      <stop
         offset="0.26238"
         style="stop-color:#fdde76;stop-opacity:1"
         id="stop3850" />
      <stop
         offset="0.66093999"
         style="stop-color:#f9c440;stop-opacity:1"
         id="stop3852" />
      <stop
         offset="1"
         style="stop-color:#e48b20;stop-opacity:1"
         id="stop3854" />
    </linearGradient>
    <linearGradient
       y2="13"
       x2="28.058332"
       y1="0"
       x1="28.058332"
       gradientTransform="matrix(1.9559019,0,0,1.9730616,16.955019,-32.024802)"
       gradientUnits="userSpaceOnUse"
       id="linearGradient3130"
       xlink:href="#linearGradient4232"
       inkscape:collect="always" />
    <linearGradient
       x1="16.626165"
       y1="15.298182"
       x2="20.054544"
       y2="24.627615"
       id="linearGradient3163-5"
       xlink:href="#linearGradient6303-33-0"
       gradientUnits="userSpaceOnUse"
       gradientTransform="matrix(2.0472633,0,0,2.1303188,14.601887,-44.395489)" />
  </defs>
  <metadata
     id="metadata3833">
    <rdf:RDF>
      <cc:Work
         rdf:about="">
        <dc:format>image/svg+xml</dc:format>
        <dc:type
           rdf:resource="http://purl.org/dc/dcmitype/StillImage" />
        <dc:title />
      </cc:Work>
    </rdf:RDF>
  </metadata>
  <g
     transform="translate(0,64)"
     id="layer1">
    <g
       transform="matrix(0.95797721,0.25833648,-0.25668922,0.96412487,20.533428,-82.54943)"
       id="g4386-3">
      <path
         d="m 118.50009,113.50015 -109.0000737,0 0,-88.000268 109.0000737,0 z"
         inkscape:connector-curvature="0"
         id="rect6741-1-2-0-8"
         style="color:#000000;fill:none;stroke:url(#linearGradient4712-5-6-5);stroke-width:1.00499892;stroke-linecap:butt;stroke-linejoin:round;stroke-miterlimit:4;stroke-opacity:1;stroke-dasharray:none;stroke-dashoffset:0;marker:none;visibility:visible;display:inline;overflow:visible;enable-background:accumulate" />
      <path
         d="m 10.000056,26.000111 c 24.748282,0 107.999874,0.0054 107.999874,0.0054 l 1.2e-4,86.994599 c 0,0 -71.999988,0 -107.999994,0 0,-28.999987 0,-57.999974 0,-86.999964 z"
         inkscape:connector-curvature="0"
         id="path4160-9-9"
         style="fill:url(#linearGradient4884-0-0);fill-opacity:1;stroke:none;display:inline" />
      <path
         d="m 16.500001,32.500119 c 21.769322,0 94.999889,0.0046 94.999889,0.0046 L 111.5,106.50011 c 0,0 -63.333324,0 -94.999999,0 0,-24.666673 0,-49.333338 0,-74 z"
         inkscape:connector-curvature="0"
         id="path4160-62-3"
         style="color:#000000;fill:#eaad49;fill-opacity:1;fill-rule:nonzero;stroke:#cccccc;stroke-width:1.00507736000000003;stroke-linecap:butt;stroke-linejoin:miter;stroke-miterlimit:4;stroke-opacity:1;stroke-dasharray:none;stroke-dashoffset:0;marker:none;visibility:visible;display:inline;overflow:visible;enable-background:accumulate" />
      <path
         d="m 117.5,112.50848 -107,0 0,-86 107,0 z"
         inkscape:connector-curvature="0"
         id="rect6741-1-2-03"
         style="fill:none;stroke:url(#linearGradient3826);stroke-width:1.00507748;stroke-linecap:round;stroke-linejoin:miter;stroke-miterlimit:4;stroke-opacity:1;stroke-dasharray:none;stroke-dashoffset:0" />
    </g>
    <path
       d="m 118,48.99172 a 59.000002,4.0000031 0 0 1 -117.999999,0 59.000002,4.0000031 0 1 1 117.999999,0 z"
       inkscape:connector-curvature="0"
       id="path5050-4"
       style="opacity:0.2;color:#000000;fill:url(#radialGradient3846);fill-opacity:1;fill-rule:nonzero;stroke:none;stroke-width:0.99992174;marker:none;visibility:visible;display:inline;overflow:visible;enable-background:accumulate" />
    <path
       d="m 118.50009,48.49177 -109.0000731,0 0,-88.000252 109.0000731,0 z"
       inkscape:connector-curvature="0"
       id="rect6741-1-2-0-1"
       style="color:#000000;fill:none;stroke:url(#linearGradient5168);stroke-width:0.99992186;stroke-linecap:butt;stroke-linejoin:round;stroke-miterlimit:4;stroke-opacity:1;stroke-dasharray:none;stroke-dashoffset:0;marker:none;visibility:visible;display:inline;overflow:visible;enable-background:accumulate" />
    <path
       d="m 10.000057,-39.008253 c 24.748282,0 107.999873,0.0054 107.999873,0.0054 l 1.2e-4,86.994583 c 0,0 -71.999987,0 -107.999993,0 0,-28.999976 0,-57.999956 0,-86.999948 z"
       inkscape:connector-curvature="0"
       id="path4160-9-6"
       style="fill:url(#linearGradient5165);fill-opacity:1;stroke:none;display:inline" />
    <path
       d="m 117.5,47.5001 -106.999999,0 0,-85.999984 106.999999,0 z"
       inkscape:connector-curvature="0"
       id="rect6741-1-2-83"
       style="fill:none;stroke:url(#linearGradient5157);stroke-width:0.99999994;stroke-linecap:round;stroke-linejoin:miter;stroke-miterlimit:4;stroke-opacity:1;stroke-dasharray:none;stroke-dashoffset:0" />
    <path
       d="m 49.250001,-33.008256 -3.90625,1.34375 -17.1875,7.125 -12.15625,-1.46875 0,2.90625 c 1.63936,-0.95069 11.59375,0.09375 11.59375,0.09375 l 2.53125,5.4375 -4.625,2.21875 -1.8125,4.625 -2.09375,0 -0.84375,1.9687497 -4.75,-0.34375 0,2.0625 9.5,0.375 1.96875,-1.40625 19.125,-0.6875 5.46875,-0.6875 5.15625,1.53125 0.4375,-0.5625 c 0.978085,-0.55891 8.9375,-1.5624997 8.9375,-1.5624997 1.676723,0 7.96875,1.4062497 7.96875,1.4062497 0.768099,2.30429 1.575879,9.16967003 1.71875,10.40625 1.187801,-0.34273 2.52158,-0.59127 4,-0.75 -1.137869,-1.28985997 -2.59932,-4.18104 -2.25,-10.46875 l 4.0625,-0.15625 c 0,0 10.891162,-5.3031597 13.40625,-6.2812497 2.51508,-0.97809 13.996049,-0.41344 15.812499,-1.53125 l 0.125,-1.75 c -0.34713,0.41263 -2.62312,1.27936 -15.093749,1.59375 0,0 -14.128594,6.28484 -14.6875,6.84375 l -4.03125,0.15625 3.34375,-4.46875 9.09375,-4.90625 -6.71875,-9.09375 14.6875,-0.96875 6.593749,-3 -3.9375,0 -3.781249,1.34375 -11.4375,0.53125 -2.21875,-1.875 -3.875,0 c 0.25302,0.59807 0.399405,1.1526 0.21875,1.46875 0,0 -4.473774,1.6875 -7.6875,1.6875 l -2.65625,-0.4375 c -2.280581,0 -9.299099,-1.96465 -11.90625,-2.71875 l -8.09375,0 z m 56.437499,0 5.1875,0.34375 -0.0625,-0.34375 -5.125,0 z m -52.937499,0.21875 1.6875,0.96875 17.75,3.90625 6.96875,-2.21875 2.5,1.53125 6.3125,8.375 -8.25,4.0625 -4.46875,5.3125 -8.09375,-0.5625 -10.21875,2.0937497 -4.75,-1.5312497 -26.25,0.9687497 c 0.838364,-5.0301697 5.875,-4.5937497 5.875,-4.5937497 l -1.84375,-8.8125 22.78125,-9.5 z m 58.687499,13.40625 0,0.1875 c 0.0905,-0.12581 0,-0.1875 0,-0.1875 z"
       inkscape:connector-curvature="0"
       id="path6200"
       style="opacity:0.03999999;fill:url(#linearGradient6278);fill-opacity:1;stroke:none" />
    <path
       d="m 46.593751,-33.008256 -1.53125,0.53125 a 0.85907812,0.85907812 0 0 0 -0.0625,0.03125 l -16.96875,7.03125 -11.9375,-1.4375 a 0.85907812,0.85907812 0 0 0 -0.09375,0 l 0,4.625 a 0.85907812,0.85907812 0 0 0 0.4375,-0.125 c 0.02444,-0.0142 0.971465,-0.24675 2.09375,-0.28125 1.122285,-0.0345 2.510717,0.0233 3.84375,0.0937 2.406164,0.1271 4.209599,0.3014 4.625,0.34375 l 1.96875,4.21875 -3.84375,1.84375 a 0.85907812,0.85907812 0 0 0 -0.4375,0.46875 l -1.59375,4.09375 -1.5,0 a 0.85907812,0.85907812 0 0 0 -0.78125,0.5 l -0.625,1.4374997 -4.125,-0.3125 a 0.85907812,0.85907812 0 0 0 -0.0625,0 l 0,3.75 9.46875,0.375 a 0.85907812,0.85907812 0 0 0 0.53125,-0.1562 l 1.75,-1.25 18.875,-0.6875 a 0.85907812,0.85907812 0 0 0 0.0625,0 l 5.3125,-0.65625 4.96875,1.46875 a 0.85907812,0.85907812 0 0 0 0.9375,-0.28125 l 0.3125,-0.375 c 0.06094,-0.0214 0.107277,-0.0716 0.3125,-0.125 0.283464,-0.0737 0.662442,-0.13447 1.09375,-0.21875 0.862616,-0.16856 1.950663,-0.37189 3,-0.53125 2.051154,-0.3115 3.88197,-0.55153 3.96875,-0.5625 0.01234,0 0.08016,-2.8e-4 0.09375,0 0.644958,0.0135 2.610212,0.34561 4.34375,0.6875 1.487658,0.29339 2.422032,0.50749 2.8125,0.59375 0.31596,1.10203 0.68046,3.02922 0.96875,5 0.313612,2.14389003 0.553947,4.16627 0.625,4.78125 a 0.85907812,0.85907812 0 0 0 0.03125,0.15625 c 1.616246,-0.53384 3.454485,-0.92997 5.65625,-1.09374997 a 0.85907812,0.85907812 0 0 0 -0.1875,-0.46875 c -0.912744,-1.03466 -2.233783,-3.55524003 -2.0625,-9.09375003 l 3.25,-0.125 a 0.85907812,0.85907812 0 0 0 0.34375,-0.0625 c 0,0 2.716655,-1.3350297 5.75,-2.7812497 3.033345,-1.44622 6.434612,-3.01797 7.59375,-3.46875 0.396997,-0.15439 1.598131,-0.3372 3.03125,-0.4375 1.433119,-0.1003 3.136189,-0.15828 4.843749,-0.21875 1.70756,-0.0605 3.40754,-0.12751 4.8125,-0.25 1.40496,-0.12249 2.42441,-0.2107 3.25,-0.71875 a 0.85907812,0.85907812 0 0 0 0.25,-0.21875 l 0,-3.125 c -0.0328,-0.0265 -0.0937,-0.0625 -0.0937,-0.0625 a 0.85907812,0.85907812 0 0 0 -1.28125,0.4375 c -0.048,0.0267 0.0206,-0.003 -0.1875,0.0625 -0.38518,0.12152 -1.06844,0.25659 -2.125,0.40625 -2.11312,0.29933 -5.78325,0.62452 -11.999999,0.78125 a 0.85907812,0.85907812 0 0 0 -0.31255,0.0625 c 0,0 -3.549681,1.5756 -7.15625,3.21875 -1.803284,0.82157 -3.619847,1.64077 -5.03125,2.3125 -0.705701,0.33586 -1.296501,0.64265 -1.75,0.875 -0.226749,0.11617 -0.408745,0.22457 -0.5625,0.3125 -0.03221,0.0184 -0.06669,0.0486 -0.09375,0.0625 l -2.03125,0.0937 2.15625,-2.90625 8.9375,-4.8125 a 0.85907812,0.85907812 0 0 0 0.28125,-1.25 l -5.8125,-7.84375 13.15625,-0.875 a 0.85907812,0.85907812 0 0 0 0.28125,-0.0625 l 6.593749,-3 a 0.85907812,0.85907812 0 0 0 0.1875,-0.125 0.85907812,0.85907812 0 0 0 0.0312,0 0.85907812,0.85907812 0 0 0 0.4375,0.1875 l 5.1875,0.34375 a 0.85907812,0.85907812 0 0 0 0.90625,-1 l -0.0312,-0.18745 -13.593749,0 -1.40625,0.5 -10.90625,0.5 -1.1875,-1 -6.0625,0 a 0.85907812,0.85907812 0 0 0 0.0625,0.34375 c 0.08039,0.19003 0.117042,0.32807 0.15625,0.46875 -0.756491,0.26631 -4.16598,1.48166 -6.78125,1.5 l -2.59375,-0.4375 a 0.85907812,0.85907812 0 0 0 -0.125,0 c -0.893625,0 -3.27804,-0.48169 -5.625,-1.0625 -1.087496,-0.26913 -2.163945,-0.54351 -3.15625,-0.8125 l -13.875,0 z m 6.09375,1.1875 1.3125,0.75 a 0.85907812,0.85907812 0 0 0 0.25,0.0937 l 17.75,3.9063 a 0.85907812,0.85907812 0 0 0 0.4375,-0.0312 l 6.625,-2.09375 1.96875,1.1875 5.625,7.46875 -7.3125,3.59375 a 0.85907812,0.85907812 0 0 0 -0.28125,0.21875 l -4.21875,5 -7.625,-0.53125 a 0.85907812,0.85907812 0 0 0 -0.25,0 l -10,2.0625 -4.53125,-1.46875 a 0.85907812,0.85907812 0 0 0 -0.28125,-0.0312 l -24.90625,0.90615 c 0.534939,-1.30917 1.341581,-2.12264 2.25,-2.46875 1.162211,-0.4428 2.25,-0.375 2.25,-0.375 a 0.85907812,0.85907812 0 0 0 0.90625,-1.03125 l -1.6875,-8.125 21.71875,-9.03125 z"
       inkscape:connector-curvature="0"
       id="path6314"
       style="opacity:0.02999998;fill:url(#linearGradient6393);fill-opacity:1;stroke:none" />
    <path
       d="m 16.500001,-32.508256 c 21.769321,0 94.999899,0.005 94.999899,0.005 l 1e-4,73.994996 c 0,0 -63.333323,0 -94.999999,0 0,-24.666546 0,-49.3330863 0,-73.999616 z"
       inkscape:connector-curvature="0"
       id="path4160-62-6"
       style="opacity:0.3;color:#000000;fill:none;stroke:#000000;stroke-width:0.99999994;stroke-linecap:butt;stroke-linejoin:miter;stroke-miterlimit:4;stroke-opacity:1;stroke-dasharray:none;stroke-dashoffset:0;marker:none;visibility:visible;display:inline;overflow:visible;enable-background:accumulate" />
    <path
       style="fill:url(#linearGradient3130);fill-opacity:1;stroke:none"
       d="m 16.955019,-32.024802 32.956632,23.6372794 4.205503,25.6892646 56.916746,15.784492 0.19558,-65.111036 z"
       id="path4916"
       inkscape:connector-curvature="0"
       sodipodi:nodetypes="cccccc" />
    <path
       style="fill:url(#linearGradient4976);fill-opacity:1;stroke:none"
       d="m 16.955019,-32.024802 0,59.191851 L 50.205353,-8.3480615 26.73453,-32.024802 z"
       id="path4926"
       inkscape:connector-curvature="0"
       sodipodi:nodetypes="ccccc" />
    <path
       inkscape:connector-curvature="0"
       style="fill:url(#linearGradient3800);fill-opacity:1;stroke:none"
       d="m 50.213376,-8.3480615 -20.396018,20.7171475 -0.12249,-0.308291 -5.512437,-5.795868 -7.227412,6.535765 0,28.177788 9.799881,0 1.959972,0 L 63.871963,5.4633704 50.213376,-8.3480615 z"
       id="path3397" />
    <path
       style="fill:url(#linearGradient3826-4);fill-opacity:1;stroke:none"
       d="M 79.77353,22.78251 95.353635,6.2610795 111.0339,19.274802 l 0,21.703678 -29.534485,0 z"
       id="path4212"
       inkscape:connector-curvature="0"
       sodipodi:nodetypes="cccccc" />
    <path
       style="fill:url(#linearGradient3818);fill-opacity:1;stroke:none"
       d="m 63.553197,5.8177322 6.237856,-6.9518851 41.242847,36.1934479 0,5.919185 -11.931464,0 z"
       id="path4182"
       inkscape:connector-curvature="0"
       sodipodi:nodetypes="cccccc" />
    <path
       style="fill:url(#linearGradient3810);fill-opacity:1;stroke:none"
       d="M 103.34693,40.97848 63.688623,5.5201955 28.69036,40.97848 z"
       id="path4167"
       inkscape:connector-curvature="0"
       sodipodi:nodetypes="cccc" />
    <path
       transform="matrix(1.0302756,0,0,0.99482091,-89.443792,-120.06334)"
       d="m 188.82143,109.28571 a 14.267858,14.875 0 0 1 -14.26786,14.875 14.267858,14.875 0 0 1 -14.26785,-14.875 14.267858,14.875 0 0 1 14.26785,-14.874997 14.267858,14.875 0 0 1 14.26786,14.874997 z"
       sodipodi:ry="14.875"
       sodipodi:rx="14.267858"
       sodipodi:cy="109.28571"
       sodipodi:cx="174.55357"
       id="path4206"
       style="opacity:0.2;fill:#ffe491;fill-opacity:1;stroke:none"
       sodipodi:type="arc" />
    <path
       inkscape:connector-curvature="0"
       style="color:#000000;fill:url(#radialGradient3043);fill-opacity:1;fill-rule:nonzero;stroke:none;stroke-width:1;marker:none;visibility:visible;display:inline;overflow:visible;enable-background:accumulate"
       id="path2555-7-66"
       d="m 90.545344,-19.874292 c -4.704287,0 -8.525892,3.847074 -8.525892,8.58262 0,4.7357437 3.821605,8.5830165 8.525892,8.5830165 4.704307,0 8.525922,-3.8472728 8.525913,-8.5830165 0,-4.735546 -3.821606,-8.58262 -8.525913,-8.58262 z" />
    <path
       inkscape:connector-curvature="0"
       style="color:#000000;fill:url(#radialGradient3227);fill-opacity:1;fill-rule:nonzero;stroke:none;stroke-width:1;marker:none;visibility:visible;display:inline;overflow:visible;enable-background:accumulate"
       id="path2555-7-65"
       d="m 90.545344,-19.874292 c -4.704226,0 -8.525781,3.847074 -8.525781,8.58262 0,4.7355451 3.821555,8.5828178 8.525781,8.5828178 4.704246,0 8.525802,-3.8472727 8.525802,-8.5828178 0,-4.735546 -3.821556,-8.58262 -8.525802,-8.58262 z" />
    <path
       inkscape:connector-curvature="0"
       style="opacity:0.5;color:#000000;fill:none;stroke:#985800;stroke-width:0.58995247;stroke-linecap:round;stroke-linejoin:round;stroke-miterlimit:4;stroke-opacity:1;stroke-dasharray:none;stroke-dashoffset:0;marker:none;visibility:visible;display:inline;overflow:visible;enable-background:accumulate"
       id="path2555-7-1-7"
       d="m 90.545344,-19.874292 c -4.704287,0 -8.525892,3.847074 -8.525892,8.58262 0,4.7357437 3.821605,8.5830165 8.525892,8.5830165 4.704307,0 8.525922,-3.8472728 8.525913,-8.5830165 0,-4.735546 -3.821606,-8.58262 -8.525913,-8.58262 z" />
    <path
       d="m 123,55.502651 a 24.000002,7.5000006 0 0 1 -48,0 24.000002,7.5000006 0 1 1 48,0 z"
       inkscape:connector-curvature="0"
       id="path3818-0"
       style="fill:url(#radialGradient4106);fill-opacity:1;stroke:none" />
    <path
       d="m 99,3.5026681 c -15.725317,0 -28.5,12.7746799 -28.5,28.5000029 0,15.72529 12.774683,28.49998 28.5,28.49998 15.72531,0 28.50001,-12.77469 28.5,-28.49998 C 127.5,16.277348 114.72531,3.5026681 99,3.5026681 z"
       inkscape:connector-curvature="0"
       id="path2555-7"
       style="color:#000000;fill:url(#radialGradient4103);fill-opacity:1;fill-rule:nonzero;stroke:none;stroke-width:0.99999994;marker:none;visibility:visible;display:inline;overflow:visible;enable-background:accumulate" />
    <path
       d="m 99,3.5026681 c -15.725317,0 -28.5,12.7746799 -28.5,28.5000029 0,15.72529 12.774683,28.49998 28.5,28.49998 15.72531,0 28.50001,-12.77469 28.5,-28.49998 C 127.5,16.277348 114.72531,3.5026681 99,3.5026681 z"
       inkscape:connector-curvature="0"
       id="path2555-7-1"
       style="opacity:0.3;color:#000000;fill:none;stroke:#000000;stroke-width:1;stroke-linecap:round;stroke-linejoin:round;stroke-miterlimit:4;stroke-opacity:1;stroke-dasharray:none;stroke-dashoffset:0;marker:none;visibility:visible;display:inline;overflow:visible;enable-background:accumulate" />
    <path
       d="m 126.5,32.002671 c 0,15.18781 -12.31218,27.49998 -27.500014,27.49998 C 83.812174,59.502651 71.5,47.190481 71.5,32.002671 71.5,16.814838 83.812174,4.5026781 98.999986,4.5026781 114.18782,4.5026781 126.5,16.814838 126.5,32.002671 z"
       inkscape:connector-curvature="0"
       id="path3019"
       style="opacity:0.8;color:#000000;fill:none;stroke:url(#linearGradient4099);stroke-width:1;stroke-linecap:round;stroke-linejoin:round;stroke-miterlimit:4;stroke-opacity:1;stroke-dasharray:none;stroke-dashoffset:0;marker:none;visibility:visible;display:inline;overflow:visible;enable-background:accumulate" />
    <path
       d="M 99.000001,9.0033381 C 86.308813,9.0033381 76,19.313248 76,32.003341 76,44.694501 86.309906,55.003321 99.000001,55.003321 111.69117,55.003321 122,44.693411 122,32.003341 122,19.312148 111.69009,9.0033381 99.000001,9.0033381 z"
       inkscape:connector-curvature="0"
       id="path2555-36-4-33"
       style="color:#000000;fill:url(#linearGradient4096);fill-opacity:1;fill-rule:nonzero;stroke:none;stroke-width:0.99999994;marker:none;visibility:visible;display:inline;overflow:visible;enable-background:accumulate" />
    <path
       d="M 99.000001,9.5033381 C 86.584708,9.5033381 76.5,19.813248 76.5,32.503341 c 0,12.69116 10.085777,22.99998 22.500001,22.99998 12.415279,0 22.499999,-10.30991 22.499999,-22.99998 0,-12.691183 -10.08578,-23.0000029 -22.499999,-23.0000029 z"
       inkscape:connector-curvature="0"
       id="path2555-36-4-2"
       style="opacity:0.05;color:#000000;fill:none;stroke:#000000;stroke-width:1;stroke-opacity:1;marker:none;visibility:visible;display:inline;overflow:visible;enable-background:accumulate" />
    <path
       d="m 117.5,32.003351 a 18.500002,18.500002 0 0 1 -37.000001,0 18.500002,18.500002 0 1 1 37.000001,0 z"
       inkscape:connector-curvature="0"
       id="path4218"
       style="color:#000000;fill:url(#linearGradient4092);fill-opacity:1;fill-rule:nonzero;stroke:none;stroke-width:0.79069769;marker:none;visibility:visible;display:inline;overflow:visible;enable-background:accumulate" />
    <path
       d="m 117.5,32.003341 a 18.500002,18.500002 0 0 1 -37.000001,0 18.500002,18.500002 0 1 1 37.000001,0 z"
       inkscape:connector-curvature="0"
       id="path4218-4"
       style="opacity:0.3;color:#000000;fill:none;stroke:#000000;stroke-width:1.00000012;stroke-linecap:butt;stroke-linejoin:miter;stroke-miterlimit:4;stroke-opacity:1;stroke-dasharray:none;stroke-dashoffset:0;marker:none;visibility:visible;display:inline;overflow:visible;enable-background:accumulate" />
    <path
       d="m 116.5,32.003341 a 17.500002,17.500002 0 0 1 -35,0 17.500002,17.500002 0 1 1 35,0 z"
       inkscape:connector-curvature="0"
       id="path4218-4-9"
       style="opacity:0.3;color:#000000;fill:none;stroke:url(#linearGradient4088);stroke-width:1.00000012;stroke-linecap:butt;stroke-linejoin:miter;stroke-miterlimit:4;stroke-opacity:1;stroke-dasharray:none;stroke-dashoffset:0;marker:none;visibility:visible;display:inline;overflow:visible;enable-background:accumulate" />
    <path
       d="m 113.49999,32.003341 a 14.5,14.5 0 1 1 -28.999991,0 14.5,14.5 0 1 1 28.999991,0 z"
       inkscape:connector-curvature="0"
       id="path4326-5-7"
       style="color:#000000;fill:url(#radialGradient4085);fill-opacity:1;stroke:none;stroke-width:1.15846562;marker:none;visibility:visible;display:inline;overflow:visible;enable-background:accumulate" />
    <path
       d="m 99,21.505168 c -5.792408,0 -10.498173,4.70553 -10.498173,10.498173 0,5.79239 4.705765,10.49816 10.498173,10.49816 5.7924,0 10.49817,-4.70553 10.49817,-10.49816 0,-5.792413 -4.70553,-10.498173 -10.49817,-10.498173 z"
       inkscape:connector-curvature="0"
       id="path2555-3-5-2"
       style="fill:url(#radialGradient4082);fill-opacity:1;stroke:none" />
    <path
       d="m 99,21.505168 c -5.792408,0 -10.498173,4.70553 -10.498173,10.498173 0,5.79239 4.705765,10.49816 10.498173,10.49816 5.7924,0 10.49817,-4.70553 10.49817,-10.49816 0,-5.792413 -4.70553,-10.498173 -10.49817,-10.498173 z"
       inkscape:connector-curvature="0"
       id="path2555-3-5-37"
       style="opacity:0.3;fill:none;stroke:#000000;stroke-width:1.00365412;stroke-linecap:round;stroke-linejoin:round;stroke-miterlimit:4;stroke-opacity:1;stroke-dasharray:none;stroke-dashoffset:0" />
    <path
       d="m 99,23.505178 c -4.688901,0 -8.498174,3.80908 -8.498174,8.498173 0,4.68889 3.809273,8.49817 8.498174,8.49817 4.68889,0 8.49817,-3.80909 8.49817,-8.49817 0,-4.688903 -3.80908,-8.498173 -8.49817,-8.498173 z"
       inkscape:connector-curvature="0"
       id="path2555-3-5-3-3"
       style="fill:#2f3b55;fill-opacity:1;stroke:none" />
    <path
       d="m 98.999999,27.505168 c -2.481885,0 -4.498173,2.016193 -4.498173,4.498173 0,2.48188 2.016288,4.49816 4.498173,4.49816 2.481881,0 4.498171,-2.01617 4.498171,-4.49816 0,-2.48189 -2.01619,-4.498173 -4.498171,-4.498173 z"
       inkscape:connector-curvature="0"
       id="path2555-3-9"
       style="fill:url(#radialGradient4075);fill-opacity:1;stroke:url(#linearGradient4077-1);stroke-width:1.00365412;stroke-linecap:round;stroke-linejoin:round;stroke-miterlimit:4;stroke-dasharray:none;stroke-dashoffset:0" />
    <path
       d="m 98.999999,27.741088 c -2.351712,0 -4.262247,1.910453 -4.262247,4.262253 0,2.35171 1.910535,4.26224 4.262247,4.26224 2.351711,0 4.262251,-1.91043 4.262251,-4.26224 0,-2.35171 -1.91045,-4.262253 -4.262251,-4.262253 z"
       inkscape:connector-curvature="0"
       id="path2555-3-3-50"
       style="opacity:0.5;fill:url(#radialGradient4072);fill-opacity:1;stroke:none" />
    <path
       d="m 112.5,32.003341 a 13.500002,13.500002 0 1 0 -27,0 13.500002,13.500002 0 0 0 27,0 z"
       inkscape:connector-curvature="0"
       id="path4218-4-9-8"
       style="opacity:0.3;color:#000000;fill:none;stroke:url(#linearGradient4069);stroke-width:1.00000012;stroke-linecap:butt;stroke-linejoin:miter;stroke-miterlimit:4;stroke-opacity:1;stroke-dasharray:none;stroke-dashoffset:0;marker:none;visibility:visible;display:inline;overflow:visible;enable-background:accumulate" />
    <path
       d="m 113.5,32.503341 a 14.500001,14.500001 0 0 1 -28.999999,0 14.500001,14.500001 0 1 1 28.999999,0 z"
       inkscape:connector-curvature="0"
       id="path4326-5"
       style="opacity:0.3;color:#000000;fill:none;stroke:#000000;stroke-width:1;stroke-linecap:butt;stroke-linejoin:miter;stroke-miterlimit:4;stroke-opacity:1;stroke-dasharray:none;stroke-dashoffset:0;marker:none;visibility:visible;display:inline;overflow:visible;enable-background:accumulate" />
    <path
       d="m 99,23.505178 c -4.688901,0 -8.498174,3.80908 -8.498174,8.498173 0,4.68889 3.809273,8.49817 8.498174,8.49817 4.68889,0 8.49817,-3.80909 8.49817,-8.49817 0,-4.688903 -3.80908,-8.498173 -8.49817,-8.498173 z"
       inkscape:connector-curvature="0"
       id="path2555-3-5-3"
       style="opacity:0.3;fill:none;stroke:#000000;stroke-width:1.00365412;stroke-linecap:round;stroke-linejoin:round;stroke-miterlimit:4;stroke-opacity:1;stroke-dasharray:none;stroke-dashoffset:0" />
    <path
       d="m 91.146751,30.478081 a 8.0000004,8.0000004 0 0 1 5.782698,-6.202133 l 2.070553,7.727413 z"
       inkscape:connector-curvature="0"
       id="path6086"
       style="opacity:0.4;color:#000000;fill:url(#radialGradient4064);fill-opacity:1;fill-rule:nonzero;stroke:none;stroke-width:1;marker:none;visibility:visible;display:inline;overflow:visible;enable-background:accumulate" />
    <path
       d="m 106.5,32.003351 a 7.500002,7.500002 0 0 1 -15,0 7.500002,7.500002 0 1 1 15,0 z"
       inkscape:connector-curvature="0"
       id="path4218-4-9-8-2"
       style="opacity:0.3;color:#000000;fill:none;stroke:url(#linearGradient4061);stroke-width:1.00000024;stroke-linecap:butt;stroke-linejoin:miter;stroke-miterlimit:4;stroke-opacity:1;stroke-dasharray:none;stroke-dashoffset:0;marker:none;visibility:visible;display:inline;overflow:visible;enable-background:accumulate" />
    <path
       d="m 100.89433,30.582591 a 1.8943321,1.420749 0 0 1 -3.788662,0 1.8943321,1.420749 0 1 1 3.788662,0 z"
       inkscape:connector-curvature="0"
       id="path3220-3"
       style="opacity:0.5;color:#000000;fill:url(#linearGradient4058);fill-opacity:1;stroke:none;stroke-width:1;marker:none;visibility:visible;display:inline;overflow:visible;enable-background:accumulate" />
    <path
       d="m 107,32.003351 a 8.0000004,8.0000004 0 0 1 -0.50513,2.79765 l -7.494873,-2.79765 z"
       inkscape:connector-curvature="0"
       id="path6086-1"
       style="opacity:0.4;color:#000000;fill:url(#radialGradient4055);fill-opacity:1;fill-rule:nonzero;stroke:none;stroke-width:1;marker:none;visibility:visible;display:inline;overflow:visible;enable-background:accumulate" />
    <path
       d="m 99.719079,39.970961 a 8.0000004,8.0000004 0 0 1 -2.557316,-0.18168 l 1.838235,-7.78593 z"
       inkscape:connector-curvature="0"
       id="path6086-1-5"
       style="opacity:0.4;color:#000000;fill:url(#radialGradient4052);fill-opacity:1;fill-rule:nonzero;stroke:none;stroke-width:1;marker:none;visibility:visible;display:inline;overflow:visible;enable-background:accumulate" />
    <path
       d="m 105.79457,36.226361 a 8.0000003,8.0000003 0 0 1 -3.73631,3.16935 l -3.058261,-7.39236 z"
       inkscape:connector-curvature="0"
       id="path6086-1-50"
       style="opacity:0.4;color:#000000;fill:url(#radialGradient4049);fill-opacity:1;fill-rule:nonzero;stroke:none;stroke-width:1;marker:none;visibility:visible;display:inline;overflow:visible;enable-background:accumulate" />
    <path
       d="m 93.343144,24.346498 a 8.0000004,8.0000004 0 0 1 11.313706,0 l -5.656851,5.656853 z"
       inkscape:connector-curvature="0"
       id="path6086-3"
       style="opacity:0.5;color:#000000;fill:url(#radialGradient4046);fill-opacity:1;fill-rule:nonzero;stroke:none;stroke-width:1;marker:none;visibility:visible;display:inline;overflow:visible;enable-background:accumulate" />
    <path
       d="m 111.62934,34.465081 a 4.9173354,8.642589 59.999998 0 1 -14.969398,8.64258 4.9173354,8.642589 59.999998 1 1 14.969398,-8.64258 z"
       inkscape:connector-curvature="0"
       id="path6301"
       style="opacity:0.2;color:#000000;fill:url(#radialGradient4043);fill-opacity:1;fill-rule:nonzero;stroke:none;stroke-width:1;marker:none;visibility:visible;display:inline;overflow:visible;enable-background:accumulate" />
    <path
       d="m 98.403239,21.148348 a 3.9569421,6.9546257 59.999999 1 1 -12.045765,6.95462 3.9569421,6.9546257 59.999999 1 1 12.045765,-6.95462 z"
       inkscape:connector-curvature="0"
       id="path6301-5"
       style="opacity:0.4;color:#000000;fill:url(#radialGradient4040);fill-opacity:1;fill-rule:nonzero;stroke:none;stroke-width:1;marker:none;visibility:visible;display:inline;overflow:visible;enable-background:accumulate" />
    <path
       d="m 100.09936,31.101891 a 1.7180872,1.7973215 0 1 1 -3.436172,0 1.7180872,1.7973215 0 1 1 3.436172,0 z"
       inkscape:connector-curvature="0"
       id="path6301-1"
       style="opacity:0.8;color:#000000;fill:url(#radialGradient4037);fill-opacity:1;fill-rule:nonzero;stroke:none;stroke-width:1;marker:none;visibility:visible;display:inline;overflow:visible;enable-background:accumulate" />
    <path
       d="m 95.536698,28.340268 a 1.7180872,1.7973215 0 1 1 -3.436174,0 1.7180872,1.7973215 0 1 1 3.436174,0 z"
       inkscape:connector-curvature="0"
       id="path6301-1-8"
       style="opacity:0.4;color:#000000;fill:url(#linearGradient4034);fill-opacity:1;fill-rule:nonzero;stroke:none;stroke-width:1;marker:none;visibility:visible;display:inline;overflow:visible;enable-background:accumulate" />
    <path
       d="m 95.995804,29.360871 a 1.2015914,1.257006 0 1 1 -2.403182,0 1.2015914,1.257006 0 1 1 2.403182,0 z"
       inkscape:connector-curvature="0"
       id="path6301-1-8-2"
       style="opacity:0.4;color:#000000;fill:url(#linearGradient4031);fill-opacity:1;fill-rule:nonzero;stroke:none;stroke-width:1;marker:none;visibility:visible;display:inline;overflow:visible;enable-background:accumulate" />
    <path
       d="m 16.68212,-32.226654 0.03091,39.2916837 C 19.425832,7.0254761 108.92302,-7.4187143 110.98211,-8.113496 l -3.4e-4,-24.113158 z"
       inkscape:connector-curvature="0"
       id="path3333-5-1"
       style="opacity:0.3;fill:url(#linearGradient3163-5);fill-opacity:1;fill-rule:evenodd;stroke:none" />
  </g>
</svg>
