<?xml version="1.0" encoding="UTF-8" standalone="no"?>
<!-- Created with Inkscape (http://www.inkscape.org/) -->

<svg
   xmlns:dc="http://purl.org/dc/elements/1.1/"
   xmlns:cc="http://creativecommons.org/ns#"
   xmlns:rdf="http://www.w3.org/1999/02/22-rdf-syntax-ns#"
   xmlns:svg="http://www.w3.org/2000/svg"
   xmlns="http://www.w3.org/2000/svg"
   xmlns:xlink="http://www.w3.org/1999/xlink"
   xmlns:sodipodi="http://sodipodi.sourceforge.net/DTD/sodipodi-0.dtd"
   xmlns:inkscape="http://www.inkscape.org/namespaces/inkscape"
   version="1.1"
   width="128"
   height="128"
   id="svg4207"
   inkscape:version="0.48.4 r9939"
   sodipodi:docname="softwarecenter.svg">
  <sodipodi:namedview
     pagecolor="#ffffff"
     bordercolor="#666666"
     borderopacity="1"
     objecttolerance="10"
     gridtolerance="10"
     guidetolerance="10"
     inkscape:pageopacity="0"
     inkscape:pageshadow="2"
     inkscape:window-width="1855"
     inkscape:window-height="1056"
     id="namedview63"
     showgrid="true"
     inkscape:zoom="7.21875"
     inkscape:cx="64"
     inkscape:cy="64"
     inkscape:window-x="65"
     inkscape:window-y="24"
     inkscape:window-maximized="1"
     inkscape:current-layer="layer1">
    <inkscape:grid
       type="xygrid"
       id="grid3051" />
  </sodipodi:namedview>
  <defs
     id="defs4209">
    <linearGradient
       id="linearGradient3870">
      <stop
         offset="0"
         style="stop-color:#55c1ec;stop-opacity:1"
         id="stop3874" />
      <stop
         offset="1"
         style="stop-color:#3278c6;stop-opacity:1;"
         id="stop3876" />
    </linearGradient>
    <linearGradient
       x1="19.874987"
       y1="44.520065"
       x2="19.874987"
       y2="5.2502403"
       id="linearGradient3212-5"
       xlink:href="#linearGradient3707-319-631-407-1-846-4-2"
       gradientUnits="userSpaceOnUse"
       gradientTransform="matrix(2.6410259,0,0,2.6410259,0.6153933,-63.025638)" />
    <linearGradient
       id="linearGradient3707-319-631-407-1-846-4-2">
      <stop
         id="stop3788-5-54"
         style="stop-color:#365a7c;stop-opacity:1"
         offset="0" />
      <stop
         id="stop3790-9-7"
         style="stop-color:#5ea1ca;stop-opacity:1"
         offset="1" />
    </linearGradient>
    <linearGradient
       x1="19.874987"
       y1="44.520065"
       x2="19.874987"
       y2="5.2502403"
       id="linearGradient3215-4"
       xlink:href="#linearGradient3707-319-631-407-1-846-4-8-4"
       gradientUnits="userSpaceOnUse"
       gradientTransform="matrix(2.6410259,0,0,2.6410259,0.6153933,-63.025638)" />
    <linearGradient
       id="linearGradient3707-319-631-407-1-846-4-8-4">
      <stop
         id="stop3788-5-5-3"
         style="stop-color:#365a7c;stop-opacity:1"
         offset="0" />
      <stop
         id="stop3790-9-0-0"
         style="stop-color:#5ea1ca;stop-opacity:1"
         offset="1" />
    </linearGradient>
    <linearGradient
       x1="16.626165"
       y1="15.298182"
       x2="20.054544"
       y2="24.627615"
       id="linearGradient3221"
       xlink:href="#linearGradient8265-821-176-38-919-66-249-7-7"
       gradientUnits="userSpaceOnUse"
       gradientTransform="matrix(2.2144204,0,0,3.4699564,10.750311,-67.821123)" />
    <linearGradient
       id="linearGradient8265-821-176-38-919-66-249-7-7">
      <stop
         id="stop2687-1-9"
         style="stop-color:#ffffff;stop-opacity:1"
         offset="0" />
      <stop
         id="stop2689-5-4"
         style="stop-color:#ffffff;stop-opacity:0"
         offset="1" />
    </linearGradient>
    <linearGradient
       x1="23.99999"
       y1="4.999989"
       x2="23.99999"
       y2="43"
       id="linearGradient3224"
       xlink:href="#linearGradient3924"
       gradientUnits="userSpaceOnUse"
       gradientTransform="matrix(2.7297298,0,0,2.7297298,-1.5135112,-62.513486)" />
    <linearGradient
       id="linearGradient3924">
      <stop
         id="stop3926"
         style="stop-color:#ffffff;stop-opacity:1"
         offset="0" />
      <stop
         id="stop3928"
         style="stop-color:#ffffff;stop-opacity:0.23529412"
         offset="0.06316455" />
      <stop
         id="stop3930"
         style="stop-color:#ffffff;stop-opacity:0.15686275"
         offset="0.95056331" />
      <stop
         id="stop3932"
         style="stop-color:#ffffff;stop-opacity:0.39215687"
         offset="1" />
    </linearGradient>
    <linearGradient
       x1="19.874987"
       y1="44.520065"
       x2="19.874987"
       y2="5.2502403"
       id="linearGradient3353"
       xlink:href="#linearGradient3707-319-631-407-1-846-4-8-4-9"
       gradientUnits="userSpaceOnUse"
       gradientTransform="matrix(2.6410259,0,0,2.6410259,0.6153933,-63.025638)" />
    <linearGradient
       id="linearGradient3707-319-631-407-1-846-4-8-4-9">
      <stop
         id="stop3788-5-5-3-5"
         style="stop-color:#365a7c;stop-opacity:1"
         offset="0" />
      <stop
         id="stop3790-9-0-0-0"
         style="stop-color:#5ea1ca;stop-opacity:1"
         offset="1" />
    </linearGradient>
    <radialGradient
       cx="7.4956832"
       cy="8.4497671"
       r="19.99999"
       fx="7.4956832"
       fy="8.4497671"
       id="radialGradient3227"
       xlink:href="#linearGradient2867-449-88-871-390-598-476-591-434-148-57-177"
       gradientUnits="userSpaceOnUse"
       gradientTransform="matrix(5.1311087e-8,6.1720513,-6.5292943,-1.1371274e-7,119.17132,-93.225249)" />
    <linearGradient
       id="linearGradient2867-449-88-871-390-598-476-591-434-148-57-177">
      <stop
         id="stop3750"
         style="stop-color:#90dbec;stop-opacity:1"
         offset="0" />
      <stop
         id="stop3752"
         style="stop-color:#55c1ec;stop-opacity:1"
         offset="0.26238" />
      <stop
         id="stop3754"
         style="stop-color:#3689e6;stop-opacity:1"
         offset="0.704952" />
      <stop
         id="stop3756"
         style="stop-color:#2b63a0;stop-opacity:1"
         offset="1" />
    </linearGradient>
    <linearGradient
       x1="24"
       y1="44"
       x2="24"
       y2="3.8990016"
       id="linearGradient3229"
       xlink:href="#linearGradient3707-319-631-407-324"
       gradientUnits="userSpaceOnUse"
       gradientTransform="matrix(2.641026,0,0,2.641026,0.6153902,-60.384616)" />
    <linearGradient
       id="linearGradient3707-319-631-407-324">
      <stop
         id="stop3760"
         style="stop-color:#185f9a;stop-opacity:1"
         offset="0" />
      <stop
         id="stop3762"
         style="stop-color:#599ec9;stop-opacity:1"
         offset="1" />
    </linearGradient>
    <radialGradient
       cx="4.9929786"
       cy="43.5"
       r="2.5"
       fx="4.9929786"
       fy="43.5"
       id="radialGradient3190"
       xlink:href="#linearGradient3688-166-749"
       gradientUnits="userSpaceOnUse"
       gradientTransform="matrix(2.003784,0,0,1.4,27.98813,-17.4)" />
    <linearGradient
       id="linearGradient3688-166-749">
      <stop
         id="stop2883"
         style="stop-color:#181818;stop-opacity:1"
         offset="0" />
      <stop
         id="stop2885"
         style="stop-color:#181818;stop-opacity:0"
         offset="1" />
    </linearGradient>
    <radialGradient
       cx="4.9929786"
       cy="43.5"
       r="2.5"
       fx="4.9929786"
       fy="43.5"
       id="radialGradient3192"
       xlink:href="#linearGradient3688-464-309"
       gradientUnits="userSpaceOnUse"
       gradientTransform="matrix(2.003784,0,0,1.4,-20.01187,-104.4)" />
    <linearGradient
       id="linearGradient3688-464-309">
      <stop
         id="stop2889"
         style="stop-color:#181818;stop-opacity:1"
         offset="0" />
      <stop
         id="stop2891"
         style="stop-color:#181818;stop-opacity:0"
         offset="1" />
    </linearGradient>
    <linearGradient
       x1="25.058096"
       y1="47.027729"
       x2="25.058096"
       y2="39.999443"
       id="linearGradient3194"
       xlink:href="#linearGradient3702-501-757"
       gradientUnits="userSpaceOnUse" />
    <linearGradient
       id="linearGradient3702-501-757">
      <stop
         id="stop2895"
         style="stop-color:#181818;stop-opacity:0"
         offset="0" />
      <stop
         id="stop2897"
         style="stop-color:#181818;stop-opacity:1"
         offset="0.5" />
      <stop
         id="stop2899"
         style="stop-color:#181818;stop-opacity:0"
         offset="1" />
    </linearGradient>
    <linearGradient
       inkscape:collect="always"
       xlink:href="#linearGradient3870"
       id="linearGradient4860"
       x1="81.85759"
       y1="114.3008"
       x2="81.85759"
       y2="106.36481"
       gradientUnits="userSpaceOnUse"
       gradientTransform="matrix(1.2600806,0,0,1.2600806,-48.147165,-125.02823)" />
    <linearGradient
       id="linearGradient8054-6">
      <stop
         style="stop-color:#1480de;stop-opacity:1;"
         offset="0"
         id="stop8056-0" />
      <stop
         style="stop-color:#008cff;stop-opacity:1;"
         offset="1"
         id="stop8058-6" />
    </linearGradient>
    <linearGradient
       gradientTransform="matrix(3.3602146,0,0,3.3602146,-715.56978,-3120.1965)"
       inkscape:collect="always"
       xlink:href="#linearGradient4865"
       id="linearGradient4871"
       x1="230.875"
       y1="934.11218"
       x2="230.875"
       y2="930.36218"
       gradientUnits="userSpaceOnUse" />
    <linearGradient
       id="linearGradient4865">
      <stop
         style="stop-color:#e1e1e1;stop-opacity:1;"
         offset="0"
         id="stop4867" />
      <stop
         style="stop-color:#ffffff;stop-opacity:1"
         offset="1"
         id="stop4869" />
    </linearGradient>
    <filter
       color-interpolation-filters="sRGB"
       inkscape:collect="always"
       id="filter4909"
       x="-0.12"
       width="1.24"
       y="-0.12"
       height="1.24">
      <feGaussianBlur
         inkscape:collect="always"
         stdDeviation="2.4"
         id="feGaussianBlur4911" />
    </filter>
  </defs>
  <metadata
     id="metadata4212">
    <rdf:RDF>
      <cc:Work
         rdf:about="">
        <dc:format>image/svg+xml</dc:format>
        <dc:type
           rdf:resource="http://purl.org/dc/dcmitype/StillImage" />
        <dc:title></dc:title>
      </cc:Work>
    </rdf:RDF>
  </metadata>
  <g
     transform="translate(0,64)"
     id="layer1">
    <g
       transform="matrix(2.9499988,0,0,1.2222234,-6.8000012,1.555537)"
       id="g2036"
       style="display:inline">
      <g
         transform="matrix(1.052632,0,0,1.285713,-1.263158,-13.42854)"
         id="g3712"
         style="opacity:0.4">
        <rect
           width="5"
           height="7"
           x="38"
           y="40"
           id="rect2801"
           style="fill:url(#radialGradient3190);fill-opacity:1;stroke:none" />
        <rect
           width="5"
           height="7"
           x="-10"
           y="-47"
           transform="scale(-1,-1)"
           id="rect3696"
           style="fill:url(#radialGradient3192);fill-opacity:1;stroke:none" />
        <rect
           width="28"
           height="7.0000005"
           x="10"
           y="40"
           id="rect3700"
           style="fill:url(#linearGradient3194);fill-opacity:1;stroke:none" />
      </g>
    </g>
    <rect
       width="103"
       height="103"
       rx="6"
       ry="6"
       x="12.5"
       y="-48.5"
       id="rect5505-21"
       style="color:#000000;fill:url(#radialGradient3227);fill-opacity:1;fill-rule:nonzero;stroke:none;stroke-width:1;stroke-linecap:round;stroke-linejoin:round;stroke-miterlimit:4;stroke-opacity:1;stroke-dasharray:none;stroke-dashoffset:0;marker:none;visibility:visible;display:inline;overflow:visible;enable-background:accumulate" />
    <rect
       width="101"
       height="101"
       rx="5"
       ry="5"
       x="13.5"
       y="-47.5"
       id="rect6741-7"
       style="opacity:0.5;fill:none;stroke:url(#linearGradient3224);stroke-width:0.99999994;stroke-linecap:round;stroke-linejoin:round;stroke-miterlimit:4;stroke-opacity:1;stroke-dasharray:none;stroke-dashoffset:0" />
    <rect
       style="color:#000000;fill:none;fill-opacity:1;fill-rule:nonzero;stroke:#00243f;stroke-width:1;stroke-linecap:round;stroke-linejoin:round;stroke-miterlimit:4;stroke-opacity:1;stroke-dasharray:none;stroke-dashoffset:0;marker:none;visibility:visible;display:inline;overflow:visible;enable-background:accumulate;opacity:0.6"
       id="rect3809"
       y="-48.5"
       x="12.5"
       ry="6"
       rx="6"
       height="103"
       width="103" />
    <path
       inkscape:connector-curvature="0"
       id="path4899"
       d="m -28.699788,-18.874459 c -1.597733,3.324666 -3.149824,6.740534 -4.65625,10.2499998 -1.4608,3.46312 -2.979224,7.121254 -4.53125,11 -0.343066,0.88333 -0.683449,1.84031 -1.03125,2.75 l 10.15625,0 c 0.109044,-0.30296 0.235841,-0.63912 0.34375,-0.9375 0.730373,-1.893306 1.37531,-3.61768704 1.96875,-5.18750004 0.593467,-1.57007996 1.105993,-2.95571696 1.5625,-4.15624996 0.45648,-1.200533 0.802983,-2.15095 1.03125,-2.84375 0.273893,0.6928 0.63727,1.64295 1.09375,2.84375 0.456507,1.200533 1.000363,2.58617 1.59375,4.15624996 0.639093,1.569813 1.28403,3.29419404 1.96875,5.18750004 0.107914,0.29838 0.234703,0.63454 0.34375,0.9375 l 10.5312504,0 c -0.35594,-0.90998 -0.70894,-1.86639 -1.0625,-2.75 -1.5064504,-3.878746 -3.0248504,-7.53688 -4.5312504,-11 -1.506426,-3.5094658 -3.041644,-6.9253338 -4.59375,-10.2499998 l -10.1875,0 z m -15.34375,37.84375 c -1.14994,3.21742 -2.324216,6.55916 -3.5625,10.15625 l 11.09375,0 c 0.50216,-1.66248 1.062757,-3.37015 1.65625,-5.125 0.593674,-1.62996 1.164432,-3.24501 1.71875,-4.875 l -9.46875,0 c -0.495227,0 -0.971858,-0.0593 -1.4375,-0.15625 z m 40.8437504,0 c -0.4565,0.09294 -0.9215,0.15625 -1.40625,0.15625 l -9.8125004,0 c 0.551089,1.62952 1.105122,3.24551 1.65625,4.875 0.63904,1.75459 1.21659,3.46252 1.71875,5.125 l 11.43750039,0 c -1.2383,-3.59709 -2.41257999,-6.93883 -3.56249999,-10.15625 -0.01,0.002 -0.0214,-0.002 -0.0312,0 z"
       style="font-size:18px;font-style:normal;font-variant:normal;font-weight:bold;font-stretch:normal;text-align:start;line-height:125%;letter-spacing:0px;word-spacing:0px;writing-mode:lr-tb;text-anchor:start;opacity:0.2;fill:#000000;fill-opacity:1;stroke:none;display:inline;filter:url(#filter4909);font-family:Ubuntu;-inkscape-font-specification:Ubuntu Bold"
       transform="matrix(1.2600806,0,0,1.2600806,93.745509,-2.9585937)" />
    <path
       inkscape:connector-curvature="0"
       style="font-size:18px;font-style:normal;font-variant:normal;font-weight:bold;font-stretch:normal;text-align:start;line-height:125%;letter-spacing:0px;word-spacing:0px;writing-mode:lr-tb;text-anchor:start;fill:#ffffff;fill-opacity:1;stroke:none;display:inline;font-family:Ubuntu;-inkscape-font-specification:Ubuntu Bold"
       d="m 57.581477,-26.741972 c -2.013272,4.189346 -3.969051,8.493614 -5.86727,12.915824 -1.840726,4.3638103 -3.754065,8.9733527 -5.709745,13.86088552 -0.43229,1.11307058 -0.861189,2.31895138 -1.299428,3.46522158 l 12.79768,0 c 0.137432,-0.3817541 0.297043,-0.8053428 0.433165,-1.1813181 0.920329,-2.38571798 1.732997,-4.558601 2.48078,-6.5366578 0.747816,-1.978461 1.393615,-3.7244619 1.96885,-5.2372319 0.575202,-1.5127693 1.011827,-2.7103813 1.299463,-3.5833643 0.345127,0.872983 0.803023,2.070259 1.378225,3.5833643 0.575236,1.51277 1.26055,3.2587709 2.008267,5.2372319 0.805308,1.9780568 1.617975,4.15093982 2.480778,6.5366578 0.136089,0.3759753 0.295698,0.799564 0.433133,1.1813181 l 13.270227,0 C 82.807113,2.3533185 82.362289,1.1481444 81.916792,0.03473752 80.018538,-4.8527953 78.105232,-9.4623377 76.207046,-13.826148 c -1.898218,-4.42221 -3.832729,-8.726478 -5.788506,-12.915824 l -12.837063,0 z M 38.247105,20.94421 c -1.449026,4.0542 -2.928696,8.265052 -4.489044,12.79768 l 13.979029,0 c 0.632762,-2.094858 1.339146,-4.246672 2.086996,-6.457896 0.748085,-2.053897 1.467303,-4.088977 2.16576,-6.142909 l -11.931384,0 c -0.624025,0 -1.224597,-0.07459 -1.811357,-0.196907 z m 51.466422,0 c -0.575232,0.117275 -1.161152,0.19691 -1.772006,0.19691 l -12.364515,0 c 0.694389,2.053326 1.39254,4.089616 2.086996,6.142909 0.805242,2.21092 1.532998,4.363036 2.16576,6.457895 l 14.412162,0 c -1.560346,-4.532627 -3.040022,-8.74348 -4.489013,-12.797679 -0.01341,0.0025 -0.02691,-0.0025 -0.03933,0 z"
       id="path4743" />
    <rect
       ry="6.300416"
       y="7.2801399"
       x="33.758034"
       height="12.600832"
       width="60.483875"
       id="rect4873"
       style="opacity:0.5;fill:#000000;fill-opacity:1;stroke:none;display:inline" />
    <rect
       style="fill:url(#linearGradient4871);fill-opacity:1;stroke:none;display:inline"
       id="rect4747"
       width="60.483875"
       height="12.600832"
       x="33.758034"
       y="6.0200586"
       ry="6.300416" />
    <rect
       ry="3.7802408"
       y="9.8003006"
       x="36.278187"
       height="7.5604815"
       width="37.802422"
       id="rect4886"
       style="color:#000000;fill:#ffffff;fill-opacity:1;fill-rule:nonzero;stroke:none;stroke-width:1;marker:none;visibility:visible;display:inline;overflow:visible;enable-background:accumulate" />
    <rect
       style="color:#000000;fill:url(#linearGradient4860);fill-opacity:1.0;fill-rule:nonzero;stroke:none;stroke-width:1;marker:none;visibility:visible;display:inline;overflow:visible;enable-background:accumulate"
       id="rect4852"
       width="37.802422"
       height="7.5604815"
       x="36.278187"
       y="8.5402193"
       ry="3.7802408" />
    <path
       inkscape:connector-curvature="0"
       style="fill:#ffffff;fill-opacity:1;stroke:none;display:inline"
       d="m 40.058462,6.0201198 c -3.490423,0 -6.300401,2.8099804 -6.300401,6.3004022 0,0.218079 0.01679,0.417742 0.03932,0.630041 0.321572,-3.1847435 2.988741,-5.6703628 6.26102,-5.6703628 l 47.883059,0 c 3.272279,0 5.939548,2.4856193 6.261055,5.6703628 0.02012,-0.212366 0.03933,-0.411895 0.03933,-0.630041 0,-3.4904218 -2.809979,-6.3004022 -6.300406,-6.3004022 l -47.883093,0 z"
       id="rect4877" />
    <path
       inkscape:connector-curvature="0"
       style="opacity:0.1;color:#000000;fill:#000000;fill-opacity:1;fill-rule:nonzero;stroke:none;stroke-width:1;marker:none;visibility:visible;display:inline;overflow:visible;enable-background:accumulate"
       d="m 40.058462,8.5402802 c -2.094254,0 -3.780242,1.6859878 -3.780242,3.7802418 0,0.220766 0.04268,0.419724 0.07862,0.630041 0.305446,-1.783604 1.828127,-3.1502015 3.70148,-3.1502015 l 30.241932,0 c 1.873353,0 3.396068,1.3665975 3.701512,3.1502015 0.03596,-0.210349 0.07862,-0.40914 0.07862,-0.630041 0,-2.094254 -1.685987,-3.7802418 -3.780242,-3.7802418 l -30.241932,0 z"
       id="rect4890" />
  </g>
</svg>
