<svg xmlns="http://www.w3.org/2000/svg" width="48" height="48">
<defs>
  <path
     d="M 3.59375 4 C 2.702192 4 2 4.7263438 2 5.625 L 2 42.375 C 2 43.273656 2.702192 44 3.59375 44 L 44.40625 44 C 44.517695 44 44.6138 43.9903 44.71875 43.96875 C 45.453406 43.817988 46 43.161319 46 42.375 L 46 17.5 C 46 16.601344 45.297808 15.875 44.40625 15.875 L 10.03125 15.875 C 9.139693 15.875 8.4375 16.601344 8.4375 17.5 C 8.4375 18.398656 9.139693 19.125 10.03125 19.125 L 42.78125 19.125 L 42.78125 40.75 L 5.21875 40.75 L 5.21875 7.25 L 18.09375 7.25 L 18.09375 12.125 C 18.09375 13.023656 18.795942 13.71875 19.6875 13.71875 L 41.1875 13.71875 C 42.079058 13.71875 42.78125 13.023656 42.78125 12.125 C 42.78125 11.226344 42.079058 10.5 41.1875 10.5 L 21.3125 10.5 L 21.3125 5.625 C 21.3125 4.7263438 20.579057 4 19.6875 4 L 3.59375 4 z M 23.59375 20.25 C 22.851754 20.31269 22.467307 21.064036 21.9375 21.5 L 12.40625 31.03125 L 12.40625 32.34375 C 12.85134 32.31502 13.333504 32.41041 13.75 32.3125 L 23.59375 22.5 L 33.46875 32.34375 L 34.78125 32.34375 C 34.75243 31.898749 34.84822 31.416194 34.75 31 L 24.25 20.53125 C 24.134082 20.334751 23.819204 20.2551 23.59375 20.25 z M 21.71875 31.40625 C 20.860424 31.39855 20.750755 32.344631 20.8125 33 L 20.8125 37.0625 L 18 37.0625 C 17.98766 35.447891 18.0128 33.831755 17.96875 32.21875 C 17.748049 30.99336 15.861667 31.442753 16.15625 32.625 C 16.16656 34.491609 16.15088 36.38456 16.1875 38.25 C 16.312112 39.07594 17.176267 39.021969 17.8125 39 C 19.172029 38.98418 20.54923 39.02421 21.90625 38.96875 C 22.714857 38.819814 22.68239 37.980155 22.65625 37.34375 L 22.65625 33.28125 L 24.53125 33.28125 C 24.54359 34.895859 24.51845 36.511995 24.5625 38.125 C 24.76404 38.983698 25.734365 38.957753 26.4375 38.9375 C 27.723748 38.91834 29.030211 38.97405 30.3125 38.90625 C 31.020019 38.759885 31.123702 38.005445 31.0625 37.40625 C 31.05013 35.67376 31.07534 33.949636 31.03125 32.21875 C 30.810618 30.990911 28.905046 31.443371 29.1875 32.625 L 29.1875 37.0625 L 26.375 37.0625 C 26.36354 35.427016 26.38469 33.790347 26.34375 32.15625 C 26.222094 31.369991 25.396077 31.374449 24.78125 31.40625 L 21.71875 31.40625 z "
     id="path-main" />
</defs>
<acyl-settings>
<linearGradient
     id="linearGradient4321">
    <stop
       style="stop-color:#89F6FB;stop-opacity:1.0;"
       offset="0.5"
       id="stop1" />
    <stop
       style="stop-color:#10A1AA;stop-opacity:1.0;"
       offset="1.0"
       id="stop2" />
  </linearGradient>
<radialGradient
       inkscape:collect="always"
       xlink:href="#linearGradient4321"
       id="acyl_gradient"
       cx="50.0%"
       cy="50.0%"
       fx="50.0%"
       fy="50.0%"
       r="50.0%"
/>
<filter id="filter1111" x="-50%" y="-50%" width="200%" height="200%">
	<feImage
	id="feImage2"
	xlink:href="#1"
	result="result1" />
	<feComposite
	id="feComposite3633"
	in="result1"
	in2="SourceGraphic"
	operator="xor" />
</filter>
	<rect
	style="fill:#1A4B4F;fill-opacity:1.0;filter:url(#filter1111)"
	id="rect2835"
	width="48"
	height="48"
	x="0"
	y="0"
	rx="3.5"
	ry="3.5" />
	<rect
	style="fill:url(#acyl_gradient);filter:url(#filter1111)"
	id="rect2835"
	width="44"
	height="44"
	x="2"
	y="2"
	rx="3.5"
	ry="3.5" />
<defs>
<use id="1" transform="translate(22.5,22.5) scale(0.85) translate(-22.5,-22.5)" style="fill:#000000" xlink:href="#path-main" />
</defs>
	<use id="2" transform="translate(22.5,22.5) scale(0.85) translate(-22.5,-22.5)" style="fill:#1A4B4F;fill-opacity:1.0" xlink:href="#path-main" />
</acyl-settings>
</svg>
