<svg xmlns="http://www.w3.org/2000/svg" width="48" height="48">
<defs>
<defs
     id="defs2385">
  </defs>
  <path
     id="path-main"
     d="M 6.625 10 C 4.4437601 10 2.71875 11.855151 2.71875 14.0625 L 2.71875 26.90625 C 2.71875 26.980768 2.7461169 27.051342 2.75 27.125 C 2.7430289 27.304541 2.71875 27.475029 2.71875 27.65625 L 2.71875 40.53125 C 2.7187776 40.807381 2.9426191 41.031222 3.21875 41.03125 L 32.78125 41.03125 C 40.123609 41.03125 46.249999 35.002324 46.25 27.65625 L 46.25 14.8125 C 46.249972 14.536369 46.026131 14.312528 45.75 14.3125 L 43.375 14.3125 L 43.375 14.0625 C 43.375 11.855151 41.64999 10 39.46875 10 L 6.625 10 z M 6.625 12 L 39.46875 12 C 40.527421 12 41.375 12.881546 41.375 14.0625 L 41.375 14.3125 L 15.8125 14.3125 C 11.068956 14.3125 7.0124466 16.838243 4.71875 20.59375 L 4.71875 14.0625 C 4.71875 12.881546 5.5663292 12 6.625 12 z M 25.125 22.125 C 25.983806 22.125 26.6875 22.893999 26.6875 23.84375 C 26.6875 24.024468 26.57806 24.176005 26.53125 24.34375 C 26.827415 24.531817 27.122674 24.745636 27.375 25 C 27.680455 24.740652 28.02837 24.5625 28.4375 24.5625 C 29.418206 24.5625 30.21875 25.446936 30.21875 26.53125 C 30.21875 26.643208 30.17325 26.740233 30.15625 26.84375 C 30.704452 27.093468 31.150314 27.4866 31.46875 28.03125 C 31.560654 28.01667 31.65401 27.96875 31.75 27.96875 C 32.711771 27.96875 33.46466 28.747031 33.65625 29.75 C 34.185978 29.848144 34.625 30.294568 34.625 30.90625 C 34.625001 31.586878 34.115002 32.15625 33.5 32.15625 C 33.267523 32.15625 33.055951 32.074114 32.875 31.9375 C 32.546153 32.202517 32.188319 32.406249 31.75 32.40625 C 31.439741 32.40625 31.197413 32.23277 30.9375 32.09375 C 30.437226 32.560703 29.801947 32.90625 29.09375 32.90625 C 28.489284 32.90625 27.962736 32.664056 27.5 32.3125 C 26.656132 33.244314 25.534296 33.875 24.25 33.875 C 23.285802 33.875 22.400347 33.494362 21.65625 32.9375 C 21.205606 33.333235 20.686498 33.624999 20.0625 33.625 C 19.100371 33.625 18.278536 33.033608 17.8125 32.1875 C 17.551019 32.310787 17.273461 32.406249 16.96875 32.40625 C 16.271982 32.406249 15.688637 31.99469 15.28125 31.4375 C 15.050203 31.583904 14.813267 31.6875 14.53125 31.6875 C 13.672444 31.6875 12.96875 30.887248 12.96875 29.9375 C 12.96875 28.987751 13.672444 28.218749 14.53125 28.21875 C 14.810954 28.21875 15.051504 28.324577 15.28125 28.46875 C 15.688637 27.911559 16.271981 27.499999 16.96875 27.5 C 17.157633 27.5 17.295696 27.60592 17.46875 27.65625 C 17.490734 27.50472 17.51697 27.359245 17.5625 27.21875 C 17.205962 26.947624 16.9375 26.56953 16.9375 26.0625 C 16.9375 25.247314 17.544346 24.5625 18.28125 24.5625 C 18.850128 24.5625 19.242637 25.005186 19.4375 25.5625 C 19.495462 25.55559 19.53037 25.53125 19.59375 25.53125 C 19.900664 25.53125 20.16649 25.718485 20.4375 25.84375 C 21.156584 24.700589 22.292527 23.895718 23.59375 23.6875 C 23.670862 22.815107 24.317165 22.125 25.125 22.125 z "
/>
</defs>
<acyl-settings>
<linearGradient
     id="linearGradient4321">
    <stop
       style="stop-color:#89F6FB;stop-opacity:1.0;"
       offset="0.5"
       id="stop1" />
    <stop
       style="stop-color:#10A1AA;stop-opacity:1.0;"
       offset="1.0"
       id="stop2" />
  </linearGradient>
<radialGradient
       inkscape:collect="always"
       xlink:href="#linearGradient4321"
       id="acyl_gradient"
       cx="50.0%"
       cy="50.0%"
       fx="50.0%"
       fy="50.0%"
       r="50.0%"
/>
<filter id="filter1111" x="-50%" y="-50%" width="200%" height="200%">
	<feImage
	id="feImage2"
	xlink:href="#1"
	result="result1" />
	<feComposite
	id="feComposite3633"
	in="result1"
	in2="SourceGraphic"
	operator="xor" />
</filter>
	<rect
	style="fill:#1A4B4F;fill-opacity:1.0;filter:url(#filter1111)"
	id="rect2835"
	width="48"
	height="48"
	x="0"
	y="0"
	rx="3.5"
	ry="3.5" />
	<rect
	style="fill:url(#acyl_gradient);filter:url(#filter1111)"
	id="rect2835"
	width="44"
	height="44"
	x="2"
	y="2"
	rx="3.5"
	ry="3.5" />
<defs>
<use id="1" transform="translate(22.5,22.5) scale(0.85) translate(-22.5,-22.5)" style="fill:#000000" xlink:href="#path-main" />
</defs>
	<use id="2" transform="translate(22.5,22.5) scale(0.85) translate(-22.5,-22.5)" style="fill:#1A4B4F;fill-opacity:1.0" xlink:href="#path-main" />
</acyl-settings>
</svg>
