<svg xmlns="http://www.w3.org/2000/svg" width="48" height="48">
<defs>
  <path
     d="M 3.84375 7.125 C 2.823171 7.125 2 7.948173 2 8.96875 L 2 39.03125 C 2 40.05183 2.823171 40.875 3.84375 40.875 L 44.15625 40.875 C 45.176828 40.875 46 40.05183 46 39.03125 L 46 10.78125 C 46 9.7606715 45.176828 8.9375 44.15625 8.9375 L 15.6875 8.9375 L 14.0625 7.125 L 3.84375 7.125 z M 26.03125 16.78125 C 27.205409 16.78125 28.15625 17.826501 28.15625 19.125 C 28.15625 19.372078 28.0015 19.583158 27.9375 19.8125 C 28.342417 20.069624 28.717519 20.370984 29.0625 20.71875 C 29.480118 20.364169 30.003136 20.125 30.5625 20.125 C 31.90332 20.125 32.96875 21.330027 32.96875 22.8125 C 32.96875 22.965571 32.92949 23.108472 32.90625 23.25 C 33.655753 23.591414 34.252136 24.130355 34.6875 24.875 C 34.813147 24.85507 34.931262 24.78125 35.0625 24.78125 C 36.377434 24.78125 37.425558 25.847491 37.6875 27.21875 C 38.411745 27.352928 39 27.944957 39 28.78125 C 39.000001 29.711804 38.309579 30.5 37.46875 30.5 C 37.150907 30.5 36.872396 30.405524 36.625 30.21875 C 36.1754 30.581082 35.66177 30.843749 35.0625 30.84375 C 34.638315 30.84375 34.292853 30.59632 33.9375 30.40625 C 33.253524 31.04467 32.405748 31.53125 31.4375 31.53125 C 30.611072 31.53125 29.913902 31.199398 29.28125 30.71875 C 28.127513 31.992726 26.56839 32.84375 24.8125 32.84375 C 23.494248 32.84375 22.29858 32.323842 21.28125 31.5625 C 20.66513 32.103549 19.915632 32.499999 19.0625 32.5 C 17.747077 32.5 16.605913 31.68805 15.96875 30.53125 C 15.611253 30.69981 15.291601 30.843749 14.875 30.84375 C 13.922377 30.843749 13.119479 30.29304 12.5625 29.53125 C 12.246612 29.731415 11.916824 29.875 11.53125 29.875 C 10.35709 29.875 9.40625 28.767246 9.40625 27.46875 C 9.40625 26.170251 10.35709 25.124999 11.53125 25.125 C 11.913662 25.125 12.248391 25.271636 12.5625 25.46875 C 13.119479 24.706957 13.922377 24.124999 14.875 24.125 C 15.133241 24.125 15.325901 24.274938 15.5625 24.34375 C 15.59255 24.136578 15.625245 23.942085 15.6875 23.75 C 15.20004 23.379316 14.8125 22.849462 14.8125 22.15625 C 14.8125 21.041727 15.648753 20.125 16.65625 20.125 C 17.43402 20.125 17.983583 20.738038 18.25 21.5 C 18.32924 21.4906 18.382097 21.4375 18.46875 21.4375 C 18.888362 21.4375 19.254475 21.703739 19.625 21.875 C 20.608132 20.31207 22.095968 19.222176 23.875 18.9375 C 23.980426 17.744764 24.926777 16.78125 26.03125 16.78125 z "
     id="path-main" />
</defs>
<acyl-settings>
<linearGradient
     id="linearGradient4321">
    <stop
       style="stop-color:#89F6FB;stop-opacity:1.0;"
       offset="0.5"
       id="stop1" />
    <stop
       style="stop-color:#10A1AA;stop-opacity:1.0;"
       offset="1.0"
       id="stop2" />
  </linearGradient>
<radialGradient
       inkscape:collect="always"
       xlink:href="#linearGradient4321"
       id="acyl_gradient"
       cx="50.0%"
       cy="50.0%"
       fx="50.0%"
       fy="50.0%"
       r="50.0%"
/>
<filter id="filter1111" x="-50%" y="-50%" width="200%" height="200%">
	<feImage
	id="feImage2"
	xlink:href="#1"
	result="result1" />
	<feComposite
	id="feComposite3633"
	in="result1"
	in2="SourceGraphic"
	operator="xor" />
</filter>
	<rect
	style="fill:#1A4B4F;fill-opacity:1.0;filter:url(#filter1111)"
	id="rect2835"
	width="48"
	height="48"
	x="0"
	y="0"
	rx="3.5"
	ry="3.5" />
	<rect
	style="fill:url(#acyl_gradient);filter:url(#filter1111)"
	id="rect2835"
	width="44"
	height="44"
	x="2"
	y="2"
	rx="3.5"
	ry="3.5" />
<defs>
<use id="1" transform="translate(22.5,22.5) scale(0.85) translate(-22.5,-22.5)" style="fill:#000000" xlink:href="#path-main" />
</defs>
	<use id="2" transform="translate(22.5,22.5) scale(0.85) translate(-22.5,-22.5)" style="fill:#1A4B4F;fill-opacity:1.0" xlink:href="#path-main" />
</acyl-settings>
</svg>
