<?xml version="1.0" encoding="UTF-8" standalone="no"?>
<!-- Created with Inkscape (http://www.inkscape.org/) -->

<svg
   xmlns:dc="http://purl.org/dc/elements/1.1/"
   xmlns:cc="http://creativecommons.org/ns#"
   xmlns:rdf="http://www.w3.org/1999/02/22-rdf-syntax-ns#"
   xmlns:svg="http://www.w3.org/2000/svg"
   xmlns="http://www.w3.org/2000/svg"
   xmlns:xlink="http://www.w3.org/1999/xlink"
   xmlns:sodipodi="http://sodipodi.sourceforge.net/DTD/sodipodi-0.dtd"
   xmlns:inkscape="http://www.inkscape.org/namespaces/inkscape"
   version="1.1"
   width="24"
   height="24"
   id="svg10179"
   inkscape:version="0.91 r"
   sodipodi:docname="folder-publicshare.svg">
  <sodipodi:namedview
     pagecolor="#ffffff"
     bordercolor="#666666"
     borderopacity="1"
     objecttolerance="10"
     gridtolerance="10"
     guidetolerance="10"
     inkscape:pageopacity="0"
     inkscape:pageshadow="2"
     inkscape:window-width="1765"
     inkscape:window-height="916"
     id="namedview43"
     showgrid="false"
     inkscape:zoom="14.75"
     inkscape:cx="8"
     inkscape:cy="8"
     inkscape:window-x="0"
     inkscape:window-y="25"
     inkscape:window-maximized="0"
     inkscape:current-layer="svg10179" />
  <defs
     id="defs10181">
    <linearGradient
       x1="71.204407"
       y1="6.2375584"
       x2="71.204407"
       y2="44.340794"
       id="linearGradient6224"
       xlink:href="#linearGradient4011-8"
       gradientUnits="userSpaceOnUse"
       gradientTransform="matrix(0.05405405,0,0,0.05743244,-0.37748685,6.5436715)" />
    <linearGradient
       id="linearGradient4011-8">
      <stop
         id="stop4013-1"
         style="stop-color:#ffffff;stop-opacity:1"
         offset="0" />
      <stop
         id="stop4015-5"
         style="stop-color:#ffffff;stop-opacity:0.23529412"
         offset="0.507761" />
      <stop
         id="stop4017-3"
         style="stop-color:#ffffff;stop-opacity:0.15686275"
         offset="0.83456558" />
      <stop
         id="stop4019-2"
         style="stop-color:#ffffff;stop-opacity:0.39215687"
         offset="1" />
    </linearGradient>
    <linearGradient
       id="linearGradient5606">
      <stop
         id="stop5608"
         style="stop-color:#000000;stop-opacity:1"
         offset="0" />
    </linearGradient>
    <linearGradient
       id="linearGradient4011-8-9">
      <stop
         id="stop4013-1-7"
         style="stop-color:#ffffff;stop-opacity:1"
         offset="0" />
      <stop
         id="stop4015-5-6"
         style="stop-color:#ffffff;stop-opacity:0.23529412"
         offset="0.507761" />
      <stop
         id="stop4017-3-4"
         style="stop-color:#ffffff;stop-opacity:0.15686275"
         offset="0.83456558" />
      <stop
         id="stop4019-2-1"
         style="stop-color:#ffffff;stop-opacity:0.39215687"
         offset="1" />
    </linearGradient>
    <linearGradient
       x1="71.204407"
       y1="6.2375584"
       x2="71.204407"
       y2="44.340794"
       id="linearGradient6224-5-9"
       xlink:href="#linearGradient4011-8-9-4"
       gradientUnits="userSpaceOnUse"
       gradientTransform="matrix(0.05405405,0,0,0.05405406,8.1225132,11.129338)" />
    <linearGradient
       id="linearGradient4011-8-9-4">
      <stop
         id="stop4013-1-7-76"
         style="stop-color:#ffffff;stop-opacity:1"
         offset="0" />
      <stop
         id="stop4015-5-6-0"
         style="stop-color:#ffffff;stop-opacity:0.23529412"
         offset="0.507761" />
      <stop
         id="stop4017-3-4-7"
         style="stop-color:#ffffff;stop-opacity:0.15686275"
         offset="0.83456558" />
      <stop
         id="stop4019-2-1-4"
         style="stop-color:#ffffff;stop-opacity:0.39215687"
         offset="1" />
    </linearGradient>
    <linearGradient
       id="linearGradient7067-814-120-245-1">
      <stop
         id="stop3877-2"
         style="stop-color:#aaaaaa;stop-opacity:1"
         offset="0" />
      <stop
         id="stop3879-5"
         style="stop-color:#4d4d4d;stop-opacity:1"
         offset="1" />
    </linearGradient>
    <radialGradient
       cx="17.058823"
       cy="41.058823"
       r="5.7384715"
       fx="15.544384"
       fy="39.027378"
       id="radialGradient5500"
       xlink:href="#linearGradient7067-814-120-245-1"
       gradientUnits="userSpaceOnUse"
       gradientTransform="matrix(0.28333276,0.05172217,-0.0986169,0.24890446,9.7264375,0.87204091)" />
    <linearGradient
       id="linearGradient7067-814-120-245">
      <stop
         id="stop3877"
         style="stop-color:#aaaaaa;stop-opacity:1"
         offset="0" />
      <stop
         id="stop3879"
         style="stop-color:#4d4d4d;stop-opacity:1"
         offset="1" />
    </linearGradient>
    <radialGradient
       cx="17.058823"
       cy="41.058823"
       r="5.7384715"
       fx="15.544384"
       fy="39.027378"
       id="radialGradient5481"
       xlink:href="#linearGradient7067-814-120-245"
       gradientUnits="userSpaceOnUse"
       gradientTransform="matrix(0.28331064,0.05167803,-0.0986092,0.24869207,1.726617,2.8814506)" />
    <linearGradient
       x1="71.204407"
       y1="6.2375584"
       x2="71.204407"
       y2="44.340794"
       id="linearGradient3222"
       xlink:href="#linearGradient4011-8-9-4"
       gradientUnits="userSpaceOnUse"
       gradientTransform="matrix(0.05405405,0,0,0.05405406,7.6225132,11.129338)" />
    <linearGradient
       x1="71.204407"
       y1="6.2375584"
       x2="71.204407"
       y2="44.340794"
       id="linearGradient3224"
       xlink:href="#linearGradient4011-8-9"
       gradientUnits="userSpaceOnUse"
       gradientTransform="matrix(0.05405405,0,0,0.05405406,7.6225132,2.1293379)" />
  </defs>
  <metadata
     id="metadata10184">
    <rdf:RDF>
      <cc:Work
         rdf:about="">
        <dc:format>image/svg+xml</dc:format>
        <dc:type
           rdf:resource="http://purl.org/dc/dcmitype/StillImage" />
        <dc:title></dc:title>
      </cc:Work>
    </rdf:RDF>
  </metadata>
  <g
     id="layer1"
     transform="matrix(1.5714286,0,0,1.5714286,0.2285714,-0.571429)">
    <g
       transform="translate(-346.66004,-963.14685)"
       id="g24872-6-2" />
    <path
       d="M 11.657657,2.1894 2.5986485,7.09565 1,7.97065 l 1.5673024,0.875 9.0903536,5.0625 0.971727,-1.75 -7.4917047,-4.1875 7.4917047,-4 -0.971727,-1.78125 z"
       inkscape:connector-curvature="0"
       id="path18810"
       style="color:#000000;font-style:normal;font-variant:normal;font-weight:normal;font-stretch:normal;font-size:medium;line-height:normal;font-family:Sans;-inkscape-font-specification:Sans;text-indent:0;text-align:start;text-decoration:none;text-decoration-line:none;letter-spacing:normal;word-spacing:normal;text-transform:none;direction:ltr;block-progression:tb;writing-mode:lr-tb;baseline-shift:baseline;text-anchor:start;display:inline;overflow:visible;visibility:visible;fill:#333333;fill-opacity:1;stroke:none;stroke-width:2;marker:none;enable-background:accumulate" />
    <path
       d="m 3.5,5.875 c -1.103528,0 -2,0.9524983 -2,2.125 0,1.1725018 0.896472,2.125001 2,2.125 1.103528,0 2,-0.9524982 2,-2.125 0,-1.1725017 -0.896472,-2.125 -2,-2.125 z"
       inkscape:connector-curvature="0"
       id="path2555-7-6"
       style="color:#000000;display:inline;overflow:visible;visibility:visible;fill:#666666;fill-opacity:1;fill-rule:nonzero;stroke:#333333;stroke-width:0.99999994;stroke-linecap:butt;stroke-linejoin:miter;stroke-miterlimit:4;stroke-dasharray:none;stroke-dashoffset:0;stroke-opacity:1;marker:none;enable-background:accumulate" />
    <path
       d="m 4.5000001,7.9999618 c 0,0.586821 -0.4477467,1.0625383 -0.9999867,1.0625383 C 2.9477268,9.0625001 2.5,8.5867775 2.5,7.9999618 2.5,7.4131674 2.9477268,6.9374999 3.5000134,6.9374999 c 0.55224,0 0.9999867,0.4756675 0.9999867,1.0624619 l 0,0 z"
       inkscape:connector-curvature="0"
       id="path8655-6-0"
       style="color:#000000;display:inline;overflow:visible;visibility:visible;opacity:0.3;fill:none;stroke:url(#linearGradient6224);stroke-width:0.99999976;stroke-linecap:round;stroke-linejoin:round;stroke-miterlimit:4;stroke-dasharray:none;stroke-dashoffset:0;stroke-opacity:1;marker:none;enable-background:accumulate" />
    <path
       d="m 11.5,1.5 c -1.103528,0 -2,0.896469 -2,2 0,1.103531 0.896472,2.000001 2,2 1.103528,0 2,-0.896469 2,-2 0,-1.103531 -0.896472,-2 -2,-2 z"
       inkscape:connector-curvature="0"
       id="path2555-7-6-4"
       style="color:#000000;display:inline;overflow:visible;visibility:visible;fill:#666666;fill-opacity:1;fill-rule:nonzero;stroke:#333333;stroke-width:1;stroke-linecap:butt;stroke-linejoin:miter;stroke-miterlimit:4;stroke-dasharray:none;stroke-dashoffset:0;stroke-opacity:1;marker:none;enable-background:accumulate" />
    <path
       d="m 12.5,3.499964 c 0,0.5523021 -0.447747,1.0000361 -0.999987,1.0000361 -0.552286,0 -1.000013,-0.447739 -1.000013,-1.0000361 0,-0.5522771 0.447727,-0.9999641 1.000013,-0.9999641 0.55224,0 0.999987,0.447687 0.999987,0.9999641 l 0,0 z"
       inkscape:connector-curvature="0"
       id="path8655-6-0-4"
       style="color:#000000;display:inline;overflow:visible;visibility:visible;opacity:0.3;fill:none;stroke:url(#linearGradient3224);stroke-width:0.99999982;stroke-linecap:round;stroke-linejoin:round;stroke-miterlimit:4;stroke-dasharray:none;stroke-dashoffset:0;stroke-opacity:1;marker:none;enable-background:accumulate" />
    <path
       d="m 11.5,10.5 c -1.103528,0 -2,0.896469 -2,2 0,1.103531 0.896472,2.000001 2,2 1.103528,0 2,-0.896469 2,-2 0,-1.103531 -0.896472,-2 -2,-2 z"
       inkscape:connector-curvature="0"
       id="path2555-7-6-4-6"
       style="color:#000000;display:inline;overflow:visible;visibility:visible;fill:#666666;fill-opacity:1;fill-rule:nonzero;stroke:#333333;stroke-width:1;stroke-linecap:butt;stroke-linejoin:miter;stroke-miterlimit:4;stroke-dasharray:none;stroke-dashoffset:0;stroke-opacity:1;marker:none;enable-background:accumulate" />
    <path
       d="M 12.5,12.499964 C 12.5,13.052266 12.052253,13.5 11.500013,13.5 10.947727,13.5 10.5,13.052261 10.5,12.499964 10.5,11.947687 10.947727,11.5 11.500013,11.5 12.052253,11.5 12.5,11.947687 12.5,12.499964 l 0,0 z"
       inkscape:connector-curvature="0"
       id="path8655-6-0-4-7"
       style="color:#000000;display:inline;overflow:visible;visibility:visible;opacity:0.3;fill:none;stroke:url(#linearGradient3222);stroke-width:0.99999982;stroke-linecap:round;stroke-linejoin:round;stroke-miterlimit:4;stroke-dasharray:none;stroke-dashoffset:0;stroke-opacity:1;marker:none;enable-background:accumulate" />
  </g>
</svg>
