<svg xmlns="http://www.w3.org/2000/svg" width="48" height="48">
<defs>
<defs
   id="defs43">
</defs>
	<path
   d="m 40.15625,3.1875 -3.1875,1.46875 0.46875,2.09375 2.21875,-1.09375 0.125,0 0,9.375 2.71875,0 0,-11.84375 -2.34375,0 z m -23.1875,1.09375 c -0.924719,0 -1.822724,0.3852985 -2.5625,1.125 L 3.0625,17 l 5.15625,5.15625 0,-0.125 c -5e-7,-1e-6 2.598287,-2.567294 5.1875,-5.15625 l 0,28.84375 7.28125,0 0,-28.84375 c 2.589214,2.588956 5.1875,5.15625 5.1875,5.15625 L 31.03125,16.875 19.5625,5.40625 c -0.739776,-0.7397016 -1.669031,-1.125 -2.59375,-1.125 z m 23.8125,14.3125 c -1.109663,0 -2.093752,0.860915 -2.09375,2.09375 0,1.109553 0.860792,2.09375 2.09375,2.09375 1.109663,0 2.09375,-0.860914 2.09375,-2.09375 0,-1.109552 -0.86079,-2.093749 -2.09375,-2.09375 z m 0,6.53125 c -1.109663,0 -2.093752,0.860913 -2.09375,2.09375 0,1.109552 0.860792,2.093751 2.09375,2.09375 1.109663,0 2.09375,-0.860915 2.09375,-2.09375 0,-1.109552 -0.86079,-2.09375 -2.09375,-2.09375 z m -0.375,7.03125 c -2.589214,0 -4.437499,1.970111 -4.4375,4.3125 0,2.342388 1.714765,3.687501 3.6875,3.6875 1.109663,0 1.975567,-0.350616 2.46875,-0.84375 -0.123296,0.862985 -0.728975,1.725615 -1.46875,2.21875 -0.616479,0.493134 -1.48068,0.71875 -2.34375,0.71875 -0.616479,0 -0.848863,0 -1.21875,0 l -0.125,-0.21875 0,2.21875 c 0.246592,0 0.725568,-10e-7 1.21875,0 1.849438,0 3.452836,-0.638731 4.5625,-1.625 1.356255,-1.109552 2.093751,-2.940579 2.09375,-5.40625 0,-2.712239 -1.355101,-5.062501 -4.4375,-5.0625 z m -0.125,1.96875 0.125,0 c 1.232959,0 1.718751,1.235913 1.71875,2.46875 0,0.369851 -0.0017,0.626716 -0.125,0.75 -0.369888,0.369851 -0.853973,0.718751 -1.59375,0.71875 -1.109663,0 -1.718748,-0.857483 -1.71875,-1.84375 0,-1.232836 0.607383,-2.093751 1.59375,-2.09375 z"
   id="path-main"
    />
</defs>
<acyl-settings>
<linearGradient
     id="linearGradient4321">
    <stop
       style="stop-color:#89F6FB;stop-opacity:1.0;"
       offset="0.5"
       id="stop1" />
    <stop
       style="stop-color:#10A1AA;stop-opacity:1.0;"
       offset="1.0"
       id="stop2" />
  </linearGradient>
<radialGradient
       inkscape:collect="always"
       xlink:href="#linearGradient4321"
       id="acyl_gradient"
       cx="50.0%"
       cy="50.0%"
       fx="50.0%"
       fy="50.0%"
       r="50.0%"
/>
<filter id="filter1111" x="-50%" y="-50%" width="200%" height="200%">
	<feImage
	id="feImage2"
	xlink:href="#1"
	result="result1" />
	<feComposite
	id="feComposite3633"
	in="result1"
	in2="SourceGraphic"
	operator="xor" />
</filter>
	<rect
	style="fill:#1A4B4F;fill-opacity:1.0;filter:url(#filter1111)"
	id="rect2835"
	width="48"
	height="48"
	x="0"
	y="0"
	rx="3.5"
	ry="3.5" />
	<rect
	style="fill:url(#acyl_gradient);filter:url(#filter1111)"
	id="rect2835"
	width="44"
	height="44"
	x="2"
	y="2"
	rx="3.5"
	ry="3.5" />
<defs>
<use id="1" transform="translate(22.5,22.5) scale(0.85) translate(-22.5,-22.5)" style="fill:#000000" xlink:href="#path-main" />
</defs>
	<use id="2" transform="translate(22.5,22.5) scale(0.85) translate(-22.5,-22.5)" style="fill:#1A4B4F;fill-opacity:1.0" xlink:href="#path-main" />
</acyl-settings>
</svg>
