<svg xmlns="http://www.w3.org/2000/svg" width="48" height="48">
<defs>
  <path
     d="M 23.96875 6.90625 C 20.411835 6.90625 17.205481 8.2435999 14.53125 10.1875 C 13.014495 9.5370329 10.724541 8.73883 7.6875 8.8125 C 7.0356384 8.82512 6.4014967 9.161827 6.0625 9.71875 C 5.7235032 10.275672 5.7117795 10.977683 6 11.5625 C 6 11.5625 7.7168011 15.058603 8.75 17.125 C 6.66288 17.64678 3.4375 18.4375 3.4375 18.4375 C 2.8177707 18.589809 2.3411604 19.024554 2.125 19.625 C 1.9088397 20.225446 1.9633006 20.925134 2.34375 21.4375 C 2.34375 21.4375 3.1462274 22.524751 4.375 23.625 C 5.303677 24.456541 6.6322937 25.24474 8.15625 25.65625 C 9.3932259 33.385546 15.902985 39.40625 23.96875 39.40625 C 27.861335 39.40625 31.387916 37.885299 34.1875 35.59375 L 44.0625 35.59375 C 44.852547 35.61877 45.538791 35.104247 45.84375 34.375 C 46.148707 33.645752 46.01017 32.857342 45.4375 32.3125 L 39.6875 26.5625 C 39.945019 25.462034 40.21875 24.378835 40.21875 23.15625 C 40.21875 14.211591 32.91341 6.90625 23.96875 6.90625 z M 17.28125 14.5625 C 18.337338 14.562246 19.21875 15.41317 19.21875 16.46875 C 19.21875 17.524583 18.337067 18.375 17.28125 18.375 C 16.22565 18.375 15.375 17.524329 15.375 16.46875 C 15.375 15.41317 16.225922 14.5625 17.28125 14.5625 z M 23.28125 20.28125 C 25.18336 20.27325 27.079545 20.986326 28.53125 22.4375 C 30.46628 24.372678 31.095633 27.158029 30.4375 29.625 C 27.970943 30.283285 25.216567 29.622961 23.28125 27.6875 C 21.346068 25.752039 20.685615 22.997657 21.34375 20.53125 C 21.960423 20.366649 22.647213 20.283918 23.28125 20.28125 z "
     id="path-main" />
</defs>
<acyl-settings>
<linearGradient
     id="linearGradient4321">
    <stop
       style="stop-color:#89F6FB;stop-opacity:1.0;"
       offset="0.5"
       id="stop1" />
    <stop
       style="stop-color:#10A1AA;stop-opacity:1.0;"
       offset="1.0"
       id="stop2" />
  </linearGradient>
<radialGradient
       inkscape:collect="always"
       xlink:href="#linearGradient4321"
       id="acyl_gradient"
       cx="50.0%"
       cy="50.0%"
       fx="50.0%"
       fy="50.0%"
       r="50.0%"
/>
<filter id="filter1111" x="-50%" y="-50%" width="200%" height="200%">
	<feImage
	id="feImage2"
	xlink:href="#1"
	result="result1" />
	<feComposite
	id="feComposite3633"
	in="result1"
	in2="SourceGraphic"
	operator="xor" />
</filter>
	<rect
	style="fill:#1A4B4F;fill-opacity:1.0;filter:url(#filter1111)"
	id="rect2835"
	width="48"
	height="48"
	x="0"
	y="0"
	rx="3.5"
	ry="3.5" />
	<rect
	style="fill:url(#acyl_gradient);filter:url(#filter1111)"
	id="rect2835"
	width="44"
	height="44"
	x="2"
	y="2"
	rx="3.5"
	ry="3.5" />
<defs>
<use id="1" transform="translate(22.5,22.5) scale(0.85) translate(-22.5,-22.5)" style="fill:#000000" xlink:href="#path-main" />
</defs>
	<use id="2" transform="translate(22.5,22.5) scale(0.85) translate(-22.5,-22.5)" style="fill:#1A4B4F;fill-opacity:1.0" xlink:href="#path-main" />
</acyl-settings>
</svg>
