<?xml version="1.0" encoding="UTF-8" standalone="no"?>
<svg width="48px" height="48px" id="0" >
<!-- Jakub Steiner http://jimmac.musichall.cz -->

<path id="path3049"
style="fill:#aaaaaa;fill-rule:nonzero;stroke:#000000;stroke-miterlimit:4;stroke-opacity:1;fill-opacity:1"
d="M 24.347006,4.1666665 C 12.799386,4.1666665 3.513672,13.452381 3.513672,25 C 3.513672,36.54762 12.799386,45.833335 24.347006,45.833335 C 35.894626,45.833335 45.180341,36.54762 45.180341,25 C 45.180341,13.452381 35.894626,4.1666665 24.347006,4.1666665 L 24.347006,4.1666665 z M 24.347006,30.000001 C 21.608911,30.000001 19.347006,27.738096 19.347006,25 C 19.347006,22.261905 21.608911,20 24.347006,20 C 27.085101,20 29.347006,22.261905 29.347006,25 C 29.347006,27.738096 27.085101,30.000001 24.347006,30.000001 z "
/>

<path id="path3051"
style="opacity:0.10999995;fill-rule:nonzero;stroke:none;stroke-miterlimit:4"
d="M 24.347006,12.669591 C 17.461192,12.669591 12.016597,18.274323 12.016597,25 C 12.016597,31.885816 17.62133,37.33041 24.347006,37.33041 C 31.23282,37.33041 36.677417,31.725679 36.677417,25 C 36.677417,18.114186 31.072684,12.669591 24.347006,12.669591 L 24.347006,12.669591 z M 24.347006,31.725679 C 20.663897,31.725679 17.62133,28.683111 17.62133,25 C 17.62133,21.31689 20.663897,18.274323 24.347006,18.274323 C 28.030116,18.274323 31.072684,21.31689 31.072684,25 C 31.072684,28.683111 28.030116,31.725679 24.347006,31.725679 z"
/>

</svg>
