<?xml version="1.0" encoding="UTF-8" standalone="no"?>
<!-- Created with Inkscape (http://www.inkscape.org/) -->

<svg
   xmlns:dc="http://purl.org/dc/elements/1.1/"
   xmlns:cc="http://creativecommons.org/ns#"
   xmlns:rdf="http://www.w3.org/1999/02/22-rdf-syntax-ns#"
   xmlns:svg="http://www.w3.org/2000/svg"
   xmlns="http://www.w3.org/2000/svg"
   xmlns:xlink="http://www.w3.org/1999/xlink"
   xmlns:sodipodi="http://sodipodi.sourceforge.net/DTD/sodipodi-0.dtd"
   xmlns:inkscape="http://www.inkscape.org/namespaces/inkscape"
   version="1.0"
   width="22"
   height="22"
   id="svg4431"
   inkscape:version="0.91 r"
   sodipodi:docname="psensor_normal.svg">
  <sodipodi:namedview
     pagecolor="#353535"
     bordercolor="#666666"
     borderopacity="1"
     objecttolerance="10"
     gridtolerance="10"
     guidetolerance="10"
     inkscape:pageopacity="0.63529412"
     inkscape:pageshadow="2"
     inkscape:window-width="1010"
     inkscape:window-height="524"
     id="namedview16"
     showgrid="false"
     inkscape:zoom="9.8333333"
     inkscape:cx="-18.762712"
     inkscape:cy="11.59322"
     inkscape:window-x="490"
     inkscape:window-y="225"
     inkscape:window-maximized="0"
     inkscape:current-layer="svg4431" />
  <metadata
     id="metadata16">
    <rdf:RDF>
      <cc:Work
         rdf:about="">
        <dc:format>image/svg+xml</dc:format>
        <dc:type
           rdf:resource="http://purl.org/dc/dcmitype/StillImage" />
        <dc:title></dc:title>
      </cc:Work>
    </rdf:RDF>
  </metadata>
  <defs
     id="defs4433">
    <linearGradient
       x1="50.925655"
       y1="11.648451"
       x2="73.986542"
       y2="11.648451"
       id="linearGradient2390"
       xlink:href="#linearGradient3678"
       gradientUnits="userSpaceOnUse"
       gradientTransform="matrix(0,0.7805424,-0.7617909,0,28.873684,-37.749634)" />
    <linearGradient
       x1="9"
       y1="3"
       x2="9"
       y2="21"
       id="linearGradient2393"
       xlink:href="#linearGradient3678"
       gradientUnits="userSpaceOnUse"
       gradientTransform="translate(-2,-1)" />
    <linearGradient
       x1="15"
       y1="8"
       x2="15"
       y2="20"
       id="linearGradient3692"
       xlink:href="#linearGradient3678"
       gradientUnits="userSpaceOnUse" />
    <linearGradient
       x1="9.1701241"
       y1="3"
       x2="9.311203"
       y2="15"
       id="linearGradient3684"
       xlink:href="#linearGradient3678"
       gradientUnits="userSpaceOnUse" />
    <linearGradient
       id="linearGradient3678">
      <stop
         id="stop3680"
         style="stop-color:#ffffff;stop-opacity:1"
         offset="0" />
      <stop
         id="stop3682"
         style="stop-color:#e6e6e6;stop-opacity:1"
         offset="1" />
    </linearGradient>
    <linearGradient
       x1="9.1701241"
       y1="3"
       x2="9.311203"
       y2="15"
       id="linearGradient3640"
       xlink:href="#linearGradient3678"
       gradientUnits="userSpaceOnUse"
       gradientTransform="translate(-22.566265,-7.7349402)" />
    <linearGradient
       x1="15"
       y1="8"
       x2="15"
       y2="20"
       id="linearGradient3643"
       xlink:href="#linearGradient3678"
       gradientUnits="userSpaceOnUse"
       gradientTransform="translate(-22.566265,-7.7349402)" />
  </defs>
  <path
     inkscape:connector-curvature="0"
     style="color:#000000;font-style:normal;font-variant:normal;font-weight:normal;font-stretch:normal;font-size:medium;line-height:normal;font-family:Sans;-inkscape-font-specification:Sans;text-indent:0;text-align:start;text-decoration:none;text-decoration-line:none;letter-spacing:normal;word-spacing:normal;text-transform:none;direction:ltr;block-progression:tb;writing-mode:lr-tb;baseline-shift:baseline;text-anchor:start;display:inline;overflow:visible;visibility:visible;fill:#ffffff;fill-opacity:1;stroke:none;stroke-width:2;marker:none;enable-background:accumulate"
     d="M 11.06783,4 C 9.526948,4 8.2775,5.1614 8.2775,6.5938 l 0,6.9687 c -0.738472,0.6856 -1.277501,1.5722 -1.277501,2.625 0,2.0937 1.849024,3.8125 4.101449,3.8125 2.252426,0 4.101451,-1.7188 4.101451,-3.8125 0,-1.0573 -0.563315,-1.9349 -1.311121,-2.625 -7.74e-4,-0.7438 -9.94e-4,-1.3598 0,-2 a 1.0805074,1.0043849 0 0 0 0.06724,0 l 1.949871,0 a 1.0758977,1.0001 0 1 0 0,-2 l -1.949871,0 a 1.0758977,1.0001 0 0 0 -0.06724,0 c 3.69e-4,-0.3034 3.5e-5,-0.653 0,-0.9687 a 1.0805074,1.0043849 0 0 0 0.06724,0 l 1.949871,0 a 1.0758977,1.0001 0 1 0 0,-2 l -1.949871,0 a 1.0758977,1.0001 0 0 0 -0.06724,0 C 13.891785,5.14 12.608712,4 11.06783,4 Z m 0,2 c 0.292604,0 0.672369,0.3432 0.672368,0.5938 0.01189,2.799 -0.0041,4.4747 0,7.2812 l 0,0.5313 0.470658,0.2812 c 0.50849,0.3299 0.840461,0.8867 0.840461,1.5 0,1.0129 -0.860243,1.8125 -1.949869,1.8125 -1.089625,0 -1.949869,-0.7996 -1.949869,-1.8125 0,-0.6006 0.340384,-1.1338 0.840461,-1.4687 l 0.43704,-0.3125 0,-0.5 0,-7.3125 C 10.42908,6.3218 10.775226,6 11.06783,6 Z"
     id="path3008-6-89" />
</svg>
