<svg xmlns="http://www.w3.org/2000/svg" width="48" height="48">
<defs>
  <path
     d="M 5.6875,4 C 4.7597011,4 4,4.9131215 4,6.03125 L 4,10 14.5,10 16.0625,11.6875 44,11.688 44,8.03125 C 44,6.9131197 43.240298,6 42.3125,6 L 16.4375,6 14.96875,4 5.6875,4 z m 0.90625,2 8.8125,0 1.40625,1.90625 24.59375,0 C 42.287658,7.90625 43,8.7548092 43,9.8125 L 43,9.781 16.4375,9.78125 14.96875,8 5,8 5,7.90625 C 5,6.8485609 5.7123408,6 6.59375,6 z m -2.75,6 C 2.823171,12 2,12.717379 2,13.59375 l 0,25.8125 C 2,40.282623 2.823171,41 3.84375,41 l 40.3125,0 C 45.176828,41 46,40.282623 46,39.40625 l 0,-24.25 C 46,14.279879 45.176828,13.5625 44.15625,13.5625 l -28.46875,0 L 14.0625,12 3.84375,12 z"
     id="path-main" />
</defs>
<acyl-settings>
<linearGradient
     id="linearGradient4321">
    <stop
       style="stop-color:#89F6FB;stop-opacity:1.0;"
       offset="0.5"
       id="stop1" />
    <stop
       style="stop-color:#10A1AA;stop-opacity:1.0;"
       offset="1.0"
       id="stop2" />
  </linearGradient>
<radialGradient
       inkscape:collect="always"
       xlink:href="#linearGradient4321"
       id="acyl_gradient"
       cx="50.0%"
       cy="50.0%"
       fx="50.0%"
       fy="50.0%"
       r="50.0%"
/>
<filter id="filter1111" x="-50%" y="-50%" width="200%" height="200%">
	<feImage
	id="feImage2"
	xlink:href="#1"
	result="result1" />
	<feComposite
	id="feComposite3633"
	in="result1"
	in2="SourceGraphic"
	operator="xor" />
</filter>
	<rect
	style="fill:#1A4B4F;fill-opacity:1.0;filter:url(#filter1111)"
	id="rect2835"
	width="48"
	height="48"
	x="0"
	y="0"
	rx="3.5"
	ry="3.5" />
	<rect
	style="fill:url(#acyl_gradient);filter:url(#filter1111)"
	id="rect2835"
	width="44"
	height="44"
	x="2"
	y="2"
	rx="3.5"
	ry="3.5" />
<defs>
<use id="1" transform="translate(22.5,22.5) scale(0.85) translate(-22.5,-22.5)" style="fill:#000000" xlink:href="#path-main" />
</defs>
	<use id="2" transform="translate(22.5,22.5) scale(0.85) translate(-22.5,-22.5)" style="fill:#1A4B4F;fill-opacity:1.0" xlink:href="#path-main" />
</acyl-settings>
</svg>
