<svg xmlns="http://www.w3.org/2000/svg" width="48" height="48">
<defs>
  <defs
     id="defs2385">
  </defs>
  <path
     id="path-main"
     d="M 33.684783,4.3722826 17.065217,13.967391 15.570652,11.1875 3.7038043,18.032609 5.2282609,20.8125 l -2.3913044,1.375 1.7934783,3.108696 -1.8532609,1.046195 -0.5081522,0.298913 0.388587,0.44837 1.763587,1.883152 L 2.5679348,30.019022 2,30.347826 2.4483696,30.766304 14.793478,43.05163 15.0625,43.320652 15.182065,43.5 46,25.714674 33.684783,4.3722826 z m -4.8125,11.5081524 c 0.39942,-0.04391 0.830539,0.116813 1.076087,0.448369 l 4.902173,6.665761 c 0.327392,0.442077 0.212086,1.002058 -0.269021,1.255435 l -13.809783,7.263587 c -0.481097,0.253396 -1.137284,0.113271 -1.464674,-0.328804 L 14.375,24.548913 c -0.319758,-0.431769 -0.184522,-0.994206 0.269022,-1.255435 0.0074,-0.004 0.02233,-0.02587 0.02989,-0.02989 l 0.119565,-0.05978 -0.298913,-0.418478 c -0.159858,-0.215858 -0.137037,-0.497092 0.08967,-0.627717 0.0055,-0.0031 0.02425,0.003 0.02989,0 l 2.480979,-1.315218 c 0.240549,-0.126697 0.553696,-0.04169 0.717391,0.179348 l 0.328804,0.44837 10.342392,-5.470109 c 0.120274,-0.06335 0.255446,-0.104928 0.388587,-0.119565 z m 0,0.777174 c -0.05805,-0.0097 -0.124669,0.0011 -0.179348,0.02989 l -2.152174,1.13587 c -0.0042,0.0022 -0.02587,-0.0025 -0.02989,0 -0.09506,0.06134 -0.130164,0.173981 -0.05978,0.269021 l 0.747283,1.016305 c 0.0744,0.100463 0.219446,0.117336 0.328804,0.05978 l 2.182065,-1.135869 c 0.10934,-0.05759 0.134191,-0.198444 0.05978,-0.298913 L 29.02174,16.74728 c -0.0372,-0.05024 -0.0914,-0.07995 -0.149456,-0.08967 z m -4.274457,3.766304 c -0.738692,-0.0455 -1.468608,0.104076 -2.122283,0.44837 -0.0136,0.0072 -0.01643,-0.0074 -0.02989,0 -0.0067,0.0037 -0.02329,0.02626 -0.02989,0.02989 -0.0066,0.0036 -0.02329,-0.0037 -0.02989,0 -1.676399,0.937979 -2.0944,2.936743 -0.926631,4.513587 1.186214,1.601745 3.577524,2.173549 5.320652,1.255435 1.74313,-0.918114 2.202518,-2.971623 1.016305,-4.57337 -0.741384,-1.00109 -1.967215,-1.598087 -3.19837,-1.673913 z m -0.448369,1.195652 c 0.938325,-0.100862 1.938148,0.302741 2.510869,1.076087 0.763625,1.031125 0.464537,2.338315 -0.657609,2.929348 -1.122143,0.591037 -2.643983,0.253952 -3.407608,-0.777174 -0.763629,-1.031127 -0.464532,-2.368198 0.657608,-2.959239 0.280536,-0.147759 0.583965,-0.235401 0.89674,-0.269022 z m -19.0407613,4.513587 8.1603263,14.048913 -9.6847829,-9.625 1.8233696,-1.076087 0.5081522,-0.298913 -0.388587,-0.448369 -1.7336956,-1.853261 1.3152174,-0.747283 z" />
</defs>
<acyl-settings>
<linearGradient
     id="linearGradient4321">
    <stop
       style="stop-color:#89F6FB;stop-opacity:1.0;"
       offset="0.5"
       id="stop1" />
    <stop
       style="stop-color:#10A1AA;stop-opacity:1.0;"
       offset="1.0"
       id="stop2" />
  </linearGradient>
<radialGradient
       inkscape:collect="always"
       xlink:href="#linearGradient4321"
       id="acyl_gradient"
       cx="50.0%"
       cy="50.0%"
       fx="50.0%"
       fy="50.0%"
       r="50.0%"
/>
<filter id="filter1111" x="-50%" y="-50%" width="200%" height="200%">
	<feImage
	id="feImage2"
	xlink:href="#1"
	result="result1" />
	<feComposite
	id="feComposite3633"
	in="result1"
	in2="SourceGraphic"
	operator="xor" />
</filter>
	<rect
	style="fill:#1A4B4F;fill-opacity:1.0;filter:url(#filter1111)"
	id="rect2835"
	width="48"
	height="48"
	x="0"
	y="0"
	rx="3.5"
	ry="3.5" />
	<rect
	style="fill:url(#acyl_gradient);filter:url(#filter1111)"
	id="rect2835"
	width="44"
	height="44"
	x="2"
	y="2"
	rx="3.5"
	ry="3.5" />
<defs>
<use id="1" transform="translate(22.5,22.5) scale(0.85) translate(-22.5,-22.5)" style="fill:#000000" xlink:href="#path-main" />
</defs>
	<use id="2" transform="translate(22.5,22.5) scale(0.85) translate(-22.5,-22.5)" style="fill:#1A4B4F;fill-opacity:1.0" xlink:href="#path-main" />
</acyl-settings>
</svg>
