<svg xmlns="http://www.w3.org/2000/svg" width="48" height="48">
<defs>
<defs
     id="defs4">
  </defs>
  <path
     id="path-main"
     d="M 8.9527955,1.9999997 C 7.6231128,1.9999997 6.548,3.0751149 6.548,4.4047952 l 0,39.2059238 C 6.548,44.940401 7.6231128,46 8.9527955,46 l 29.6488015,0 c 1.329681,0 2.404795,-1.059599 2.404795,-2.389281 L 41.052942,13.636107 29.37029,1.9999997 l -20.4174895,0 z m 10.3328635,8.2383643 7.29196,0 0,10.146685 5.073343,0.01552 -8.641749,12.303244 -8.51763,-12.380818 4.794076,0.01552 0,-10.100141 z m 13.854725,28.842031 c 0.608955,4e-6 1.09379,0.211393 1.458392,0.620592 0.364595,0.407267 0.543014,0.942528 0.543018,1.629055 -2e-6,0.684593 -0.178424,1.235366 -0.543018,1.64457 -0.3646,0.407263 -0.849439,0.620592 -1.458392,0.620592 -0.610895,0 -1.091856,-0.213329 -1.458392,-0.620592 -0.364597,-0.407262 -0.558534,-0.958036 -0.558533,-1.64457 1e-6,-0.686527 0.193934,-1.221788 0.558533,-1.629055 0.366538,-0.409199 0.847495,-0.620588 1.458392,-0.620592 z m -9.495064,0.07757 1.504937,0 c 0.447989,4e-6 0.79707,0.09309 1.039492,0.279266 0.242417,0.186182 0.356837,0.447994 0.356841,0.791256 -2e-6,0.265694 -0.06206,0.479022 -0.186178,0.636107 -0.12412,0.15709 -0.302542,0.255997 -0.543018,0.294781 0.288962,0.06206 0.508106,0.190059 0.667136,0.387871 0.160965,0.195876 0.248234,0.449929 0.248237,0.74471 -2e-6,0.387871 -0.124122,0.688471 -0.38787,0.899859 -0.263753,0.211389 -0.645807,0.310297 -1.132581,0.310297 l -1.566996,0 0,-4.344147 z m 3.490832,0 3.67701,0 0,0.496474 -1.551481,0 0,3.847673 -0.589562,0 0,-3.847673 -1.535967,0 0,-0.496474 z m 8.936531,0 1.318759,0 c 0.496473,4e-6 0.872705,0.10279 1.117066,0.310296 0.244357,0.207514 0.356837,0.527507 0.356841,0.946403 -2e-6,0.273452 -0.05818,0.502295 -0.186178,0.682652 -0.126059,0.180362 -0.316117,0.302541 -0.558533,0.372356 0.126056,0.04267 0.254052,0.12412 0.372355,0.263751 0.120239,0.139634 0.236598,0.345209 0.356841,0.589563 l 0.605077,1.179126 -0.636107,0 -0.558533,-1.117067 c -0.143513,-0.290899 -0.283148,-0.479018 -0.4189,-0.574048 -0.133815,-0.09503 -0.310298,-0.139631 -0.543018,-0.139633 l -0.636107,0 0,1.830748 -0.589563,0 0,-4.344147 z m -2.932299,0.403385 c -0.426657,4e-6 -0.771864,0.162909 -1.023978,0.480959 -0.250175,0.318057 -0.372356,0.738896 -0.372355,1.287729 1e-6,0.546901 0.122178,0.985193 0.372355,1.303244 0.252116,0.318056 0.597319,0.480959 1.023978,0.480959 0.426656,0 0.760223,-0.162903 1.008462,-0.480959 0.250175,-0.318051 0.387867,-0.756343 0.387871,-1.303244 -2e-6,-0.548833 -0.137698,-0.969672 -0.387871,-1.287729 -0.248238,-0.31805 -0.581808,-0.480955 -1.008462,-0.480959 z m -8.905501,0.07757 0,1.318759 0.868829,0 c 0.287024,2e-6 0.511987,-0.064 0.651622,-0.170663 0.141572,-0.108601 0.20169,-0.275385 0.201693,-0.496474 -1e-6,-0.219143 -0.06012,-0.372352 -0.201693,-0.480959 -0.139633,-0.1086 -0.3646,-0.170659 -0.651622,-0.170663 l -0.868829,0 z m 12.427363,0 0,1.551481 0.729196,0 c 0.283145,2e-6 0.492593,-0.07175 0.636107,-0.201693 0.14545,-0.131873 0.232719,-0.31999 0.232722,-0.574048 -1e-6,-0.254051 -0.08727,-0.446047 -0.232722,-0.574047 -0.143513,-0.129933 -0.352964,-0.201689 -0.636107,-0.201693 l -0.729196,0 z m -12.427363,1.784203 0,1.598026 0.946403,0 c 0.316114,0 0.546895,-0.07176 0.698167,-0.201693 0.153208,-0.131873 0.232719,-0.319992 0.232722,-0.589563 -1e-6,-0.271506 -0.07952,-0.477078 -0.232722,-0.605077 -0.15127,-0.129935 -0.382055,-0.201691 -0.698167,-0.201693 l -0.946403,0 z" />
</defs>
<acyl-settings>
<linearGradient
     id="linearGradient4321">
    <stop
       style="stop-color:#89F6FB;stop-opacity:1.0;"
       offset="0.5"
       id="stop1" />
    <stop
       style="stop-color:#10A1AA;stop-opacity:1.0;"
       offset="1.0"
       id="stop2" />
  </linearGradient>
<radialGradient
       inkscape:collect="always"
       xlink:href="#linearGradient4321"
       id="acyl_gradient"
       cx="50.0%"
       cy="50.0%"
       fx="50.0%"
       fy="50.0%"
       r="50.0%"
/>
<filter id="filter1111" x="-50%" y="-50%" width="200%" height="200%">
	<feImage
	id="feImage2"
	xlink:href="#1"
	result="result1" />
	<feComposite
	id="feComposite3633"
	in="result1"
	in2="SourceGraphic"
	operator="xor" />
</filter>
	<rect
	style="fill:#1A4B4F;fill-opacity:1.0;filter:url(#filter1111)"
	id="rect2835"
	width="48"
	height="48"
	x="0"
	y="0"
	rx="3.5"
	ry="3.5" />
	<rect
	style="fill:url(#acyl_gradient);filter:url(#filter1111)"
	id="rect2835"
	width="44"
	height="44"
	x="2"
	y="2"
	rx="3.5"
	ry="3.5" />
<defs>
<use id="1" transform="translate(22.5,22.5) scale(0.85) translate(-22.5,-22.5)" style="fill:#000000" xlink:href="#path-main" />
</defs>
	<use id="2" transform="translate(22.5,22.5) scale(0.85) translate(-22.5,-22.5)" style="fill:#1A4B4F;fill-opacity:1.0" xlink:href="#path-main" />
</acyl-settings>
</svg>
