/* XPM */
static char * close_prelight_xpm[] = {
"21 20 59 1",
" 	c None",
".	c #969696",
"+	c #9E9E9E",
"@	c #9F9F9F",
"#	c #A7A7A7",
"$	c #92868D",
"%	c #8E7286",
"&	c #8F7587",
"*	c #938B8E",
"=	c #AEAEAE",
"-	c #AFAFAF",
";	c #93878D",
">	c #A872A1",
",	c #D672D2",
"'	c #D373CF",
")	c #9E7496",
"!	c #969091",
"~	c #B6B6B8",
"{	c #B4B4B4",
"]	c #906E87",
"^	c #D460D0",
"/	c #DA52DC",
"(	c #D953DB",
"_	c #D466D0",
":	c #8C7483",
"<	c #B6B6B6",
"[	c #B8B6B6",
"}	c #BFBFBF",
"|	c #BCBABA",
"1	c #936389",
"2	c #D143CF",
"3	c #D43CDA",
"4	c #D23CD8",
"5	c #D14BCF",
"6	c #916D8A",
"7	c #C6C6C6",
"8	c #C8C6C6",
"9	c #A1819C",
"0	c #C452C3",
"a	c #CF44D8",
"b	c #D245D7",
"c	c #BB59B8",
"d	c #A48E9D",
"e	c #C8C8C6",
"f	c #CFCFCF",
"g	c #CCC8CC",
"h	c #BA84B5",
"i	c #B55EB8",
"j	c #B560B6",
"k	c #BA90B4",
"l	c #D0CCCE",
"m	c #D7D7D7",
"n	c #E7E9E7",
"o	c #F8F8F8",
"p	c #F7F7F7",
"q	c #E4E4E4",
"r	c #D8D8D8",
"s	c #DFDFDF",
"t	c #DEDEDE",
"                     ",
"                     ",
"                     ",
"                     ",
"                     ",
"                     ",
"        ....         ",
"       +@@@+@        ",
"      ##$%&*##       ",
"     =-;>,')!=-      ",
"     ~{]^/(_:<[      ",
"     }|123456}}      ",
"     7890abcd7e      ",
"      fghijklf       ",
"       mnopqr        ",
"        ssts         ",
"                     ",
"                     ",
"                     ",
"                     "};
