<?xml version="1.0" encoding="UTF-8" standalone="no"?>
<!-- Created with Inkscape (http://www.inkscape.org/) -->

<svg
   xmlns:dc="http://purl.org/dc/elements/1.1/"
   xmlns:cc="http://creativecommons.org/ns#"
   xmlns:rdf="http://www.w3.org/1999/02/22-rdf-syntax-ns#"
   xmlns:svg="http://www.w3.org/2000/svg"
   xmlns="http://www.w3.org/2000/svg"
   xmlns:xlink="http://www.w3.org/1999/xlink"
   xmlns:sodipodi="http://sodipodi.sourceforge.net/DTD/sodipodi-0.dtd"
   xmlns:inkscape="http://www.inkscape.org/namespaces/inkscape"
   width="48px"
   height="48px"
   id="svg4389"
   version="1.1"
   inkscape:version="0.91 r"
   sodipodi:docname="applications-fonts.svg">
  <defs
     id="defs4391">
    <linearGradient
       id="linearGradient4751-5-4-1-2-9-1-2-3-365-589-154-4-7-64-3-8-6-5-3-8">
      <stop
         id="stop9737-3-0-8-1-8-3-3-0-4"
         style="stop-color:#ffffff;stop-opacity:1"
         offset="0" />
      <stop
         id="stop9739-4-8-0-7-48-9-7-7-4"
         style="stop-color:#ebebeb;stop-opacity:1"
         offset="1" />
    </linearGradient>
    <linearGradient
       inkscape:collect="always"
       xlink:href="#linearGradient3924-1"
       id="linearGradient3108"
       gradientUnits="userSpaceOnUse"
       gradientTransform="translate(4e-6,1.0000062)"
       x1="23.99999"
       y1="4.999989"
       x2="23.99999"
       y2="43" />
    <linearGradient
       id="linearGradient3924-1">
      <stop
         id="stop3926-3"
         style="stop-color:#ffffff;stop-opacity:1"
         offset="0" />
      <stop
         id="stop3928-91"
         style="stop-color:#ffffff;stop-opacity:0.23529412"
         offset="0.06316455" />
      <stop
         id="stop3930-6"
         style="stop-color:#ffffff;stop-opacity:0.15686275"
         offset="0.95056331" />
      <stop
         id="stop3932-6"
         style="stop-color:#ffffff;stop-opacity:0.39215687"
         offset="1" />
    </linearGradient>
    <linearGradient
       id="linearGradient27416-1-2-2">
      <stop
         offset="0"
         style="stop-color:#55c1ec;stop-opacity:1"
         id="stop27420-2-0-2" />
      <stop
         offset="1"
         style="stop-color:#3689e6;stop-opacity:1"
         id="stop27422-3-5-1" />
    </linearGradient>
    <radialGradient
       inkscape:collect="always"
       xlink:href="#linearGradient4632-92-3-0-8-1-6"
       id="radialGradient3955-7"
       gradientUnits="userSpaceOnUse"
       gradientTransform="matrix(0,1.6685761,-1.668576,0,31.244828,-48.006534)"
       cx="31.999998"
       cy="4.3419166"
       fx="31.999998"
       fy="4.3419166"
       r="27.5" />
    <linearGradient
       id="linearGradient4632-92-3-0-8-1-6">
      <stop
         style="stop-color:#fafafa;stop-opacity:1;"
         offset="0"
         id="stop4634-68-8-0-2-9-1" />
      <stop
         style="stop-color:#e1e1e1;stop-opacity:1;"
         offset="1"
         id="stop4636-8-21-7-1-4-9" />
    </linearGradient>
    <radialGradient
       cx="4.9929786"
       cy="43.5"
       r="2.5"
       fx="4.9929786"
       fy="43.5"
       id="radialGradient3013"
       xlink:href="#linearGradient3688-166-749"
       gradientUnits="userSpaceOnUse"
       gradientTransform="matrix(2.003784,0,0,1.4,27.98813,-17.4)" />
    <linearGradient
       id="linearGradient3688-166-749">
      <stop
         id="stop2883"
         style="stop-color:#181818;stop-opacity:1"
         offset="0" />
      <stop
         id="stop2885"
         style="stop-color:#181818;stop-opacity:0"
         offset="1" />
    </linearGradient>
    <radialGradient
       cx="4.9929786"
       cy="43.5"
       r="2.5"
       fx="4.9929786"
       fy="43.5"
       id="radialGradient3015"
       xlink:href="#linearGradient3688-464-309"
       gradientUnits="userSpaceOnUse"
       gradientTransform="matrix(2.003784,0,0,1.4,-20.01187,-104.4)" />
    <linearGradient
       id="linearGradient3688-464-309">
      <stop
         id="stop2889"
         style="stop-color:#181818;stop-opacity:1"
         offset="0" />
      <stop
         id="stop2891"
         style="stop-color:#181818;stop-opacity:0"
         offset="1" />
    </linearGradient>
    <linearGradient
       id="linearGradient3702-501-757">
      <stop
         id="stop2895"
         style="stop-color:#181818;stop-opacity:0"
         offset="0" />
      <stop
         id="stop2897"
         style="stop-color:#181818;stop-opacity:1"
         offset="0.5" />
      <stop
         id="stop2899"
         style="stop-color:#181818;stop-opacity:0"
         offset="1" />
    </linearGradient>
    <linearGradient
       y2="39.999443"
       x2="25.058096"
       y1="47.027729"
       x1="25.058096"
       gradientUnits="userSpaceOnUse"
       id="linearGradient4387"
       xlink:href="#linearGradient3702-501-757"
       inkscape:collect="always" />
    <linearGradient
       x1="18.768566"
       y1="31.732327"
       x2="36.911968"
       y2="31.732327"
       id="linearGradient4525"
       xlink:href="#linearGradient2819"
       gradientUnits="userSpaceOnUse"
       gradientTransform="matrix(0.7994779,0,0,0.7994779,-4.8564809,-0.51054124)"
       spreadMethod="reflect" />
    <linearGradient
       id="linearGradient2819">
      <stop
         id="stop2821"
         style="stop-color:#e1e1e1;stop-opacity:1"
         offset="0" />
      <stop
         id="stop2823"
         style="stop-color:#979797;stop-opacity:1"
         offset="1" />
    </linearGradient>
    <linearGradient
       x1="46.984661"
       y1="43.240829"
       x2="50.681435"
       y2="41.108143"
       id="linearGradient4523"
       xlink:href="#linearGradient3051"
       gradientUnits="userSpaceOnUse"
       gradientTransform="matrix(0.7572985,0,0,0.7913813,-3.3125109,-1.9325314)" />
    <linearGradient
       id="linearGradient3051">
      <stop
         id="stop3053"
         style="stop-color:#4a4a4a;stop-opacity:1"
         offset="0" />
      <stop
         id="stop3055"
         style="stop-color:#000000;stop-opacity:0"
         offset="1" />
    </linearGradient>
    <linearGradient
       x1="-22.538548"
       y1="43.29155"
       x2="-27.001842"
       y2="40.177597"
       id="linearGradient4521"
       xlink:href="#linearGradient3051"
       gradientUnits="userSpaceOnUse"
       gradientTransform="matrix(0.708138,0,0,0.8212568,31.913414,-2.6854922)" />
    <linearGradient
       x1="27.979242"
       y1="36.8974"
       x2="38.781452"
       y2="36.897404"
       id="linearGradient4519"
       xlink:href="#linearGradient3609"
       gradientUnits="userSpaceOnUse"
       gradientTransform="matrix(1.0577375,0,0,0.7914116,-15.709397,-1.9321214)"
       spreadMethod="reflect" />
    <linearGradient
       id="linearGradient3609">
      <stop
         id="stop3611"
         style="stop-color:#e1e1e1;stop-opacity:1"
         offset="0" />
      <stop
         id="stop3613"
         style="stop-color:#4d4d4d;stop-opacity:1"
         offset="1" />
    </linearGradient>
    <linearGradient
       y2="46.263954"
       x2="-22.539846"
       y1="11.109024"
       x1="-22.539846"
       gradientTransform="matrix(0.7014674,0,0,0.8212883,30.386154,-2.6851122)"
       gradientUnits="userSpaceOnUse"
       id="linearGradient3091"
       xlink:href="#linearGradient3932"
       inkscape:collect="always" />
    <linearGradient
       id="linearGradient3932">
      <stop
         id="stop3934"
         style="stop-color:#828282;stop-opacity:1"
         offset="0" />
      <stop
         id="stop3936"
         style="stop-color:#434343;stop-opacity:1"
         offset="1" />
    </linearGradient>
  </defs>
  <sodipodi:namedview
     id="base"
     pagecolor="#ffffff"
     bordercolor="#666666"
     borderopacity="1.0"
     inkscape:pageopacity="0.0"
     inkscape:pageshadow="2"
     inkscape:zoom="19.333333"
     inkscape:cx="5.6379312"
     inkscape:cy="24"
     inkscape:current-layer="layer1"
     showgrid="true"
     inkscape:grid-bbox="true"
     inkscape:document-units="px"
     inkscape:window-width="1855"
     inkscape:window-height="1056"
     inkscape:window-x="65"
     inkscape:window-y="24"
     inkscape:window-maximized="1" />
  <metadata
     id="metadata4394">
    <rdf:RDF>
      <cc:Work
         rdf:about="">
        <dc:format>image/svg+xml</dc:format>
        <dc:type
           rdf:resource="http://purl.org/dc/dcmitype/StillImage" />
        <dc:title />
      </cc:Work>
    </rdf:RDF>
  </metadata>
  <g
     id="layer1"
     inkscape:label="Layer 1"
     inkscape:groupmode="layer">
    <g
       style="opacity:0.4"
       id="g3712-5"
       transform="matrix(1.1578952,0,0,0.6428571,-3.789476,16.035716)">
      <rect
         style="fill:url(#radialGradient3013);fill-opacity:1;stroke:none"
         id="rect2801-3"
         y="40"
         x="38"
         height="7"
         width="5" />
      <rect
         style="fill:url(#radialGradient3015);fill-opacity:1;stroke:none"
         id="rect3696-6"
         transform="scale(-1,-1)"
         y="-47"
         x="-10"
         height="7"
         width="5" />
      <rect
         style="fill:url(#linearGradient4387);fill-opacity:1;stroke:none"
         id="rect3700-4"
         y="40"
         x="10"
         height="7.0000005"
         width="28" />
    </g>
    <rect
       style="color:#000000;fill:url(#radialGradient3955-7);fill-opacity:1;fill-rule:nonzero;stroke:none;stroke-width:0.99999994;marker:none;visibility:visible;display:inline;overflow:visible;enable-background:accumulate"
       id="rect5505-21"
       y="5.4999948"
       x="4.5000124"
       ry="2"
       rx="2"
       height="39"
       width="39" />
    <rect
       style="fill:none;stroke:url(#linearGradient3108);stroke-width:1;stroke-linecap:round;stroke-linejoin:round;stroke-miterlimit:4;stroke-opacity:1;stroke-dasharray:none;stroke-dashoffset:0"
       id="rect6741"
       y="6.4999948"
       x="5.5000124"
       ry="1"
       rx="1"
       height="37"
       width="37" />
    <rect
       style="opacity:0.25;color:#000000;fill:none;stroke:#000000;stroke-width:0.99999982;stroke-linecap:butt;stroke-linejoin:miter;stroke-miterlimit:4;stroke-opacity:1;stroke-dasharray:none;stroke-dashoffset:0;marker:none;visibility:visible;display:inline;overflow:visible;enable-background:accumulate"
       id="rect5505-21-3-2"
       y="5.4999948"
       x="4.5000124"
       ry="2"
       rx="2"
       height="39"
       width="39" />
    <g
       id="g4798"
       transform="translate(-0.34129941,-0.06868702)">
      <path
         style="font-style:italic;font-variant:normal;font-weight:normal;font-stretch:normal;font-size:46.60050201px;line-height:125%;font-family:'Nimbus Roman No9 L';text-align:start;writing-mode:lr-tb;text-anchor:start;display:inline;fill:url(#linearGradient3091);fill-opacity:1;stroke:none"
         id="text2044"
         d="m 34.319734,35.287867 c -1.07366,0.0583 -2.28303,-0.38121 -2.33583,-1.62335 -0.65973,-3.5528 -1.19788,-7.12824 -1.80732,-10.6904 -0.50453,-3.03791 -1.00906,-6.075811 -1.51359,-9.113711 -0.42608,-0.0783 -0.74363,0.0344 -0.87766,0.47019 -3.515621,5.875031 -6.990501,11.774851 -10.53425,17.632781 -0.86237,1.22741 -1.63998,2.8239 -3.214271,3.22377 -0.58514,-0.203 -0.60012,0.77674 -0.34959,0.9009 2.130291,0 4.260571,0 6.390851,0 0.11732,-0.6446 -0.0585,-1.02488 -0.81134,-0.87343 -1.46202,0.23189 -1.3078,-1.48484 -0.75786,-2.33032 0.66608,-1.33465 1.44985,-2.6075 2.16814,-3.91473 2.440169,0 4.88033,0 7.32049,0 0.23815,1.60812 0.61432,3.20032 0.73205,4.82251 0.30277,1.32496 -1.18251,1.44721 -2.11138,1.47753 -0.27339,-0.0578 -0.36517,0.97623 0.0493,0.81844 2.55076,0 5.1015,0 7.65226,0 0,-0.26673 0,-0.53345 0,-0.80018 z m -12.943941,-7.91785 c 1.66375,-2.88383 3.32749,-5.76765 4.991241,-8.65148 0.48803,2.88383 0.97606,5.76765 1.4641,8.65148 -2.15178,0 -4.303561,0 -6.455341,0 z"
         inkscape:connector-curvature="0" />
      <path
         style="display:inline;opacity:0.98999999;fill:none;stroke:url(#linearGradient4519);stroke-width:0.5695979;stroke-linecap:butt;stroke-linejoin:round;stroke-miterlimit:4;stroke-opacity:1"
         id="path3430"
         d="m 14.161783,27.268927 22.298841,0"
         inkscape:connector-curvature="0" />
      <path
         style="display:inline;opacity:0.98999999;fill:none;stroke:url(#linearGradient4521);stroke-width:0.47968677;stroke-linecap:butt;stroke-linejoin:round;stroke-miterlimit:4;stroke-opacity:1"
         id="path3428"
         d="m 16.858024,31.971517 c 0,1.63342 -1.32567,2.95909 -2.959091,2.95909 -1.63342,0 -2.95909,-1.32567 -2.95909,-2.95909 0,-1.63341 1.32567,-2.95909 2.95909,-2.95909 1.633421,0 2.959091,1.32568 2.959091,2.95909 z"
         inkscape:connector-curvature="0" />
      <path
         style="display:inline;opacity:0.98999999;fill:none;stroke:url(#linearGradient4523);stroke-width:0.47968677;stroke-linecap:butt;stroke-linejoin:round;stroke-miterlimit:4;stroke-opacity:1"
         id="path3787"
         d="m 37.385974,32.287457 c 0,1.63342 -1.32567,2.95909 -2.95909,2.95909 -1.63342,0 -2.95909,-1.32567 -2.95909,-2.95909 0,-1.63342 1.32567,-2.95909 2.95909,-2.95909 1.63342,0 2.95909,1.32567 2.95909,2.95909 z"
         inkscape:connector-curvature="0" />
      <path
         style="display:inline;fill:none;stroke:url(#linearGradient4525);stroke-width:0.47968677;stroke-linecap:butt;stroke-linejoin:round;stroke-miterlimit:4;stroke-opacity:1"
         id="path4220"
         d="m 11.323713,36.060157 26.658911,0"
         inkscape:connector-curvature="0" />
    </g>
  </g>
</svg>
