<svg xmlns="http://www.w3.org/2000/svg" width="48" height="48">
<defs>
<defs
     id="defs3" />
  <g
     id="layer1">
    <g
       transform="translate(-53.99282,-31.64138)"
       id="g4438" />
    <path
       d="M 20.5,3.3125 C 19.703454,3.3285898 19.014671,3.7414261 18.59375,4.25 C 18.172829,4.7585739 17.939506,5.3439734 17.9375,5.96875 L 17.90625,7 L 14.34375,7 C 11.946296,7 10,8.9462958 10,11.34375 L 10,41.40625 C 10,43.780141 11.914518,45.74379 14.28125,45.78125 C 14.304719,45.781621 14.320171,45.78125 14.34375,45.78125 L 33.5625,45.78125 C 35.959955,45.78125 37.9375,43.803704 37.9375,41.40625 L 37.9375,11.34375 C 37.9375,8.9462958 35.959954,7 33.5625,7 L 30.15625,7 L 30.15625,5.875 L 30.15625,5.84375 C 30.116993,4.5077703 29.061219,3.3327522 27.65625,3.34375 L 20.5,3.3125 z"
       id="path-main"
        />
  </g>
  <g
     id="layer2" />
</defs>
<acyl-settings>
<linearGradient
     id="linearGradient4321">
    <stop
       style="stop-color:#89F6FB;stop-opacity:1.0;"
       offset="0.5"
       id="stop1" />
    <stop
       style="stop-color:#10A1AA;stop-opacity:1.0;"
       offset="1.0"
       id="stop2" />
  </linearGradient>
<radialGradient
       inkscape:collect="always"
       xlink:href="#linearGradient4321"
       id="acyl_gradient"
       cx="50.0%"
       cy="50.0%"
       fx="50.0%"
       fy="50.0%"
       r="50.0%"
/>
<filter id="filter1111" x="-50%" y="-50%" width="200%" height="200%">
	<feImage
	id="feImage2"
	xlink:href="#1"
	result="result1" />
	<feComposite
	id="feComposite3633"
	in="result1"
	in2="SourceGraphic"
	operator="xor" />
</filter>
	<rect
	style="fill:#1A4B4F;fill-opacity:1.0;filter:url(#filter1111)"
	id="rect2835"
	width="48"
	height="48"
	x="0"
	y="0"
	rx="3.5"
	ry="3.5" />
	<rect
	style="fill:url(#acyl_gradient);filter:url(#filter1111)"
	id="rect2835"
	width="44"
	height="44"
	x="2"
	y="2"
	rx="3.5"
	ry="3.5" />
<defs>
<use id="1" transform="translate(22.5,22.5) scale(0.85) translate(-22.5,-22.5)" style="fill:#000000" xlink:href="#path-main" />
</defs>
	<use id="2" transform="translate(22.5,22.5) scale(0.85) translate(-22.5,-22.5)" style="fill:#1A4B4F;fill-opacity:1.0" xlink:href="#path-main" />
</acyl-settings>
</svg>
