<svg xmlns="http://www.w3.org/2000/svg" width="48" height="48">
<defs>
<defs
     id="defs5492" />
  <g
     id="layer1">
    <path
       d="M 10.875,2 C 9.8236778,2 8.9999997,2.9065588 9,3.96875 L 9,38.96875 C 9.0374485,40.327489 10.02636,40.598685 11.001937,41 C 10.991972,41.044115 11.001937,41.075984 11.001937,41.125 L 11,43.9375 C 11,44.185999 11.142479,44.401928 11.28125,44.53125 C 11.420021,44.660572 11.580439,44.745887 11.75,44.8125 C 12.089122,44.945726 12.489073,45.000001 12.9375,45 L 35.0625,45 C 35.510927,45 35.910879,44.945726 36.25,44.8125 C 36.419561,44.745887 36.579979,44.660572 36.71875,44.53125 C 36.857521,44.401928 37.000002,44.186 37,43.9375 L 36.988281,40.875 C 37.953016,40.779477 39.000001,39.970142 39,38.96875 L 39,3.96875 C 39,2.9065582 38.176321,2 37.125,2 L 10.875,2 z M 13.9375,6 L 34.0625,6 C 34.581816,6 35,6.4181842 35,6.9375 L 35,32.0625 C 35.000001,32.581817 34.581816,33 34.0625,33 L 13.9375,33 C 13.418184,32.999999 13,32.581815 13,32.0625 L 13,6.9375 C 13,6.4181844 13.418185,6 13.9375,6 z M 14.5,36 C 15.333467,36 16,36.666534 16,37.5 C 16,38.333467 15.333467,39 14.5,39 C 13.666535,39.000002 13,38.333466 13,37.5 C 13,36.666534 13.666533,36 14.5,36 z M 20.5,36 C 21.333464,35.999998 22,36.666535 22,37.5 C 22,38.333466 21.333467,39 20.5,39 C 19.666532,39 19,38.333466 19,37.5 C 19,36.666533 19.666533,36 20.5,36 z M 27.5,36 C 28.333467,36 29,36.666534 29,37.5 C 29,38.333467 28.333467,39 27.5,39 C 26.666533,39.000002 26,38.333466 26,37.5 C 26,36.666534 26.666533,36 27.5,36 z M 33.5,36 C 34.333468,36 35,36.666534 35,37.5 C 35,38.333467 34.333467,39 33.5,39 C 32.666536,39.000002 32,38.333465 32,37.5 C 32,36.666534 32.666533,36 33.5,36 z"
       id="path-main"
        />
  </g>
</defs>
<acyl-settings>
<linearGradient
     id="linearGradient4321">
    <stop
       style="stop-color:#89F6FB;stop-opacity:1.0;"
       offset="0.5"
       id="stop1" />
    <stop
       style="stop-color:#10A1AA;stop-opacity:1.0;"
       offset="1.0"
       id="stop2" />
  </linearGradient>
<radialGradient
       inkscape:collect="always"
       xlink:href="#linearGradient4321"
       id="acyl_gradient"
       cx="50.0%"
       cy="50.0%"
       fx="50.0%"
       fy="50.0%"
       r="50.0%"
/>
<filter id="filter1111" x="-50%" y="-50%" width="200%" height="200%">
	<feImage
	id="feImage2"
	xlink:href="#1"
	result="result1" />
	<feComposite
	id="feComposite3633"
	in="result1"
	in2="SourceGraphic"
	operator="xor" />
</filter>
	<rect
	style="fill:#1A4B4F;fill-opacity:1.0;filter:url(#filter1111)"
	id="rect2835"
	width="48"
	height="48"
	x="0"
	y="0"
	rx="3.5"
	ry="3.5" />
	<rect
	style="fill:url(#acyl_gradient);filter:url(#filter1111)"
	id="rect2835"
	width="44"
	height="44"
	x="2"
	y="2"
	rx="3.5"
	ry="3.5" />
<defs>
<use id="1" transform="translate(22.5,22.5) scale(0.85) translate(-22.5,-22.5)" style="fill:#000000" xlink:href="#path-main" />
</defs>
	<use id="2" transform="translate(22.5,22.5) scale(0.85) translate(-22.5,-22.5)" style="fill:#1A4B4F;fill-opacity:1.0" xlink:href="#path-main" />
</acyl-settings>
</svg>
