<?xml version="1.0" encoding="UTF-8" standalone="no"?>
<svg
   xmlns:dc="http://purl.org/dc/elements/1.1/"
   xmlns:cc="http://creativecommons.org/ns#"
   xmlns:rdf="http://www.w3.org/1999/02/22-rdf-syntax-ns#"
   xmlns:svg="http://www.w3.org/2000/svg"
   xmlns="http://www.w3.org/2000/svg"
   xmlns:sodipodi="http://sodipodi.sourceforge.net/DTD/sodipodi-0.dtd"
   xmlns:inkscape="http://www.inkscape.org/namespaces/inkscape"
   contentScriptType="text/ecmascript"
   contentStyleType="text/css"
   height="36"
   preserveAspectRatio="xMidYMid meet"
   version="1.1"
   viewBox="0 0 36 36"
   width="36"
   x="0px"
   y="0px"
   zoomAndPan="magnify"
   id="svg2"
   inkscape:version="0.91 r13725"
   sodipodi:docname="folder-music-symbolic.svg">
  <metadata
     id="metadata65">
    <rdf:RDF>
      <cc:Work
         rdf:about="">
        <dc:format>image/svg+xml</dc:format>
        <dc:type
           rdf:resource="http://purl.org/dc/dcmitype/StillImage" />
        <dc:title />
      </cc:Work>
    </rdf:RDF>
  </metadata>
  <sodipodi:namedview
     pagecolor="#ffffff"
     bordercolor="#666666"
     borderopacity="1"
     objecttolerance="10"
     gridtolerance="10"
     guidetolerance="10"
     inkscape:pageopacity="0"
     inkscape:pageshadow="2"
     inkscape:window-width="995"
     inkscape:window-height="615"
     id="namedview63"
     showgrid="false"
     inkscape:zoom="3.3714286"
     inkscape:cx="-1.4830509"
     inkscape:cy="35"
     inkscape:window-x="0"
     inkscape:window-y="27"
     inkscape:window-maximized="0"
     inkscape:current-layer="svg2" />
  <defs
     id="defs4">
    <linearGradient
       gradientUnits="userSpaceOnUse"
       id="SVGID_1_"
       x1="35.002399"
       x2="35.002399"
       y1="59.369099"
       y2="10.6309">
      <stop
         offset="0"
         stop-color="#d0cbc5"
         id="stop7" />
      <stop
         offset="0.5031"
         stop-color="#fafcef"
         id="stop9" />
      <stop
         offset="0.9693"
         stop-color="#ffffff"
         id="stop11" />
      <stop
         offset="1"
         stop-color="#ffffff"
         id="stop13" />
    </linearGradient>
    <linearGradient
       gradientTransform="translate(-87.346899,956.3622)"
       gradientUnits="userSpaceOnUse"
       id="linearGradient5745"
       x1="123.69748"
       x2="123.69748"
       y1="70.184875"
       y2="18.014034">
      <stop
         offset="0"
         stop-color="#ffc5e5"
         stop-opacity="1"
         id="stop16" />
      <stop
         offset="1"
         stop-color="#ffeff6"
         stop-opacity="1"
         id="stop18" />
    </linearGradient>
    <linearGradient
       id="linearGradient20">
      <stop
         offset="0"
         stop-color="#ffc5e5"
         stop-opacity="1"
         id="stop22" />
      <stop
         offset="1"
         stop-color="#ffeff6"
         stop-opacity="1"
         id="stop24" />
    </linearGradient>
    <linearGradient
       gradientTransform="matrix(0.87982185,0,0,0.87982185,-36.86223,-7.3543106)"
       gradientUnits="userSpaceOnUse"
       id="linearGradient26"
       x1="123.69748"
       x2="123.69748"
       y1="73.522758"
       y2="18.014034">
      <stop
         offset="0"
         stop-color="#d0cbc5"
         id="stop28" />
      <stop
         offset="0.5031"
         stop-color="#fafcef"
         id="stop30" />
      <stop
         offset="0.9693"
         stop-color="#ffffff"
         id="stop32" />
      <stop
         offset="1"
         stop-color="#ffffff"
         id="stop34" />
    </linearGradient>
    <linearGradient
       gradientTransform="matrix(0.87982185,0,0,0.87982185,-36.86223,-7.3543106)"
       gradientUnits="userSpaceOnUse"
       id="linearGradient36"
       x1="123.69748"
       x2="123.69748"
       y1="73.522758"
       y2="18.014034">
      <stop
         offset="0"
         stop-color="#d0cbc5"
         id="stop38" />
      <stop
         offset="0.5031"
         stop-color="#fafcef"
         id="stop40" />
      <stop
         offset="0.9693"
         stop-color="#ffffff"
         id="stop42" />
      <stop
         offset="1"
         stop-color="#ffffff"
         id="stop44" />
    </linearGradient>
    <linearGradient
       gradientTransform="matrix(0.87982185,0,0,0.87982185,-84.784249,-7.3543106)"
       gradientUnits="userSpaceOnUse"
       id="linearGradient3074"
       x1="123.69748"
       x2="123.69748"
       y1="73.522758"
       y2="18.014034">
      <stop
         offset="0"
         stop-color="#d0cbc5"
         id="stop47" />
      <stop
         offset="0.5031"
         stop-color="#fafcef"
         id="stop49" />
      <stop
         offset="0.9693"
         stop-color="#ffffff"
         id="stop51" />
      <stop
         offset="1"
         stop-color="#ffffff"
         id="stop53" />
    </linearGradient>
  </defs>
  <path
     d="m 18.007554,1 0,15.315332 c -1.332665,-0.674271 -2.827786,-1.052958 -4.422294,-1.052958 -5.4455931,0 -9.8592251,4.432801 -9.8592251,9.878371 0,5.445569 4.413632,9.859255 9.8592251,9.859255 5.413593,0 9.807763,-4.362103 9.859225,-9.763504 3.01e-4,-0.03185 0,-0.06377 0,-0.09575 l 0,-13.477465 4.154275,2.354729 c 1.717624,1.234094 2.678344,5.209072 0.784908,8.423447 5.863125,-6.95036 3.997154,-12.552324 1.531525,-14.37727 L 18.007554,1 Z M 13.58526,21.120476 c 2.215763,0 4.001124,1.804509 4.001124,4.020266 0,2.215758 -1.785361,4.001153 -4.001124,4.001153 -2.215763,0 -4.0202661,-1.785395 -4.0202661,-4.001153 0,-2.215757 1.8045031,-4.020266 4.0202661,-4.020266 z"
     id="path59"
     style="opacity:1;fill:#808080;fill-opacity:1;stroke:none"
     inkscape:connector-curvature="0" />
</svg>
