#define max_width 11
#define max_height 11
static unsigned char max_bits[] = {
   0x00, 0x00, 0x00, 0x00, 0x70, 0x00, 0xf8, 0x00, 0xfc, 0x01, 0xfc, 0x01,
   0xfc, 0x01, 0xf8, 0x00, 0x70, 0x00, 0x00, 0x00, 0x00, 0x00 };
