<?xml version="1.0" encoding="UTF-8" standalone="no"?>
<svg
   xmlns:dc="http://purl.org/dc/elements/1.1/"
   xmlns:cc="http://creativecommons.org/ns#"
   xmlns:rdf="http://www.w3.org/1999/02/22-rdf-syntax-ns#"
   xmlns:svg="http://www.w3.org/2000/svg"
   xmlns="http://www.w3.org/2000/svg"
   xmlns:xlink="http://www.w3.org/1999/xlink"
   xmlns:sodipodi="http://sodipodi.sourceforge.net/DTD/sodipodi-0.dtd"
   xmlns:inkscape="http://www.inkscape.org/namespaces/inkscape"
   version="1.1"
   width="32"
   height="32"
   id="svg3828"
   inkscape:version="0.91 r13725"
   sodipodi:docname="x-office-presentation.svg">
  <sodipodi:namedview
     pagecolor="#ffffff"
     bordercolor="#666666"
     borderopacity="1"
     objecttolerance="10"
     gridtolerance="10"
     guidetolerance="10"
     inkscape:pageopacity="0"
     inkscape:pageshadow="2"
     inkscape:window-width="640"
     inkscape:window-height="480"
     id="namedview1075" />
  <defs
     id="defs3830">
    <linearGradient
       id="linearGradient3028">
      <stop
         id="stop3030"
         style="stop-color:#ffffff;stop-opacity:1"
         offset="0" />
      <stop
         id="stop3032"
         style="stop-color:#ffffff;stop-opacity:0.23529412"
         offset="0.01124695" />
      <stop
         id="stop3034"
         style="stop-color:#ffffff;stop-opacity:0.15686275"
         offset="0.97092199" />
      <stop
         id="stop3036"
         style="stop-color:#ffffff;stop-opacity:0.39215687"
         offset="1" />
    </linearGradient>
    <linearGradient
       id="linearGradient3600-4">
      <stop
         id="stop3602-7"
         style="stop-color:#f4f4f4;stop-opacity:1"
         offset="0" />
      <stop
         id="stop3604-6"
         style="stop-color:#dbdbdb;stop-opacity:1"
         offset="1" />
    </linearGradient>
    <linearGradient
       id="linearGradient5060">
      <stop
         id="stop5062"
         style="stop-color:#000000;stop-opacity:1"
         offset="0" />
      <stop
         id="stop5064"
         style="stop-color:#000000;stop-opacity:0"
         offset="1" />
    </linearGradient>
    <linearGradient
       id="linearGradient5048">
      <stop
         id="stop5050"
         style="stop-color:#000000;stop-opacity:0"
         offset="0" />
      <stop
         id="stop5056"
         style="stop-color:#000000;stop-opacity:1"
         offset="0.5" />
      <stop
         id="stop5052"
         style="stop-color:#000000;stop-opacity:0"
         offset="1" />
    </linearGradient>
    <linearGradient
       x1="23.99999"
       y1="6.7927485"
       x2="23.99999"
       y2="41.44783"
       id="linearGradient3012"
       xlink:href="#linearGradient3028"
       gradientUnits="userSpaceOnUse"
       gradientTransform="matrix(0.72972916,0,0,0.56756756,-1.5145621,3.3783836)" />
    <linearGradient
       x1="25.132275"
       y1="0.98520643"
       x2="25.132275"
       y2="47.013336"
       id="linearGradient3015"
       xlink:href="#linearGradient3600-4"
       gradientUnits="userSpaceOnUse"
       gradientTransform="matrix(0.79999811,0,0,0.47802334,-3.1999562,4.794095)" />
    <radialGradient
       cx="605.71429"
       cy="486.64789"
       r="117.14286"
       fx="605.71429"
       fy="486.64789"
       id="radialGradient3020"
       xlink:href="#linearGradient5060"
       gradientUnits="userSpaceOnUse"
       gradientTransform="matrix(0.01927775,0,0,0.0082353,17.982069,24.980564)" />
    <radialGradient
       cx="605.71429"
       cy="486.64789"
       r="117.14286"
       fx="605.71429"
       fy="486.64789"
       id="radialGradient3023"
       xlink:href="#linearGradient5060"
       gradientUnits="userSpaceOnUse"
       gradientTransform="matrix(-0.01927775,0,0,0.0082353,14.01793,24.980564)" />
    <linearGradient
       x1="302.85715"
       y1="366.64789"
       x2="302.85715"
       y2="609.50507"
       id="linearGradient3026"
       xlink:href="#linearGradient5048"
       gradientUnits="userSpaceOnUse"
       gradientTransform="matrix(0.05633135,0,0,0.0082353,-4.3597632,24.980547)" />
    <linearGradient
       x1="9.6095304"
       y1="6.3948526"
       x2="9.6095304"
       y2="41.481415"
       id="linearGradient3076"
       xlink:href="#linearGradient3977-6"
       gradientUnits="userSpaceOnUse"
       gradientTransform="matrix(0.66891892,0,0,0.56756756,-1.17905,3.378385)" />
    <linearGradient
       id="linearGradient3977-6">
      <stop
         id="stop3979-9"
         style="stop-color:#ffffff;stop-opacity:1"
         offset="0" />
      <stop
         id="stop3981-3"
         style="stop-color:#ffffff;stop-opacity:0.23529412"
         offset="0.0066674" />
      <stop
         id="stop3983-7"
         style="stop-color:#ffffff;stop-opacity:0.15686275"
         offset="0.99594194" />
      <stop
         id="stop3985-4"
         style="stop-color:#ffffff;stop-opacity:0.39215687"
         offset="1" />
    </linearGradient>
    <linearGradient
       id="linearGradient3104-5-66">
      <stop
         id="stop3106-9"
         style="stop-color:#aaaaaa;stop-opacity:1"
         offset="0" />
      <stop
         id="stop3108-9-8"
         style="stop-color:#c8c8c8;stop-opacity:1"
         offset="1" />
    </linearGradient>
    <clipPath
       id="clipPath3877">
      <path
         d="m 10.751345,-0.72641891 19.105374,0.0251951 0,10.48095741 -19.105374,-0.025202 z"
         id="path3879"
         style="color:#000000;fill:#ffffff;fill-opacity:1;fill-rule:nonzero;stroke:none;stroke-width:0.99992186;marker:none;visibility:visible;display:inline;overflow:visible;enable-background:accumulate" />
    </clipPath>
    <linearGradient
       id="linearGradient3211-8-8-9">
      <stop
         id="stop3213-0-0-3"
         style="stop-color:#ffffff;stop-opacity:1"
         offset="0" />
      <stop
         id="stop3215-1-8-9"
         style="stop-color:#ffffff;stop-opacity:0"
         offset="1" />
    </linearGradient>
    <linearGradient
       id="linearGradient3104-9-7-3-9-6">
      <stop
         id="stop3106-1-5-9-3-2"
         style="stop-color:#aaaaaa;stop-opacity:1"
         offset="0" />
      <stop
         id="stop3108-1-5-5-7-4"
         style="stop-color:#c8c8c8;stop-opacity:1"
         offset="1" />
    </linearGradient>
    <linearGradient
       id="linearGradient3600-3-2-2-6-8">
      <stop
         id="stop3602-1-25-9-9-7"
         style="stop-color:#f4f4f4;stop-opacity:1"
         offset="0" />
      <stop
         id="stop3604-4-2-0-2-0"
         style="stop-color:#dbdbdb;stop-opacity:1"
         offset="1" />
    </linearGradient>
    <linearGradient
       id="linearGradient3211-8-8-0-0-9">
      <stop
         id="stop3213-0-0-8-1-1"
         style="stop-color:#ffffff;stop-opacity:1"
         offset="0" />
      <stop
         id="stop3215-1-8-0-6-4"
         style="stop-color:#ffffff;stop-opacity:0"
         offset="1" />
    </linearGradient>
    <linearGradient
       id="linearGradient3104-9-7-3-9-2-6-2">
      <stop
         id="stop3106-1-5-9-3-1-7-1"
         style="stop-color:#aaaaaa;stop-opacity:1"
         offset="0" />
      <stop
         id="stop3108-1-5-5-7-2-4-5"
         style="stop-color:#c8c8c8;stop-opacity:1"
         offset="1" />
    </linearGradient>
    <linearGradient
       id="linearGradient3600-3-2-2-6-5-8-7">
      <stop
         id="stop3602-1-25-9-9-6-5-6"
         style="stop-color:#f4f4f4;stop-opacity:1"
         offset="0" />
      <stop
         id="stop3604-4-2-0-2-4-2-1"
         style="stop-color:#dbdbdb;stop-opacity:1"
         offset="1" />
    </linearGradient>
    <linearGradient
       x1="22.004084"
       y1="63.217903"
       x2="22.004084"
       y2="25.646791"
       id="linearGradient3514"
       xlink:href="#linearGradient3104-5-66"
       gradientUnits="userSpaceOnUse"
       gradientTransform="matrix(1.3394176,0,0,-1.9826305,-11.198083,94.86293)" />
    <linearGradient
       x1="25.132275"
       y1="15.284525"
       x2="25.132275"
       y2="37.546188"
       id="linearGradient3550"
       xlink:href="#linearGradient3600-3-2-2-6-8"
       gradientUnits="userSpaceOnUse"
       gradientTransform="matrix(1.081295,0,0,0.62485417,-6.1734925,-3.6471464)" />
    <linearGradient
       x1="-51.786404"
       y1="41.797989"
       x2="-51.786404"
       y2="17.555471"
       id="linearGradient3552"
       xlink:href="#linearGradient3104-9-7-3-9-6"
       gradientUnits="userSpaceOnUse"
       gradientTransform="matrix(0.87314224,0,0,0.58477041,58.066492,-4.3435334)" />
    <linearGradient
       x1="24"
       y1="14.203104"
       x2="24"
       y2="35.721317"
       id="linearGradient3554"
       xlink:href="#linearGradient3211-8-8-9"
       gradientUnits="userSpaceOnUse"
       gradientTransform="matrix(1.0820661,0,0,0.61449222,-5.6480107,-2.535845)" />
    <linearGradient
       x1="25.132275"
       y1="15.284525"
       x2="25.132275"
       y2="37.546188"
       id="linearGradient3556"
       xlink:href="#linearGradient3600-3-2-2-6-5-8-7"
       gradientUnits="userSpaceOnUse"
       gradientTransform="matrix(1,0,0,0.9561695,-0.49905668,-2.9300489)" />
    <linearGradient
       x1="-51.786404"
       y1="41.797989"
       x2="-51.786404"
       y2="17.555471"
       id="linearGradient3558"
       xlink:href="#linearGradient3104-9-7-3-9-2-6-2"
       gradientUnits="userSpaceOnUse"
       gradientTransform="matrix(0.8074968,0,0,0.8948322,58.911175,-3.9956799)" />
    <linearGradient
       x1="24"
       y1="14.203104"
       x2="24"
       y2="35.721317"
       id="linearGradient3560"
       xlink:href="#linearGradient3211-8-8-0-0-9"
       gradientUnits="userSpaceOnUse"
       gradientTransform="matrix(1.0351164,0,0,0.9866216,-0.70291674,-2.1699512)" />
    <linearGradient
       id="linearGradient3104-6-6-1">
      <stop
         id="stop3106-3-2"
         style="stop-color:#000000;stop-opacity:0.31782946"
         offset="0" />
      <stop
         id="stop3108-9-8-3"
         style="stop-color:#000000;stop-opacity:0.24031007"
         offset="1" />
    </linearGradient>
    <linearGradient
       xlink:href="#linearGradient3104-6-6-1"
       id="linearGradient3976"
       gradientUnits="userSpaceOnUse"
       gradientTransform="matrix(0.74052449,0,0,0.46769471,46.924817,3.6822435)"
       x1="-51.786404"
       y1="50.786446"
       x2="-51.786404"
       y2="2.9062471" />
    <radialGradient
       xlink:href="#linearGradient2867-449-88-871-390-598-476-591-434-148-57-177-8-3-3-6-4-8-8-8-2-8-4"
       id="radialGradient3995-5"
       gradientUnits="userSpaceOnUse"
       gradientTransform="matrix(0,5.9871994,-7.3503682,0,88.479826,-49.833181)"
       cx="6.7304144"
       cy="9.9571075"
       fx="6.2001843"
       fy="9.9571075"
       r="12.671875" />
    <linearGradient
       id="linearGradient2867-449-88-871-390-598-476-591-434-148-57-177-8-3-3-6-4-8-8-8-2-8-4">
      <stop
         id="stop3750-1-0-7-6-6-1-3-9-9-0-3"
         style="stop-color:#ffcd7d;stop-opacity:1"
         offset="0" />
      <stop
         id="stop3752-3-7-4-0-32-8-923-0-7-8-7"
         style="stop-color:#fc8f36;stop-opacity:1"
         offset="0.26238" />
      <stop
         id="stop3754-1-8-5-2-7-6-7-1-8-0-6"
         style="stop-color:#e23a0e;stop-opacity:1"
         offset="0.704952" />
      <stop
         id="stop3756-1-6-2-6-6-1-96-6-1-1-0"
         style="stop-color:#ac441f;stop-opacity:1"
         offset="1" />
    </linearGradient>
  </defs>
  <metadata
     id="metadata3833">
    <rdf:RDF>
      <cc:Work
         rdf:about="">
        <dc:format>image/svg+xml</dc:format>
        <dc:type
           rdf:resource="http://purl.org/dc/dcmitype/StillImage" />
        <dc:title />
      </cc:Work>
    </rdf:RDF>
  </metadata>
  <rect
     width="27.199997"
     height="2"
     x="2.4000013"
     y="28"
     id="rect2879"
     style="opacity:0.15;fill:url(#linearGradient3026);fill-opacity:1;fill-rule:nonzero;stroke:none;stroke-width:1;marker:none;visibility:visible;display:inline;overflow:visible" />
  <path
     d="m 2.3999999,28.000085 c 0,0 0,1.999891 0,1.999891 C 1.4072441,30.003776 0,29.551901 0,28.999901 0,28.447902 1.10784,28.000085 2.3999999,28.000085 z"
     id="path2881"
     style="opacity:0.15;fill:url(#radialGradient3023);fill-opacity:1;fill-rule:nonzero;stroke:none;stroke-width:1;marker:none;visibility:visible;display:inline;overflow:visible" />
  <path
     d="m 29.6,28.000085 c 0,0 0,1.999891 0,1.999891 0.992755,0.0038 2.4,-0.448075 2.4,-1.000075 0,-0.551999 -1.107843,-0.999816 -2.4,-0.999816 z"
     id="path2883"
     style="opacity:0.15;fill:url(#radialGradient3020);fill-opacity:1;fill-rule:nonzero;stroke:none;stroke-width:1;marker:none;visibility:visible;display:inline;overflow:visible" />
  <g
     transform="matrix(1.6122259,0,0,1.1260917,-16.324081,-7.0128768)"
     clip-path="url(#clipPath3877)"
     id="g6242-7-5"
     style="opacity:0.5;display:inline">
    <path
       d="m 13.531084,7.5891404 13.036532,0 0,24.9012876 -13.036532,0 z"
       id="rect4964-4-4"
       style="color:#000000;fill:url(#linearGradient3556);fill-opacity:1;fill-rule:nonzero;stroke:url(#linearGradient3558);stroke-width:0.74210644;stroke-linecap:butt;stroke-linejoin:round;stroke-miterlimit:4;stroke-opacity:1;stroke-dashoffset:0;marker:none;visibility:visible;display:inline;overflow:visible;enable-background:accumulate" />
    <path
       d="m 14.310274,9.4115011 11.412939,0 0,22.1935199 -11.412939,0 z"
       id="rect4964-1-6-5"
       style="opacity:0.6;color:#000000;fill:none;stroke:url(#linearGradient3560);stroke-width:0.74210638;stroke-linecap:butt;stroke-linejoin:round;stroke-miterlimit:4;stroke-opacity:1;stroke-dashoffset:0;marker:none;visibility:visible;display:inline;overflow:visible;enable-background:accumulate" />
  </g>
  <g
     transform="translate(0,1)"
     id="g3546">
    <path
       d="m 3.499961,2.499961 25.000078,0.037621 0,16.962457 -24.8586005,0 z"
       id="rect4964-4"
       style="opacity:0.75;color:#000000;fill:url(#linearGradient3550);fill-opacity:1;fill-rule:nonzero;stroke:url(#linearGradient3552);stroke-width:0.9999218;stroke-linecap:butt;stroke-linejoin:round;stroke-miterlimit:4;stroke-opacity:1;stroke-dashoffset:0;marker:none;visibility:visible;display:inline;overflow:visible;enable-background:accumulate" />
    <path
       d="m 4.4999609,3.4999609 23.0000781,0.016517 -0.112984,14.9835611 -22.7005349,0 z"
       id="rect4964-1-6"
       style="opacity:0.45;color:#000000;fill:none;stroke:url(#linearGradient3554);stroke-width:0.9999218;stroke-linecap:butt;stroke-linejoin:round;stroke-miterlimit:4;stroke-opacity:1;stroke-dashoffset:0;marker:none;visibility:visible;display:inline;overflow:visible;enable-background:accumulate" />
  </g>
  <path
     d="m 2.0000002,6 c 6.4162206,0 27.9999648,0.00143 27.9999648,0.00143 L 30,28 C 30,28 11.333334,28 2,28 2,20.666674 2,13.33335 2,6.0000237 z"
     id="path4160-3"
     style="fill:url(#linearGradient3015);fill-opacity:1;stroke:none;display:inline" />
  <path
     d="m 29.5,27.5 -26.9999998,0 0,-21 L 29.5,6.5 z"
     id="rect6741-1"
     style="fill:none;stroke:url(#linearGradient3012);stroke-width:0.99999994000000003;stroke-linecap:round;stroke-linejoin:miter;stroke-miterlimit:4;stroke-opacity:1;stroke-dasharray:none;stroke-dashoffset:0" />
  <path
     d="m 6,28.5 c -1.4379221,0 -2.8758452,0 -4.3137745,0 -0.3495006,-0.272334 -0.083736,-0.813022 -0.166777,-1.198561 0,-7.223095 0,-14.446189 0,-21.669283 l 0.048743,-0.093529 0.1180346,-0.038626 0,0 c 1.4965868,0 4.3137739,0 4.3137739,0"
     id="path4530"
     style="color:#000000;fill:url(#radialGradient3995-5);fill-opacity:1;fill-rule:nonzero;stroke:none;stroke-width:0.99999994;marker:none;visibility:visible;display:inline;overflow:visible;enable-background:accumulate" />
  <path
     d="m 5.5,27.5 -3,0 0,-21 3,0"
     id="rect6741-1-5"
     style="opacity:0.50000000000000000;fill:none;stroke:url(#linearGradient3076);stroke-width:1;stroke-linecap:square;stroke-linejoin:miter;stroke-miterlimit:4;stroke-opacity:1;stroke-dasharray:none;stroke-dashoffset:0" />
  <path
     d="m 11,8.5 4,0"
     id="path4159"
     style="fill:none;stroke:#aaaaaa;stroke-width:1px;stroke-linecap:butt;stroke-linejoin:miter;stroke-opacity:1" />
  <path
     d="m 16,8.5 2,0"
     id="path4161"
     style="fill:none;stroke:#aaaaaa;stroke-width:1px;stroke-linecap:butt;stroke-linejoin:miter;stroke-opacity:1" />
  <path
     d="m 19,8.5 1,0"
     id="path4163"
     style="fill:none;stroke:#aaaaaa;stroke-width:1px;stroke-linecap:butt;stroke-linejoin:miter;stroke-opacity:1" />
  <path
     d="m 21,8.5 2,0"
     id="path4165"
     style="fill:none;stroke:#aaaaaa;stroke-width:1px;stroke-linecap:butt;stroke-linejoin:miter;stroke-opacity:1" />
  <path
     d="m 7.15625,25 0,-1 2.21875,0 0,1 z m 2.65625,0 0,-1 6.34375,0 0,1 z m -2.65625,-4 0,-1 2.96875,0 0,1 z m 3.71875,0 0,-1 2.34375,0 0,1 z m 2.9375,0 0,-1 1.1875,0 0,1 z m -6.65625,-4 0,-1 3.28125,0 0,1 z m 3.875,0 0,-1 1.65625,0 0,1 z m 2.21875,0 0,-1 1.75,0 0,1 z m -6.09375,-4 0,-1 3.28125,0 0,1 z m 3.90625,0 0,-1 2.34375,0 0,1 z"
     id="path3475-4"
     style="font-size:medium;font-style:normal;font-variant:normal;font-weight:normal;font-stretch:normal;text-indent:0;text-align:start;text-decoration:none;line-height:normal;letter-spacing:normal;word-spacing:normal;text-transform:none;direction:ltr;block-progression:tb;writing-mode:lr-tb;text-anchor:start;baseline-shift:baseline;color:#000000;fill:url(#linearGradient3514);fill-opacity:1;stroke:none;stroke-width:0.99999994px;marker:none;visibility:visible;display:inline;overflow:visible;enable-background:accumulate;font-family:Sans;-inkscape-font-specification:Sans" />
  <path
     style="opacity:0.4;color:#000000;fill:#ffffff;fill-opacity:1;fill-rule:nonzero;stroke:none;stroke-width:0.54960775;marker:none;visibility:visible;display:inline;overflow:visible;enable-background:accumulate"
     id="path3035-5"
     d="m 29,18.999999 a 6,6 0 1 1 -3.173929,-5.29276 L 23,18.999999 z" />
  <path
     style="opacity:0.15;color:#000000;fill:#000000;fill-opacity:1;fill-rule:nonzero;stroke:none;stroke-width:0.99992186;marker:none;visibility:visible;display:inline;overflow:visible;enable-background:accumulate"
     id="path3035"
     d="M 29,18.050444 A 6,6 0 1 1 25.826071,12.757683 L 23,18.050444 z" />
  <path
     d="m 29,18.050444 c 0,2.601413 -1.892038,5.088408 -4.398956,5.78238 C 24.542464,23.822664 23,18.050444 23,18.050444 z"
     id="path3962"
     style="opacity:0.15;color:#000000;fill:#000000;fill-opacity:1;fill-rule:nonzero;stroke:none;stroke-width:0.99992186;marker:none;visibility:visible;display:inline;overflow:visible;enable-background:accumulate" />
  <path
     d="m 29,18.050444 c 0,2.601413 -1.892038,5.088408 -4.398956,5.78238 C 22.094125,24.526796 19.192988,23.366677 17.855125,21.13569 17.844525,21.14529 23,18.050444 23,18.050444 z"
     id="path3964"
     style="opacity:0.15;color:#000000;fill:#000000;fill-opacity:1;fill-rule:nonzero;stroke:none;stroke-width:0.99992186;marker:none;visibility:visible;display:inline;overflow:visible;enable-background:accumulate" />
  <path
     style="fill:none;stroke:url(#linearGradient3976);stroke-width:0.9999218;stroke-linecap:butt;stroke-linejoin:round;stroke-miterlimit:4;stroke-opacity:1;stroke-dasharray:none;stroke-dashoffset:0;display:inline"
     d="m 6,28.500039 24.50004,0 0,-23.0000784 -24.50004,0"
     id="path4160-6-1" />
  <path
     d="m 6,28.5 c -1.4379221,0 -2.8758452,0 -4.3137745,0 -0.3495006,-0.272334 -0.083736,-0.813022 -0.166777,-1.198561 0,-7.223095 0,-14.446189 0,-21.669283 l 0.048743,-0.093529 0.1180346,-0.038626 0,0 c 1.4965868,0 4.3137739,0 4.3137739,0"
     id="path4530-2"
     style="opacity:0.4;color:#000000;fill:none;stroke:#640000;stroke-width:1;stroke-linecap:butt;stroke-linejoin:round;stroke-miterlimit:4;stroke-opacity:1;stroke-dasharray:none;stroke-dashoffset:0;marker:none;visibility:visible;display:inline;overflow:visible;enable-background:accumulate" />
</svg>
