<svg xmlns="http://www.w3.org/2000/svg" width="48" height="48">
<defs>
<defs
     id="defs4291">
  </defs>
  <path
     d="M 30.90625 2 C 29.510633 2.00466 28.423528 2.00639 28 2.03125 C 26.305889 2.13069 25.459867 3.1890648 25.125 4.75 C 25.08256 5.535203 25.125 18.5 25.125 18.5 C 25.124999 20.098342 26.401659 21.40625 28 21.40625 L 43.09375 21.40625 C 44.69209 21.40625 45.968749 20.098342 45.96875 18.5 C 45.968751 16.901658 46.163141 4.9594082 45.75 3.875 C 45.336859 2.790591 44.330188 2.03125 43.09375 2.03125 C 42.166421 2.03125 35.093101 1.986016 30.90625 2 z M 21.96875 3.46875 C 21.235816 3.5076755 20.529511 3.8173407 20 4.40625 C 18.940978 5.5840687 19.040931 7.409728 20.21875 8.46875 C 21.396569 9.527772 23.190978 9.4278187 24.25 8.25 C 25.309022 7.0721813 25.209069 5.246522 24.03125 4.1875 C 23.442341 3.657989 22.701684 3.4298245 21.96875 3.46875 z M 29.03125 4.28125 L 42.03125 4.28125 C 42.959317 4.28125 43.71875 5.009431 43.71875 5.9375 L 43.71875 17.5 C 43.71875 18.428066 42.959319 19.15625 42.03125 19.15625 L 29.03125 19.15625 C 28.10318 19.156248 27.34375 18.428069 27.34375 17.5 L 27.34375 5.9375 C 27.34375 5.009431 28.103181 4.28125 29.03125 4.28125 z M 29.59375 6.5 L 29.59375 16.9375 L 41.46875 16.9375 L 41.46875 6.5 L 29.59375 6.5 z M 12.78125 8.34375 C 12.261448 8.3713562 11.750532 8.582342 11.375 9 C 10.623935 9.8353161 10.695934 11.123935 11.53125 11.875 C 12.366566 12.626065 13.655185 12.554066 14.40625 11.71875 C 15.157315 10.883434 15.085316 9.5948148 14.25 8.84375 C 13.832342 8.4682176 13.301052 8.3161438 12.78125 8.34375 z M 7.09375 17.1875 C 6.8179933 17.224104 6.5361629 17.332647 6.3125 17.53125 C 5.7160655 18.060858 5.6578918 18.966066 6.1875 19.5625 C 6.7171082 20.158934 7.6223155 20.217108 8.21875 19.6875 C 8.8151845 19.157892 8.8733582 18.252684 8.34375 17.65625 C 8.0127449 17.283478 7.5533445 17.126493 7.09375 17.1875 z M 7.78125 26.59375 C 6.385633 26.59845 5.329778 26.60015 4.90625 26.625 C 3.2121387 26.72444 2.334867 27.782815 2 29.34375 C 1.9792414 29.727779 1.9950444 33.074585 2 36.34375 C 2.0001106 36.416722 1.9998842 36.427088 2 36.5 C 2.0053055 39.83935 2 43.09375 2 43.09375 C 1.9999989 44.692092 3.3079089 46 4.90625 46 L 19.96875 46 C 21.56709 46 22.843749 44.692092 22.84375 43.09375 C 22.843751 41.495408 23.069391 29.553158 22.65625 28.46875 C 22.243109 27.384341 21.205188 26.625 19.96875 26.625 C 19.041421 26.625 11.9681 26.57977 7.78125 26.59375 z M 5.90625 28.875 L 18.90625 28.875 C 19.834317 28.875 20.59375 29.603181 20.59375 30.53125 L 20.59375 42.09375 C 20.59375 43.021816 19.834319 43.75 18.90625 43.75 L 5.90625 43.75 C 4.97818 43.749998 4.21875 43.021819 4.21875 42.09375 L 4.21875 30.53125 C 4.21875 29.603181 4.978181 28.875 5.90625 28.875 z M 6.46875 31.09375 L 6.46875 41.53125 L 18.375 41.53125 L 18.375 31.09375 L 6.46875 31.09375 z "
     id="path-main" />
</defs>
<acyl-settings>
<linearGradient
     id="linearGradient4321">
    <stop
       style="stop-color:#89F6FB;stop-opacity:1.0;"
       offset="0.5"
       id="stop1" />
    <stop
       style="stop-color:#10A1AA;stop-opacity:1.0;"
       offset="1.0"
       id="stop2" />
  </linearGradient>
<radialGradient
       inkscape:collect="always"
       xlink:href="#linearGradient4321"
       id="acyl_gradient"
       cx="50.0%"
       cy="50.0%"
       fx="50.0%"
       fy="50.0%"
       r="50.0%"
/>
<filter id="filter1111" x="-50%" y="-50%" width="200%" height="200%">
	<feImage
	id="feImage2"
	xlink:href="#1"
	result="result1" />
	<feComposite
	id="feComposite3633"
	in="result1"
	in2="SourceGraphic"
	operator="xor" />
</filter>
	<rect
	style="fill:#1A4B4F;fill-opacity:1.0;filter:url(#filter1111)"
	id="rect2835"
	width="48"
	height="48"
	x="0"
	y="0"
	rx="3.5"
	ry="3.5" />
	<rect
	style="fill:url(#acyl_gradient);filter:url(#filter1111)"
	id="rect2835"
	width="44"
	height="44"
	x="2"
	y="2"
	rx="3.5"
	ry="3.5" />
<defs>
<use id="1" transform="translate(22.5,22.5) scale(0.85) translate(-22.5,-22.5)" style="fill:#000000" xlink:href="#path-main" />
</defs>
	<use id="2" transform="translate(22.5,22.5) scale(0.85) translate(-22.5,-22.5)" style="fill:#1A4B4F;fill-opacity:1.0" xlink:href="#path-main" />
</acyl-settings>
</svg>
